0.0759956461648932
0.0710298662424814
0.0800949177587995
0.071381745243033
0.0725772277613926
0.0750536485054737
0.0713162413162328
0.0796608943607326
0.0729845310470047
0.0758838031421779
0.0835290417367821
0.0674481021741708
0.0847905924609193
0.0646746501600955
0.0735829205372402
0.0760491709149448
0.0679783794778995
0.0847969342816567
0.0821878138307413
0.06756300266173
0.0751312274298905
0.0796364515807452
0.0740477665989566
0.0694075778370718
0.073719427214101
0.0736985967271197
0.0652268190609119
0.0754351300194331
0.0717293568402954
0.0713815412853218
0.0725145985405033
0.0777370732227322
0.0657627788233875
0.0760817174490428
0.0750033099270173
0.0656252967656261
0.0849935768635656
0.0645577410729981
0.0707978626285753
0.0731565871473378
0.0727763495446398
0.0773961681585221
0.0854875700008539
0.0760925088014869
0.0763694867920394
0.0781677977369824
0.0713562193487202
0.0713028771273222
0.0723193523709186
0.0716560982130281
0.0692566222062987
0.0730373453732894
0.0695670375868802
0.0808671241555439
0.0791728290295199
0.0785421878164639
0.0816490378783948
0.0770769214331763
0.0742610268184503
0.083649978389069
0.0792537035249583
0.0803228639730032
0.0891454995079179
0.0755907448016237
0.0746317008957622
0.06309483158372
0.0779956922232077
0.0682755598247849
0.0797525793660135
0.0737409553585904
0.0696100311441731
0.0817220378974964
0.0766036144349747
0.0732759371258303
0.0806277499794416
0.070851324889178
0.0640650456977558
0.0754661052177956
0.0791288016510877
0.0808466555460576
0.0763456303858228
0.0762673223088648
0.0747827591462637
0.0728756205761161
0.068928450938661
0.0755545043297631
0.074357812862763
0.0691631711896694
0.0663817983457909
0.0776077529349016
0.0783041678609038
0.0684259765106087
0.0656547208036408
0.0767882038272384
0.0840965860510308
0.0835653900673328
0.0759399553646199
0.0868431292113753
0.0722434429387931
0.0670549590440996
0.0756170028394422
0.0772750567164024
0.0786992257672827
0.0761580623074151
0.0657152946946123
0.07136663191283
0.0776777495076415
0.0816038034129131
0.0742160679867315
0.0705134435773306
0.072701355550189
0.0763203750595081
0.0889639580325406
0.0793358622648942
0.0781731726268683
0.0713188160647764
0.0638146845667813
0.0715655617489079
0.0741191171762065
0.0749110198952865
0.0732694981171021
0.0818633637075821
0.0794405069143546
0.0748562844203254
0.0813024502908877
0.0763151779768048
0.0726721826821489
0.0751160606407285
0.0747195784599361
0.0759360558291649
0.0764966015279427
0.066098227835855
0.0625541103415326
0.0659174467312711
0.0725730094522327
0.0756175744060202
0.085283264828849
0.0810289834680709
0.0769482320344134
0.0671649661053709
0.081237146771458
0.0782945084174741
0.0816208579530723
0.0807065094444161
0.0737485662170658
0.0795071392164522
0.0674910231885923
0.083408914316621
0.0713888703770693
0.0703206957229241
0.0745923388642837
0.0683106770080475
0.0768557429448133
0.0783613945372531
0.0708896161614748
0.0819174277195682
0.0647338442050561
0.0666965435750789
0.0799298671297267
0.0702453258733873
0.0753095590949466
0.0769921554150477
0.0789381399697942
0.066158775911513
0.0873409685470911
0.0787615945676761
0.0720638025986046
0.0729312461167581
0.0735597184098679
0.0766791557379794
0.0699535543575102
0.0713018253889574
0.0849645153096795
0.0727063585105019
0.077981267649643
0.0780651089323478
0.0783075651978193
0.0790699266879213
0.0629236464855343
0.0836330724929495
0.0759530297271779
0.0676314456728201
0.0698124054710866
0.0798250958947188
0.0840222747423354
0.072589346401555
0.0763292947688024
0.0676463129850148
0.0661091843750875
0.0824575124472677
0.0694658480320332
0.0745534406512044
0.0742380148004988
0.0742838796156776
0.0734019244924866
0.084195304704752
0.0745288544638338
0.0617718273578758
0.076436508249119
0.0749582880139016
0.0769067823420344
0.0681431842312785
0.0735931554993261
0.0775467864326397
0.0752400464615174
0.0714800068809478
0.0767070394754758
0.0791632993269444
0.0738125856210225
0.0799973144707211
0.0748489777163108
0.0735266308443981
0.0770636917668025
0.0797516529449332
0.0778521439811256
0.074011057251264
0.0835767121087465
0.0658356682089447
0.0734767821008553
0.0758321723368037
0.0728554890347903
0.0732248313271805
0.0749406176634353
0.073056627437613
0.0721569917281746
0.0820226574091152
0.0716108499437644
0.072727619289402
0.065659798109936
0.0704333746670228
0.0756936494539289
0.0728009837604873
0.0733762145206063
0.0684144794761918
0.0773337451390101
0.065589888301489
0.0773308291160154
0.0764588352345913
0.0796289348329614
0.0702868229551614
0.080468349021025
0.0703133713992087
0.0653748515857076
0.076317783995287
0.0766256292109664
0.0823500367221819
0.0816059505620179
0.0694557854779117
0.080841239947144
0.0730395517846019
0.358388668242119
0.351946297444042
0.294120114760464
0.294730144331982
0.354834778653303
0.299920394399426
0.344122734434423
0.345758554926877
0.35217474061028
0.342738539510026
0.354529379214211
0.355419508180574
0.348768778128505
0.304167242081187
0.294095593771407
0.355894589864482
0.350685557588314
0.291493837692889
0.346693985580273
0.348146455875631
0.302660616108909
0.343132719646277
0.297607655752735
0.295582043657237
0.352573585140028
0.309128067411447
0.344354900187607
0.302450232089773
0.300683450232219
0.301502984512155
0.29811615816399
0.354341675071192
0.354461429285921
0.298991897628809
0.351041732170047
0.302726847879392
0.299715490898989
0.354165338939696
0.295596190681265
0.347176302962178
0.35408385143337
0.299286475394744
0.297189439573296
0.307793542386907
0.310492690066099
0.352030121002609
0.351974737247013
0.343469883088765
0.304337976503535
0.300278762712655
0.342081131850396
0.34944751157747
0.350466436664727
0.346938625280609
0.358910798426681
0.310283967538149
0.347551819937543
0.295856631576909
0.355329592944106
0.300722299860377
0.349969773702021
0.358233866496963
0.355653227829901
0.302497461618143
0.349031356356726
0.350005916396457
0.351900209920208
0.344991714163578
0.296063666923241
0.342693929085712
0.33702859628184
0.355130961738734
0.344898416772874
0.295479532252663
0.298376091966582
0.35284158699437
0.299795713290939
0.348024353197292
0.355234150006513
0.299408561503688
0.345629323180394
0.306087920632441
0.295104237002978
0.297117297624505
0.345367365199812
0.306073750350804
0.351225900907709
0.295003629023718
0.299829084274276
0.351458806729769
0.353416421934627
0.352441211425908
0.343600413155828
0.29366538939501
0.301174800636418
0.345757690986689
0.358933447337622
0.342472288738571
0.350944189379334
0.33703333026068
0.301584775180901
0.294939582192123
0.309805576628642
0.348520063962157
0.347245112308145
0.309205718565131
0.349051469388227
0.345691550516193
0.296330277748343
0.30110876948505
0.299628282345642
0.300881518227175
0.299563348895421
0.35097727154058
0.354232233165953
0.350893641128599
0.34333527733416
0.299892903807218
0.347573188209011
0.359143889128841
0.359397706043509
0.349079547147098
0.345753534856115
0.355619809011723
0.361297260746656
0.304621782517105
0.356424546477342
0.297974956182102
0.29771216133388
0.307460695965461
0.348372454584231
0.350271219567125
0.342123434006237
0.34792088911647
0.348716386043658
0.351837565825281
0.352230247079344
0.342923481593942
0.348250973905136
0.346852907694097
0.302522157053036
0.304005088756789
0.290082060580781
0.307575277544755
0.340882340175394
0.345055949234779
0.358013761906343
0.346478145098507
0.350606559260453
0.353239905838395
0.345783874768131
0.303201228771635
0.34920037006816
0.350189314635269
0.352250428495604
0.34314813226716
0.359804182208221
0.292427788815848
0.298247644157336
0.29628700303073
0.343564097261541
0.34152657585417
0.299200528156666
0.350108214400095
0.297767482700572
0.352920291269653
0.348392316933035
0.3536764917871
0.353716976961249
0.304874317733496
0.355319158585824
0.301385885783003
0.30217294993448
0.35250864677261
0.348030729173218
0.307947478039572
0.352550692786258
0.290255254102164
0.350748479012692
0.350125093622898
0.297317926040369
0.360706262441398
0.350182852922459
0.301621302568992
0.308132979359593
0.347888522233476
0.303663353459419
0.349417001930698
0.306309701980044
0.349248436440707
0.356934208614422
0.303662911377584
0.289308216393204
0.340959690541935
0.351294272556331
0.351957132046781
0.348689881594666
0.34476224477237
0.295604976638885
0.349041826775175
0.35575449422114
0.357557173946871
0.351066225619663
0.352013729505048
0.349412152276174
0.341250594507426
0.349669904865157
0.349796352286642
0.304047103477602
0.35759408435802
0.352761884199085
0.346712679159235
0.349787131425325
0.349239384456411
0.300884177814516
0.350999185006058
0.352312044401767
0.306311092274635
0.299224145578566
0.342704706161682
0.300463049791465
0.346454597224524
0.348161233357909
0.298970929338454
0.350661744197034
0.352290728676312
0.343091716795619
0.296160340343571
0.354529594641539
0.299449002599008
0.344273305372992
0.293707223502613
0.300699573474767
0.351347609698653
0.348358174236549
0.35413628302782
0.34322187640879
0.308768821415683
0.297612466488424
0.308777961560879
0.352901229340114
0.300224611007519
0.347626171202878
0.301567425194392
0.305205507256369
0.35302153685882
0.345751333851041
0.350013190548547
0.297242184318723
0.35387144025814
0.0492976404781251
0.054190770797367
0.0526752256969027
0.0554480833578941
0.0214361100921436
0.0244131139291989
0.0116734894572362
0.0156142906103552
-0.0034733557946081
0.0526864616124748
0.0205477572195147
0.0469167181330534
0.0189668971827964
0.0308530313476112
0.0501482075498698
0.0190009781252296
0.0248266402045538
0.0205783089196582
0.00490334956842088
0.0523896340177245
0.0216236161449614
0.0522602744978668
0.0505568436072963
0.05022970436062
0.0583472705425965
0.0218879430189071
0.0229135102015139
0.0215264826621562
0.0273545106362785
0.0278627740476759
0.0206522411858327
0.0250051365990224
0.0274536042787768
0.0201292384984464
0.0188893640414884
0.0538976635485937
0.00408680232030349
0.0425293147333613
0.0311795862176936
0.0257652096163405
0.0305242676775376
0.0474142440790361
0.0246076081676789
0.0505032963737144
0.0334840878906146
0.0467532478430697
0.0439916879743648
0.0591777409241384
0.0503589823080119
0.0291041680712003
0.0309295595959577
0.0405859480637816
0.0467817674766086
0.0250531309440743
0.0214149266663152
0.0251733474343958
0.0500539955486401
0.0471389378927233
0.0291888478644031
0.0242888791717143
0.0442806206225381
0.0251382047122441
0.0428291973742777
0.0272104923006581
0.02392653268085
0.0159037862728666
0.0255242008275609
0.0396454786788238
0.0552126118441009
0.0322909085830288
0.0537771254346463
0.0276267239051227
0.0319310186605042
0.0539997523102609
0.0248932039899458
0.0276047626460263
0.0449603556095765
0.0463525241407801
0.0330507356344001
0.0264962149689775
0.0580597373237264
0.0516219754411196
0.0531603152993147
0.019989459794719
0.0502046913335003
0.0263282279174911
0.0179396286221198
0.018902106020884
0.0362656174293866
0.0227153992942662
0.0264407713847693
0.0286365936298272
0.0326908824728414
0.0601074810612885
0.0298164336010425
0.0328186143950817
0.0293174837877466
0.0206385208397241
0.0471478698716601
0.0231230312058749
0.0292075546335627
0.0245897141976276
0.0268940545365102
0.0556628519490446
0.0254112575047674
0.0195557515030575
0.0332371482461458
0.0270841765851034
0.0216971234226152
0.0296730425105
0.0303731707649803
0.00091736730480683
0.0170057204759664
0.02199935488306
0.0264009221580756
0.0265908499152162
0.0200029599645881
0.052365389888287
0.0333007803853351
0.0491300522788091
0.050394516703666
0.0500591856204851
0.0475025166974575
0.0350162195985888
0.0160747634450047
0.0177245519117558
0.0306953326518492
0.0334449944900341
0.0202121451915031
0.0438925161281501
0.0254868854386655
0.0282860385071894
0.0177905979351622
0.0559945934894556
0.048151858741663
0.0261231817856935
0.020885832436277
0.0377958337358856
0.0511954332372905
0.0282173732910395
0.0483403584931791
0.0477229001782602
0.03062728291546
0.0295484553538809
0.0497929029015637
0.0465250429705817
0.0242298699336019
0.0200914019754466
0.045003708174208
0.0258024524926875
0.0440487052642394
0.0483384715811416
0.0248377411567401
0.0496139052616174
0.0245790713420455
0.0269851021799483
0.022754552635574
0.0516455527152261
0.0223879457580755
0.0537784945379308
0.0575830892494185
0.0472613019497039
0.0277998709055793
0.023315053061274
0.0320655897867148
0.0291270197169354
0.0326363788446193
0.0235613688037806
0.0492485729634833
0.0224622978342813
0.0222834302397285
0.0477054203248691
0.0121748520785738
0.0247920784089256
0.0446512184685621
0.0525491381816335
0.0155880333063389
0.0575715320166945
0.0515898479909135
0.0244237012829967
0.0219071440688936
0.0207921433970482
0.0264567565699772
0.0239655003856628
0.025408145014617
0.0202769163182831
0.0225146909020405
0.0183799483561909
0.0191269350197255
0.0458049143525286
0.0256489633008917
0.0127371919161349
0.051869469493218
0.0501093640077594
0.0565395223346415
0.0264055674032396
0.0563826142648989
0.0296403975373488
0.0475028825831512
0.0496880030905826
0.0230093713906909
0.0278051653331494
0.0419785056874429
0.0573603913667329
0.0279180610896049
0.0531983437559403
0.047246534431388
0.0534690075286582
0.0321097040808154
0.0186684028703051
0.0585370398846648
0.0464345241266909
0.0510374535806397
0.0566234580152548
0.0221360661135775
0.045204424476092
0.0223737395285072
0.0493062545714033
0.0501851856544355
0.0272442953189079
0.0235578227248793
0.0497564687276689
0.0275254626109234
0.0226363669904277
0.0233578958193729
0.0246207808296662
0.0267083138247646
0.0254611465411815
0.0278342988397362
0.0449293396130948
0.0313970396866303
0.0525439403472048
0.0186282769294066
0.0488970276377757
0.0521932583681599
0.0229011825028189
0.0155662111989058
0.0251923463693516
0.0575629927217465
0.046339809588625
0.0261201506023485
0.0517859569166128
0.0234315439657261
0.0209756998623284
0.0458745334317016
0.0240197269764484
0.000227441802150128
0.0277602364178606
0.0529112778249222
0.0272524560096292
0.0223407061921539
0.0484722805635624
0.0171231029923425
0.0208018604296368
0.0297850618875366
0.0519853814376424
0.00159510361383296
0.0290111596319982
0.0318378800457503
0.0503037402549019
0.00459105608808467
0.0328747818498193
0.0265517501555931
0.0334137328071201
0.0275655380490488
0.0413184930938008
0.0255251430326689
0.0213098687268334
0.0484662553283504
0.0280600679192362
0.0542553754398309
0.0194768321598503
0.0213872212700451
0.0571381899153124
0.0272531042705964
0.0210524063026669
0.0289476427840743
0.0212542805618467
0.0225096691006069
0.0235482118950746
0.0295257709220497
0.0290033511704466
0.0209297846736398
0.0302944095394874
0.0259764959181713
0.0262493805466643
0.0287848647093988
0.0281283442078106
0.0446342328719657
0.0479837501756891
0.0301485257664891
0.0217247639830389
0.0133062161827957
0.0238524949670509
0.0183182684524615
0.0266292498991407
0.0484670475669976
0.0522150107738161
0.0249216680327396
0.0243508056761043
0.0238143600500586
0.0329871555978679
0.0135865067217672
0.0592333017929918
-0.00488297455150004
0.0492548086451059
0.0397419529925623
0.0220939003436991
0.0248652293111735
0.0484086453601713
0.0446594759880692
0.0414038893611082
0.0369836901809442
0.0591508661205704
0.0550043250523096
0.0220629144408031
0.0615929288526438
0.0255050923216183
0.0252653308438401
0.0203743046070576
0.0221514917372667
0.0328737477567037
0.0392762289334646
0.0481955465356243
0.0245473152116481
0.0176009560714815
0.0205627093595489
0.0166492352246765
0.0244144621518116
0.0198532901510703
0.0629503479727922
0.0473046430588354
0.0245454807108991
0.0443974446664125
0.0518849310951968
0.0494169636228612
0.0513660099946939
0.0529201375072207
0.0315163580361881
0.0221235613355727
0.0416035780649246
0.054988553158104
0.0249975905856002
0.0235260115674012
0.0268537218204561
0.0184525336148608
0.0476338904215708
0.0304006452591024
0.0564764752585967
0.0517311296369549
0.0202162347168939
0.0223284405588293
0.0238276185168996
0.0553354575907094
0.0319608009723098
0.049346681299249
0.0419594924775958
0.0279007822259192
0.0333316557124404
0.0496483220426549
0.0432270687398192
0.0240932722053184
0.0252563465970713
0.0576732993010787
0.0234135767435412
0.0509638249210124
0.0566461175285061
0.0240792396358787
0.0209904883585336
0.0480795075071403
0.0241347482727804
0.0244934978663404
0.0188867518192991
0.0223873721431155
0.0473877163252769
0.0550502205118025
0.0221253697079661
0.0485035582383569
0.0470904273728929
0.0213466467398324
0.0185142579262111
0.0146715873754992
0.0434472802441042
0.0157731870511281
0.0213601001880051
0.0332332703814822
0.0182657096153442
0.021526492901149
0.0229814432119146
0.0350407180971378
0.0283757917096793
0.0472956922826179
0.044780617182993
0.0454500181367231
0.0461395316037719
0.0257151887223635
0.0222757419969351
0.0224199779798464
0.0257102747725943
0.0454445126754555
0.0288349449756228
0.0299674694239193
0.0223592824762304
0.0270064687515086
0.045312201615971
0.0254124576122309
0.0560965995337468
0.0311023500691826
0.0307552596697153
0.0225615168592634
0.0444076449873391
0.0260477711959945
0.0171290230142155
0.0516165227611678
0.000619657383892885
0.0268806778816487
0.0357936217767738
0.0210088545312263
0.0490579475386225
0.0285680314801336
0.021030975745255
0.0273300106109824
0.0255368855107051
0.0516001541242449
0.024718631504983
0.0255352449862721
0.0266949304229675
0.0295201198618497
0.0230421990657649
0.0491829692201553
0.0472914152556377
0.0320773569684548
0.0249104737855758
0.0293123014141748
0.0234678772605674
0.0272334811886909
0.02641148327627
0.0503984684000022
0.057095013844966
0.046530597578707
0.0333880175558393
0.0341823692211846
0.0293681920151537
0.0582164900544463
0.0175692899058931
0.0260226071918864
0.0237927742515924
0.0454471815545759
0.0271683845227695
0.0501428831604017
0.0172298645673592
0.0239290788387673
0.0537857933575841
0.0283242141130568
0.0449990178394115
0.0573211174427742
0.0554130183787499
0.0284338764647434
0.049323988980844
0.0279697253542179
0.0535199627010888
-0.00922584556236937
0.0286589809525908
0.022778006825601
0.0228481546800793
0.0195412583869852
0.0224889917623114
0.0225892269114034
0.0504817436382651
0.0484217798464574
0.0180155255201768
0.0398326578004402
0.0206391121804523
0.0152396020823082
0.0209310932852313
0.0497546460961727
0.0326401189665044
0.0211701346082947
0.0537643035222069
0.0339504927974272
0.054873391252229
0.0227878643538805
0.0526617867566461
0.0506713048030981
0.0266238183456435
0.0492774855262099
0.0181475576459275
0.0223359542613696
0.02716145036422
0.02206902201492
0.0432899329647693
0.0498738088989807
0.0248515592925511
0.0246517256740928
0.0522594269191547
0.0208894841371767
0.0317858456574111
0.047696750548563
0.0208884748499796
0.0283567871025899
