0.144501389500207
0.155218669304975
0.0992815228765643
0.156886423423885
0.150883212894064
0.152818136212276
0.161016278560688
0.151622424720956
0.141118904640997
0.157092062162307
0.14364552677618
0.15926732531221
0.14086800684794
0.158338650811437
0.148952434197479
0.146733153629038
0.145022697193161
0.105881503961654
0.148757397192698
0.153452739494573
0.14961988852437
0.141012566654913
0.146602780077013
0.14913660534294
0.105212451672538
0.153667109327898
0.147266968552565
0.153395901865683
0.153882666684328
0.14996539425098
0.0994774545740604
0.099491991359353
0.139940520884783
0.0964339206967456
0.158729599966303
0.106129731545992
0.143450143799464
0.154596935481128
0.095705683787701
0.151076521675569
0.146714276481319
0.0975562318089341
0.147401994671222
0.152361197926387
0.152829490917898
0.150692613720538
0.147979188750589
0.160010596746591
0.151782615464954
0.153864302500973
0.143833861688998
0.151844323483007
0.157891098617291
0.163417638022318
0.155326500278669
0.145619558027615
0.154054012565595
0.152033172475267
0.156841841767728
0.151556179091527
0.146490510835773
0.144992554156486
0.152103180692423
0.148464941779426
0.136918034605126
0.153034629175939
0.14488616600089
0.145963055958494
0.149005540974633
0.148251375111911
0.156553692759344
0.149557331321142
0.100323646443405
0.147075801459997
0.153350929169537
0.151596648584859
0.150113920122898
0.150342081126943
0.147564473243934
0.147482857370224
0.149412262974934
0.149999241972934
0.101679356355415
0.145379214447256
0.103069949556729
0.162486785049366
0.14245532280665
0.149006488667377
0.148290798317875
0.151871766188389
0.102586652853587
0.147372720227857
0.150866831651103
0.152313525435003
0.149876110074282
0.147667617529297
0.157985581728843
0.15546806168563
0.150295991644664
0.107894561512048
0.152658281434979
0.154635299766428
0.149346691798419
0.154626492248273
0.149399262248684
0.101672292930771
0.160859476191527
0.151413859058806
0.157573286009136
0.159370635032335
0.116919431366577
0.168339819213018
0.0994834381377549
0.147097571787468
0.109217759001802
0.146159063159032
0.144041025584385
0.148407976893436
0.146459393852978
0.145018651563127
0.147506452688093
0.143289888212378
0.146109340004511
0.146443328613183
0.15244108743499
0.149567651213903
0.150743553020217
0.100906063788398
0.12970338635921
0.153069628997971
0.147804228268496
0.0927487466281156
0.0989669270934987
0.146112212356026
0.154819588932348
0.142358516973842
0.147660192060366
0.154844818960455
0.156171695233997
0.154447580537014
0.153839755389431
0.156230561277092
0.152433282956744
0.150371887239318
0.147510511222786
0.148089553579834
0.148896722349564
0.139297436956193
0.144043125773204
0.153617310115195
0.150773621121315
0.15422895846899
0.102060114075061
0.166249854299719
0.145335729511345
0.15303790631279
0.158173160427684
0.154349910710322
0.131810890232298
0.159112473284226
0.151327351499868
0.0997271042458527
0.147539710033641
0.100256430448031
0.143904576994024
0.15147340804213
0.143285973521576
0.156243546715732
0.0976319094001095
0.158033436831564
0.143897851389392
0.0965526057421812
0.158245981769908
0.144128091022463
0.147844422562733
0.152346354154495
0.125903557619508
0.153706578926166
0.157056701609559
0.148995568683936
0.138394533900699
0.151252098980317
0.142345113868413
0.147982462425235
0.126111140840041
0.146377651804932
0.154588278750658
0.15059248242698
0.101017936350026
0.14843630958521
0.149475733886056
0.150525819795306
0.145836395101792
0.159141962459593
0.154271991373465
0.148672679549337
0.149734519468962
0.127372701275571
0.142478872800575
0.152842795890495
0.146699028213635
0.154743879868768
0.143859041618675
0.155062848822801
0.150941671263952
0.147493655734126
0.144990631699964
0.149442962570252
0.141570757753895
0.148529903918505
0.143757857983152
0.151606591829756
0.147831235137442
0.148263223594613
0.0992377423524729
0.153861113195479
0.146000099689965
0.148205835252064
0.159747721295748
0.147554082375925
0.1503312550505
0.148488951924065
0.14959136594176
0.153819299009906
0.154286451021997
0.149137944021298
0.14966113253531
0.160817701437939
0.101350253744736
0.149723500944261
0.146332667091433
0.157371690921336
0.152860197138321
0.154370511440896
0.143177057595297
0.141837943701956
0.146226807374807
0.153747940126078
0.147968602205303
0.146741579881232
0.150190573523229
0.149575875066586
0.145937918891205
0.106808686721714
0.147257324712244
0.15633161179235
0.146600665043358
0.150079366782504
0.148378278880693
0.145924278448109
0.198123905959499
0.197516841578727
0.201294426038164
0.19715031157687
0.19984597647662
0.197484548378826
0.203689865493374
0.200698290952498
0.201206898444748
0.200797363161101
0.20034180489528
0.193222148497984
0.196700336969303
0.199610644615741
0.20443959753406
0.202982929911713
0.201421901297077
0.197992621977905
0.198748823179028
0.189646587196844
0.204339428121655
0.205632837533356
0.189034511932815
0.201580477210874
0.191658093830596
0.203413547282454
0.190342385203774
0.200375505969423
0.206178482804205
0.200100495422914
0.206574592078529
0.192137754568082
0.19986824449795
0.203171157750941
0.199284704816757
0.199630824097958
0.19989422955167
0.199698292292731
0.204045345448534
0.197971688690615
0.192894738556035
0.19345202954205
0.199653290142546
0.196928671597436
0.20731130734131
0.200566111126318
0.208540154245167
0.193219185447406
0.202671207899101
0.204570352810835
0.206773796914916
0.200627633171462
0.199635775979472
0.202448993658356
0.195703856230852
0.194308968812703
0.195591029439921
0.199009255400981
0.199494658780946
0.210182704134797
0.202773775765478
0.207470337202191
0.194298253430215
0.196723901374263
0.201811092588993
0.198426728194554
0.205326276000901
0.201528338793272
0.199458704638533
0.196512663194282
0.200441502977153
0.205226330378762
0.195967159602127
0.202680004271723
0.198592335834144
0.191487154181155
0.198286491730999
0.195662932992309
0.209915865469009
0.202460225009288
0.190586001606734
0.202000755119097
0.197310165697895
0.198211408010418
0.210972199490254
0.197743573091808
0.195319811891706
0.207121274811828
0.19477476900517
0.192235344094695
0.200877721426913
0.206732926640637
0.193538964864952
0.205659361874878
0.202865815356979
0.195983327155552
0.202628300753337
0.194092836966611
0.199600552415664
0.201033091691547
0.199118934929255
0.200299470216406
0.192925861823667
0.198044078854403
0.197438622921961
0.204979577485462
0.206841791325868
0.199277200256588
0.204233286216821
0.201771714798456
0.203005101822027
0.205696030134813
0.18878174249298
0.208976570571534
0.194319772601242
0.201701834809332
0.195508497700542
0.199735081771592
0.201417720276121
0.196789927668783
0.192373366427226
0.202795712956681
0.192939884728697
0.198490853506308
0.203704546756017
0.200063351864411
0.203961775709328
0.199120369264361
0.205741306461788
0.200268968757937
0.196429700420275
0.202726750078321
0.202470021776775
0.200364222363973
0.19885373315323
0.198220114376861
0.199056392917544
0.200813382131402
0.200657010957756
0.20018089939852
0.210391760145614
0.204072648542459
0.209302247590452
0.202872342406476
0.196782121885245
0.205320561263678
0.188512299368814
0.204593742938148
0.212514858469262
0.199481823357265
0.200300043507094
0.191941835205671
0.189931272221718
0.208322292462346
0.207532375876032
0.206387009496623
0.19822957151791
0.198538662714052
0.205157587241655
0.199805557124385
0.202639891915704
0.190363584226815
0.191789456897259
0.203719976743698
0.19370226586616
0.197460342021927
0.198008887171785
0.197619208846806
0.193795598048857
0.205121412092663
0.197771514348211
0.199180501675224
0.205217043234408
0.198771533014664
0.194531574662407
0.19182263595944
0.196316260208468
0.201979331715101
0.202837595924698
0.195789767350073
0.196785261225649
0.204083453691814
0.199897992718112
0.199342366304899
0.199170557645747
0.205861825560248
0.208664722506457
0.204002420544739
0.205232922300007
0.194594825984374
0.200475726340874
0.195036038222075
0.19850456907733
0.192134981479414
0.197877355987692
0.209152928100053
0.210053356226725
0.196720656857458
0.202772474134555
0.194579208718377
0.19535857709219
0.206405581518028
0.2094280397548
0.198589546142771
0.210448777454848
0.190580941801266
0.199840119810424
0.202434383410155
0.195047978100233
0.200469013578382
0.208534175686181
0.195352783365102
0.202727000331476
0.204973221178035
0.200903135333746
0.195386342609191
0.201246847829875
0.199501543904119
0.204863993905896
0.202053589136681
0.198714710923851
0.196026738862171
0.199003873044267
0.191440769863823
0.210870585261478
0.197417085428721
0.202274262254793
0.190092497353203
0.196605698620308
0.203343884347844
0.208494379127142
0.191841305010325
0.198961169693376
0.207865705168257
0.202678398806913
0.203260055913075
0.20363750440185
0.204933295397141
0.207015688582495
0.19808311356187
0.207756659667856
0.196025563194544
0.196334379957551
0.204049629150593
0.202157809931531
0.198084227301911
0.191071921773276
0.204533657972697
0.196866255939971
0.200950059827701
-0.00115185549337795
3.79946490509742e-05
-0.0116851186334536
0.101511161429655
-0.00511495014903605
0.100590904571775
0.109148669590637
0.10132347776926
-0.00481976842417291
0.00564633174079781
0.0990998273505382
0.109696178192061
0.00236729363055353
0.00511571363533604
-0.00176682337231949
0.00134249493360392
0.096592381867749
0.0954085051186945
-0.00890003109140528
-0.00733088984289064
0.00283177145018928
0.00675569656662602
0.00231473909037636
0.00241388784261818
-0.000384246877314932
0.00446755234725879
-0.00456523382651521
0.00694200877506795
0.0966313919347926
-0.00696978562131594
0.103293990983725
0.00300954062608849
-0.00142208813343451
0.00103940128025369
-0.00609497463622772
-1.01857018136593e-05
0.00346476554506426
-0.00193687324759587
0.00101191914081989
0.00296536823180648
8.76753467872956e-05
0.00347940242793753
-0.0120523245618307
-0.00759790389230505
0.106566757268281
-0.00465065644806423
-0.000863002335050187
0.00132774913856093
-0.00359091676795937
0.0988917970065733
0.00776707729602087
0.1010261001198
0.00054816491130063
0.00225905243004938
-0.00349690527416813
0.00460470117649876
0.102025895481803
0.0984235723372206
-0.005597354539841
0.104088276366481
0.103870995384756
4.58822455462981e-05
0.0016506675954456
0.00071846578528467
0.00456742491845603
-0.000579236416601327
0.000154715562777033
0.00220075938615209
0.0030118556403656
-0.00693410720571133
-0.004628630459216
0.000416002922246555
-0.000820599266915655
0.0897317759613931
-0.00121114275559896
0.10046890145084
0.102238871783657
-0.00317008158063533
0.00673807193220492
0.00925195881948537
-0.0026925361405123
0.00410460085340241
0.00448077508953662
0.00500793426633122
0.0047159177319066
0.00411710130376111
0.0981498906284087
0.0964249717582143
-0.000967206512056868
0.0978865244248834
0.00121549288332522
-0.00232131220395355
0.103201962253755
0.101660125193487
0.099502941785898
0.000801618495241525
0.00591552364407023
-0.00322991305735133
0.108833050536131
0.0029439475511974
0.10862931813679
0.000280247455600242
0.00792412223146542
0.00451026579937732
0.105821441688032
0.109839769291019
0.0993688886541311
0.00174303592769097
-0.0042325862175872
0.00645697977550607
-0.00773160084344034
-0.000129118947366744
0.0985295758471299
0.00464164796428416
0.00200043843484888
-0.000670657247426852
0.0995733112017425
-0.00082298032239065
0.0984402888252779
-0.0111409955715967
-0.000784842244104036
-0.00612904065279603
0.00217557072089589
0.108277627825486
0.00282599014181207
-0.0106243437377506
0.106082085062152
0.00185798448357699
0.0986468308246325
0.00639969622866951
0.0958842964540046
-0.00284585909438496
0.00403774320969289
0.102704654949934
0.0962698531861164
-0.00428772755883143
0.00557222493499978
0.097663339985783
0.101673063890474
0.00663728812694576
0.0070294164998249
0.107684815966343
0.100746243084389
0.00376803490800616
0.0989872499260742
-0.00347299943720373
0.0949291525410099
0.00639815843340664
0.102022912478394
0.101618355570802
0.00696730426266974
0.0991205379409822
-0.00315087902159977
-0.00551609235195006
0.00935989447363491
-0.000865938171597555
-0.00181118484972056
0.092798566191506
0.102239787901551
-0.00193141056090121
-0.00688026493091609
0.104423286442239
0.0945626124642077
-0.00776569568629339
0.00176660958788024
0.00489016706334052
0.0874815523001691
0.000540316937128444
-0.00210961684268736
0.0952139765927572
0.00492923452927117
0.0922736085496369
-0.0026196309873389
0.0930613899058765
0.00750188725487293
0.00555153821834001
-0.00282690404922143
0.0914621417208892
-0.0092971382391952
0.0979546719237454
-0.00159048205482264
0.0101102670599451
0.00804971967237821
0.096467048918924
0.105116202888095
-0.00192252731077948
-0.00344141275257642
0.00547241029779669
0.0995109664504333
0.106473524986938
0.102174799383085
0.0980393585265692
-0.00869925062682882
-0.000884532129647327
0.0010505327191844
0.000308266874160756
-0.000833598204467964
-0.00396073032098124
0.00225394046696581
0.100444241924501
-0.000467629674401674
0.102876462239993
0.00171185579313015
-0.0110740702870346
0.107921147303597
0.00245783892475114
0.0922074796528004
0.101240239584267
-0.00139843110400306
0.000334443999871698
0.0978756630766486
0.0022322616335972
-0.000380019276913425
0.103272368460733
0.0955647335135755
-0.00799154602075638
-0.00328739187783435
-0.0074288758888183
-0.00608386735110404
0.104672435206192
0.00295235842919163
0.00257013374166366
-0.00110618577479085
0.00106517098699024
-0.00409398931132622
-3.2756507848891e-05
0.104913773992203
0.103681922804157
-0.00366857493000328
0.00464845915074041
0.103029932726579
0.00338391489680447
0.0999691269181362
-0.000968918068849279
0.101779929636696
-0.00368170012345147
-0.00596862003945331
0.0958174633920417
0.00831799605944132
0.00363179206096557
-0.0106437620029238
-0.00392962658079364
0.00272806578244159
-0.000422894480020574
-0.00293432043241558
0.0913693769883252
0.00965630814464212
-0.00319946074502031
0.107121457494542
0.00222088566641218
0.103852213073571
0.100472433130243
0.098704101625215
-0.00539626036860089
0.000994896257429436
0.00801514689450709
0.00404448131931546
0.00655110503350593
0.0939119945022953
0.00987123613783338
-0.00297873773905857
0.098695789580649
0.104849356960887
0.101833064335887
0.00558555377690188
0.111181163887689
0.00298747250971385
-0.00208874626765353
-0.00567504502966557
-0.00961087704575853
-0.00454249265980792
0.0967898649437782
0.0983018479409877
0.00307526949613795
0.102038139533786
-0.00399382951370311
-0.0023606552911261
-0.00295215342472598
0.105700712003308
0.000178050170271552
0.103843458340636
0.0119119525848125
0.100016628811691
0.0988418826557141
-0.00363886938082411
4.98035922371014e-05
0.108572795031308
-0.00684830652152943
0.0063427935967107
-0.00929647305045133
0.094512312697692
-0.00124901804104722
0.108811145148664
0.0107389184347236
0.0049431711580492
0.00434870844378733
0.000312516600591515
0.00314833730393771
-0.00263047513539105
0.101678477320593
0.107637655092528
0.00152439925490339
0.00789352461676919
-0.000130947463752642
0.00182473201510294
0.0962809660805863
0.00848158908879071
0.00485720186472296
0.10528586938073
0.0042525335002015
0.100183138079682
0.0982579389149247
0.10217958129796
0.00878568723848996
0.00359137189777348
0.00869133154794795
0.000445158780584517
-0.00836464718103669
-0.000598556504354034
0.0909339913572982
0.00469247484328531
0.00617021063574768
0.105659223897755
0.00354194225260025
0.0887414171579591
-0.00392521317469079
0.00283362872604176
-0.00874199026136058
-0.0111064163952272
0.112253942866242
0.00874426326726801
0.100278732869573
-0.00513548242574713
0.00398114967235135
-0.000934063948908676
0.00665405517443877
0.107174294697899
0.0948629616467271
0.000309031225315774
0.00714736791451766
0.00396439128357611
0.00254537703925373
0.000665770758694157
0.000444601179621945
0.00730813182914386
-0.00240571037495332
0.0984159429420156
0.00502435210842088
-0.00746782215347549
-0.00956955454456244
-0.00704874661778793
0.0964159719650161
0.0111274241275012
0.00225155934398051
0.00527448261692647
0.00257865648214567
0.108547899333871
0.0909164497094835
0.0947419080929326
0.102925976977212
-0.00557238007290327
0.000525760333988816
-0.00849779504862023
-0.00133452802028228
0.00125403759622248
0.00014995774487122
0.00095643249505585
-0.00102273100733429
0.0958573067758308
0.0990991556498907
0.0037272716222357
0.00227696117009913
0.00561111762238687
-0.00606976874610568
-0.00444951683690885
4.29035915582728e-05
0.100646008196558
0.10844837675862
-0.00748009374730979
0.0104074305178955
0.100855838156656
-0.00785197705747809
0.00306708194485694
0.104829275430026
0.100659834207627
-0.000976237007378389
-0.00599885338279457
-0.0032522910486781
0.105273219636258
0.00625733219742286
0.00336781880021004
0.00285575446840247
-0.000421232845774476
0.000976545888126763
-0.00348077481470696
-0.00524643555728527
-0.00259814407720637
-0.000539277194109036
-0.00723397329813617
-0.00857004779772666
0.00160032400441891
0.0977008044018415
0.000166558997285598
0.000984133262178185
0.0955163964823504
-0.00655203395560825
-0.00158450767633035
-0.000997933645253222
0.00569338514092175
0.00360347437667898
0.00450394080039397
0.0988346985633077
0.00628861615179959
-0.0064402593089729
0.0908709169276966
0.00305729723720014
0.0952776198684819
0.0976956492121521
-0.000475725258840282
-0.00528138053355622
-0.0049545306921532
-0.00157392588989214
0.094150613301743
0.0934617780125382
0.098540394598616
0.103355990530682
0.00363896950814186
0.0970052545159754
0.00800468214559113
0.107281919750164
0.00173508407118112
-0.00112710605528503
0.106264380697137
0.00315604721967802
-0.00154198691941224
0.00714126969144578
0.00411215807655018
0.0945637169694362
-0.00592507018624206
-0.00642226926859975
-0.000155544184301731
0.00580845956217598
0.00353493192992778
0.00190800702703339
0.0912516806534983
-0.00233127763314157
-0.00867349838001429
0.00308719002539168
-0.00458739566460869
-0.000355895526854458
0.104228807947736
-0.00157340728831987
0.00435548643241083
0.00819015121103549
0.098017653556312
-0.00117171947630694
-0.00477527076295754
0.00550744054263752
0.00477479360010297
-0.00986767901060532
0.00485652285615074
0.00365833394865976
-0.00316003492412825
-0.00573034789182423
0.108964822836881
0.0898491963171681
0.000674056961940238
0.00667046977224857
-0.000940655298011005
0.103649716186527
-0.00390016457632768
-0.00835691556852194
0.101422858432351
-1.50555881694071e-05
0.00686341394666005
0.00164787171231431
0.00165612813236732
0.00437859121413891
0.099303862866871
0.00299488558459265
0.105046531091221
0.000207015236714214
0.105745150294342
0.0161010930500452
-0.00114488608549839
0.00306820055519747
0.0103573202602236
0.0107673885726883
-0.00886134032121419
-0.00102969101567814
0.0971085354473157
-7.41451850120502e-05
-0.00161623468723076
0.00346753935463387
-0.00236956573715949
0.0945683286817149
0.0979558201853151
0.0061430841635088
-0.00215791712596058
-0.00195342964181429
