0.233615266857465
0.221971206444503
0.231985852520613
0.22424625970941
0.230005760654455
0.231795517834178
0.22613374234032
0.220749468700376
0.225845395581289
0.224159817211756
0.225880010640404
0.226408654759377
0.225263322535287
0.233062690717177
0.230439533852432
0.228910582881453
0.226604529606278
0.223615693044757
0.222011019868349
0.222104406468788
0.223733352196233
0.21469964127242
0.222502532815248
0.223711925615997
0.232033333622275
0.220122737373484
0.224266165379297
0.227794185992878
0.224271968596032
0.227062716514368
0.228517241643573
0.227529699720702
0.217676739165807
0.230847501704755
0.229340179347267
0.223706250293193
0.225689530221376
0.225461920988253
0.221141423906059
0.223256966955182
0.229857162335378
0.227535742763273
0.231240941860924
0.2234010452628
0.219989517610758
0.223374466063091
0.229146502031528
0.224915096381375
0.225417672454725
0.228211255900878
0.226015186261928
0.219527567001364
0.221305741140016
0.218118834193836
0.228810492074338
0.221790788041399
0.231411288180456
0.228823996076782
0.227182179801456
0.21700745583891
0.216778810692134
0.22659939365048
0.224460526036998
0.228270921464604
0.220776793826151
0.226442262066155
0.219700511209176
0.224809343760203
0.222631318888876
0.227205629638073
0.214310815590464
0.225069150435744
0.225144755800662
0.214909884179516
0.23716794842033
0.229883966025838
0.227665330559396
0.222881888589804
0.230320829065149
0.223876227552927
0.219946170749184
0.232415243226087
0.22811320771045
0.227811274075292
0.229849259365055
0.23071447248057
0.2297010139529
0.232746934700289
0.230143645796623
0.22595895429222
0.222723323093302
0.222251894164153
0.224888533186902
0.227009891582241
0.234810532277134
0.22037712184528
0.230874259371862
0.221238938844049
0.229282330528565
0.222021605498974
0.22531565751166
0.221800770151814
0.220810456986151
0.227141450641064
0.227244986940004
0.234034661238225
0.223418861704016
0.226524120709217
0.216632135354554
0.227049050961897
0.226354046214584
0.224974359199569
0.229526856011767
0.224488298524292
0.231383284102246
0.225151186075867
0.231181996169433
0.226444989647886
0.222805670007446
0.21722227884601
0.226739128930813
0.225531333706686
0.227943788463838
0.225177797320511
0.229298747176586
0.230987865370099
0.232659548861285
0.225960917030512
0.229821279506064
0.231852991144456
0.222124226111238
0.221795674329206
0.227709665958474
0.222765442583227
0.220931818727196
0.221887657360324
0.229906141462112
0.222763540403959
0.227073496252758
0.230619609031853
0.22768799432193
0.211351742063769
0.22522797758571
0.227621100907665
0.223086315640213
0.230589075491807
0.22922414104862
0.229456959489083
0.2145430237641
0.222809508144842
0.230609149523298
0.227276316962156
0.21949510295809
0.22242934227487
0.226534065559306
0.22487065379422
0.217770978639453
0.224838709722996
0.226065327852356
0.229631569031663
0.230551999979124
0.222950866665226
0.225417592151109
0.225085543396834
0.224592580605583
0.225837215193955
0.23321368911923
0.23359063446481
0.228602344829029
0.229836167640118
0.218801643368929
0.229566220714805
0.226443235179096
0.214555629354951
0.225613511324038
0.219330348669659
0.230612599744639
0.234353987875768
0.228743794499052
0.226985814603877
0.230104387959648
0.217386664347485
0.233731344816698
0.221891836068275
0.225164247135843
0.236863832961694
0.222546775035734
0.220848276237568
0.224144160909289
0.226887803176408
0.221554393647252
0.217472302235842
0.221524314299004
0.223862047332624
0.219991924598585
0.228868432207818
0.225560224270756
0.22876197247625
0.225258647003519
0.222279787641585
0.223912315576025
0.234978686616714
0.23817033099027
0.234392938879962
0.229611410654619
0.224149960604741
0.222092170708227
0.224519530624183
0.228210155486402
0.220720012780829
0.232078478473183
0.224193306018147
0.22834320292856
0.223367045972534
0.222738930567591
0.21999926222676
0.225227577271335
0.219638775042618
0.233677854132764
0.224509353842116
0.222152518028412
0.220843717936892
0.225138300825791
0.225723716464677
0.222849876577176
0.23041481115086
0.22677276434509
0.229753014869441
0.225605024331873
0.220703723724746
0.212776590614495
0.229611202210488
0.224266309144022
0.225715036923507
0.219166040584567
0.223898486779102
0.228495276516921
0.22508096388887
0.22477241793663
0.226614610545575
0.225346234524643
0.232415770227964
0.218092971884937
0.224969791143699
0.225728999431721
0.224883670443424
0.229310046069616
0.219374080781507
0.221717613833247
0.232880248813074
0.27809383063757
0.27145077817254
0.1860608908181
0.269313818007139
0.276151456830154
0.169319430080912
0.221446084062801
0.220799098365765
0.229316058964772
0.281484925668467
0.273358430679976
0.284983080607997
0.228719693159846
0.229588622885102
0.279054644815852
0.166973602587732
0.225423924304558
0.250429147553489
0.2696741285835
0.17853700619323
0.261094839337079
0.274689688829815
0.270546289319924
0.277306444253519
0.234466525753663
0.230993370584755
0.172217445946474
0.271090535500817
0.270819533170727
0.220995093808529
0.225651895817149
0.23025376073595
0.227979095911563
0.274195462316618
0.174306174738711
0.274046478360854
0.280177486803948
0.224363029650401
0.173483244789389
0.176436267897392
0.21947032399636
0.230305652904511
0.275911058398194
0.271290028107427
0.230716560632926
0.269053306231572
0.280601067313638
0.277329555973069
0.223998783418206
0.268016754265129
0.276002801493472
0.223194301554377
0.174559975363733
0.233794285052176
0.230018743857719
0.269842355534312
0.27430704652953
0.265077064579035
0.229066619843412
0.277186241269375
0.177300236370349
0.233065028219735
0.278796088604726
0.225784097387876
0.275691591349935
0.27137273487698
0.17170268745852
0.273037093729856
0.218404447665594
0.220116409126373
0.218299749842806
0.22592658233105
0.179398913331326
0.181880637078863
0.282644527181866
0.274760170463967
0.219699849659661
0.27308463692677
0.284628930606197
0.168327814361877
0.272583251995719
0.269573015103686
0.276196044381364
0.218372004902309
0.27943049104285
0.275631846278584
0.221478925249948
0.280973641585515
0.22962918300139
0.226800103268181
0.165026345985362
0.270716861106394
0.16556166850318
0.23316889512553
0.219067001483662
0.225204585815625
0.279234882937362
0.222766776607432
0.273178238295631
0.22333893860888
0.243835323981779
0.179142531974099
0.279041226359566
0.270855069751638
0.218167582371513
0.232657481172627
0.268789602276921
0.171106741495534
0.25836675001905
0.275183709391409
0.225688984777198
0.224024801343957
0.232051953914231
0.221864794416528
0.223024155112104
0.229610941794775
0.280437947594983
0.278123247910552
0.280992320104867
0.217279875048142
0.175605620338749
0.277123037793788
0.222983345186103
0.218501895759435
0.21768646654226
0.258740446464609
0.223966218215679
0.178204800030356
0.28589342760552
0.248303466970067
0.276542849987194
0.228664845183324
0.228564446348173
0.229537218327607
0.222681617593691
0.276739332833853
0.229009525406042
0.269339100213788
0.274399156157938
0.179363313880926
0.220823936328469
0.280490047643795
0.225250243083408
0.273910423078171
0.229789451255928
0.214765924896143
0.246415098006031
0.246227862251642
0.178349614525952
0.226139478446759
0.172173708364477
0.268653302123027
0.224880212523857
0.229778078651995
0.277377391352072
0.229338833831673
0.281363568128732
0.180409504409053
0.164267663582998
0.275808646956302
0.28159803289677
0.27418297041555
0.17515320123406
0.272574961193816
0.220363430930486
0.22739706699853
0.281476914914496
0.287089818361582
0.248485101989911
0.286997572156813
0.275363509208329
0.220448468046503
0.21698695448137
0.228956917834299
0.179460192577672
0.226842535295372
0.223318482609875
0.27496241641278
0.272895846577893
0.224766757039763
0.179814962000989
0.273595268646873
0.221953944913401
0.226907273403341
0.278203930159822
0.230548793073446
0.222101597362172
0.176564632347606
0.226059365575066
0.271418100751328
0.168733895978949
0.17748897750276
0.233799229041927
0.263907182967283
0.221787982485141
0.281098707958024
0.176299248621382
0.228162730297699
0.180936663432394
0.227313465824163
0.170365839251042
0.273902641510784
0.25229325424426
0.178007454113671
0.221752054459075
0.27428654992742
0.233348639441438
0.23376241015659
0.274982627149163
0.281999975216037
0.228309325010961
0.172007442781358
0.283029431057732
0.230306768891038
0.282187260421266
0.225693596330855
0.163970023970036
0.21896367257831
0.172463822957093
0.273897421521364
0.222218161556146
0.276200420644842
0.271407143219297
0.27264960231569
0.27225184643943
0.215952884481259
0.268078840954015
0.178171691196051
0.27348672175988
0.280881132394246
0.252449096707264
0.222627407501646
0.219682102741626
0.226260422362873
0.278548661011048
0.241597812849549
0.222266043757514
0.27150798052781
0.282210868855195
0.284696182281719
0.276883963400231
0.27748730252814
0.270432978609238
0.277085962126522
0.246440002840929
0.224417745379635
0.283041181854315
0.268845701463024
0.226409999796802
0.280026855049425
9.50971723892438e-05
0.00660683218398208
0.00383723360179938
1.10572797031606e-05
0.00585738875313727
-0.000310340545772255
-0.00176217022633843
-0.00391084224043104
-0.00758479118958211
-0.0106307614450989
0.00229069914532382
0.00929097678776235
0.00398661416019843
-1.7632581944514e-05
-0.00101452138676361
0.00127719761769551
0.00146583802100377
0.00644230708746991
-0.00682842577443879
-0.00198105140913892
-0.000873698092434446
0.00151461268249617
0.0013125464883805
0.00620519919004926
0.00330151168688495
0.00704194110603233
-0.0052311117133686
0.00550602770458052
-0.000927761340716473
0.00277510548675994
0.00838571312390614
0.001958352962866
-0.00249844279835239
-0.00629883974358655
-0.000376469848219513
-0.00140553869293162
0.00467434195638983
0.00735041119696271
-0.00363136744218533
-0.000252146369498542
-0.00123606604195926
0.00538011334698178
0.00122796889004379
-0.000254945251240489
-0.00580262511673161
-0.0022116506084185
0.000436201922504117
0.000488685349950429
-0.00279500565592326
0.00161294930852514
0.00376387832289911
0.00749332681289442
0.00493933024767181
0.00265153547887097
0.0107158098877874
-0.00684712992345968
-0.00436759363617148
-0.00192059308271243
0.00409542071596779
-0.00185314592445428
-0.00328990734448006
0.0039401799890405
-0.00373206948398242
0.00644855591434407
-0.0036780588104863
0.00302689282767916
-0.00243927014233867
-0.00371723993318282
0.000869637298564807
-0.00245519262287277
0.00872973894332861
-0.00590810398341897
0.00461672299005995
-0.000666738373070105
-0.00269063266523693
0.00272755406572881
-0.00167297238880851
-0.00316860293886934
-0.00340362393068416
-0.00178516837672927
0.0064183001365739
-0.00411412102201089
-0.000958959445459376
-0.000709134960171572
-0.00184388775730881
-0.00239616909888926
0.00654196341226277
-0.00642693550588622
0.00119516038556862
-0.000332051818613331
0.002248693682509
0.00343593578429047
-0.000921910448555421
-0.00168801232537686
-0.00106241325777444
0.00558956490212931
-0.00468416393284715
-0.000524678781442626
-0.00415065586215536
0.00119148658690928
0.00274492185333842
0.000816485024775633
0.00055783637526265
0.00666263662438265
-0.00554817887938277
0.00900191164502968
0.00675616086010975
-7.54376789655514e-06
-0.00148229500245496
-0.00339367503340626
0.0104073888774675
-0.00574518985410715
-0.0050483625715587
0.00114273225992526
-0.00471903026524944
-0.00307194699306925
0.000559320409969517
0.00265663379518234
0.0151359803075562
0.00452362227427565
-0.00487589383794585
0.00471736945484173
-0.00327683118748401
-0.00525148118021146
0.000683628229053835
-0.00564232268893325
-0.00658004372085546
-0.00745158465281269
-0.00587713268654722
0.00269956638492628
0.0103461755493009
0.00102195284984706
0.00441357428051781
0.00304805696219896
-0.000399683968379138
-0.00140413013628463
-0.0105725315104977
-0.00251383497885611
0.00418115204812566
0.00721313934334651
-0.00673128532284366
0.00472991858601606
-0.000158997928756551
-0.0101860741523313
-0.00707552591914023
0.00159223806911124
-0.000388465714937882
0.000224530836433791
-0.00258322693908158
0.00234250982829169
-0.00574564392956238
-0.00912799734410099
-0.00784444581154063
0.00374226311101214
-0.000915616438637099
-0.00878928082671902
-0.00297718815606395
0.00656570258725129
-0.000474249343867954
0.00751415398957347
0.00132283991113771
0.00945863581182632
-0.00341083556247858
0.00196884306343853
-0.00562432471331835
-0.00819487462274201
0.0056282225702415
-0.000350502175883463
0.00809278921587269
0.00612109753080041
0.0116798705208158
-0.00148797410180941
0.0114182692670995
0.00659873632837439
-0.000330737841949781
0.00494839435000718
0.000722710463354935
-0.00554953918206091
0.00707595573092034
-0.00847352850338143
-0.00176605832820773
0.00249037302754938
-0.00413607196295831
0.00191588608514595
0.0107376513615888
0.00162203864323912
0.000485545814480448
0.0022187416640121
-0.00402666449763955
-0.00376606518338992
0.00289355421649773
0.00405611988603594
0.00637700112126056
0.00225668300858115
0.00601167542360335
0.000314115338091054
-0.00388426999833126
-0.0138093943134575
-0.00402602904065767
-0.00266455283231147
-0.00703945014013265
-0.00466838847588388
0.00021047254103838
0.000454761497675931
-0.00270748793604009
-0.000669464194166963
0.0057885509752774
-0.00490476643489319
-0.0074205329558935
-0.00534208750036007
-0.0053262432911869
0.000725848431908895
0.00410097551729252
0.000331129157445461
-0.00254230733414391
0.00826515755905042
0.00256966532352829
-0.00651901291795498
0.00461026904218438
-0.00559364966386596
-0.00560900096947628
-0.00718230186561721
0.00491420257836816
0.00600514847947635
0.0054733394852239
-0.0100998488718582
0.000482383446508235
0.00248116688029587
-0.00506769075337503
-0.00527862023255334
-0.00423272396342153
-0.0109838215795742
-0.00248586998066939
-0.00644900519959417
0.00513105573714717
0.0024675885170161
-0.00681921789520116
0.00395061996144697
0.000963107977254762
0.00869255799770766
-0.000546441279993535
0.00375727852589552
0.000584386738795772
-0.00925081469472714
-0.00740880909674936
0.00650327184855942
-0.00755186197242734
-0.0024537682254397
0.00542240827853283
0.00425419634587672
-0.000925399466304797
0.00212319715195476
-0.00122874315829134
0.000394247081971455
-0.00127984788221965
0.00276852227412463
-0.00667116135609093
0.00114064595702883
-0.000233311083118263
-0.00818389119800264
-2.05799297492094e-05
-0.00227308494273102
-0.0096067182024293
0.0103024581251716
0.0091710652680729
-0.00283081447661975
0.00255420809026335
0.00509039616354406
0.00512515868221014
-0.00422812400275164
-0.00150368983204754
-0.0109526745665838
0.00698894404758718
0.00589231546342539
0.0018639572454014
0.00090348785821809
-0.00571525383889925
-0.00120659776495436
-0.00428710321598542
-0.00100008020295853
0.00967361118949823
-0.00516759634491855
-0.00605841306958087
0.0046949930815902
-0.0114823585634133
0.00112672092100568
0.00296794028998464
-0.00376145464143473
0.00593420810977096
-0.0017444548403362
0.00468542133777174
0.00226614738773598
0.0058633841029339
0.00272926776171582
-0.00301545591724988
0.00296630355890651
0.00449604302783427
-0.00290085150200123
-0.00542960284480035
-0.0047593516016311
0.000720732209996482
0.000283346943205279
-0.00180899195178472
-0.00396219595356267
0.00255955391903293
0.00534750141333407
0.00383882543314186
-0.00412693508613564
0.000719434433195754
-0.00183200181340732
-0.00454736270922196
-0.00102386766350262
0.00317959827426354
0.00297557885831995
0.000371916362772543
0.00856969396488571
0.00651421206788895
-0.00231353134016972
-0.00109945020982236
-0.00465342210012099
-0.00405152170753615
0.0136815231961352
0.000522436920654108
0.00440600554564779
-0.00239628685370945
0.00135044696858902
0.00863503587933954
0.00643109209141218
0.00418370691844064
0.00384402565021759
-0.00320890749588013
0.00603723746857058
0.0024506125841428
0.00423571368801164
-0.0106153621360223
-0.00474839583072835
-0.00438253031041444
0.00310702658996853
-0.00029694983527405
0.00176742676741659
-0.000676377468635684
-0.000576841739331724
0.00624277620352974
0.00795967290772192
0.0018994553424084
-0.00686696523525351
0.00203418047187836
-0.0030077257913559
-0.00049390847059891
-0.00312799344504441
0.000815578742542614
-0.00994741758317222
0.003941848804995
0.0116386826040611
-0.00483506325801819
0.00379040348742032
-0.0019032613215962
0.00316690465704452
0.00338315671577213
0.000446994987981943
-0.00417516304519336
-0.00310011150820909
0.00259004810630728
0.00787611189861109
-0.00517399060826151
-0.00232153731960686
0.00135508501619309
-0.00328522914493956
-6.33630160853958e-05
-0.00238520686177639
-0.00160706403931654
-0.00520755126555688
-0.00672862167170541
0.00552372686546029
-0.00850706342915234
0.0032204760558295
0.00710117244188212
-0.000908367201132974
0.0037880580174963
-0.00781686833227812
0.00227261840950052
-0.00236427064797777
-0.00834430500254467
0.00172148816139863
-0.00355902093514623
0.00568629613769685
0.0030707276816635
0.00339128821633132
-0.00421429446517994
0.000770624133878495
0.00176029221858136
-0.00583624011645529
0.000842800343681269
-0.00685224089152765
-0.00638725196522774
0.00540767334186452
0.0086514495822174
0.00649198489505873
0.00223519276917397
0.00630549044139567
-0.00467506775585242
-0.000390353106589422
-0.00345149768965185
0.00441612847495591
-0.00183585287027119
0.00700434050880535
-0.00476592465655199
0.00779678606933854
-0.000611657374459806
-0.00203164262466774
0.00902629297797798
-0.00289141376410468
-0.00253539601095635
0.0064090473858094
-0.00132067165048626
0.00728313250941007
0.011668055782172
-0.00470421436874071
0.00223599808251449
-0.0133693976736361
-0.00781179770565989
-0.000237928005618014
-0.00344234293537474
-0.00453560540500178
0.00688465660428013
-0.00269762325339368
0.00134134598461577
0.000610260615949901
-0.00625046429561138
0.00512203981827641
0.00233540422670159
0.00136328292349012
0.00433321912686397
0.00140154087390921
-0.00116137287206398
-0.00324920521101749
0.00256991977727381
-0.00222600529364941
-0.00186614972717776
-0.00561173370478642
-0.00103190333529749
-0.00870499317773069
-0.00711131062396477
-0.00260414570503243
0.000234602334668819
-0.00511174142302026
0.0033561987518307
0.00910950537399497
0.0118194548824791
-0.00288683699640748
-0.00776337470736796
-0.00361325158769946
0.00475398298271292
-0.00933613714479304
-0.000810020498030277
0.000881558624782819
-0.00426276388690724
-0.00357286894618736
0.0146201297413284
0.00559337651548289
-0.0131279870584573
-0.00489967313837528
-0.00295716653059915
0.000583508994868624
-0.00364764588084508
-0.00574722711770281
0.00649084174706654
-0.00331961577008985
-0.00107049897332303
-0.00942502861659052
-0.000533240833848126
-0.00317135906375793
0.00145294959749044
-0.000444272173650511
-0.00235829272910668
0.0015973139478091
-0.00107160747526106
0.0128639392068156
-0.000231683762299134
-0.00136701580503897
-0.00415790853276347
0.00158658340465406
-0.00235364695053301
-0.00429881774272706
-0.00189990005093092
0.00484852354265734
-0.00196457477307858
0.00515967178776904
-0.00133217116803953
0.00573612123844472
0.0039511624291973
-0.00369724329980846
-0.00147609578078309
-0.00904197442958877
0.00280803250514243
-0.00226613267104671
0.00295232178548466
0.00654489105301112
0.00461479041803427
0.00643199291898865
