0.115681095201211
0.0978942859516787
0.131299135595887
0.1005834542048
0.101588548871045
0.0988580841790484
0.106456973416797
0.0794209391201778
0.0977200095325175
0.12172502349221
0.074255342247919
0.126110301510821
0.123635222753603
0.132569026682453
0.126520349228692
0.123082919555449
0.10358095503031
0.124591277884704
0.126122019933424
0.106132909875745
0.111557820875971
0.12652415784295
0.120211993246898
0.0967893653980365
0.0792664740890819
0.130749263945877
0.116494040953265
0.12221321351448
0.125642812408173
0.115605779640686
0.129979829380836
0.120572026048354
0.101507301197872
0.13429607183564
0.125958710574093
0.0967613460090945
0.0785201872188277
0.0988153135172819
0.0904880784146043
0.0970758478154403
0.11767738761272
0.131032798229092
0.101703795715109
0.12793308275379
0.0942719134127897
0.117558934268636
0.100417849054918
0.130194042303
0.126059312550584
0.0746938761438159
0.13431487571844
0.11391835120264
0.121467831488717
0.12574454613679
0.123915310420027
0.128372496275019
0.102930900309257
0.13342992469533
0.122416459180235
0.0921857630397648
0.100692761108472
0.104374551768553
0.0986669630322564
0.101635480918353
0.103834651926169
0.102594673335251
0.126652153330176
0.128529482749034
0.126668832812432
0.116646813647456
0.100818495188171
0.130619581017768
0.127067368165339
0.0882960358546849
0.13299951679277
0.0979989811843062
0.106623125150396
0.119331447435194
0.130804861714492
0.130145159525248
0.104155993856635
0.13061656223857
0.120261153717203
0.0986787737218976
0.105817155309053
0.122961957039221
0.128172934106007
0.0710788887602013
0.116304563973728
0.117409839726379
0.116480801105968
0.121699465420571
0.0993556644128721
0.102204020075281
0.124621231994003
0.118713888851567
0.122261386579217
0.0660160940566779
0.114903984832499
0.102981812303269
0.106063771850996
0.125745071525647
0.0953183419334037
0.129209334251675
0.100429643850545
0.126327783628654
0.117330559755266
0.123811157102721
0.101582135461732
0.12297741764585
0.100290060945793
0.115188453147235
0.095853355217565
0.0988948132309894
0.121562414817063
0.0954681628045342
0.126801441490157
0.124132064467581
0.0996566968854371
0.102554483590159
0.125722279975224
0.0977958995326605
0.120079769685174
0.126122799389425
0.104807253055163
0.127152997548701
0.0717099135553198
0.128803663440214
0.120174904704607
0.0984956262311498
0.122580512936135
0.10222991019981
0.0927587324151647
0.126905609461677
0.0941095616080013
0.131370133822658
0.12105112971827
0.125369369452512
0.125823478408938
0.0967453366091425
0.124598796613356
0.129763459961666
0.127998411350145
0.133114574262818
0.0959364388999226
0.135454178204447
0.124066061052717
0.123935698058033
0.0737330863049732
0.135306459732739
0.125515264920235
0.131651228400903
0.101237205017914
0.124678376758356
0.10820294868182
0.0954502412116584
0.122137229479418
0.106791977895083
0.108501792128317
0.0971439942972933
0.132914145916817
0.1357248901552
0.101718045116788
0.127564080132271
0.103682789541304
0.101226193429087
0.123046909488927
0.0827622911096311
0.122804344161824
0.0745164474138831
0.102483223808197
0.128414009728916
0.101258856684729
0.121991878958253
0.124849320450606
0.102450048242188
0.0628027248340995
0.124247274355171
0.126923415793787
0.126759430174803
0.074621749468288
0.128766038440375
0.126768882786578
0.100164391949166
0.126686051180928
0.131476858231149
0.115022607895446
0.10123115693742
0.100739100842746
0.1014688755509
0.12106206879164
0.128004183428097
0.134159435649686
0.122692586775294
0.0945117445014049
0.105768839824088
0.123783184193829
0.0942587979077956
0.0942423750649005
0.117962393029867
0.120939079538571
0.117734416358531
0.0997324882589515
0.123784021673139
0.122741045615268
0.0979124195172463
0.128100565819564
0.13031770246856
0.0687034448739309
0.0954592177345544
0.12535848242248
0.0696892906835124
0.0952793387661588
0.118925342284641
0.129117273574058
0.124225129688365
0.124527545920231
0.124436338672912
0.116725647715178
0.121953594687695
0.120655701153652
0.125883978354252
0.10456642939066
0.125179636825089
0.129012820737509
0.104228924115726
0.127661101290729
0.130241994141012
0.116010255554651
0.110488248847472
0.130621520059799
0.0954249245057104
0.0667245595524336
0.123468594410441
0.123705925330326
0.12887929926743
0.0818615198210243
0.122690743645056
0.0953894310555955
0.101744806430552
0.120127465128558
0.103834054396583
0.124083210622462
0.104008573378309
0.128377092092382
0.0988148635422228
0.107993007311819
0.0942863678320658
0.10417166140345
0.127887426115853
0.0998180978527527
0.0759544512191303
0.101755053346827
0.0997439495999836
0.100912252658261
0.0979776857061894
0.0703721587946354
0.099805928456156
0.106003792355394
0.0961634005324416
0.101206214350609
0.0725617067842742
0.103798417192532
0.0808790745206374
0.0966991201227886
0.0904781821394368
0.0946271964071883
0.101988162948556
0.0959824328340873
0.100694904385291
0.0897390421572615
0.0961670831754521
0.106865140714734
0.0980824008126242
0.100697115480381
0.0944516193243497
0.0772641640921425
0.066911574389224
0.0750425272340297
0.09266109133539
0.100394418978769
0.103604395432941
0.069024524843272
0.100803809353007
0.0745002463182384
0.0869559596611613
0.094734568022727
0.0809444131865895
0.100478543427009
0.0982456978171019
0.0993973727083608
0.084476806369199
0.077810296683196
0.0976280829464505
0.103245779626481
0.109708115962125
0.0926733037243911
0.0916135987146107
0.0760605807550752
0.104320906448482
0.0923363305980976
0.0794960152943395
0.10731720531166
0.0707723621187929
0.0815298055305694
0.0711875356890227
0.103642233174659
0.10163113161325
0.103575799926935
0.0996357736414082
0.0973738293684582
0.0725556842744261
0.106946911342217
0.101141847922341
0.101223284453534
0.0785597595795701
0.101966789978627
0.102470813841092
0.0715752084762473
0.104510106115693
0.0995035420345057
0.0951302880254167
0.104590988285636
0.0848433602681646
0.0741469603874539
0.0701074561107179
0.0824195412424584
0.0720163808089642
0.104985643244651
0.101727362667131
0.0753228315161391
0.100222164223391
0.0763517915284392
0.102324614392281
0.0735263312752767
0.0721330677563911
0.0943819777986524
0.081690758331776
0.105543119860847
0.0782039883311745
0.102904149925634
0.101079693866052
0.103048368969339
0.0717576698742857
0.0696448040531852
0.097066809802974
0.0765916020059724
0.0770917614674928
0.099968531164576
0.0974159863400419
0.0750222809500359
0.0977201686142973
0.098621264433401
0.0975199968736913
0.103009171271065
0.104079469767399
0.073473604648505
0.073486014845233
0.0716434889639251
0.0983881287703504
0.0777083462382052
0.0759002319728432
0.0709040024794192
0.101689178021524
0.0974837382585802
0.075193444439689
0.0767830265268875
0.0941957786212425
0.102914967615445
0.0976356234894064
0.0967968359121085
0.097520739863144
0.0759048385175633
0.0785661291624465
0.0940900202021792
0.109298008417746
0.105098815607978
0.0704981776750192
0.0713349157961924
0.106806574768612
0.0969860758473312
0.0965955787752927
0.0998346887380962
0.0677411142211811
0.0927981100250312
0.077252444145399
0.0727141057221082
0.100186950140269
0.0955073349895418
0.0796711109653821
0.102121359788675
0.104591414876732
0.0943735344718252
0.0985543046050912
0.0703629210777406
0.0991002543626984
0.0980302199322458
0.103310180720219
0.0960215225303948
0.0970023219266678
0.0707505898367857
0.0777322566113709
0.0899498483489777
0.106430390199992
0.0964852279737424
0.103600488225104
0.0987095482602704
0.0730972630476599
0.0990159663133619
0.102498821432936
0.0954435781027912
0.0751606260591232
0.0751406247861264
0.0984140245912083
0.0674504378780956
0.106742141298852
0.10800670638867
0.0983216184840252
0.100108006570433
0.105719248257777
0.0926387695531332
0.0980070858614563
0.0709353299951849
0.0978582353216991
0.10386194986014
0.0955777074217112
0.0832185797603628
0.103710496440671
0.0987196159282144
0.0710811225847425
0.102301275795966
0.0729665357453188
0.0896756168854605
0.102871366665903
0.0739264610122361
0.0762337542237472
0.0987674245642866
0.101590840187137
0.101045501224617
0.0965143822920975
0.0686474363517001
0.0693711304205587
0.1038771570931
0.0820277415612371
0.0702226186702314
0.0710475278117526
0.070807298261754
0.100391035321893
0.0769796714710936
0.1049037304725
0.0700194938539843
0.107694101042952
0.101698266591862
0.104375874973466
0.100934826277177
0.101070675379929
0.0932704322894818
0.0996116738091312
0.0961996105380269
0.0958826070339931
0.0721719222881988
0.07930504966511
0.0733902217010884
0.0679866624812381
0.0923273009428783
0.0876247103168302
0.0791935571144172
0.10295968724477
0.0816843878170447
0.0785821002791962
0.101334184501676
0.0985766814879349
0.102939424047193
0.094994080231408
0.101912645099308
0.0837232457065301
0.0942415896586142
0.0742230539470617
0.107700620049782
0.0687064260507659
0.0666300513298212
0.0978395254261314
0.09883946670366
0.0732175672199997
0.0982873100438987
0.101131795497041
0.0811989305122314
0.0670911663442898
0.0698602843506989
0.0996309322948655
0.0995033648333726
0.0807991419679287
0.0741961536589937
0.0653554529918244
0.10434413657373
0.0727494478875464
0.0747969264095177
0.0755504735334488
0.0890010768524647
0.0984808018807037
0.146430540077587
0.123768479168968
0.0992350205682361
0.054586829498425
0.121736316884441
0.150299671268369
0.202350273592663
0.122838022185217
0.128647689420417
0.107422089413484
0.101689557296204
0.077260506889616
0.121755585269007
0.0751025548477606
0.153238753653364
0.153811801891734
0.146446580844546
0.144909313578708
0.150739828359489
0.150364099378461
0.174127652715401
0.17333953049762
0.194646723379221
0.168655284821105
0.179659982311629
0.197348530562263
0.174876052959491
0.205225556379854
0.196680469723587
0.199173526000005
0.169466210291935
0.127232181630672
0.168879099881177
0.141793949247548
0.119262410161169
0.124114507545305
0.120463601694204
0.162540779786616
0.123355675715597
0.153797553099061
0.201412809040191
0.129340611017355
0.172909421362865
0.0852487184602044
0.175157033434681
0.080845644980202
0.178162338433731
0.0880627456822191
0.0738399516440513
0.0466483333094268
0.147452285434756
0.155433548678239
0.108553251767101
0.0747794853389004
0.146676953682937
0.117946340032371
0.162244504385877
0.0961116725127966
0.152037061980632
0.0539788797052087
0.154866832460197
0.192709288292709
0.0752607938787093
0.0683944362679108
0.145397258220643
0.0697278536979858
0.143970881222573
0.073688359341087
0.125311463877774
0.0770371734805855
0.200357339154656
0.120223297439111
0.148081667973085
0.073070948327368
0.150642592708584
0.062831376701261
0.154313620819862
0.0699914552987416
0.12536338954276
0.106945490253728
0.094608018856594
0.150428429564697
0.0771311881363132
0.126767340328099
0.171423178987871
0.117821064868744
0.14594194809463
0.0852492855355323
0.121316457821447
0.0832519671215931
0.125740717304974
0.123275345863597
0.0685130133304891
0.115501117379308
0.101866077676307
0.14306238312419
0.150497793137401
0.121230768342318
0.0731733695860893
0.0958651527598596
0.193713403448594
0.173090674792135
0.154313395830574
0.183870187200116
0.102928167825309
0.0691032964121613
0.204776171977053
0.16830291827195
0.186031839325755
0.170290105860375
0.174978582869466
0.191061925139719
0.150956184796589
0.151756026651313
0.152804961817889
0.193373395560645
0.125761195631147
0.103022156724056
0.206080615682699
0.125343347572992
0.118169748840857
0.0988572771612165
0.180844398570647
0.153724952195605
0.151928024724818
0.0827087810001428
0.0724896262918618
0.079506870961085
0.170082457462504
0.147758227442403
0.181120219419052
0.123851168706493
0.0775512083864872
0.0712836936785485
0.152178744972457
0.144110502645886
0.150524694702564
0.14930164132878
0.181465782191553
0.0979794766831768
0.122207303605054
0.148427731009192
0.101137724569627
0.0796486521886845
0.129398843130522
0.205876187472938
0.172812886462534
0.199364895770564
0.075438807266339
0.0413768708613028
0.153544390940446
0.126184560282648
0.145435394966697
0.125477593860702
0.199156317736364
0.0978230639026864
0.0728888747281184
0.124706417225848
0.130891138173424
0.15031808425643
0.104969884502965
0.0941156726504723
0.073399160025903
0.0997319393882309
0.123558109440386
0.1500674894335
0.118578316785368
0.204752150721343
0.058748131113428
0.131909469427986
0.147156958477148
0.151059233865152
0.17724442899525
0.109330162889857
0.123226900280035
0.11947772693308
0.152819865439184
0.120536993703718
0.0493647764745471
0.193501416781822
0.200167464577965
0.0842654590321404
0.177010148295515
0.145113976646773
0.154405764698836
0.138383231006494
0.0741730897770762
0.198431893907163
0.0845898613688273
0.202542437619426
0.136816566875803
0.117494996740085
0.121068030788488
0.13519679797077
0.174596637181766
0.15224988146746
0.128620662217039
0.0715726317209247
0.146985013597469
0.0924522135111152
0.129738633411972
0.129120728329928
0.169369557779375
0.12968609200752
0.144673557877383
0.0689016181549875
0.147116009970591
0.128295105264533
0.138001535910853
0.0760567853180362
0.120102772961127
0.0947676426173027
0.151161355163074
0.122807068736121
0.156237895953694
0.104634563408418
0.172214053547123
0.171102391315247
0.12124320501051
0.12892503580334
0.203698440133553
0.0995282410464844
0.12234164477228
0.152291443381768
0.127804338442003
0.127735371502343
0.081514705210431
0.192894781364726
0.196324109714982
0.168631065529697
0.156278475279622
0.123975540892646
0.145134583492068
0.129955424952417
0.137802164403982
0.124207594460121
0.203170206727242
0.074618033951753
0.173894690534447
0.130031936368597
0.116853206950382
0.119377276885022
0.0701335033377743
0.196924278273896
0.172857834697524
0.083542589823266
0.124425649448678
0.127058764112491
0.158227704163388
0.113472087161981
0.141421935141111
0.196330183083915
0.0743644788188099
0.0822600735771829
0.125232331160405
0.0792136512101796
0.153492696898562
0.213859919631696
0.157784856779444
0.098051817734341
0.20174602427877
0.0844063707723569
0.176314502188574
0.121060849575315
0.158870711677542
0.0763603545304459
0.124661041953107
0.0658299507624089
0.129020126302901
0.0969136479785076
0.105052275603211
0.0963102958986081
0.122626561763284
0.0746203645162851
0.199096455008324
0.0722794259971509
0.0441111895692889
0.0996037581961434
0.149747942991373
0.12738425395237
0.140045700464985
0.151460744662846
0.0673707309506983
0.14613173319848
0.0863359144957074
0.173966352852909
0.0779116304215706
0.0721566661850564
0.203187794357307
0.100770010011074
0.123779288921198
0.147955916748881
0.125241408173503
0.105539976433065
0.178097603062524
0.0845430069591201
0.157799109665099
0.149853494439556
0.0695547394417075
0.19572502164283
0.149412650213594
0.194164771870983
0.0608472397112813
0.203371974626604
0.0950709355543936
0.0732675478627978
0.0777854098807742
0.130520439357631
0.126282607839993
0.138904398412705
0.0936256366382675
0.124436735905401
0.173156466747825
0.126824831265612
0.103926799867126
0.143728233869013
0.140057835276434
0.124482894287925
0.208711232835215
0.124400222405688
0.127653396191636
0.199564295644273
0.201488773057155
0.175873726660991
0.121565568283942
0.175428823383587
0.0982673597291188
0.205653764578675
0.105773934427764
0.152592532842441
0.176470179726942
0.182127797845076
0.0774121407039201
0.12021459412413
0.203092199120791
0.050370827145032
0.209550933677418
0.14428944421598
0.132808418494613
0.148173966755419
0.170597040968266
0.0745547862353897
0.173108688181871
0.0734895363998841
0.131592781658334
0.102751570106012
0.049180484091017
0.205395744526788
0.118647156915959
0.0779755442805142
0.196777384917409
0.0992703003864412
0.12247005192738
0.174433413100034
0.0635313004251929
0.158666164699473
0.128809401115206
0.134188135536025
0.15840658177996
0.198176123662637
0.127912021609603
0.119503120392021
0.093654123506632
0.0759653711952358
0.121096086970498
0.158632084361109
0.119045172263852
0.0485396825862592
0.150145207107407
0.131195965972943
0.152045704379873
0.127108111736404
0.13022984639343
0.152653581827607
0.1264254361287
0.131316742101854
0.123175136843403
0.170088518735924
0.0692039107205932
0.0894405997234044
0.121647198929556
0.0762504506868604
0.19831710962208
0.14789808856115
0.127133314233232
0.10693025880677
0.105172988835965
0.20381208700044
0.17048164832102
0.097198818694945
0.101119609753318
0.177015141308578
0.0988878887301454
0.127870151195942
0.180948940453219
0.145690299123274
0.107922328347215
0.0471490106665129
0.145340715761753
0.146064131283205
0.178051055000268
0.182351152172072
0.13388631837658
0.176680235098052
0.134360485804021
0.130321350130166
0.174708735858642
0.202469960140123
0.102429679173754
0.145527301841185
0.152797784401035
0.148098915124135
0.0943714704516922
0.205815342694947
0.0976116035865796
0.178799149689369
0.122413882385941
0.181202718191792
0.196820616241129
0.126771742146503
0.148845210898036
0.193250880687047
0.14991745636761
0.150109750169709
0.128921011575519
0.172646430315518
0.0950517992988906
0.149520984154275
0.205735536112288
0.157781114050883
0.125899267657124
0.120261151945747
0.143710489354325
0.140253004872103
0.154658050549683
0.119941879035427
0.176324372583548
0.176745871346411
0.101658960817139
0.153691989772795
0.119847639965593
0.151168003640853
0.124391669112931
0.178047131145165
0.0742014050836573
0.167365895484273
0.15210854335524
0.141393734068522
0.182522589576611
0.147910936191249
0.146279143230524
0.0748931864224638
0.143184924838402
0.0995498996002616
0.177006161256003
0.152260346064229
0.190858572308532
0.0879130767945099
0.119582613421957
0.124561005486129
0.126273739339142
0.148796718080182
0.122817895880006
0.152676286057101
0.070459254082175
0.158531895251416
0.178577504265934
0.175064441338031
0.099500093093376
0.201956633866685
0.0758525186282173
0.0471985538303788
0.106632533032581
0.127798067276773
0.106586256073877
0.127048609923273
0.145342006041788
0.123409327662019
0.122927225466931
0.17339646881863
0.0883894942562086
0.173207308906371
0.196128355018466
0.0955936708960633
0.0724047466881318
0.0499189230059716
0.104027554936147
0.064517109073566
0.197160286969711
0.124094612492435
0.198945489625169
0.147672003232125
0.125557619817452
0.175691641576333
0.103191918553618
0.102536665681051
0.123903264165956
0.147150261700207
0.151870717076074
0.144658372083653
