0.0947589928022615
0.0993886714670198
0.102951572871301
0.056854616782396
0.0559448366602915
0.0546384466205754
0.0997214970399439
0.0954776482582896
0.107241156597505
0.0951853147727284
0.0969206704193411
0.102621577405199
0.102813037215415
0.0536150173605645
0.0990070584741898
0.101408688522344
0.0469984713333593
0.049065077883383
0.0477678109662853
0.097726032286549
0.0519225130764073
0.0542436807088881
0.0559975467123809
0.04899583698876
0.102349491944634
0.0942975780953669
0.106016209024332
0.0556071712966772
0.0518649879014581
0.0952999068084379
0.100507343158571
0.0983619557954234
0.0411246729648035
0.0988150024497118
0.0575997733263865
0.106540015164525
0.095687705269782
0.0954438568602682
0.0531545075394145
0.0421910778968826
0.0959911639573906
0.0948445969937766
0.103933802029677
0.0460099123167641
0.103586122644282
0.0989235068861532
0.0999226607682946
0.102340232562178
0.101615966790595
0.0398109807596665
0.109443820027762
0.0550879126674821
0.0971563850660664
0.106336146667688
0.0982676888066341
0.101340721531876
0.0552272830212598
0.0461670170097496
0.0638982275500175
0.101754073830572
0.101538748625572
0.0957927680114081
0.0500312496745284
0.104769700506091
0.0547005579193077
0.0534445556819534
0.0457882829793986
0.0527073097350879
0.0467947594722509
0.104196585694637
0.101357945667934
0.0515215609230508
0.0446422526498391
0.108061565147645
0.111044858100782
0.0527099795552255
0.103037827764676
0.10195040577546
0.103322170463511
0.0526248181017071
0.107710980114321
0.045379724757804
0.0508225094927537
0.0487229081924872
0.102027279526597
0.100602150527942
0.0558257343777568
0.1001057930784
0.0456578813942715
0.104697113748226
0.0943361561505627
0.0991853751830165
0.0983844559898117
0.0546909962943133
0.102190282976394
0.0490994510534597
0.107078701850169
0.0434749911837692
0.0976925808813059
0.106888636371436
0.0495032138319765
0.104468115108246
0.096886998220221
0.100395733643963
0.102044938484558
0.0992907296720936
0.0968122852531442
0.105768386737387
0.0953868035653199
0.093729979541673
0.0995938325592458
0.101361408004885
0.103551615492057
0.0488573740369308
0.0444933645865331
0.0535709950610648
0.0427736033490317
0.0945736079427153
0.0986581088126808
0.0477373696106092
0.092873047422338
0.0887920492535114
0.0968279735346259
0.0459295003512259
0.0967398658692274
0.0987918063103734
0.102635182032783
0.0889440052226444
0.0985764615238874
0.0992333804092368
0.0915341726236849
0.0452045110911042
0.0403822529103803
0.104273999915148
0.0468255977197172
0.0599197081456841
0.0963726886824878
0.0545448431969243
0.100722935145042
0.0996507488200296
0.0906485705696689
0.103848389252274
0.0553568122512456
0.0949850061833308
0.0968920016079455
0.0540717879117971
0.097760084080665
0.101819708657513
0.0959610295641141
0.0534933625057451
0.0944313226663127
0.104079616403059
0.0575367563910366
0.104755972079297
0.102330638782837
0.100597772704793
0.0487672479017543
0.0522956752038291
0.103976671435352
0.105441008300652
0.101398866080183
0.0975786168182848
0.0956921340221592
0.0498845289970659
0.0484801237549975
0.0495935682145754
0.0428143994929155
0.0530801114294109
0.098941176541193
0.0920308595744002
0.0462605091292662
0.0455185107901747
0.108307492397991
0.103209367478233
0.10601982184912
0.0900137696423766
0.0450652288917478
0.100317668653041
0.097943822481587
0.0575561404480529
0.0922073107257297
0.0922244914978894
0.094636340118593
0.0911242766528636
0.100213592921664
0.0972057976764957
0.0560622979223136
0.0998626957610135
0.0894449327305435
0.0950410255153935
0.0940306626412979
0.107294838801308
0.0980495032682776
0.0499488650840981
0.100448050724182
0.108253178916671
0.101884453082903
0.109289585733048
0.053786812073858
0.0427139818837376
0.106574992732413
0.0899602097795278
0.0974262054212799
0.0501651626875108
0.0636275125824219
0.0493602426365422
0.0963678910469974
0.0493490035939743
0.104343536555347
0.0469109502608214
0.106452384428912
0.0486634146142851
0.0913305635047137
0.104796448461847
0.0411300914156432
0.101543449721544
0.109680667376681
0.104173632935449
0.0990386552521433
0.0474288119699059
0.0571369889246161
0.0975919026782188
0.105191432622237
0.0494753214648752
0.106433330060904
0.0996397861051744
0.0989287856120478
0.101631949134187
0.0443641441951409
0.0963168191592267
0.0434285952307085
0.102235432821056
0.0412245004603007
0.102324895106479
0.105966209969808
0.102182232636218
0.063622629070403
0.109120866665537
0.0495587172714693
0.0997089707586328
0.0989692169115563
0.0514692389077245
0.0993848934440874
0.102282426936848
0.101764684003216
0.103958382062166
0.0996257396384136
0.09507584546711
0.0903753511048391
0.101934206826874
0.0740087407703694
0.0725102008433909
0.0521030559817479
0.0836867757574235
0.0786523044719174
0.0561252040162226
0.0756076736794528
0.0845133442672566
0.0528995888282307
0.0741524367568775
0.0647930781994151
0.0851664037826975
0.0719016518258089
0.0705141277305805
0.0694524452604277
0.0443793514957527
0.0693388011996815
0.0798999805241632
0.0796314091886996
0.0681686716748045
0.0707460799881345
0.0490499970819372
0.0714276546957647
0.0453494735946727
0.0535451274289151
0.085811822402395
0.0486889430204348
0.0442820341237083
0.0541098160266376
0.0785609647457321
0.0526514568346097
0.0695132809694554
0.0594080892645791
0.0745127420651007
0.0791127936622992
0.0779389029394232
0.0680866951404416
0.0670356501234318
0.0761841962923572
0.0709771235913498
0.0758589422525173
0.0588138257894868
0.0771708524049326
0.0823783683497666
0.0700360342964707
0.077878266009749
0.074965236812071
0.0487049590323089
0.0467966946952948
0.0731903828628933
0.0483101544212693
0.0729166039365944
0.0779683892336358
0.0714748230427582
0.053653185141861
0.0827543096885531
0.050365152425365
0.0721575160564989
0.073019361331262
0.0704855098612223
0.068144339711632
0.0514548991489874
0.0743336094625666
0.0795914864148492
0.0500275249956196
0.0789802188697802
0.0487047766731164
0.054695884109029
0.0680585572922995
0.0757898283949881
0.0852897166276763
0.0759351703896862
0.0761036215516772
0.0688898347031319
0.0775319275467355
0.0734617034319701
0.0770960929534748
0.0710430404640624
0.0731235671503191
0.0654688124103624
0.0846711152078705
0.069256474573071
0.0753070192924881
0.0489785731574077
0.075698555265609
0.0555238793490744
0.0780902911572725
0.0547966638505076
0.0759297345421257
0.0664992267634765
0.0782842490580709
0.0801594595470241
0.073072571131701
0.0751355475835713
0.0567843849597192
0.0532426308424568
0.0759822036196267
0.0508395699449899
0.0444734873905621
0.0484480266940291
0.0404371635602763
0.0658860154415083
0.0677467440647044
0.071899582311208
0.0527528060506704
0.0683942097882416
0.0661425335786163
0.0474242871668349
0.0763131407824679
0.0776415423191293
0.0825699013964993
0.0715847142219688
0.0708642085584757
0.0514493801532789
0.0737182321139178
0.0796911788862378
0.0502018350331315
0.0535709007967124
0.0430862799979023
0.0489918331816823
0.0486788470438254
0.0764463425672994
0.0511423167775789
0.0845963191810145
0.0697797038059267
0.0756448710235932
0.0513306426994044
0.0659967002214114
0.0757416989624182
0.0497663615433369
0.069591903831554
0.0459613455546196
0.0447041833549487
0.0544301350683894
0.0732198347076819
0.0779527015775676
0.0794107222458389
0.0808795981592815
0.0738929116749898
0.0732380691555923
0.0754210412923202
0.0783814829739609
0.0793514141846679
0.0695118187724532
0.079739581514145
0.0464725040206294
0.0750915452034864
0.0724335161174795
0.0689219252891575
0.0507812420580529
0.0800501696634195
0.0537786459404702
0.080637392600074
0.0778012133180058
0.0725078151200359
0.0685174573503237
0.0523511802952819
0.0509557381795737
0.0702298418896327
0.0741898737513069
0.0735809495860584
0.070571595073111
0.0426582678994824
0.0750810191945322
0.0441831657077281
0.0735380665532789
0.0716361493429663
0.0763476886646254
0.0505556423944037
0.0737178851073629
0.0518925587653586
0.0788360613183151
0.0736356177747364
0.072890751156443
0.0657306334815281
0.0473082601628068
0.0787145179658252
0.0772218785774868
0.0715329820683973
0.0805323100466388
0.0761249167360416
0.05125270301937
0.0467637489036907
0.0788232221243708
0.0483622328785139
0.0452705998621121
0.074997952729127
0.0695191961668604
0.0784027630400459
0.0455779659900853
0.0503768060078174
0.073728059087689
0.075963306195588
0.0479662752059313
0.0772459202905827
0.0691179705671673
0.0701165852893934
0.053114160299933
0.0701512687742163
0.051311237828398
0.0793392440681973
0.081640136294833
0.0725743838652081
0.0820021308419152
0.0754197100172486
0.0770112750001698
0.069484558435908
0.0637533159358019
0.0708860579416982
0.0730952713655996
0.0741342447889062
0.0829969950738358
0.0424603306151773
0.072887627731362
0.0743184302048754
0.0630829067668948
0.0568016672760827
0.0773938450670234
0.0708874832306238
0.0490503497278561
0.0746437247075807
0.079311455400264
0.0417850933322029
0.0747545976173422
0.0786198596192248
0.0504948334275363
0.0798770817688623
0.0445236512862162
0.0793903339967209
0.0767923760447037
0.069584043304173
0.0790967753667852
0.0724947841497201
0.0711347147887658
0.0837413009362262
0.0701268262845401
0.0664256788884577
0.0684969284993386
0.0478276263040412
0.0719464262638438
0.0798648344993989
0.0761186531830953
0.0817844131921423
0.0743517327847411
0.0801189993552701
0.049998562283381
0.0816485959166107
0.0527380228297219
0.0779734798851412
0.0718480910065032
0.127512738644492
0.115188846066843
0.098627626515898
0.0732640688700038
0.0820166386982307
0.226929079766645
0.175565940588428
0.19530435889124
0.082693192939626
0.170077989772641
0.195499399885992
0.158848635028508
0.15202029597836
0.176335248220531
0.142823421074368
0.225490837057677
0.130627335983351
0.168632473715213
0.199886570591607
0.183076756133749
0.101252168640302
0.173220944119965
0.223096463865791
0.156084489238307
0.173897798613561
0.104403190322748
0.101990941406734
0.220974043572399
0.128141238438751
0.113302003078996
0.178961014226896
0.097181744695308
0.192187431803718
0.11018696780338
0.100553554386857
0.223690391125688
0.194395269698095
0.211963281558259
0.0985337530489029
0.0769380385280557
0.126419335281547
0.100251234090361
0.222931929063365
0.155943302315511
0.169994401076921
0.224453483043395
0.198180797756157
0.0632699180512431
0.0443335356090095
0.0936244100662336
0.0710168341019689
0.225830478523006
0.189279069649567
0.19194330066571
0.225957748371518
0.182357032577877
0.201082429634778
0.225222921858386
0.219753315279357
0.204937545748052
0.231297017080357
0.201669702646058
0.0779098087791162
0.0538611263493391
0.129157812609815
0.148978054513152
0.204925817205678
0.10399162987196
0.192264643405835
0.174969442176617
0.22191119350207
0.097188870944565
0.123221688882434
0.193579433144778
0.11988133727556
0.0799359074145755
0.204324052103001
0.217024816530021
0.071370002756726
0.195305755339074
0.173979086161932
0.170771481914947
0.120397599874711
0.127837318531575
0.203656851027991
0.18972004567335
0.128348530939952
0.22077943759443
0.168152090271927
0.0453570416856628
0.156349464548371
0.0564086698393187
0.0825905126669691
0.150482826144773
0.204302393767341
0.100111975045944
0.208879792671172
0.128227893840843
0.225587851710792
0.084177584795776
0.123767995327463
0.110929912280714
0.124981175287677
0.118139469365183
0.12961221088823
0.13075273928871
0.226635673276293
0.223138651325363
0.228252356381828
0.129230107791897
0.104009716425362
0.175496165676037
0.196229792420063
0.17698861029711
0.142568886213145
0.121229829459533
0.125538285099507
0.0745660192406823
0.123441443601027
0.0582533640439668
0.124261555093427
0.100131524563208
0.19449884614941
0.149180800955092
0.124974922559983
0.172920932542424
0.108902493576841
0.0482314655538987
0.166825401668497
0.118129508853379
0.222323535376718
0.202050944087068
0.128569880842521
0.171100723838627
0.215041690322212
0.123943550525084
0.175573228480227
0.123291490468304
0.123089929228695
0.196826468383485
0.0788727644635436
0.130057956935213
0.10626997698174
0.12187565540506
0.0706642784761353
0.101504323002018
0.100416214912867
0.10211379419821
0.0677682410285021
0.192883394982924
0.10231856544085
0.177351726351283
0.123042949218919
0.0981381291805768
0.125364820743891
0.201080045962201
0.0939090589842023
0.217971185790199
0.20562638560728
0.131642529988578
0.221516326168577
0.123620252044455
0.205303119268898
0.226015124073653
0.124307199055547
0.126949821623971
0.06746883698623
0.22963857794773
0.105025007903662
0.117003675311721
0.174911999984509
0.0787769728807651
0.172985675498689
0.103417269145599
0.136672612578757
0.230399524138246
0.0951643979028471
0.102334887688128
0.20062152265576
0.124229206100412
0.0841761489353448
0.173163243400247
0.0826059769859925
0.14698238435224
0.180303132683573
0.0824200292043105
0.196679106005665
0.146688753913441
0.077925394930419
0.20308406326096
0.0792475166686048
0.0985579562439106
0.147583620556206
0.0735327745632973
0.174932577023462
0.0817790181690041
0.155445457943273
0.224804140588687
0.173352940315027
0.076375795854665
0.170144855251141
0.178010856037519
0.0526290587915294
0.123359391319986
0.145893239618081
0.219114055865487
0.22140904831347
0.129914854296773
0.0715876077159773
0.067202242687353
0.0719547668897892
0.17627236122761
0.128522758851676
0.23187255854404
0.197274688428525
0.0743712410220844
0.190322907507465
0.110847264537305
0.229906133620825
0.151642225557043
0.121764598693053
0.160613776531642
0.0488795428038927
0.0944975908833797
0.086026926925133
0.10766271803891
0.126886000622374
0.122078766411306
0.199418916142064
0.0921706455884801
0.075978036786481
0.0567916684325368
0.106832790333544
0.198758779069453
0.201126456914891
0.220358432416934
0.148584666929691
0.178502774626778
0.126437139975149
0.195101774839306
0.146452460921671
0.234678455152128
0.0743594148007863
0.0760909505027564
0.220086525067507
0.231821764520442
0.194834486188644
0.198693097662183
0.117799228848499
0.196690163746794
0.193162320419824
0.097590765145697
0.1739573674044
0.0994219036897381
0.179620562601625
0.123305140026077
0.173304192116692
0.193586545561882
0.149947328237779
0.176724948681479
0.199475993533812
0.149854941924883
0.176504845280116
0.197656044906102
0.147499783811689
0.13359968629725
0.224833495213177
0.0527523270009381
0.200606910774473
0.180372522835049
0.110632183566164
0.196894084546592
0.115342458116997
0.186321984463318
0.20248803703896
0.123598060421903
0.1243679178218
0.200375893440961
0.195010066279578
0.177061319558662
0.225262380679767
0.14292388798004
0.167575074806679
0.224500620101406
0.152684420086433
0.208954665889196
0.228609113424755
0.218403313759809
0.147817194740743
0.0774138534135793
0.0947158949315911
0.115933835852284
0.127706172705244
0.222782706246832
0.19864970408155
0.131897391101595
0.231748843780053
0.205131796254136
0.050156042483925
0.13090197986949
0.194614506927903
0.100131465817941
0.169912880435281
0.0967443654962418
0.153336491547639
0.185463901968637
0.104285403008548
0.0677547603825933
0.068518656186347
0.1769764790245
0.0785215445502038
0.0712478355453458
0.0979376355586427
0.100747869662275
0.175060960609197
0.0472864238485926
0.2318211642261
0.0507970073510688
0.152382471344772
0.104233089494052
0.125552610257033
0.176562368190685
0.224257424037339
0.130524350193934
0.0768447505025358
0.0972396515613866
0.173429911622684
0.200881068182988
0.0965645588080328
0.225138209944157
0.137468787797349
0.194381542838051
0.0759757567627964
0.169319560407207
0.165465165174937
0.044813475499318
0.146944068314145
0.180052352413871
0.0668285283865287
0.147919626757839
0.197312746070149
0.201932432228914
0.0772512264631586
0.149495455698346
0.123777372182412
0.149337375805338
0.194910537552191
0.162040517403587
0.0800492981155867
0.0755126298630884
0.0788310817615447
0.170005391929628
0.223555613788542
0.129649271991124
0.177920555391133
0.124479523335534
0.200891300609782
0.172425214249648
0.176588751509079
0.122562917789037
0.178769264196072
0.198926228407475
0.121717570834456
0.0440368190199704
0.0744217865087244
0.0735428045996924
0.122350171386485
0.131339810657464
0.101836216364049
0.126767000638896
0.183571238516907
0.103039951209241
0.175434254312006
0.171700448828002
0.171605512490575
0.17117431223246
0.225714535824726
0.122129820954817
0.179771474011647
0.103088365147874
0.0942179411417882
0.173366331916244
0.04553023872545
0.225950165807114
0.126258811195442
0.116996275394966
0.101262662803259
0.0700450402978182
0.163914705300103
0.0523747519895537
0.206157026008544
0.16520641840853
0.13114330886157
0.0995318104921293
0.13314629968944
0.0748562578632589
0.226835516244201
0.142120483098878
0.128813656222016
0.121730006428177
0.225407838401961
0.0813258995262202
0.22140369857128
0.154933158860688
0.122883492816972
0.104872700211298
0.0914286255535052
0.153823948385065
0.121752942653413
0.0763092035420602
0.069183380743688
0.0716493022425513
0.0778937977314759
0.157317616055313
0.195166340449521
0.0941394605219338
0.19687403209594
0.119811660987775
0.168794862213406
0.102761269336056
0.125233854529019
0.172674911721511
0.064299541936186
0.171356358974852
0.196330588789742
0.0706680102736188
0.1792641167244
0.200418824994633
0.115987762907301
0.226511394585702
0.107309316632732
0.204744125430517
0.127463471739204
0.0986333465845926
0.195062348932934
0.225218947210313
0.203490345225248
0.125305434909523
0.0743338160057074
0.180613646513495
0.205361615517599
0.097653243510441
0.196769758487182
0.178177380945829
0.202701921256891
0.13033517702786
0.21787306331941
0.127424828169632
0.19637056716127
0.074327812197214
0.181129178557907
0.202703317245696
0.182119973680663
0.195888102085739
0.0993712399552448
0.175661443636884
0.126508238893845
0.158042526152464
0.136270342395733
0.0423355513394067
0.126968156264191
0.208454826156452
0.12309973162247
0.128799956490148
0.122685939220614
0.172345941349834
0.117087154849654
0.18077555074549
0.209079405987949
0.226302682641212
0.197156413297238
0.134549221954819
0.204359844010048
0.126680999926282
0.0709664752613395
0.123973966509317
0.173153425329983
0.151507213878853
0.125539198052967
0.0745789693096763
0.196545530601932
0.0794377913395045
0.195645441492013
0.146018477645105
0.101347253592602
0.15130282828687
0.225202978352123
0.180862820438469
0.0717183457113465
0.126642962579516
0.102554632250822
0.141040491605419
0.225539216464318
0.224361401924452
0.123229939161883
0.150888220097207
0.125083884407996
0.22174770155031
0.202015606936655
0.103919310674378
