0.184620913997871
0.180263936618607
0.177327826575272
0.174290487882033
0.181331103354914
0.178005303562431
0.174316494195856
0.150525375443053
0.174360093508722
0.176676156008831
0.146529606200022
0.176418858625481
0.14260548459993
0.16413399943281
0.169695886359573
0.176056225035412
0.180939435735037
0.17802153745906
0.160747310662119
0.174421338521339
0.145998521577224
0.150768457501405
0.176066304863157
0.15148124794526
0.18225991818562
0.175293920407623
0.158528483670455
0.158352710439235
0.171857867293632
0.168420376788978
0.182455636650848
0.14389456119654
0.175620734325133
0.169177249016118
0.170286088251926
0.147970897708974
0.154111092695333
0.176498406545
0.176521208590226
0.132523897934938
0.177142329320485
0.174960340721246
0.149647010370451
0.152696653033059
0.172276713838451
0.145204558606519
0.174812659115112
0.154592817237513
0.145373534480068
0.177997336668198
0.181545568176454
0.150454640651795
0.177638860500794
0.150805779755486
0.146326637289019
0.175898198993555
0.146484044999423
0.172370995918463
0.153986381227606
0.17307096202232
0.172687213451359
0.173497083658872
0.143963636701477
0.173064849621492
0.170785352765514
0.17907646108076
0.173593758062519
0.170068577726057
0.183465654806851
0.183879890983958
0.181305578037202
0.185455550945562
0.154596761670968
0.182942271759376
0.153312326343103
0.145352766251637
0.152911338780561
0.181759858936057
0.153773535894858
0.13788182890499
0.151182749556496
0.153616975978072
0.181196410483922
0.174293569096837
0.17677037375552
0.173805581007867
0.183229105503933
0.17864867445432
0.175840376983945
0.168548976155352
0.150008287691052
0.17199839602207
0.180541015238457
0.17553630873266
0.181053418893566
0.143485314616042
0.171945519147845
0.17470145529174
0.148877175056495
0.149484212343346
0.173359144788621
0.159467473006672
0.17843327794757
0.176825354215847
0.173151984136257
0.175337916684468
0.169944387624516
0.149278716252696
0.175488337813586
0.155349669081589
0.171824452810902
0.139231054949925
0.167284659199748
0.1457024569064
0.177173163182018
0.151963318483535
0.168772348836542
0.169612594732426
0.177383494496462
0.150360683211656
0.150576127284495
0.181302895408348
0.180967967932932
0.164557374656934
0.150808008353525
0.173209695582913
0.142196714596153
0.146132114304044
0.180997298706377
0.159725107282988
0.149862724602249
0.176910935088552
0.144121456525778
0.176191437614886
0.145231026819158
0.170838931688989
0.182507702369069
0.177915820950816
0.168208728308115
0.142509540284789
0.146281936536332
0.179265121902034
0.183517835567364
0.176271505595199
0.151329282933949
0.155562832890584
0.164190668505665
0.175105668965258
0.168470564801986
0.178682525442527
0.154830721674434
0.174755982844823
0.18209322149372
0.147524216594751
0.173955915153165
0.149215826613438
0.152608043417986
0.179146224858368
0.179578115229
0.177843477381911
0.178852740334671
0.174867792582003
0.152430184904072
0.177873100079352
0.170940927891018
0.172319023300503
0.17355340142567
0.172980072334565
0.154256434483561
0.152131084967733
0.169162544290218
0.150541798806478
0.181310983191589
0.177966588636928
0.181923134517871
0.148399252469571
0.174842042801082
0.14751110599593
0.168230352648268
0.153368223711406
0.141167068810962
0.179054144229644
0.16866781218792
0.168256448252555
0.149010955358785
0.174571418237917
0.179037937955176
0.148728180773857
0.174557164227304
0.155880576580372
0.168093546639839
0.17207639738014
0.167548084629156
0.176008882677141
0.145221686706932
0.150745475878974
0.166321828869577
0.176391152818328
0.169547525936483
0.181879947617722
0.174375087919017
0.15388267303987
0.175074379083689
0.184656757990892
0.179178768276487
0.146680115117739
0.14261971890689
0.173485478567053
0.151249224472413
0.1747158618288
0.154682360487716
0.145796795145257
0.148029569561934
0.169858957096582
0.141490636376129
0.17002759167069
0.172505809909191
0.155869847950182
0.152401786984295
0.172451967805431
0.172569276695378
0.184733943799269
0.173586201118362
0.172624719212168
0.169068213484992
0.179224692302999
0.174570704953277
0.144045429419081
0.147474838216175
0.145850280447462
0.172341770943004
0.150492590259184
0.17557838469626
0.155338714326101
0.142894071710899
0.17836700268698
0.145408981204291
0.136281811142553
0.172878219089834
0.184359530873456
0.176665576082492
0.14926360026099
0.167545188413096
0.180760059643024
0.147879950000401
0.141598567379592
0.145701203217098
0.150907967632961
0.183418600356936
0.178516366781384
0.0715573999886018
0.0647449448924736
0.0709452228079812
0.0775526135163764
0.078957044954112
0.0672282451540763
0.0771843921434283
0.0776681010823383
0.0738548894927035
0.0809979224152103
0.0810472098102913
0.0768348256678345
0.0775690095679787
0.0791956344530276
0.0818403419980121
0.068041718669724
0.0739784660321201
0.0711065184251567
0.0742581398346466
0.0685524729987447
0.0766206823019766
0.0706203463827035
0.0758012638639566
0.0703983999039227
0.08007038802058
0.0783978421738549
0.07340328903112
0.0782444520421084
0.0814035633997862
0.0821009481452997
0.0784757490816578
0.0771591862486899
0.0721934134646882
0.0694724355785523
0.0759783321537374
0.0747941021694911
0.0728511581507105
0.0724384124880189
0.0825193368691484
0.0619518504441404
0.0824935082389097
0.0751182654761447
0.0829726447980821
0.0740369353062942
0.0759150736864146
0.075597048567795
0.0758580054800664
0.0741111779937366
0.0686884570721079
0.0768549829294445
0.0692871161070865
0.0793670670477112
0.0678300105773642
0.0701544197612253
0.0773403650859244
0.0864005884537588
0.0753929039661696
0.0827730527283132
0.0689354705123282
0.0869445262745382
0.0700364925920507
0.0754074056983262
0.0749160788710373
0.0697651253939667
0.0803630364739276
0.066675286198538
0.0723396572196929
0.0722858541187495
0.0709075978721906
0.0715621059994408
0.0754266378990572
0.0801279083353431
0.0793082529290383
0.0640001315547005
0.0776105134775623
0.0702206065101103
0.0767639452443577
0.0775612449832697
0.0780955407121362
0.0795809565898284
0.0814705018334673
0.0822196018681607
0.0782573212625752
0.0693038943109523
0.079797177250692
0.0746271868799091
0.0755482773746901
0.0823242558386516
0.0653697124736293
0.0741764349150929
0.0763263210086041
0.0727852707449416
0.0752001575610184
0.0813467439245315
0.0760236071280286
0.0752983564590057
0.0753312501108838
0.0738127194459715
0.0708888849851248
0.0740877152371749
0.0724312577529903
0.0715333692124317
0.0660643871077332
0.0709625620723433
0.0756789923568099
0.0795243376482786
0.0783012371947347
0.0823469530067672
0.0708694981931299
0.072666310989243
0.0717674794394104
0.0796478252746264
0.0678927468364083
0.080949630261107
0.0807588528657772
0.0685381078791046
0.0739078719949364
0.0800541217472442
0.0693669399139668
0.0756352147711139
0.0720340531297663
0.078840625578722
0.0790133587611822
0.0736221975063557
0.0749904051015657
0.073900255524482
0.0826482886601306
0.0761312255511165
0.0797168358779434
0.077368422928483
0.0739238678258504
0.0781909249492451
0.0730286388801306
0.0805652669232042
0.0751178593376241
0.0684240394655574
0.0753974686645621
0.0787160956517701
0.0797340265038571
0.0800424469732998
0.0804391079348037
0.0729320517363437
0.0784235977548171
0.0666447166153771
0.0720252420978127
0.0681088990338871
0.0693284552084786
0.0717844947519893
0.069157308314072
0.0701437278353438
0.0746517594062533
0.0661831150383497
0.0727135585726559
0.0772496752437646
0.0676239456000317
0.076664663256324
0.0746821084051342
0.0729325444194318
0.0761458989315967
0.0807141557695298
0.0800735848763915
0.0723643150817752
0.0795930579608944
0.074473373230267
0.0775311509118142
0.0783440261922089
0.083158329088441
0.0784030070929117
0.0836710033724665
0.0751652065854501
0.0770676568881432
0.0671946482931315
0.0748157469431295
0.0838116357077897
0.072957114441754
0.0731891884583915
0.0719952639842402
0.0848990150741311
0.0706155330953508
0.0741248952693355
0.0762763640749314
0.0769891992853879
0.0684149285984866
0.0806582430421455
0.0778885248244903
0.0735671033881865
0.0756235483203461
0.0811714961701711
0.0777502918999216
0.0767229131554555
0.0768813256760469
0.068019185318456
0.0709776568915546
0.0789475609205972
0.0810143882949587
0.0806375221447066
0.0739068084250876
0.0783791275560231
0.0726804788535274
0.0797588925216913
0.0763060178762424
0.0740599066844554
0.0734813800740408
0.0765402949865842
0.0705611114354933
0.0759117032332681
0.0771021147694329
0.0814578780506233
0.0799231754346154
0.0647953725822534
0.0668784575827126
0.0772697993949433
0.0784354733015541
0.0730669954668476
0.0802316008515261
0.0726690998038648
0.0786542285212103
0.0764442919966726
0.0789731693986025
0.0769655271740977
0.0704832866015539
0.080183050088372
0.0800997081055938
0.0814832621784385
0.071692404533168
0.0715058465747501
0.0836129325149959
0.0772440074855424
0.0828956972769944
0.0761581200665206
0.0755215191135295
0.074095564740274
0.0712889181210069
0.0736719426413016
0.0691877056992832
0.0731400113968008
0.080455903480335
0.0731122603011006
0.0740913985281241
0.0714164268971945
0.0837527259443747
0.0767076923846881
0.075514528280851
0.079733640578103
0.0737853809582232
0.0685659254696651
0.0839982312486907
0.0760366364391665
0.0741426163740874
0.0753870637575925
0.178627823073547
0.0729058746076192
0.203120424280165
0.145509337463138
0.196534049371172
0.176074803030826
0.17827592910622
0.149283772595394
0.205984452750647
0.0272036692555631
0.0253127949293112
0.0737422771153372
0.0312248349616375
0.0206702629856737
0.0479325963155111
0.0752693969192896
0.0737771070272162
0.177921121336949
0.173892966335125
0.0369496719839998
0.0817120932324316
0.146490707614378
0.0494349990746704
0.0222165001840875
0.0211961280456043
0.160761769118828
0.0441859567189696
0.194344986156074
0.148206329686957
0.155205952040409
0.157178016093226
0.182928670150564
0.191992959342111
0.177516770421583
0.073650631881746
0.0162677591376632
0.145713292226806
0.1985284127908
0.0721967017791572
0.0745670656128826
0.148058823912707
0.0241374532493517
0.0238107812903572
0.196365233806929
0.175327844176652
0.144089915054459
0.0756429169277447
0.143557238318813
0.030594430464932
0.145944435102825
0.0330135140497613
0.0493917586077252
0.0198209772842683
0.173722598743671
0.0476220257138493
0.197143629527209
0.0862500980176601
0.0595031713182244
0.148129850748597
0.053183999449661
0.0251787862143311
0.195973846957094
0.174221780720503
0.19404594053969
0.146456831676292
0.0466448450202983
0.210432968690026
0.0268853254352563
0.0156847272442361
0.0732577968251907
0.057167837696722
0.0266931675681482
0.0553777788413209
0.156296717756192
0.181021540392499
0.0654285944101744
0.15055469933065
0.174136977566329
0.0220365861729813
0.0690677363777411
0.0485551669067674
0.0721462053909304
0.202855150169321
0.198005185426107
0.190705919031014
0.0240496624570638
0.0803515382371948
0.0539849493271914
0.146874656982037
0.173460922760579
0.141366795760039
0.0252749968487965
0.152676936131631
0.0219067434708509
0.0291556452170248
0.149142820448049
0.029620776964023
0.174226717863679
0.14481177999304
0.172738266761604
0.0756470816551108
0.0496715367752859
0.0526709551717495
0.0695358198104449
0.153040225030471
0.180333035700466
0.179193192146506
0.0746987389729156
0.0223719472878059
0.202279922087997
0.0479928699233505
0.0580117006669278
0.152539150497495
0.150384882828712
0.163897371664898
0.156020663802688
0.0493521793253821
0.150060805571464
0.149463850580709
0.144661387942611
0.0590820241484009
0.155299442574076
0.204286057181135
0.203811398681088
0.0293373464581305
0.0503881437163691
0.177169649122813
0.143698984355273
0.0828518352026109
0.171378390871869
0.154151917799627
0.178576188592386
0.0758223248986868
0.0467062826668607
0.194555328458793
0.0731928351530996
0.0516078192725577
0.0216278347565887
0.198234962889291
0.0514996875600043
0.166679335637737
0.0263715060560071
0.177696276698103
0.148028472137685
0.142441503258906
0.0261447743776189
0.0752789759553256
0.154458013535491
0.154460176908478
0.175492471154757
0.0306130002643346
0.0201282887187306
0.157011068499386
0.200572023457731
0.0469355509911686
0.166595517275777
0.0369305622716332
0.0282109325308036
0.0770207867852335
0.0441188481082989
0.071672215149922
0.0181097107454683
0.0155584459196035
0.19619556888764
0.0272981883860851
0.180088071596564
0.145817817782525
0.142177589018265
0.174042828456802
0.156413328157934
0.0714771781782303
0.199285609761662
0.177734117873857
0.176758408494405
0.0311964580796522
0.143427219664662
0.0298877479619089
0.0220760749834684
0.162482952293894
0.0227632685644557
0.200482213835588
0.0254224630263818
0.192705645556903
0.160100505309514
0.181288499506385
0.171819502088672
0.027797793006834
0.0666240931398424
0.0510244518812214
0.0451892468919371
0.0447200971211137
0.0228978774689261
0.180867636628682
0.0242969319222626
0.0790441825462897
0.0502272946265844
0.204522632818545
0.0470043372865564
0.199580313996439
0.0259854905269104
0.0237334892174658
0.0499480846377719
0.0240468421034827
0.154190326963517
0.0207366883991711
0.174350526139399
0.0199307315017721
0.0467282867520296
0.089243964941429
0.161855125114524
0.0725620276665776
0.172707749644157
0.172585422019062
0.153823790161322
0.0518865680546556
0.151040050448881
0.0529805100428471
0.180391735959224
0.0231346448726444
0.0250306435666927
0.0340897980182604
0.0199846481652688
0.151759563783513
0.201697853320822
0.147262243020058
0.148459953062128
0.212100461466376
0.172886747204624
0.0163657332701157
0.042936711307311
0.148506318446935
0.0757657251932561
0.156671660212065
0.151004184696989
0.181285481319279
0.165668427257516
0.0193280155755234
0.153917528460218
0.19779589114087
0.150896553410993
0.150648731063221
0.0234851142115779
0.149059478574038
0.0648374291906708
0.190672971839037
0.0224343709566786
0.199623368244776
0.062786434977909
0.20145337967183
0.207766323749249
0.151352417834827
0.0265099568018652
0.0448381010541357
0.0275869654307307
0.151497085421667
0.17644214522518
0.0489019520604653
0.213067355595733
0.173009398654238
0.0178262351496821
0.150414964037408
0.0849752210846642
0.0781584701816185
0.198374533230424
0.176052627005927
0.205273523650884
0.153372774091137
0.0587085395788
0.0504894856500028
0.0246139444698808
0.0791395860833078
0.0202992126120942
0.171982662190904
0.196310588232416
0.0777535909811809
0.182477139050915
0.0480934649478612
0.172947641002228
0.156495282062106
0.204825582764229
0.149792971603501
0.160339606777735
0.0788263920234484
0.0450377565168954
0.149430615897933
0.0244424502297813
0.19538907398707
0.0259790667854165
0.148181279342019
0.0244148068014532
0.0764394879273341
0.0280290219901465
0.148147291097851
0.17003152902537
0.150280415448173
0.0239327284227718
0.0591772283409459
0.145540573860739
0.19842186839758
0.0189379562039033
0.053391309230245
0.0335671615161925
0.200824342170089
0.197375631439648
0.150471638231396
0.0427185113204427
0.149835522777369
0.070180058828086
0.017132535380817
0.146715285704124
0.171060619812068
0.149114568362549
0.079129594039023
0.175105890651184
0.149938841773291
0.180133709791529
0.0224495380604633
0.0237459198129303
0.0793741534290193
0.0198785168014471
0.190477315693573
0.0235802765850424
0.153493850834766
0.143499525295216
0.15214809398015
0.150327771623459
0.176221944056168
0.0696318591684546
0.16846034826595
0.022608036334927
0.0793293595774621
0.204024109765078
0.0265491403774289
0.050387933752235
0.0480959559669769
0.20385819453553
0.0285709247970968
0.0140644959540445
0.165693981316297
0.0517273260657657
0.0253313987226821
0.0746068533239948
0.152073788586374
0.0202144939631706
0.0559363037480817
0.150490127577477
0.147060542225601
0.0293430122469716
0.149444595149744
0.150476342947274
0.138427274255185
0.0667671798141044
0.127939685254012
0.140589871719683
0.216275564184537
0.153357198131535
0.0864441845454476
0.139477141313959
0.144672419930513
0.0235507652976864
0.182117853279853
0.0492919916024183
0.0248468242837316
0.154189816181574
0.0298693237372659
0.02539828721906
0.173404302703638
0.0745999226042729
0.199928964464214
0.175542298442097
0.20417596882018
0.145609757032557
0.143140021911669
0.167672346680639
0.0256855696211797
0.178181736205602
0.187557589890815
0.150274847797556
0.0449038923515446
0.0745160434435646
0.148256575352329
0.194211630403611
0.0760314761171842
0.0221405358645997
0.202844180696427
0.0239875481116154
0.165895386979451
0.022727756260651
0.152379595137852
0.0250776933670943
0.152535975270326
0.0739857621850574
0.0665429592621493
0.148721637564601
0.152622327983095
0.146688860435876
0.201835980280459
0.16424929178069
0.138574605668701
0.144799507472509
0.153535813757509
0.147878459243617
0.0457029549459037
0.0677838542618089
0.0250405179922902
0.148680954788203
0.155208565780563
0.0231111632455056
0.0445238229021881
0.0749420644742113
0.0218645612842915
0.143942513101258
0.0225350825021724
0.0293404943627101
0.169258170960138
0.024311262547733
0.0581746096572145
0.0501446523504203
0.0732836957008404
0.176340304242166
0.148238627610964
0.209204150174858
0.150241865671256
0.0168303526516665
0.181522342468136
0.0291622244236267
0.0408728531527759
0.148972612773541
0.157483990628802
0.157161884895332
0.17508191878448
0.0311166086682675
0.155604109018516
0.143361928975573
0.153567405481254
0.207486019399185
0.0309864503908212
0.026389439420828
0.204706693704936
0.0189000643006568
0.0817404019598266
0.0188423266152479
0.159059879538799
0.071183020116065
0.150390967128527
0.042146896162014
0.142583510812219
0.0259152186427905
0.197729707253154
0.14542552442051
0.192556355736278
0.0277406340727891
0.149269917338789
0.172500281215646
0.206751315004374
0.149270888141703
0.153262201736172
0.13879173139693
0.178666820924272
0.147688974567508
0.147795074148903
0.0774454562742616
0.166116638097256
0.0244292170373073
0.0298848071054941
0.207234841450254
0.174765849461768
0.146817985007384
0.174163388532028
0.149441225215178
0.156237339412262
0.202264902231409
0.202921633191733
0.0767316630364085
0.0742112034869049
0.157895049382161
0.0215935508030905
0.0287745321839501
0.0199065730795094
0.149311719039668
0.146279116733421
0.169262909784539
0.0500049710151265
0.0532466010173775
0.15022260250248
0.0554650603536132
0.0312573214884735
0.147669644913235
0.147570108024217
0.170530123708402
0.0279221454597736
0.155750976763219
0.0241851485628205
0.084758372941596
0.0175034225768844
0.0330948970552253
0.0744758367988515
0.203331158689084
0.0722405374330562
0.151108212870913
