0.0922293460314956
0.1019330356157
0.0942427450589206
0.101141928828207
0.103341621778381
0.0866654871501867
0.100339718992498
0.102094418769084
0.102652951385711
0.0950783273547761
0.0945207489603019
0.0989773974776612
0.0911646166086159
0.105859506060724
0.102006572924318
0.104785312496444
0.0979842229649607
0.106455208436836
0.0987873381692027
0.10263547162769
0.0982823987629009
0.0984734443611466
0.101814046652429
0.105350749734691
0.0997102359620395
0.10078910971771
0.0969808701251977
0.0959055105123667
0.108704812621066
0.0943920654865687
0.0991184992602936
0.106266339499688
0.104192495602601
0.103514932988449
0.0987237022840664
0.105157265396652
0.0939734715431806
0.108270191100726
0.0920479357460995
0.106310180779988
0.109376292680938
0.104868104939412
0.100453170030647
0.0905992570235819
0.103743110679395
0.106188403693889
0.101375669519583
0.0934776787352398
0.104904653711189
0.10151251289291
0.104866909315312
0.0925081523972959
0.0988360320764439
0.101988932696767
0.0993968777992427
0.100644742407984
0.0976003608132793
0.0947197904183649
0.100565736759131
0.0961913374075761
0.10658334079947
0.0983999994635656
0.100931019663874
0.0986260503314822
0.0970462477021321
0.0937009574189856
0.103493628187122
0.0922047436027113
0.0970340506546057
0.100760121922855
0.101746814097883
0.102802992414343
0.104593110159865
0.0984510224197158
0.103271289166465
0.105121214119648
0.0975974804077704
0.0935872695426177
0.107709516723791
0.100690919793444
0.097846507150147
0.101217192253183
0.0917567523555939
0.0954673719669214
0.0949456944372131
0.10380790417512
0.0941360353357232
0.0976412835689853
0.110046401922129
0.104673678270438
0.0978573781643614
0.0975999163054419
0.100465727864494
0.102941814180378
0.0986812534313264
0.0959328733724017
0.0942650231085929
0.0984461600576379
0.0992439411732251
0.098511814595988
0.10139325457848
0.102730011193571
0.10528508821827
0.0996119374392068
0.108273519226756
0.106476410414095
0.0951082369229685
0.0976363244365148
0.106794231383546
0.0967940711047798
0.107174994466016
0.109792222435865
0.0906108382978968
0.0995987252084193
0.0967714336833315
0.0986782180846061
0.0957654177196971
0.0991596641144678
0.096784592486706
0.0935418627626746
0.0956897499074267
0.100072997286325
0.100459138257657
0.104842876959371
0.099716048233843
0.108015083337652
0.0999860180268374
0.0994282259106551
0.0956700916728606
0.0979553062317774
0.111422634130982
0.101393098008174
0.103354892319984
0.106077805845457
0.0919346893315318
0.0975239291414018
0.0959298235227007
0.0972189672988723
0.0993943655477354
0.105023370599634
0.0993100464704788
0.102470337015758
0.0994101844944037
0.0926366865697275
0.098766730438954
0.1021300419234
0.106523861842846
0.10147451249801
0.0944494614984843
0.0989658302711163
0.0968090794650688
0.0915813709775813
0.0956039899553434
0.097983358896953
0.106276914414321
0.104335654994342
0.0971720889567918
0.0946884959025494
0.0933810333976988
0.101525878653541
0.100747023590164
0.093287609117066
0.106637405968196
0.0963167811402963
0.100425839867121
0.0963243563722953
0.0992838159576511
0.0991888775213298
0.100226201663609
0.0972865512722311
0.0930924858202528
0.0907229639128353
0.100832847685962
0.102368867383824
0.103130936980246
0.0965975307614487
0.0929266142647207
0.0995868378977088
0.0965017360657605
0.104433034521963
0.0985601604955087
0.10059473165422
0.094877506903432
0.0953441866805283
0.105123785981038
0.102583089109636
0.0890608877451874
0.0973578737534116
0.103712350850595
0.0965448838157369
0.0964887656599628
0.100287495470192
0.0962048804528155
0.0881768417006327
0.0952453540179297
0.102460521900421
0.096732515856288
0.100574648910947
0.0955372561033318
0.100462078285607
0.0991950475289782
0.100364761336353
0.104843879032349
0.103095482025017
0.0932208572796947
0.101871956106425
0.0951583634122201
0.0941326930539651
0.0933141852681253
0.0994581732369363
0.0928433632620084
0.108106375843081
0.101576553399899
0.10127405726084
0.103617686200722
0.101876382591071
0.0934308815024567
0.093072280122871
0.106024581476668
0.0998157509944377
0.0983153944971951
0.0996991831999762
0.105572269753782
0.105031965659069
0.102813628035695
0.0986496225944815
0.107246413610825
0.0930519518509474
0.101515714637833
0.0926670107758457
0.102974216687969
0.0984837962352311
0.104485261686232
0.103732101764808
0.108013752417034
0.0953875052512051
0.107695602127208
0.102508007696915
0.106659254047938
0.0984443477893998
0.105299874409659
0.0992565436690028
0.0945319918113124
0.0979825379149718
0.0931531562685464
0.109947904452995
0.107822050983525
0.0963839398019739
0.0950049631171474
0.0937198381646071
0.173249150629452
0.177217471878476
0.202205122623907
0.200950207758216
0.17942411003045
0.199267002302917
0.169056429743321
0.181399803132456
0.165265470754316
0.156941708966141
0.206001911060276
0.193244916352282
0.150414488829919
0.192476741188824
0.182040217642961
0.151557581652728
0.200202436851003
0.203319744052898
0.173934953441663
0.192699807706532
0.206138913728102
0.20241525547709
0.179049809630124
0.174992959882633
0.203021170798453
0.166239261787625
0.196396995670697
0.181149488380977
0.211466133337523
0.195759682462122
0.171907023451142
0.196139314836182
0.152329959138158
0.173118854501875
0.198027688963882
0.14595255357471
0.175196885688034
0.173139611666594
0.175063853135098
0.206678743380788
0.173471743757545
0.198967753331377
0.196313948418492
0.179407357594748
0.198035818312333
0.189574209483379
0.172879110851006
0.193782854628918
0.180028501413843
0.158903201754887
0.174843870811837
0.20422578240559
0.195283838175771
0.171683914734984
0.172806262815337
0.194406159631586
0.179358434445383
0.202110039584572
0.155023202740601
0.174666983027744
0.149512017818067
0.174300269465349
0.171736495520034
0.198127459474117
0.181836967904336
0.182018446093407
0.175003432383986
0.202862572986005
0.203496501356615
0.172725595391504
0.170873876218314
0.167443301546215
0.168977416719132
0.20124941847348
0.148278818256023
0.17716513725159
0.204463382290721
0.195382889306092
0.148970944645739
0.190666127131711
0.166764866578201
0.177221197453566
0.197500976876906
0.175937059828013
0.200018832442501
0.178786013849517
0.202058415397015
0.180822881595515
0.164090983834295
0.204714154791943
0.179975670679285
0.197754392259297
0.180766557117573
0.173365020374584
0.199345990149389
0.181608743433106
0.171437522992335
0.142274391052619
0.164684755665262
0.179850165723922
0.202083637151446
0.202282240591348
0.174954404244679
0.196181037727518
0.196708672928768
0.195936735321071
0.171131723951323
0.172572292266326
0.195441304096907
0.175002407104653
0.171805183980081
0.180828288591411
0.201600807495058
0.168149738187731
0.198045436074017
0.203846138137017
0.153248827752268
0.150296804111073
0.176144762799876
0.159737551909194
0.175903091953776
0.181284396938826
0.174752908893235
0.174557523461846
0.202583172984901
0.196237792104518
0.176109719129359
0.179435082491002
0.194966278571108
0.1759470370743
0.148370597862583
0.146876538495672
0.199134564118394
0.182425272080833
0.204494380824879
0.17632844914758
0.179740769009099
0.17481089048338
0.178612726848048
0.174320918866837
0.147310777039266
0.211778714965441
0.159276658098039
0.173889381736952
0.148434785779218
0.147685593043556
0.152212368505453
0.176072353774801
0.207499516884576
0.194021439788993
0.194502351782552
0.168346351368768
0.146821730657647
0.199355219459473
0.150590768468377
0.151659608093826
0.145365823221473
0.175985426856123
0.197356535915158
0.196277923190559
0.194562003319445
0.171598057334745
0.172827731175253
0.207412755964978
0.192001610542506
0.205211982264997
0.200196355091696
0.197712132970802
0.175330663136756
0.174522266705478
0.173875322847992
0.203733837549802
0.193716271040565
0.202468419066912
0.210454246837586
0.175088736882462
0.173478018332116
0.173845267223493
0.201192671531502
0.168107216678605
0.20143547259646
0.164744160811448
0.195302139133277
0.178331899532317
0.181121813016332
0.200357003194006
0.172586600108901
0.174637962538239
0.173656280709634
0.179141956645801
0.195107702628101
0.202429319563242
0.165202717887382
0.202928328149278
0.173037422374152
0.171470682809468
0.181797438249492
0.199349964987819
0.174287208116148
0.19207334491591
0.172127751812692
0.191606764826008
0.202738622762737
0.179031206661252
0.195119520570737
0.173518337060356
0.175117771741258
0.175875004306882
0.177448663835991
0.199885024258141
0.175312548681701
0.174070464626131
0.176114452832175
0.164831566529813
0.177854153641506
0.198379711525827
0.181967019211521
0.208211767743667
0.203401483789218
0.177847482385364
0.1815507276327
0.146492387384253
0.182383475286851
0.200410958873972
0.200387191105316
0.196499050359491
0.161894164791305
0.180221762653686
0.170523761819721
0.177999896729012
0.202093691370833
0.194959978318843
0.170336250523096
0.198779122067081
0.17509303963723
0.20319493811198
0.18414111492471
0.177107904264755
0.165720993116378
0.198273651935853
0.173278275776175
0.207435687653143
0.195650725469793
0.17616856247972
0.171232711984661
0.174377640288486
0.198147291847599
0.172078169076061
0.198503405185281
0.187047865124203
0.0725158731128358
0.11909025728697
0.150338878051291
0.0732048986974285
0.050968833221889
0.12269632723966
0.125203766614907
0.152322250090509
0.143256490760843
0.127329800189499
0.072404241247784
0.117667182337625
0.0523939788407472
0.0484100489634072
0.152017301791024
0.132084825559981
0.161302941080907
0.12065603087312
0.150766974283489
0.119384304031461
0.128354130075414
0.0444167229847353
0.0545814305050101
0.0422225448166336
0.0715429526882608
0.120005370984856
0.0452358080282762
0.0512540042677539
0.154527580353357
0.0535295403838425
0.0467692690518262
0.148214573042655
0.0750224193263785
0.142026049650054
0.0772556140876332
0.119260178316998
0.121894641693822
0.0802810017969335
0.121282153842184
0.149639242442828
0.0455829501100428
0.0531048229857572
0.0506223525797967
0.118907664781272
0.0539586010510775
0.112350706555626
0.0731797359691518
0.125802442846675
0.075844399617142
0.0560310219275729
0.0534739960967161
0.153941399880759
0.128832475115087
0.0676072114544504
0.0495955353674105
0.11998816453032
0.148118625704828
0.129845819290831
0.154763835420195
0.145654039693081
0.0513820235248681
0.153075632165578
0.1223266396508
0.0778594510294964
0.0473813858758967
0.123253504208453
0.149510844937056
0.05152166819943
0.0518505159048063
0.0499133471704722
0.0739328993552092
0.150777971808074
0.154639838264284
0.150406080088572
0.0807939321526261
0.15298263206262
0.0584897740675593
0.05126588778692
0.0474453699723594
0.0498663311092059
0.0764491961902083
0.157138585147059
0.117529553706612
0.128460294001977
0.0494326768781381
0.152890546903898
0.0432223308910308
0.126965211599069
0.0722307367840118
0.151067181466438
0.125587345593806
0.0582173365788095
0.120961369425065
0.0496732005888347
0.129555811088134
0.124824021131758
0.144429691830781
0.0534389426819373
0.153006550236775
0.0803192022423229
0.149836873282811
0.0757329388621401
0.158719952939479
0.0564418492030644
0.126209446459435
0.125948515891209
0.074243514499869
0.121610877476316
0.145974269607381
0.0500625263356598
0.127964600444167
0.0742705205029083
0.0739283129385743
0.0490064308073647
0.117517910959249
0.0514036926497446
0.127913444690644
0.0714671054994679
0.138642976783539
0.156292902115865
0.0760907214890895
0.0751500958010151
0.118647345407316
0.0594578880648059
0.0621022736248637
0.120819164702744
0.128259297539052
0.149856070567477
0.118468438381623
0.0486921749499358
0.0497899924941635
0.118809166929493
0.128605605985233
0.0558190637973217
0.0757365642967644
0.0478525919923543
0.0482602160197495
0.145879585469545
0.120103824492371
0.0716575185254214
0.0760691446412115
0.12566048913472
0.0465124047239026
0.0745184972598693
0.12446789439778
0.053696685422495
0.0547480389573694
0.128284093761101
0.128169436552271
0.119344050809815
0.0822394643512184
0.153900367538134
0.0754606789595967
0.0542411683794387
0.0461595058701505
0.0614530685274138
0.0536796242628346
0.0807377473713037
0.128759192923639
0.126087107380372
0.054287454255351
0.144019553591106
0.133198661971804
0.0722584399177071
0.055373090819226
0.124517246097058
0.146564291225714
0.07749383009864
0.147690210618714
0.1258142197271
0.150793769400801
0.0482848779976169
0.0630759567298907
0.058867416181341
0.0581008231821089
0.0455744360353678
0.0523225870952048
0.142615378584934
0.0695100492547733
0.0505742300325622
0.0529907150136776
0.121951746236553
0.118485044997739
0.0470146840632614
0.049485469203095
0.12242555282758
0.151329816293987
0.0808971667139866
0.0523792450662415
0.149102654051964
0.0493801105105358
0.0447025231050748
0.150312417821629
0.122016277549644
0.145144915022709
0.0364673476285055
0.150935526281651
0.0799885954683393
0.0525706954419011
0.0599766908123856
0.147270516559281
0.147300793204717
0.121418570303553
0.121489375664589
0.15355423186741
0.0466677443933362
0.0450990740815376
0.0545943543871585
0.155033988713454
0.125670208310859
0.05208235640593
0.127978112561872
0.0460854981006154
0.14741345016831
0.0749494683285072
0.0541395260775104
0.0538772669270837
0.134477868271761
0.125471981327079
0.0513667353871244
0.120464491812581
0.123211880024662
0.0753678224744561
0.0468016366380605
0.0741038594092787
0.15881536531193
0.15229511978595
0.0582111932502957
0.051863843258767
0.0501512557140758
0.0772582962163033
0.116746794926347
0.125848893927691
0.0515319177654231
0.0484038088105466
0.061130783677767
0.146925015836571
0.0750468946662124
0.145995512053872
0.0466128877423854
0.123163791150903
0.0539550374329847
0.12445040653181
0.0657890428394454
0.047083993997936
0.123981271769738
0.064225816327776
0.0505174237312638
0.049052129678803
0.139279534774258
0.151957114349775
0.12473415585845
0.0433610222146465
0.159209633668883
0.130997454808013
0.126439621504932
0.122150307776806
0.0817912919808915
0.126597271174588
0.0683216459790797
0.12337001224388
0.132586224313006
0.122414263273826
0.127476408318452
0.0684376808030385
0.115593699090395
0.122482740559617
0.147128344616237
0.0709305074816629
0.133221591502089
0.133892410293991
0.133754527484917
0.0574747491554348
0.126906771587536
0.129572390078851
0.130615928833635
0.124544804741828
0.0472558923548824
0.13106748368541
0.147635833266309
0.153751647229903
0.0555363335874136
0.153655157037584
0.126685187187584
0.122998390469129
0.119155353693974
0.132138352853092
0.130397739336381
0.125447501937106
0.0791397976753169
0.0502154628149894
0.0780115272015656
0.0624859251684768
0.0563276478878253
0.0513917696938959
0.0435159977418948
0.0699499118632703
0.144750665739482
0.0532529160991388
0.0455524703040782
0.143831492318835
0.123753795454129
0.145047786671142
0.151728166132782
0.154280257979858
0.126776366034931
0.0489327827770899
0.143832209673574
0.120845707267745
0.0472396325712233
0.0495739964021616
0.0822545924786465
0.0792079169892218
0.0503037229168334
0.0522032964204641
0.156469340087184
0.0539373270078921
0.124652660833783
0.146553263982539
0.127719904411022
0.0569021381724411
0.0549673503051352
0.135390661911213
0.0756312289450269
0.0520114069624789
0.142170359225933
0.0458554154885151
0.0834205171908914
0.0767563196178084
0.121002014725743
0.139219621911235
0.11760314476278
0.0534009323939043
0.074266917205783
0.074628088900157
0.0440967762350248
0.083463497743016
0.0483827840085116
0.158766232701184
0.124963317146725
0.132240495057226
0.129115851144292
0.0833131567208945
0.0713546999873366
0.0463760448734604
0.132831605513804
0.0446190548434749
0.1247845764818
0.0523543690810037
0.115791967776232
0.156145452570074
0.0481403757685993
0.0752432190673911
0.153515067530112
0.0515272688598349
0.0698317146020561
0.127323303882029
0.0805113071635329
0.154535395683842
0.133060121882399
0.14601257125269
0.076453186480286
0.068781053818062
0.152940211385911
0.116717369388924
0.0474426514729568
0.156375525828465
0.0562880061441197
0.0782670416614477
0.077134822548582
0.125467863111878
0.153251687407072
0.145377033755995
0.146803643240249
0.0597907059987376
0.117585971298122
0.0729380941006236
0.0488498428387528
0.0513493162557259
0.0576139265410976
0.123888681678769
0.0561458504945283
0.0398529196503514
0.0794210598012794
0.0511914787504235
0.123766550365157
0.12678890974065
0.0495242401712736
0.0430254704826058
0.0621242543932118
0.0766349283373205
0.087484515994892
0.0693334646270586
0.0769696078196801
0.0722978736633392
0.124694103222881
0.122277444657701
0.148495439056882
0.145921306031217
0.0518771711271285
0.148103206065299
0.146911885267509
0.146178592624195
0.126326780109889
0.147022660245162
0.122661441323907
0.147483677942448
0.116015726004703
0.117855665236774
0.130919925378359
0.124009585419087
0.123028421764711
0.0811916542399792
0.0443759622497133
0.125354208625906
0.0516751168715427
0.043350555413925
0.12839257498993
0.0525910952340955
0.0506783877591078
0.0485720960365799
0.1422899744228
0.0489267210445248
0.0392952686971173
0.0478326222859768
0.123261230503015
0.0539374958841246
0.129421391975545
0.131449621840077
0.0670877347185326
0.044965814360635
0.128964882991438
0.0482842136294652
0.124922766122696
0.0818516961373197
0.0440362795013029
0.0512176790977954
0.129092765038369
0.0506868370844338
0.0453959823259436
0.0508055926106978
0.158407021552128
0.128796929797297
0.0689440050717361
0.0524732534340677
0.0793854766686541
0.0754574225112212
0.15202541316954
0.0511085669780517
0.046980562253059
0.0412170434950175
0.0630670647014919
0.116902978806359
0.122013713510445
0.153368312486595
0.131995914716559
0.120457854474549
0.156522063016119
0.0517540664055903
0.0491666163665869
0.0784419322086716
0.128632889099242
0.124588653705801
0.0763416226617683
0.120455142319594
0.0765484620263642
0.119535146686984
0.126052697778848
0.073264807088944
0.0773640002553608
0.051581220088327
0.131885911901034
0.0709953971079488
0.0481577692823044
0.0460021955359822
0.0453218300956236
0.0517921718307556
0.125708120423667
0.0528868286113858
0.151724753572289
0.0501646275768982
0.0460143039311353
0.147371031168684
0.155008810341675
0.0547537655899213
0.149082018114993
0.0759687351761618
0.0431014944315436
0.150792841859569
0.0486741097238859
0.155543371386454
0.0807527254247282
0.147499883927149
0.0528151139976
0.147062684338709
0.065808300068593
0.137530396504724
0.124534243689191
0.156005232351278
0.129256170402983
