0.101893628761508
0.0985063059146062
0.102943285251408
0.103544368436166
0.10350203207841
0.106653124481005
0.0724553260615279
0.0978803796026537
0.104713690542486
0.0789541549622233
0.103524788366189
0.0952652926600096
0.0981071522245222
0.111009877480158
0.103391676122365
0.104808743760437
0.101589328057135
0.0994495541281819
0.0250237409213721
0.102021468279541
0.0998038096060503
0.100395618136839
0.100873237769238
0.0931309056937215
0.0675022361097008
0.101262462564347
0.103112359896844
0.0992312987808963
0.103962633978965
0.0741082297016599
0.104507906577002
0.026685003105694
0.0997445799047525
0.0910185567136791
0.0985233740182546
0.101876159890224
0.0935448250601226
0.0960975990683541
0.0993508981346096
0.105628477416214
0.0987523006155081
0.0976172006218781
0.0915667326987176
0.0806761239992409
0.108490843776354
0.102251961619541
0.10503595576211
0.110617158462116
0.0680757967935252
0.0980496776741389
0.077505538607289
0.10812646309907
0.0971098608312083
0.0946237436243928
0.0892118604231941
0.105261988755074
0.0999691363251121
0.0755292666555547
0.0967110627367674
0.102085415046586
0.113058393341745
0.0909206166182489
0.046788164210597
0.0710886143068108
0.101890466151991
0.0965713676690974
0.0978265288509745
0.104662467549073
0.0951474081679299
0.102458618515764
0.101699027404818
0.0916751037529088
0.0909186067607539
0.0981946416226427
0.109097595922815
0.104559081522748
0.078011755130473
0.0945518869706563
0.0982777698312079
0.098745917168355
0.076217326951022
0.09973670190842
0.0685684060613662
0.0971824351550542
0.103568237467424
0.0469058379958607
0.102205273717078
0.0972654210701883
0.100605515480035
0.100225069784309
0.0980621739709565
0.10592501419126
0.0815836856614211
0.0722625744321097
0.0983506457433506
0.0710949425328435
0.10695889916163
0.0711958078083905
0.0784753096747169
0.103444027029189
0.104485275324218
0.0996124091976368
0.102995996614368
0.103249119855029
0.10021481691062
0.102442630735411
0.0906720979052828
0.0963075030354168
0.0970432242182098
0.0961091800930903
0.0978988542737407
0.0675095940775371
0.0931184320329013
0.0973345166658113
0.100582434277985
0.0982102417394713
0.0996686371056166
0.0945372364981251
0.0520817745683173
0.0772820188641979
0.0995136496143218
0.107376497424885
0.0462172714491775
0.104090137440519
0.100624569022898
0.0930750766928759
0.0950908903723758
0.102634217689705
0.099040571846273
0.109245509124396
0.0891059960215715
0.104589986492728
0.0978045535022925
0.0522494578340577
0.0716426885008764
0.0749219875946507
0.0994795740820088
0.100086733400609
0.0929916755668464
0.0716081146126621
0.0785516320498623
0.0769389655413778
0.104321290046074
0.108307823018203
0.0996131617706764
0.10396882797925
0.103275280760413
0.109729894825285
0.103081923418416
0.0976044880772662
0.0956501707659676
0.101979835503687
0.0845038536635452
0.0938228121984685
0.10264493930439
0.0747304838885929
0.110173977341303
0.105967815325121
0.0739081250227032
0.102332372341587
0.0614701957328617
0.0966974522072152
0.0706189103278128
0.0943835206816618
0.0988594920808108
0.0781902139882802
0.102321507146738
0.0725036699275599
0.0736622381150748
0.107665167083293
0.105066611001762
0.0949518991938162
0.101902814106079
0.108820062408835
0.105215225697089
0.0981839227591303
0.0884693139221335
0.103314700913734
0.0710047860034196
0.0987202676826771
0.0991213928309002
0.0958539051965812
0.0978536425295101
0.108166331926731
0.0939608855106057
0.098376519974115
0.103135567077848
0.101642020732889
0.102928205083656
0.0961347271011311
0.101260766769196
0.103827972790581
0.102249888899523
0.0992918305407655
0.0705136635108057
0.10555725733582
0.0992049738243395
0.0963418894506133
0.0997029536780914
0.0647801682176942
0.0985572554850758
0.0807677070204145
0.0931559097950264
0.111441425090388
0.0983126279388855
0.0714734423755044
0.106160851298355
0.104123789174047
0.095497657322632
0.104616305858437
0.102738065392633
0.0955127093687116
0.100927028344691
0.0912659853444579
0.0727474150332998
0.106844094103265
0.104047099158223
0.101528804090561
0.09867364800392
0.0712470741589488
0.104840715202463
0.0984655775466118
0.0983786335791091
0.1076170036837
0.101454723464298
0.0989305090156602
0.100051695821393
0.105401924442872
0.100790526691103
0.100677589012677
0.0959942870332898
0.0879975672210791
0.0913905067018941
0.110685779805824
0.0777832430108627
0.106845962577796
0.092758604903288
0.100530680848692
0.103929233929804
0.103761384365044
0.0571496468192233
0.107459212295935
0.0951976702065707
0.097709718683914
0.0942322047145482
0.101166258262136
0.104529219401788
0.070719639217923
0.102281117877261
0.102714472833944
0.117303472731373
0.0793520394283157
0.126043581698549
0.119083381909536
0.127635675452482
0.0765840507062393
0.128639907728678
0.0770979820561783
0.134681520843493
0.126462336694427
0.123857278042798
0.0747647264054286
0.076353558026276
0.123215809015677
0.0715451594508701
0.128198392725048
0.0750224321291394
0.123359778126965
0.0756857838055498
0.0800106210769811
0.125611073394164
0.0772855745310319
0.126788724501168
0.127593116014486
0.0780031871984996
0.0738704976246257
0.132592863670608
0.0823358081116075
0.0740440376802395
0.118228910782915
0.120538613641507
0.0638975734395021
0.121772541856658
0.12896683061565
0.0764993801888948
0.118721858295118
0.120521364255518
0.123604110885333
0.0755657972347756
0.126973567186458
0.0715297760300939
0.0714441334496655
0.116042443632493
0.12702451965565
0.0733645657305732
0.11998303507714
0.125844368829774
0.115284260733874
0.0743106462152103
0.0684861561145129
0.117774128440616
0.0757267126077168
0.124497425272444
0.0701724424127168
0.0756096915698315
0.0726724543633029
0.13032288367009
0.124085097357842
0.0738003452467204
0.0668666979476824
0.129936047244024
0.121957126448692
0.0722577780247214
0.134361061311106
0.0789448749010669
0.0696490794335045
0.0674509164692572
0.0705550537057611
0.124652398728829
0.131309874123419
0.0809183790408858
0.133605356869961
0.113670371503023
0.125172405682185
0.0742828641105196
0.118772042322349
0.12715002719289
0.0679352107977608
0.0755430903482498
0.125289517060852
0.128664553437493
0.0739015057267334
0.0725310755522669
0.124606143392294
0.0787531748446016
0.0820720264276961
0.0647797609033078
0.0765814422126212
0.123671177926951
0.128462064203375
0.0696330311160946
0.0641020603462034
0.124616953066274
0.117394034895912
0.0726052381701284
0.12006029528063
0.131111330794458
0.0770655241705863
0.131198318483775
0.11760559261495
0.0763745430200425
0.132916274258434
0.125036760465399
0.069074847941506
0.12620627566682
0.124952784827701
0.0745145509484191
0.126421274357389
0.070971669365188
0.133247769434117
0.11914419930979
0.118683147455045
0.0795244254898737
0.132003674520134
0.0789725838049026
0.121236037951268
0.0681433689734957
0.070758791672634
0.125252271864313
0.0783888205497209
0.0733183036221352
0.128957356576864
0.0684523064465275
0.0764310056099441
0.0731517076814688
0.132239241409192
0.119130683826089
0.0784372347633546
0.123775730064591
0.0759944159010306
0.0783318845907849
0.117710042621037
0.123384727146543
0.118652687039129
0.0719201643712829
0.0682427906693303
0.0744673709603627
0.123133188024869
0.131922176631744
0.0712461724809822
0.126759770617668
0.0784034249395374
0.0765526601681573
0.121457481169961
0.0807796259827945
0.12896777450602
0.0734013741995147
0.072293676487446
0.0781520031713127
0.121087556403461
0.0791286249884464
0.0700194667430975
0.132598842162505
0.0719629259481274
0.116785371305418
0.119008497072087
0.072023100823871
0.124262861138343
0.128838833507805
0.0731948161389562
0.123724310617236
0.0613253285196286
0.124555424616377
0.127036389120702
0.127147775379326
0.079243066605299
0.132666097038683
0.134485819565357
0.0864289848812628
0.128700734411539
0.0790131429762786
0.0788331618253155
0.122520661052144
0.123697931909845
0.139611720659803
0.0659272559202751
0.0682674752793083
0.110841496530732
0.123812627464676
0.123697599781599
0.0759917820233135
0.122631833003384
0.119792089447104
0.0792553482097634
0.132097852053654
0.0746657873686555
0.124103534882901
0.129480803217197
0.0814773750447647
0.123663934674121
0.0791259006939953
0.0713561596139175
0.125241801262276
0.1242631859461
0.0759661588231769
0.118468446970836
0.0694027136622909
0.128484623087455
0.131483282048317
0.121935001755529
0.0705505297994091
0.118385188309123
0.122062733313615
0.0744931239417872
0.0751953123054736
0.0680076439750731
0.132219065001116
0.134489761806094
0.0658929443255791
0.117370689450368
0.071053758431993
0.0775212630634205
0.0775818652273069
0.116994969111637
0.13172467691991
0.124349168984674
0.116823505819066
0.126357885221856
0.120636702432934
0.120130688961794
0.123925847519629
0.0769896035132926
0.118807306059377
0.0820725255985692
0.121900660414325
0.0788143456255854
0.0751887171977046
0.123793815822746
0.125725024793463
0.133417875586663
0.0779990379067141
0.119553173535676
0.0715313162285692
0.0727900458705143
0.120809213634814
0.132622475320661
0.119424316957046
0.113617208419983
0.137464207381375
0.121667645391713
0.0754067073084145
0.128144290225442
0.123758032637305
0.0795807260481861
0.124166200032154
0.123571129988105
0.121893979437978
0.124602452933767
0.125003625984776
0.0740776025279292
0.201266702355664
0.0961455309896972
0.056971781750656
0.0963291922627334
0.200536484790581
0.181618147465056
0.080566049042944
0.0740462148693031
0.0541299289788949
0.199057910693843
0.18266515847482
0.152870726126938
0.0482571273330989
0.0861298782844096
0.182934901888573
0.0767623864999307
0.0797143844854721
0.0411669528413227
0.203047281528986
0.199214942180641
0.0803971903066201
0.0489824336121267
0.102177710760022
0.068839750071105
0.0533852941689713
0.202381534712265
0.178023709336837
0.181560121929494
0.173316566042785
0.145148592580075
0.0732042797120986
0.101810616112386
0.0821137271775067
0.0454409983078626
0.195715651650078
0.148948378239308
0.202398191096985
0.0541683404602649
0.202122733278301
0.0997470981615387
0.0260175141368307
0.0523841217467587
0.102681576935436
0.205949286260288
0.110645204515142
0.182880477487482
0.0511483114401516
0.20948950671877
0.148951928032974
0.0567756777548512
0.148843713818174
0.0742819488079803
0.0476868216684611
0.172699046091987
0.17390605296977
0.204915512864351
0.170682117798268
0.175616889343979
0.198766693102107
0.048059015653796
0.201205646602537
0.0732314988001405
0.0736498986563115
0.046068702477374
0.0486827980640211
0.199408799843575
0.0508890516399968
0.0241445768766084
0.0519645831120553
0.198881456121382
0.098174161230605
0.0687816259072319
0.205074685785674
0.180659000944659
0.179919035026281
0.195851479643159
0.0587279330263548
0.0762517685172342
0.0542382138438844
0.0788129618635458
0.0790019157353228
0.0652286919442558
0.201507429893407
0.0988777495018984
0.0725183605728508
0.075349665583738
0.171934271348741
0.202666890587104
0.19130712206739
0.0751364782789649
0.172930247984956
0.0557242388312524
0.0465487847274147
0.0497837283658191
0.181449267377761
0.17078298572642
0.196153126424711
0.0712752071996553
0.0258559255871283
0.0959406554637988
0.172102850775941
0.0524943858371987
0.0753806584073628
0.0977220509492765
0.178700772913499
0.19409210437515
0.197125998158075
0.196913658275016
0.0749684844956389
0.0277466961369285
0.196748804300847
0.168711891079903
0.0602601211019625
0.0695149539692804
0.102331590775171
0.098020139318455
0.0799153731902886
0.0995008600238248
0.198974023767674
0.0455485170257227
0.102573440171012
0.152631017543887
0.20422915338824
0.181841437355032
0.179884093480733
0.0941093774027947
0.0984662590772006
0.0499156829716338
0.175022519896541
0.0705881787563354
0.176910911983774
0.0708935337546705
0.145642546526989
0.0942279437952842
0.181520982275734
0.0509592171161172
0.178403415898564
0.0305691994868503
0.171011311257567
0.1704128320374
0.103147997401179
0.175213957023405
0.203152789142661
0.197739849571007
0.0739387002196039
0.0983443595529823
0.0854254836843819
0.172048022446656
0.148809016694262
0.204205870502552
0.0759626015933492
0.189384852557826
0.0972187696361356
0.172463180765305
0.153196702793356
0.0251370453719536
0.168037911102615
0.0545337217188219
0.0760271770819673
0.098643205295308
0.0738782393143934
0.20180655596144
0.166893151441409
0.0748713178531735
0.174706989880076
0.207360547040019
0.191211418653751
0.0421047426271066
0.0982697465595241
0.0456364844236231
0.194804851025497
0.0614148024519968
0.0802918882551289
0.207521794493869
0.195881014457804
0.102793447524479
0.183193960645831
0.0468680646176899
0.179306696311437
0.183554054362417
0.177931842393344
0.051103589779157
0.0678264219428716
0.178774309111603
0.177204826453542
0.0954469767794137
0.0573517162335773
0.202865616795628
0.0671282884769921
0.180005659690046
0.167494052262652
0.172721601212398
0.173321242361662
0.0591461345873274
0.0491335503417135
0.169023161755208
0.0723338184225561
0.0272689330031908
0.19752199499505
0.174104775073778
0.049941864925587
0.0779443889683735
0.199259209907329
0.192926111916881
0.149949429308407
0.0745505343605628
0.168003949350156
0.0961692761521818
0.159900172548496
0.178780451610019
0.0796687782237983
0.0421460971308792
0.19704885302292
0.105664236951031
0.073642541389403
0.196698963245807
0.17739557407036
0.101889154815903
0.0277715703818723
0.0504745704366717
0.100955128042578
0.0833011071179489
0.0275312627817179
0.0336419379032568
0.168650940935412
0.202422704820991
0.173862550814495
0.102299968171367
0.161746261728911
0.0778770434659565
0.206094562892226
0.199015359735633
0.0789270441825823
0.0963006982961237
0.052963189883528
0.0482155173562088
0.173844411778566
0.176894024339638
0.0735653552487521
0.169546179817805
0.167453911107152
0.0555756053406589
0.194877464172176
0.204680232034088
0.0732500307519117
0.174607134729984
0.0470754836893924
0.0709433276652183
0.149356310455803
0.17020967572859
0.0675787506089301
0.0782033728386656
0.0754064190129616
0.0762985023178986
0.165426479309618
0.0727607939007358
0.0747800938620734
0.0440984062528579
0.202958767020652
0.172338385533943
0.168806412106948
0.0501265268258087
0.192780785229314
0.069664148087987
0.0735029936458923
0.175862639177304
0.174103483660177
0.20251948519337
0.174158913262611
0.0747325321462168
0.0997943595895171
0.055434909661198
0.206751487030777
0.172001239612537
0.199583057660643
0.172995682863929
0.14627411883537
0.0794031571827546
0.175084687951036
0.195354857408978
0.14652551607695
0.0468908180335672
0.149340071616864
0.149250189392588
0.177796590222578
0.171649361561402
0.14646579577412
0.202915399859358
0.0549246730771575
0.069509646227158
0.194978303988682
0.145880214132171
0.055699482385017
0.0477309460510315
0.149721185954297
0.167031160979682
0.0755836656456561
0.143709924741042
0.073091930096403
0.169695714024403
0.170986532049301
0.0703787746482357
0.0695099679514972
0.180846790562209
0.0542908707858896
0.102717804785716
0.0727707618204227
0.201561693005937
0.174267897356981
0.0718085191283191
0.205914833203172
0.183634645618103
0.173325680731175
0.155347415074511
0.0752119940365032
0.103158668704261
0.195988399125676
0.0233633508365023
0.0763486482214313
0.17545431598972
0.0503898150803421
0.0807936649932756
0.0773909475998928
0.195514995248135
0.143066204243579
0.205012657284773
0.0852437172328895
0.177302876521718
0.0989469013275958
0.0473775991913427
0.066119665558091
0.076680054181932
0.172237179436789
0.176603040549809
0.0538171777742321
0.0411510152420446
0.182273865655204
0.0428732089956164
0.168316921544345
0.104220189233444
0.0689260191429635
0.15156178011781
0.171401725095976
0.0460983662262588
0.0728976380356942
0.174265974723726
0.0498208112016864
0.0621089562371477
0.0732367033343189
0.045008655147471
0.177527197242307
0.172520895596491
0.14871051750937
0.174707779687771
0.200739044845543
0.0463215682810635
0.0508564103276485
0.0542980427766006
0.0593552275060398
0.0717002891471576
0.0710163020309844
0.201025834352214
0.0697172484061876
0.0495133412688295
0.0938504595923903
0.0831778339917634
0.184831876592279
0.0803995740838393
0.0841403402238982
0.0661546815780807
0.179308996462439
0.179337475392231
0.196139167262114
0.200009385306719
0.173248574697517
0.0504771325465274
0.0962578548117582
0.0770742465526157
0.0686659848302078
0.0463990686916547
0.194629768333937
0.0677835781596614
0.090580833650031
0.0486945963189537
0.0768337232125708
0.0690578165915265
0.182517098611074
0.196228887687242
0.174911726214894
0.0382962346304028
0.0545742535081153
0.20109674243355
0.178513215120014
0.0504449095082288
0.173509602637136
0.203563462862408
0.170870803965624
0.174611303698005
0.199301404996787
0.0385409214900981
0.180668357998175
0.0692304486251201
0.172747251799708
0.10146507925632
0.147354311715579
0.163975474630569
0.199035063416066
0.0503882651939766
0.0640346513326471
0.145464102925495
0.100445741974115
0.0487961158946536
0.0805093817058334
0.185933795486484
0.0442347829428807
0.189393288815253
0.0613498444202197
0.0755216662867218
0.0426653561461785
0.0802532681352984
0.0484528812049839
0.0521838453820981
0.176833856125948
0.0645197219022525
0.175126722604658
0.187545170506253
0.2068778214989
0.164487832875578
0.0939908933742025
0.179595595891168
0.158664095838067
0.106291235241287
0.0477387281059366
0.0994457909967643
0.0216947609563328
0.14830650424172
0.0748706816665288
0.170194445090612
0.0945945351673333
0.0701882267345107
0.0731304853267459
0.17721614965645
0.201563335247932
0.168194242542869
0.0709875072584807
0.0692161329334206
0.1697842064949
0.168750237982805
0.057406917174958
0.200266041887031
0.150019581546163
0.0720291969932153
0.0977214641210282
0.0522647419931716
0.0814586237530892
0.0413544289061259
0.171076150469231
0.180258835959265
0.168176499956315
0.17401532935137
0.0770399071425582
0.204291327544378
0.100261800753558
0.101654734696683
0.177096700055755
0.195471478889017
0.0812642629975043
0.16907421227285
0.0503056975405902
0.0530194600838057
0.0818972891842513
0.0430187676916391
0.0730624067142842
0.197597890795875
0.107956721627765
0.0477752462722046
0.0647326289242679
0.177752850444953
0.177139352793457
0.0717730090475587
0.07214609553137
0.172673319082845
0.204139843899648
0.183717868822019
0.0820717858608233
0.0808278529087948
0.179312129625613
0.100662142873113
0.0800666337229712
0.0521037310170218
0.0205542520559625
0.0989781584632765
0.0540579659767598
0.180053610742876
0.10347721916806
0.0782825772643799
0.204591021059149
0.147495312443404
0.145534623755198
0.176686518293521
