0.220701846080601
0.229156142947828
0.148416418379822
0.19568132730419
0.2295892747018
0.229397287487643
0.137377847239138
0.123748091507284
0.227703121253527
0.104773289349432
0.224420007015162
0.176627086827653
0.151405465290873
0.150205243410415
0.176087576384215
0.120626012957198
0.221421289564538
0.196350105964656
0.171062970136089
0.201637367837851
0.128321205111537
0.108288792886877
0.195383159146521
0.15483652150566
0.0829057251744416
0.230306893594568
0.174401696675789
0.15044430804401
0.23173700412849
0.180090617115125
0.171539486205408
0.201305574540329
0.151951231737586
0.197282835418739
0.213816001641334
0.151209768144247
0.166206794564251
0.227270436991077
0.202099770855282
0.171148077893022
0.202358584422257
0.12264735850454
0.174148960115588
0.0812950926986588
0.181427787676241
0.173803197542159
0.221307169207118
0.156485937149554
0.173688583472425
0.127320684240595
0.150506325169913
0.199626282042642
0.22279320246994
0.180313241162559
0.175313064069898
0.228519186748654
0.155003452509331
0.187805391456277
0.125742109842783
0.157841527008831
0.145403021200958
0.213630657344702
0.147854634325958
0.192770185531906
0.21886857109214
0.107181559602784
0.169021815265155
0.201165658733728
0.175017876970376
0.222466352720778
0.179024454324559
0.116781348211207
0.185718196404346
0.152419871459621
0.171036371054668
0.223610516785582
0.196751858404173
0.183058232249399
0.177530363132512
0.162655198251246
0.225434710433483
0.171788426358051
0.238169645613326
0.129729314633959
0.21373360058786
0.215245717844965
0.203693030424735
0.190419427504515
0.224271455604116
0.169624634272216
0.214625971641033
0.201181917009608
0.108336097975964
0.195569976097927
0.227021064437551
0.217844721233178
0.151710722869606
0.143937644185399
0.20755584227772
0.153942156583462
0.193241994519767
0.165769189450932
0.220418229133823
0.174050207371593
0.195344346145605
0.197848187352652
0.169633940657255
0.205002557495457
0.174749817428924
0.22251035057481
0.194530989508593
0.173587624081722
0.219136597602387
0.226861102551939
0.118072448061605
0.177031950188089
0.196903509764395
0.177265430154527
0.227422553566603
0.15358752995362
0.208303703220484
0.169089784631368
0.178357355621175
0.179673540716221
0.19877760057559
0.171794088231754
0.169889184868689
0.14410908520413
0.123531551898936
0.184155520794133
0.231161354897119
0.173071685145805
0.128606277449585
0.12349184104707
0.186210498399186
0.225124206580223
0.221954544154014
0.229508358617378
0.225304735818251
0.227006700356883
0.23307287895751
0.22518782608148
0.22692732491558
0.184113108608307
0.176197651842379
0.175426627711537
0.176635909658746
0.0675101922026693
0.172675370827185
0.22282948292934
0.227426122757988
0.200531297641069
0.205056116058692
0.208413696598718
0.150821268016484
0.166591990462454
0.222926490650678
0.173866677522877
0.171777115740466
0.225299741929737
0.181846648839154
0.178603587736048
0.229811068562872
0.205769858694083
0.224350629278814
0.182369660401157
0.132720524239071
0.201726585027824
0.147979589498473
0.224790185090195
0.202863378614382
0.192691143229162
0.200138390890085
0.228865832511284
0.223748126233034
0.100032798152499
0.146342247784092
0.195737144896096
0.207805950011271
0.182719722359657
0.200976252287304
0.155580328040436
0.184034708410615
0.147085502086877
0.227282106446519
0.163136434210434
0.171200174065745
0.149153511593113
0.200960908170724
0.122796366215998
0.223773901803056
0.180686609967274
0.15158211217631
0.151202748559588
0.228274121025379
0.171745340644086
0.179971757998567
0.201975236040331
0.17568663343705
0.223874488795408
0.182141929661523
0.154708361022318
0.165805136299403
0.236393489924855
0.177027337030717
0.219485703643594
0.170486760340011
0.221200628443684
0.165976853791
0.157386221616193
0.226135051025155
0.174290057017684
0.229800075948053
0.204040766187424
0.168688964072567
0.229294387753144
0.221070738626156
0.15460710845762
0.098331247722804
0.146715449106146
0.158237136265251
0.176276365646942
0.19938533201752
0.145861605340041
0.224831618487477
0.228111858205542
0.170580787709954
0.200404221375107
0.226351242820141
0.218309898735334
0.219531892321686
0.222221615837073
0.151476428268457
0.230039646741144
0.173291922670167
0.149912980212715
0.226775358118743
0.149504370525813
0.120914029049594
0.156310001870706
0.175593229600941
0.199093299466452
0.181933350650145
0.225951575847536
0.228398315616557
0.223764325692871
0.122942272887762
0.227038534630604
0.123130165909359
0.151917013830834
0.127643091623662
0.122130108217527
0.126688082889978
0.130159104707199
0.122206975641748
0.120451628501308
0.120241236157226
0.12888430867655
0.131551355060285
0.133164743035714
0.125421301840066
0.116086397397911
0.126070773610354
0.132318193417005
0.115242331027151
0.120735143227666
0.128465418871148
0.122830248934185
0.127491932206644
0.120099795195124
0.124955228814573
0.120703198781812
0.130237032671177
0.121325783967313
0.129922282052991
0.130654460291798
0.0665309395809068
0.132326463634537
0.133323307328413
0.130729208316061
0.129911145554939
0.129647146597129
0.0635339556581277
0.118103714764827
0.131506936238685
0.134892785022396
0.122397326831122
0.127105384794268
0.125020982245607
0.119857948249854
0.126723300028942
0.117974014877203
0.126633640096385
0.0806459900582782
0.125684469395772
0.12398529126347
0.122997931312804
0.122910938860057
0.122230683205752
0.066829747060315
0.123718467495469
0.1308361309469
0.124026899224077
0.125632793775186
0.125342244383707
0.127321647983195
0.128612041486613
0.127387965160814
0.118665588310522
0.120020497224608
0.128370584085166
0.130217971347825
0.139455359342012
0.126712219508016
0.123458909185291
0.129368711275096
0.11740360646865
0.129163067295209
0.127436886435496
0.0782266864607879
0.129473925511436
0.120567128360217
0.118777276572532
0.130949213797504
0.123097323242785
0.122758916556153
0.133360032565648
0.116381976298958
0.120802507296973
0.072993158957896
0.124040098235804
0.127902758308817
0.116876756239176
0.126287440805982
0.128124860741124
0.122745770809349
0.12335399119318
0.124402714288567
0.122380512607992
0.121215813726333
0.12453298851525
0.136720761596879
0.124788441103751
0.12130402647906
0.11885364722677
0.125622128882559
0.129751090577444
0.130661278326391
0.120536667136117
0.119471483623382
0.127693397018966
0.118817897269166
0.122881671858961
0.118209176535889
0.120027309107147
0.120262509455756
0.124319306993758
0.123476489808136
0.0736216879944768
0.0726274069058574
0.133318291478035
0.116932728762384
0.122070698481775
0.123863458483436
0.122238435806845
0.129119003792105
0.122072668667024
0.11800933555268
0.125359784552343
0.126534675477035
0.128895294018183
0.126808770410146
0.122487441004979
0.121548622686107
0.129326535091037
0.118326306068074
0.120047463025896
0.110766403762848
0.128390240692775
0.135905408601509
0.118411793916592
0.11937813043187
0.132621710280406
0.134819797337427
0.114185171547981
0.124535630649251
0.118916933184049
0.121156296438185
0.126054594791799
0.117236684179401
0.128646628207396
0.126437468943006
0.124521827150377
0.127263264592424
0.121626286051161
0.125255618227719
0.126031302038525
0.123789037241875
0.126910780084343
0.122389182733125
0.125582952567893
0.122395246331532
0.120298626026158
0.125935956318776
0.124304547550734
0.122057861312407
0.127394811848023
0.127545803099096
0.124316938292661
0.125158841949252
0.126360107280126
0.126818255328308
0.127525828496699
0.121947502417583
0.127141242049082
0.119179927648994
0.126856077862759
0.123729413694645
0.118812058976159
0.116636897391642
0.118148798356934
0.0815360686178323
0.129879338313606
0.126447983272373
0.123544080449156
0.123723297942577
0.131718157487983
0.123541882316857
0.12918232730826
0.130427122149387
0.117839130360363
0.117621766292534
0.126225781707089
0.129554417129895
0.125683650867955
0.125800208310531
0.129676580499671
0.12350713588158
0.12393847764123
0.132508098778934
0.126510269344837
0.0795350288262412
0.129970856685425
0.121993596652711
0.119943004942554
0.12620345893287
0.125564743144708
0.0791689618300438
0.119161125531943
0.125508855085759
0.125738392762158
0.120870446365639
0.117187417209646
0.112489267110116
0.126893428317043
0.121004510012351
0.127866301186939
0.124680190563578
0.119736623013313
0.128589523501774
0.123978223071831
0.124815674110004
0.12789578789314
0.121658939447752
0.130032528462667
0.119595366289671
0.124032210091475
0.132624324359338
0.121699817219225
0.124568577968321
0.128729057267646
0.121980083841276
0.121432299490537
0.126381268322585
0.124026970791357
0.124186240208362
0.114316064093222
0.118365859191688
0.131327128186716
0.12442422497817
0.136478267688648
0.124482240833464
0.127030130010023
0.127822847955697
0.121346923367152
0.123408064142946
0.12373646586802
0.125498924398844
0.12405717026965
0.129913726382391
0.130281758717705
0.124117644746357
0.116570398472187
0.119467650426314
0.117858951004653
0.129362476074625
0.115487315942523
0.123183504183989
0.127714256958491
0.125678350145419
0.0951239286199197
0.104618659105702
0.0357949939726919
0.0251358758047863
0.0313419823816023
0.0955016662555018
0.0349003632583691
0.0169013395103024
0.0243668487467269
0.0517540536325465
0.106304035683328
0.126199905512107
0.101775027870268
0.0227713350094366
0.0974250433400595
0.131548463724486
0.106848471978127
0.0228137066958977
0.0443569524418889
0.0289390759201464
0.0266495622521843
0.026696777100909
0.0971298119761672
0.120089540583154
0.0235183822051053
0.0275532721237312
0.128605566088042
0.0541168963551078
0.0968248676875056
0.120120152757801
0.0190529361830541
0.108201332053151
0.0263377742190112
0.052599828531852
0.0347447746941366
0.0980525018008686
0.0157730430159558
0.120784691459313
0.0499896399130773
0.0244220996112169
0.114345241207992
0.0178974763453377
0.0957317657829845
0.02052927000023
0.0190058530060956
0.102801288817413
0.121948427590423
0.10216195291074
0.104144753261506
0.124092734786736
0.0959994453285511
0.0182098438502662
0.029358847163285
0.102909177310372
0.0953914662142319
0.0301885826189703
0.128011817138747
0.0915883802092864
0.106395365579213
0.103088961165881
0.0261565651944784
0.0299775625065517
0.0152548029514885
0.0186527366687705
0.0915156109151319
0.0519034276446739
0.0238572856340235
0.0504559233880326
0.0199212117794567
0.0261242214752419
0.0235107242027412
0.0278408297098586
0.118899613493477
0.0946713016511284
0.0239740619331764
0.049200322821645
0.0263937659857166
0.106857011331419
0.103263955369822
0.0966909946335531
0.0156094954065931
0.0309684737328124
0.0264631693776309
0.0264524864239003
0.104036391668269
0.0191563324929518
0.0294442011111396
0.024763917661486
0.102383932386543
0.0247120517724149
0.0298427780267266
0.0972175021304624
0.0199035239369116
0.0218454741907001
0.0951862143583859
0.10342400147604
0.0216728910789807
0.0236844787468942
0.127539026792455
0.0467166038888584
0.0456970992243697
0.0490183871639625
0.0247685197922647
0.0249091973754304
0.0186252748896994
0.123455265657867
0.105114112390836
0.0260604430790237
0.100846224735995
0.0987191572415011
0.101755498050384
0.025256985952793
0.0228085996453691
0.126645391430764
0.101057657744853
0.100678011445346
0.101338745176111
0.10219361797156
0.0971173649322809
0.024503990856519
0.026512394315017
0.101464670830937
0.106919447852018
0.0257258033007
0.101711628447435
0.0511109432004841
0.106914708027734
0.0254541024646652
0.0983733222491235
0.104678346910975
0.0939282606412839
0.0963587982317815
0.021081209503497
0.0999879623518383
0.0476525751086738
0.01449687371666
0.0521211297714474
0.0504026169822476
0.119614919306368
0.0241549988729396
0.12252609465368
0.122244440828508
0.0995415346803111
0.0234551283171818
0.0368511212651888
0.10225872830325
0.0216309324177536
0.0322742249569527
0.0115647131245533
0.0165699024929085
0.0961069552201037
0.110486317118374
0.090092952806656
0.0207330089754425
0.0978767260379045
0.0991248642869758
0.0468257101053272
0.0894810308451628
0.0874537481476174
0.120458201515186
0.0924736476945202
0.0281577415314824
0.130326814810489
0.121163742538116
0.0534626734527058
0.0272392703108463
0.122030864505092
0.0964473017690983
0.107735710216711
0.0377816970649012
0.0500371061295051
0.030381184229548
0.0337503254325738
0.0369232993834637
0.027886118531867
0.0440987160285903
0.105970540706691
0.0279201505351228
0.10205417018861
0.0945766938676417
0.0494230083270339
0.098139857368479
0.125901517160748
0.0499182605376201
0.0229707421678812
0.0532163521746234
0.0987815685428581
0.0988851675327381
0.0187335293310896
0.127737808720089
0.0200679508955232
0.0507994187770225
0.0929161985492944
0.0214059934577368
0.0594921978437735
0.0428678719381932
0.0296607735223531
0.104791282687525
0.0252415865668877
0.0859862119513337
0.130682945664579
0.0276810482611129
0.117300580501764
0.108988688061071
0.0243176158399903
0.126971352457147
0.099767099938411
0.100226564060757
0.0969767661585122
0.0985563047887893
0.0234116633321891
0.0257549187016126
0.107194844200533
0.0285640606255739
0.0458197014131525
0.0357325234364623
0.0991328990325634
0.0450170991559265
0.102931197937605
0.0493378114691854
0.118791126019849
0.0146918944265104
0.0282651606121327
0.0935884495768468
0.0882623639185707
0.120622493068283
0.0993711676924326
0.0956586531967879
0.0239297125504214
0.0276204361778333
0.103803211827164
0.0175759561235006
0.10837569314416
0.0219150463113426
0.0224818322158825
0.0578087515769588
0.107069951879344
0.0917268740233408
0.106577156612962
0.0563514151076652
0.0287357336584402
0.0331213194652225
0.0210866240997882
0.0294255619974462
0.128111746190545
0.0326531670525818
0.0253618882929006
0.136463402542406
0.0273601892149926
0.095012409484831
0.047424168213287
0.089820201332479
0.133809683169586
0.0947342041708171
0.0193916999927146
0.105099760522688
0.0291274415345642
0.0269506199266704
0.128344900540707
0.095160961457994
0.119319961077426
0.105798131022786
0.0177021215007507
0.102771740745263
0.10106362935664
0.024063239563347
0.100730169321718
0.0417047736976754
0.0937843588741363
0.101093348225006
0.025504708202847
0.0380850063146374
0.095999219976779
0.103563138643329
0.0342580473734125
0.123879524857089
0.126663660478237
0.025573380276287
0.0156012035309316
0.0967762302978805
0.112668363844461
0.0174387075050792
0.0175332635568966
0.0189852352024268
0.0309632739203887
0.0972032933752604
0.0179464070469588
0.12079258065314
0.102110476995096
0.0487090034426027
0.0255379743915015
0.0946060998952155
0.0196589164800264
0.126314933109099
0.127842656932773
0.105585275199165
0.124155496696132
0.0903741964901171
0.0226872352516094
0.105294392814562
0.0294882253622051
0.104331883312711
0.0949543756635377
0.097210534175815
0.0281421478410188
0.0480299477268782
0.132118836660405
0.0986395160519077
0.0973142278893495
0.0281459607015685
0.048358706919823
0.102970145619229
0.104101755176235
0.100413937678265
0.0953458302587756
0.0960761379985209
0.104482065500505
0.0258398010702293
0.0516778628268938
0.0264695986969888
0.095506033249517
0.0287846217180558
0.0326786411637754
0.020823913360095
0.0223103220996626
0.0246776540529559
0.0314227121740324
0.0284907978186633
0.133091214783812
0.0226210562177529
0.103490137957903
0.09501562946837
0.0160404804930855
0.0235022230683332
0.10188140183498
0.0944299905515524
0.0253367122671342
0.10135365274773
0.0995375012722568
0.105535897021462
0.108987328128608
0.0290698292990153
0.0306950043266682
0.12378559732307
0.0214024950882451
0.0536910279296621
0.0968678100794823
0.0975393379705712
0.0259849326080203
0.0513148960013936
0.126631249205648
0.0516799993570658
0.0990745922785828
0.095496503627452
0.129358082399351
0.101190548675596
0.0189784340840299
0.103845397641403
0.0267081944820728
0.102914339369706
0.0320521047509748
0.0531771969951563
0.10167256951429
0.093581207847255
0.0221793317796249
0.131130412029461
0.0888485283763015
0.108838411314323
0.0250476938140154
0.0564922781966379
0.101703285697076
0.0990867752079355
0.0883875542930781
0.0992438431297846
0.0963905638817472
0.0311614753616102
0.100081813571835
0.0968450594250973
0.0536580754835722
0.0900792334174565
0.0294953305838329
0.0464367904147928
0.09480166311667
0.0923288488227188
0.0223249951394068
0.0226673228391075
0.0235434879709318
0.103752828438446
0.0961073833474947
0.0317437462344596
0.0965579071157595
0.0254381748505561
0.0265216442131774
0.103702619170742
0.10295428625971
0.0308405715740118
0.126444050121643
0.028664943711978
0.123083130731398
0.0945447865868034
0.121871065766618
0.101176517066932
0.0241871914438611
0.102765707847601
0.0209888818597984
0.0208967627274693
0.0283452617244606
0.0488437548755067
0.104636935734707
0.104924345349422
0.0342099382656631
0.0463277780531232
0.0991256651164066
0.101960666415326
0.0879876568167776
0.0253451487521522
0.028305928325172
0.100444466907755
0.0361354017730608
0.0233864079189546
0.0217447551305136
0.0956406614261134
0.0264887847152642
0.10209828767298
0.0547250926429417
0.0277418596625317
0.0509247154177832
0.0517993117160744
0.0215960628912082
0.12041616379833
0.101826421832439
0.0947583406719073
0.100020160929665
0.0480499461291957
0.0249174946623159
0.0421830489058809
0.0203423272978868
0.0254568027203365
0.101260470469064
0.0172579186493106
0.0231218296922646
0.035682279035626
0.0954813104215544
0.0133079741507587
0.0511854335744987
0.0258553808185189
0.124102675746336
0.025176135649726
0.023041565402124
0.100638476849028
0.0524450770239658
0.0978877313361566
0.0261297436383837
0.0995477691921706
0.0293928671608205
0.10274163386686
0.100587698073073
0.102770599065094
0.029570663255234
0.0295353685459777
0.104781328451584
0.127350640055937
0.10219731839188
0.123470654280646
0.0526185989113377
0.0985140949704923
0.123116143441636
0.100037850962709
0.0255124395316044
0.0576422819225308
0.0201587112952927
0.0454232085601877
0.110628752030923
0.102933110366349
0.101239633925595
0.0967428030717522
0.0257966650123698
0.0257617985902748
0.121413480401737
0.0488215945286138
0.0531398022937199
0.0541449563282179
0.0221819056671525
0.0242341565561613
0.0319132044410885
0.0503401407473025
0.124936597178169
0.0459351207944813
0.0177564332506405
0.0576604306721704
0.103228126767431
0.102863864478503
0.0142473150440916
0.0204062508340937
0.0956278455875881
0.0923223908917165
0.104542729196243
0.0269491721762394
0.0989792906748793
0.0994238270054604
