0.296673637510684
0.29688702017106
0.22570200106596
0.301447341350251
0.301963936631573
0.249174954091473
0.304478943423651
0.296896166285447
0.29389950694776
0.26218324543707
0.270165134464636
0.274420207244003
0.301074085625133
0.263454024655529
0.29883541942898
0.298365712345207
0.273952304788423
0.302496937476128
0.296192125784341
0.272913747664667
0.269683992767123
0.301189679366888
0.294147495273521
0.271242390158065
0.275172339175547
0.225714463408253
0.267131429096657
0.301890333307739
0.269573828615848
0.280111281035659
0.30187358168087
0.302347737873352
0.301767666025367
0.301207712789447
0.284029601196159
0.297109123222387
0.300867710863437
0.221783243812314
0.279558309550928
0.294043459575139
0.301175025796166
0.298772407349872
0.272666869221258
0.295269204818897
0.267421835902749
0.291577654404367
0.275239524308294
0.3004032636995
0.292546768699291
0.302166742304013
0.297081817628157
0.281294920956764
0.280485434205226
0.283991197237832
0.299976933862783
0.297596151636677
0.293399647924792
0.312134325903234
0.298615432768982
0.29402789236904
0.271318071598881
0.279690021010515
0.274080475520273
0.305892052300741
0.255428263924974
0.293652120142681
0.304350907331268
0.308908395741461
0.306853004138291
0.275727752623334
0.270454088173745
0.271070253081687
0.269238063234725
0.255177316800433
0.276372063258009
0.27389527829429
0.300928630699596
0.296130572285608
0.249031446775429
0.287062866719699
0.291355739635825
0.29922875646059
0.304470962941185
0.276092376167846
0.280279422189919
0.305386062532112
0.307804729166621
0.279215853664615
0.303311607187545
0.277088445407953
0.277462249005993
0.299458951233386
0.29914960719782
0.307213237104401
0.302272268503929
0.275467167587429
0.277951280787385
0.311024637507287
0.299736714857122
0.274557300174063
0.302265872963788
0.290569940668365
0.268723351101274
0.301735468366145
0.278654584349095
0.2786601620086
0.306280066623614
0.276126231635664
0.278547348292853
0.273912913380546
0.29705968822105
0.271494467853018
0.217139565022279
0.27285982115081
0.273525773732557
0.284448559976897
0.300702199407262
0.278748260701957
0.305848239125143
0.292229611951096
0.30809283182598
0.2756306558648
0.306729390840003
0.300311062870161
0.287144637053512
0.29867481086733
0.295658793250707
0.272125954263234
0.309419882400492
0.272101245788702
0.297364855911354
0.270598576208331
0.282715044714861
0.277418033021415
0.274089955068235
0.29917266441689
0.276869469754631
0.298794809696524
0.294286947441243
0.267345461740977
0.295396620987688
0.271328045938835
0.303406180781516
0.302814827189728
0.303139914504798
0.303789694237973
0.302404366417751
0.301880755460955
0.232134498987384
0.227237983288298
0.299843219758546
0.283399181037641
0.299346692989958
0.275344085275406
0.289168472607271
0.29871144258808
0.277725964016328
0.275647252797061
0.280997656376709
0.301112554348093
0.305589630274878
0.304231256844011
0.277197257892695
0.302692715095685
0.221769184106407
0.298726770625144
0.280385744958486
0.247975574794068
0.292845956144412
0.224300501575225
0.297031680995853
0.283295066751844
0.273279601805141
0.271228382695248
0.269338897055088
0.274215773326119
0.288879211651968
0.306666569515453
0.295919791640473
0.297637184271118
0.299480456247897
0.304181823764967
0.304606329097982
0.270489380921201
0.304499493741051
0.304080552205469
0.228258120235433
0.246514985881454
0.297313418943513
0.264878581893479
0.304473271289282
0.27129356550386
0.297965605043474
0.296994973814793
0.268780762313591
0.296349589227191
0.27073131461085
0.306818260134414
0.272716647711221
0.272500019770652
0.294882132552396
0.300359116767175
0.305735501239203
0.30095041018912
0.277070458331676
0.279522444679888
0.278298031601499
0.293503305051975
0.275708245417254
0.28243152517932
0.299800875153215
0.225026140609946
0.298972362366032
0.264811245492647
0.274990504761797
0.279590672813043
0.236202412833898
0.293871908385717
0.299688375878789
0.26903002567446
0.27218305262938
0.299615942397399
0.305424550285786
0.298840854473593
0.275497296351407
0.296099564121081
0.28281871130599
0.302953224393476
0.274350885338485
0.294912952769796
0.302841613117245
0.298728474105465
0.270783201388618
0.273244697774066
0.277080922372536
0.308871836616042
0.278956407801773
0.2711998910633
0.276334619308797
0.280766035803181
0.304302232819587
0.302175258664879
0.273946207189679
0.249002233484585
0.292213536983047
0.28014323331476
0.273764005941766
0.300803986213513
0.277126122657604
0.304206926011633
0.120202754655487
0.0968285269518683
0.126729872666409
0.124852715644551
0.124566010680919
0.116690814945397
0.0966178716036935
0.0988433918082465
0.123627455212677
0.131479247226068
0.104892702314101
0.0973922779776285
0.12666886672105
0.119439353994422
0.11778883859967
0.118663035614349
0.129339372573626
0.127057704709779
0.0984121181511531
0.0976822436385694
0.10472435307039
0.125017960451812
0.122722283819071
0.114620263006044
0.112519073026913
0.0995747537053329
0.0938572035506096
0.127210803647268
0.102289237762771
0.0940478467156979
0.0923936042624045
0.0957363157220702
0.120112005739686
0.118014375961698
0.122675561645202
0.122040398439845
0.120392559549818
0.102488117425641
0.0916790773634615
0.119538030142085
0.097477698178716
0.0993546519934277
0.0987433782878018
0.0992223156229332
0.125051196211679
0.0976278776923589
0.115350865045593
0.124505224670416
0.102108122757519
0.103622395393841
0.128419080233979
0.0940687602697477
0.110452396352672
0.124119404774715
0.130508157702663
0.126740541576462
0.0987085775467978
0.124840577454339
0.0982619767992448
0.0973084218505239
0.122514995778884
0.11899145876862
0.127623990134352
0.104698260558351
0.129128725112081
0.106575805756626
0.130747181973453
0.125871745550387
0.0969009821641278
0.102738483206892
0.120969123086233
0.123338644167158
0.123031861527524
0.105714947066162
0.12588963261894
0.0934550279328771
0.100182106601796
0.11824983804397
0.0922543942909105
0.123402605163497
0.128034976975449
0.130547242417441
0.0997709526505552
0.0970748354619745
0.102434550748341
0.131217700956287
0.0986165806614053
0.103224346851216
0.133445837370061
0.108041638997718
0.125898024977698
0.1313169855034
0.0921876946264428
0.129253912922467
0.123258042669395
0.0902617169186507
0.128654441985434
0.110916856076649
0.0936292185767435
0.124896785498677
0.0994053196582041
0.10314596514224
0.0916104883285101
0.125525653090468
0.0980442259350908
0.125771347479878
0.117268088290092
0.12306891080874
0.107717747175024
0.104679332067533
0.105504270536796
0.127079663285929
0.131218068282626
0.102371312442468
0.122131777629044
0.126637775588479
0.105930285811403
0.105857061978818
0.0983823187640938
0.095575653391548
0.12460400895636
0.101238749101313
0.125091082458724
0.0998971438000194
0.104733186620119
0.118940531172741
0.100048795734153
0.117265899534049
0.108122989792955
0.0960411200939473
0.127765967281913
0.100219674726984
0.124489860514921
0.0945692108734579
0.0992469825149703
0.123199958139242
0.105824315613553
0.100891841608623
0.109362033117419
0.116548400193577
0.130273370472564
0.0914419757489556
0.124040953315281
0.119230247653462
0.0880712204401964
0.129543792259234
0.122592511062295
0.132916365551713
0.126280250238021
0.102246403231034
0.108731782813888
0.117927266369259
0.125545263743964
0.100164768159268
0.0892229784331845
0.103258108218057
0.116544205488779
0.125345132133267
0.094566021203103
0.100800113545988
0.106292944586634
0.12481381945207
0.10573764540303
0.095718608280679
0.130263325244796
0.135268207561277
0.125502034785075
0.12067051163622
0.10255649540962
0.126673631447987
0.125299024931351
0.126181455842725
0.100238991129588
0.131957311640815
0.121550085187162
0.128940314003246
0.122847405855698
0.0976943344629146
0.115713262889067
0.118758314134425
0.125988479008926
0.0943752222126413
0.132916484940424
0.123203773284568
0.0993245443549005
0.127461658043502
0.125367838384438
0.0980006963972546
0.0863647594319389
0.0937589347476237
0.101241176952873
0.0898549996249802
0.133542371298216
0.0957912185180381
0.106082396697614
0.135910968758683
0.0962889188820398
0.127166758470428
0.11224036238458
0.10129448992277
0.127115127254296
0.105926189241339
0.128639757459339
0.118571181800857
0.120463518664643
0.12429437334646
0.123674734582006
0.121869555023202
0.104918058886478
0.127953477821546
0.104856196114474
0.128961324131053
0.0975406164510837
0.119276693637474
0.101328359074885
0.0948905709671077
0.11611976896298
0.116639760674164
0.103828110199264
0.131587332912473
0.131929071139207
0.0985250168199508
0.127008821266292
0.116291237044679
0.0957883965929404
0.0910071745506458
0.0984018484769929
0.127635918701967
0.127560112118803
0.10293563387223
0.090098003101091
0.127388843809922
0.120975154042002
0.106773630119214
0.128277580726927
0.132377358909798
0.0890606635706618
0.126238317743532
0.125378963350858
0.1288720915521
0.122693287448242
0.0977360289796289
0.0999200542772366
0.119330738608657
0.10041009717805
0.119123449894461
0.0915905407982961
0.101984436925838
0.108794829493697
0.127678843060721
0.0284024059889604
-0.00356339724054847
0.0298265481324907
0.0496378257367213
0.0212101631778358
0.0490025160528145
0.0465802782940282
0.0490597941737466
0.00662429595440108
0.0255527518179675
0.0224540540631275
0.0456873134686052
0.0320399980398522
0.0520682478938375
0.0171295075106605
0.0473328601754208
0.0226199704730093
0.047070040642822
0.0324399269165686
0.0492102049687148
0.0348912698625996
0.0157012001030222
0.0536416671858469
0.03055299841202
-0.00359131898434587
0.0250085928994696
0.0211815172178415
0.00521889107709855
0.0495621658583061
0.028909248593675
0.0592154174400561
0.000886395177562363
0.0289656607628873
0.00630110723307694
0.0267746805508766
-0.00167105649636165
0.028428184073866
0.0448673542985941
0.0095796065397247
0.0374973059028115
0.0253544900775625
0.00397675559135314
0.0564069898932753
0.025194404032286
0.052477356891314
0.0490592370881605
0.0533772959741436
0.0285219211825506
0.0488614361838372
0.0229129082193661
0.0546345276121774
0.0310081390113022
0.029323270601832
0.0475626350385909
0.0549117862066354
-0.00549446576902123
0.0260116789780039
-0.00748067755745536
0.0247911523791948
0.00142197436772553
0.0454474563794649
0.0262572091473776
0.0447817880726521
0.0342528053777676
0.0208317769918231
0.0270303097347637
0.053230069999419
0.0240776231237444
0.0198477569643407
0.00609328428106512
0.0309442329816492
0.0257228561708379
0.0489178850599471
0.0501637119955902
0.0217702190697783
-0.00262615630250041
0.0349415900792697
0.0182333915884748
0.0162785916964461
0.0199014014653044
0.0345874352179499
0.034362260676953
0.0012342986366671
0.000650199637767151
-0.00504890931813701
0.0338701913859106
0.058056773755899
-0.00699725961424241
0.0188155341819145
0.0206089368624707
0.026804862404272
0.0207050431232834
0.0484831154326361
0.0109138966559298
0.0261613893724996
0.0214675256824015
0.0253517529072501
0.0523877972170927
0.0271071418086764
0.00730563342835477
0.0270726672465454
0.0223043947283944
0.0291879045642218
0.0334465575230317
0.0231212634907571
0.063897260425442
0.0454609679724387
0.0266022252264194
0.00172703507838389
0.0353243964919686
0.00161484948280254
0.0457057390596242
0.0569699590805983
0.0255142622746007
0.023102634375852
0.0217312597781984
0.0443049943161027
0.0037427670989081
0.0531122218062518
-0.00176174931553814
0.0233527660807777
0.0448598571489707
0.0019507251397861
0.0440129680204735
0.0186010381968377
0.0515352334768352
-0.00583228866534301
-0.00376511268026109
0.022373195246143
0.0265929757041994
0.0150878084933316
0.0516039262349237
0.0218914097202462
0.0245639085682378
0.0315605467706766
0.000864183027137784
0.0474493895756757
0.0189774887780652
0.0242343400538664
0.0500299189894759
0.0281458958450282
0.0222602495403545
0.0587216524354949
0.0257772028688319
0.029269185479173
0.0194157335386915
0.0517202112092963
0.0078323481734387
0.0154038071783902
0.0291763438134071
0.0229688119390784
0.0214889148949977
0.0176825819758352
0.0554506734838659
0.0450453274931814
0.0491529632369711
-0.0093778207708517
0.0256028446530553
0.015533875104652
0.0426264631999579
0.0525131597980675
0.00412035237833446
0.0156409912751292
0.039524187542663
0.00648383500306552
-0.00204617883998409
0.0584305607560892
0.0273791244082394
-0.0013803582740232
0.015124394372423
0.0195327711288017
0.0195524194572359
-0.000672379379712737
0.0457608896162855
0.0262348419262884
0.0528585174974823
0.0193657108221303
0.0201119585081433
0.0299020263748757
0.0299303301749706
0.0244860872158173
0.0258086699858612
0.0223935364557285
0.054071184873391
0.00374663074127715
0.0481711304298247
0.0534254129854766
-0.00347283289581324
0.0223887318895787
-0.00150170421340957
-0.00255224275460698
0.0151807462940712
0.0177578091525269
0.0478390099171416
0.051151758515798
0.0340822408284981
0.0268449372821315
-0.00241017235833143
0.0461356835365254
0.000211971187881235
0.022052362129971
0.025139779051878
0.0302213763543018
0.0399085251318532
0.0419696740604282
0.0505030539767637
0.0483524429893399
0.0522547476110225
0.0453591152824995
0.0497953571941362
0.059140290596278
0.0444740951354394
0.0488339037284126
0.0200219235920145
0.00111073146804227
0.0291499344169971
0.0193815354852877
0.0260097886373386
-0.00109358904679961
0.0339509027002309
-0.000162490658988709
0.0114390884763664
0.0321456816908922
0.023847714771615
0.0241229042730375
0.0427156124211363
0.0253808935680036
0.0256265672468038
0.0560077667208861
0.0281821012619512
0.0507835560095827
0.0337124738491645
0.0280930091952672
0.0272093483229092
0.0564196482956879
0.00644469771155036
0.045670320003525
0.030702321818927
0.0226345495665557
0.0281471414836312
-0.00174912264980371
0.0575832115046438
0.0237021834046528
0.0543287990256246
0.0506672407087564
0.0472788294077249
0.0270097138248761
0.00876066640180723
0.0267500060421686
0.0484361560403449
0.0298928985397819
0.00103449802454918
0.0468113772621134
0.0191015826422817
0.0301070497744604
0.0326991329973608
0.0328370000875236
0.0492183266921667
-8.35239807508525e-05
0.0397425855587691
0.0504494976567843
0.052624747276308
0.0335405012646338
-0.00288035341735339
0.0188062822279312
0.0196513118583579
0.00230453089320461
0.0226600451100735
0.033944061773673
0.0524163856291218
0.0427105604366225
0.0190742053353812
0.046628109670084
0.0545016480139293
0.0551344153967127
0.0490590319993435
0.0203246485685982
0.0227984312950968
-0.00100667280625734
0.000542872009509242
0.0292782449470794
-0.000273387984181644
0.0264564289144282
0.0250267573811657
0.0253593120504283
0.052777838171186
0.0366697785271184
0.0276947445094478
-0.00457521326803426
0.0288550691973655
-0.0022168752360663
0.00212228058728207
0.030978753404202
0.00500528188220219
0.0486387074122853
0.0246863827479347
0.0301605076018004
0.0229828909886124
0.000970424673299122
0.00729067051497888
0.0321495791311232
0.0215231662528832
0.0281299247971497
0.0248578918589607
0.0170326505313933
-0.000713655050655767
0.0234816193509559
0.00207994180859343
0.0499694930583919
0.0442419815868466
0.04157939068991
0.0243419525319279
0.0236079081993078
0.0440765145855401
0.054379906258676
0.0252490358237871
0.0243608111112774
-0.00172618027406973
-0.000888901706560266
0.0238702505701724
0.0514694708284099
0.0282952985710287
0.0271046245986872
0.0481019110093131
0.032942970153621
0.0286995732187525
0.0309215519163767
0.0204447697891404
0.0294839604649773
0.0142430111349179
0.00425843609965259
0.0208198197398303
0.0244370878872685
0.0123974411237941
-0.00180278551733492
0.0030976699994492
-0.00088466547348189
0.0526778729871399
0.00425212495739426
0.0231277027920967
0.0503028842117276
0.0179984149958699
0.0225752860608077
-0.00271586047495133
0.0501182607346891
0.0185514791134597
0.0205969430393947
0.0144114451318864
0.0572662826899296
0.00456526155861041
0.0261783503080074
0.0516848917457292
0.00301461811714198
0.0255202996168711
0.0533961374336334
0.0520673206007554
0.0201396329719163
0.0204332736609771
0.0213606326912254
0.0244960881070391
0.0284661677788667
0.0541137745004279
0.02946612637329
0.0242329480274834
0.0260452090915579
0.053804389351584
0.0233975680217248
0.0287096668075643
-0.00788223543484319
-0.000343715210646942
0.0276453856238415
0.00190159025620486
0.000228738626525308
0.0363169420360091
0.0221408717336937
0.0512390554163731
0.0260470630806335
0.0608802854368988
0.0205719452546047
0.0278526380801605
0.0290328699602993
0.0407419462626425
0.047379509809813
0.0198291478897211
0.0251091292188064
0.0259072520534798
0.0275913034486704
0.0472729949814599
0.0248718932753374
0.0233361932825467
0.0515870818786457
0.0463364881627781
0.0517330699900002
0.0229694693327966
0.0201942900864103
0.0242889116663503
0.0498765443228738
0.0586843573568208
0.0469733101237129
0.0449989728185543
0.0466552842495978
0.049225512489657
-0.00744295794428507
0.0533009453940267
0.0284585604570965
0.053186100330998
0.0184777504022097
0.0432769783523443
0.02767211160814
0.0255420994185682
0.0191435143657579
0.0280252630999475
0.00287216245480408
0.0228881058029585
0.00198616596203062
0.0199060849086409
0.0273439936418314
0.0540245849781746
0.047433799272554
0.0248709108739415
0.0318710678437798
0.00184801789454505
0.0174342349655492
0.0227315579986097
0.0370032533715739
0.0276665361606423
0.00525476740632172
0.0282918318718913
0.0541597099621749
0.0296266694590856
0.0282723975051216
0.0260061108640028
0.00249670057823786
0.0552031354522887
-0.0013257956679951
0.0223715103528103
0.0172877406784166
0.0251889743088671
0.0345934916068252
0.0550708883676638
0.0237812268578124
0.0466978921115304
0.00735218755046422
0.0192709679582172
0.0548287594531242
-0.00102534814031485
-0.00204609839745161
0.000991708038434425
0.0323339268817034
0.0512078350937987
0.0321605834365052
0.04122159075492
0.0454202315661809
0.0198038850334611
0.0521994955288194
0.0523258647099772
0.0527614255284627
0.0300066497432325
0.00100602620317338
-0.00158680802711419
0.0202779678832268
0.0284710222179153
0.0171421049966746
-0.00265721979869552
0.0271814743361051
-0.00725598217045425
-0.00342459186675254
0.000155078083636293
0.0176880399570963
0.0350239469259336
0.00139345996397193
0.0470621201674168
-0.00341986409514047
0.00228528145760781
0.0458375870597382
0.0339383973619976
0.0257811382534015
0.0216358865449848
0.0281905868972711
0.0198624190311737
-0.00114329728700786
0.053691141095711
0.0233930806775527
0.0323442910763638
0.0175483257717818
0.00487245924676585
0.022028399622843
0.00592907237357765
0.0257615765169562
0.031019311259865
0.0328604706870454
0.0225916166256424
0.0275350120882113
-0.00117109254854363
0.0143059140242099
0.0306397992444207
0.0283312654119932
0.0280710802611369
0.0218124673678962
0.0518035061410976
