0.249937235663103
0.248766404248657
0.218349835925812
0.243655629964014
0.216683622695423
0.275673732537894
0.252404002570853
0.246000676505422
0.280335612700271
0.271672509848059
0.273036058655061
0.229745146438831
0.244948959224094
0.266369285136981
0.256564438508257
0.225242899490028
0.22521873176653
0.253584543175495
0.243234151016809
0.273524542137845
0.267284278698615
0.226818232956954
0.258008676619015
0.247660104381261
0.266637221882887
0.255084130161819
0.239643383838443
0.217219695872474
0.269243684795994
0.228604036754937
0.244377993878809
0.241990955053147
0.251116667899901
0.255647822588389
0.223684636515249
0.246903123436144
0.27336174816397
0.267814139718178
0.253752584065427
0.252797203661303
0.249624072598965
0.216733536257656
0.247536887328488
0.223873931225213
0.243500675608109
0.22398683779304
0.2546964463641
0.255452532205646
0.251656210127228
0.244737611732085
0.252084562931017
0.246136505847553
0.272697107305915
0.246453668095106
0.250947347349596
0.249637744589777
0.280611397414381
0.259400899137528
0.21454910791065
0.253814167241688
0.272630223024269
0.22260605252344
0.246659617476306
0.245261650781347
0.224031883978981
0.226011168074044
0.246275796177316
0.277821841876616
0.24506041213895
0.251022043350972
0.224021348845168
0.278319882369292
0.250955979225071
0.24764987962654
0.279092135164878
0.254309092114231
0.276104146609671
0.248699979393142
0.242035832193309
0.24859128728257
0.253250237546524
0.250366249823131
0.228252740170034
0.276541503893812
0.242931659854222
0.27746857954452
0.248519238588551
0.273137602882316
0.244496242808329
0.223823670005393
0.248944624192301
0.248729498815204
0.248660133774933
0.249329013801174
0.234953687438729
0.253670179100318
0.262557944164777
0.223006823156949
0.223918590002493
0.276726546970535
0.244936808781329
0.248865739666258
0.268539710836946
0.242526947040478
0.252959472723572
0.258892645297802
0.24901721581956
0.218991696873907
0.224240538496841
0.272870462354418
0.249564998335439
0.255215094615228
0.249748151569911
0.235316981916397
0.24435130921383
0.253228981656302
0.251141882467838
0.24554731255778
0.222630338733718
0.247115809141099
0.251785037342657
0.248565537961557
0.220881878969184
0.248195728833622
0.278694149663293
0.248540902326942
0.273664005978636
0.273204569973059
0.251159685846825
0.252684122888377
0.229989680700062
0.282537894069785
0.244999249364564
0.278137088785842
0.247531952660088
0.28331722940714
0.27073260983248
0.267714950492105
0.253104593707912
0.2666277374743
0.225295446331948
0.279180880246357
0.257533729109366
0.284027670954854
0.224458309413651
0.247291980935597
0.246050431555843
0.213506647469627
0.225988731321308
0.232465833960278
0.264991036218975
0.256553929011347
0.226497224318448
0.2455965082778
0.242081148622983
0.246634699841043
0.225499537603281
0.231317769842086
0.244752406358583
0.267624435900843
0.275661793571058
0.224035062314729
0.257471722692221
0.255959435107644
0.27349965385037
0.228193339161947
0.272920761189602
0.287044091909415
0.28197650993754
0.272996282296206
0.251928077919342
0.212982808544518
0.230971207114112
0.2780475788351
0.245538538061647
0.257024711880506
0.255384873190209
0.217647826003496
0.246482778983709
0.268422071289127
0.224545698472233
0.247020641266268
0.243809251435617
0.27542712690138
0.272231961791004
0.275347131042913
0.268440210913125
0.221641083214262
0.2469207780932
0.275802602203965
0.251122955143475
0.224266704154866
0.278985336995194
0.246143459326861
0.251363038526784
0.250727960485553
0.250669978747087
0.272255416867213
0.232361416169315
0.225623227053556
0.259373279405436
0.24913462141322
0.270977370780606
0.225363311114066
0.246341627274305
0.236239454168134
0.245526520899684
0.243045552255697
0.25303994820937
0.252564227921063
0.219840505152533
0.233211308067026
0.249889127519959
0.257684063350667
0.255585799204393
0.254095386035743
0.273294435631323
0.227492361875816
0.226123985900631
0.257207059956174
0.255590087372248
0.279024704141442
0.249637452700174
0.248157530781033
0.242239055938037
0.276682487351033
0.23317042567879
0.221133512205272
0.24206457801785
0.285800111898173
0.267574186870144
0.259016638813019
0.224247250101741
0.223613734257774
0.224850101193325
0.247450024885373
0.244011918105105
0.230287479256246
0.247009082738022
0.244958928700931
0.25171849694816
0.255033038419676
0.2274098135714
0.283072652415534
0.246129790670376
0.249730455586541
0.246869606760131
0.271041522667314
0.251156927058106
0.249913230285899
0.150635170844321
0.173626793580837
0.175705259055201
0.12710325478297
0.176531740339651
0.120340052172635
0.178628733047971
0.171992272581323
0.140008156815467
0.154892362512225
0.15678918860946
0.139874286392668
0.178301808846392
0.171366817662056
0.1517861564876
0.15339129830091
0.179614333323629
0.153717520631858
0.159582743110457
0.159960064043846
0.154974620796555
0.170587151590654
0.156259275565259
0.157807605572052
0.177890059269177
0.148842301798441
0.14642160302682
0.126474202804726
0.179393967575926
0.15003684095259
0.17343286242442
0.15000949890395
0.1753369965951
0.152988275587216
0.181404089516676
0.124315997869983
0.154161822348396
0.128918570357559
0.128470322630931
0.143984225136639
0.127067624634303
0.167869030013638
0.147618223085188
0.150781720061215
0.169493764591991
0.175693430685318
0.120005511955454
0.139805697805066
0.144264728953146
0.181051516349552
0.155956024626802
0.171511035564228
0.173690731306773
0.148697032231285
0.178621778265371
0.174624748724997
0.171743666959202
0.128098324772308
0.150292263473343
0.113679980161831
0.154567378443278
0.142776987426826
0.142772080366375
0.154340999973269
0.147646300542781
0.146853097404127
0.148599647806662
0.144942565744941
0.119517769069655
0.127453290432553
0.150562584279738
0.170030117090413
0.125954877669191
0.117438807900042
0.149744511815969
0.12004009735352
0.125595118771833
0.174985075663553
0.175329104809009
0.153197091100305
0.147233325773737
0.137483431478446
0.163112982416061
0.148483456958975
0.157209011233289
0.17841971451529
0.128001721228918
0.157378253682936
0.126999637955568
0.127481825611931
0.126283083705991
0.179780477435985
0.151791753916893
0.161727499926016
0.170846774295443
0.129934544793738
0.167076828422381
0.141718959550468
0.152139323075436
0.153380088391594
0.127500609507791
0.150110933390735
0.158262920837054
0.173840198014478
0.152495380336384
0.139802511449046
0.173602875071865
0.126198131103944
0.134867241688641
0.148317758949645
0.155559475426936
0.148076005955232
0.156526628151761
0.149750825473308
0.148442823592055
0.17103358523423
0.175639282313514
0.150766500133169
0.131551420188901
0.14533410050802
0.145382733120109
0.145164208959179
0.1821048975479
0.176853299283064
0.150715985853447
0.146205523462118
0.120602336729516
0.15207675145597
0.167291397725355
0.136690717833726
0.148685837224704
0.124640346895464
0.147667349617529
0.128494268062596
0.131925385207622
0.125441223015516
0.144459239741661
0.172807504875574
0.152672393044573
0.154256429300664
0.182413596453997
0.141127314198003
0.180196867252734
0.144244462477983
0.146416608972443
0.180010229615524
0.151266934144297
0.180370930665807
0.127522854076141
0.146890385721086
0.120781654714385
0.12929047105234
0.154283429502948
0.154407634070347
0.159816743603155
0.180174352305359
0.128344546334595
0.151020412059262
0.119533247767168
0.185849848521375
0.1234513127518
0.145194439966905
0.14962177446781
0.142803329762575
0.169448342936919
0.14278916170994
0.176881798299319
0.189752049262936
0.153589012997195
0.161413933698882
0.172002067699241
0.177173621653894
0.153095877861347
0.171187754539628
0.148350235596457
0.176364653983779
0.126464250222779
0.118251889539181
0.142964766678313
0.149390704987986
0.136330611411285
0.124956411545545
0.122851667364505
0.143421556156141
0.121475219151084
0.184959098707504
0.155956583614051
0.122967765099948
0.147550657184579
0.179474551335701
0.17489671400587
0.155395489522722
0.147421047677086
0.123861644148657
0.145542435981301
0.123773806593679
0.126656672224374
0.170730445064804
0.144660923372734
0.181075789049068
0.150967204272618
0.148329052746313
0.173846790114748
0.146397433699425
0.170294586966003
0.143080445120451
0.118666385990471
0.186521733369405
0.143189652524264
0.147825712387329
0.148605914079744
0.150721507056091
0.180062459287453
0.127280014242956
0.175733222462515
0.14495811498313
0.126156469326865
0.150107006111819
0.154179572754776
0.146630215126862
0.117546069455471
0.167748938988082
0.1703230222106
0.145756943575322
0.158049662136615
0.156300881085793
0.124110384710357
0.128685865479787
0.129680037482369
0.158338038227881
0.152036081188993
0.152457834673601
0.149502939418302
0.180415575657148
0.118107539172084
0.153886791537108
0.151341556280856
0.150444883656204
0.151279322809975
0.154566644332474
0.151900544452807
0.148513925935549
0.167843627310741
0.146022269489828
0.177790443501137
0.174019609855701
0.174620871327028
0.122964216609404
0.171343966708318
0.169497060396926
-0.00414982887062816
0.00128501871174676
-0.00303669291420041
-0.00230997173814512
0.0478355476401841
0.045997362382666
0.054094905016427
-0.00735639924616541
0.00486236819293986
0.0505447296493144
0.00648072290774021
-0.00029766030929147
0.0552136660093996
-0.00561301671159832
0.00648720351520238
0.00337433276536515
0.043917526609935
-0.001521455770193
0.00615395817673605
0.0466183449910898
0.0023226740688822
0.0016154448118955
0.0116934348785699
0.0537832084915115
-0.0123172534152629
5.21741520753159e-05
0.00071694562098677
-0.00467690459309485
0.00141553318165603
-0.00190811187330762
0.0490364371760209
-0.00518604108166654
-0.000325569526442683
-0.00584234767328426
0.0521872013649991
0.00325533392345714
0.00779107454453702
0.00853078770585961
-0.00534035542976641
0.00230942151650399
-0.000958050566622674
0.00162907127040712
0.00116060544921178
-0.00938993642000915
-0.00190440602500473
-0.0122555698582835
0.00601900646986391
0.00190751309133862
-0.00379097984879993
-0.00378864553843055
-2.41274174138396e-05
-0.000989664224852374
0.0503387518258741
0.0489221170537303
-0.0120370216152739
-0.00118974129846728
-0.00172706634694849
0.000623002524145318
0.00126996896563465
0.00694410826126444
-0.000105019426067617
0.0485578603528945
-0.00143025943313723
0.047484237989043
0.0420586516855124
-0.0003545025271279
0.0449806790051163
-0.00299217612853451
0.0489831238701504
-0.00313717185826047
0.00129305688731018
0.00334494941435631
0.000937582189960627
0.0145149294160544
0.0474674340135977
-0.00402263704364264
0.0413738581808442
-0.00985247530295393
0.00796281501802204
0.0501455373719733
0.0435938151878078
-0.000935000857528675
0.00317391979969875
0.0464489206688647
-0.00125894709487232
0.00175275093328927
-0.00420626453918282
-0.00233451852260122
0.0497547470520397
0.00161830140629308
0.00468866644069097
0.0569852002886391
0.00562781383202301
-0.00489283565963164
0.00156726623040895
0.0489358668993545
0.0439742127685818
0.00801320921863616
0.0470377049032161
-0.0059675240787856
-0.00338969573411901
-0.00198606096432398
0.0459735130477749
0.0513880945453961
0.0499200775446286
-0.00359263527044999
-0.00252360075709609
0.00544864377167582
0.0579732053100118
-0.00298331327842949
0.00403990765143318
0.00307542878352836
-0.00512159465563932
0.00484886460744845
0.052291435751786
0.00180640770584305
0.0423178455136661
-0.00522663461480573
0.0470222777857926
0.00608117658934207
0.0526087353532005
0.05472730172967
0.000653181005334857
0.0438525650047914
0.000457025805369726
0.0531806753916124
-0.00804422118768214
-0.00169864811756072
-0.00869720917972188
0.0494348579261876
0.0461291492076797
-0.00545396261945213
0.00462943964324413
0.000127028506384762
0.00200871147732096
-0.00200758082861551
0.000895692780435999
-0.0031205750945692
-0.00406630814743245
0.00883173211141451
-0.00193179053282121
0.00554245531391508
0.00178310347128619
0.0446778561854223
-0.00100346148955465
0.0434334838407925
0.002730629520074
0.000515185181347831
0.000933854243883821
-0.00135097534494019
0.00563771204798851
0.0521787186797016
0.0048277762252133
0.0485139751258651
-0.00511859363090298
0.00152137461360526
0.050890794397487
0.0518565352695947
0.0110909107313555
0.00131762232196048
-0.00361701641857263
0.0542167524160143
0.00638315065551486
-0.00617880578636384
0.0565126119677704
-0.00452499596527505
-0.00938584607875526
-0.00394302124483971
0.0571087650299804
0.0427975050586175
0.00322601656879952
-0.00589222676002592
0.000161062735936851
0.000862283950251591
-0.000824722405175441
0.0404048002810812
0.01144677651788
0.0504701231867309
0.00530297714893585
-0.00380740109628818
-0.00707969040678444
-0.00479619809895838
-0.00153313482899372
0.0372169258545994
-0.0045896845767628
0.0471388878589975
0.00565652090021569
-0.00277745571758382
0.00176524578594126
0.00117591001359735
0.000362726238382032
0.000426699864717392
0.000471530915635441
0.00105147691362578
0.0463327211851623
0.00429442671136538
0.00374516496916492
-0.0041400732140226
0.0591700244814124
-0.00330821611528443
0.0107052634072685
-0.00396968599644605
0.00111001253825768
0.0462951948510304
0.0457147791718901
-0.000546066828603484
-0.00192046766918013
0.0470052515649563
-0.00347702231837781
0.00618033238069705
0.0452456239230853
0.0431828886228461
0.0430401199048144
0.00417245481904484
-0.00112132603627736
0.0103706977916405
-0.00353291153900231
-0.0062659040860237
-0.00300060119485877
0.0077401709912522
-0.00227382555295967
0.00661025452808805
-0.000479533144678544
0.00689260753352699
-0.00665113248083013
0.0480270016490806
0.00374705993902543
-0.00936445001728255
0.00193723240466922
-0.00612807590594995
-0.000695875686384873
0.00198427740721121
0.0558084753780547
-0.00451875401669157
-0.00313296501437841
-0.00381401176436139
-0.00125046322784281
0.00317001762851059
-0.000410086378885836
-0.0110177688789922
0.0478113204273918
0.0499886304598348
-0.00561912366161564
-0.00758412004073883
0.010170009896282
-0.00303499317241481
-0.00483260654359296
0.00475852030082817
0.00317119245764675
0.046982193119669
-0.00658709533783935
-0.00350527786869766
-0.00169221092459841
0.000549575082199344
0.0516747242531881
0.0441722977259489
-0.00671344658470735
0.0557035808803738
0.0480929709895595
-0.00966433776266773
0.0512449455549661
0.047168673049555
0.00481866005191581
-0.0069331343975337
-0.00444464432324031
0.0465900734992772
0.00248815644902865
0.00127999755148445
0.000885632329761132
-0.00439698591036919
0.00432328884426889
-0.000125737936802113
-5.05114001161752e-05
-0.00266483218959758
-0.00354782479116408
0.0483749372154431
0.0487639134419913
-8.99112347136087e-05
-0.00811448404069593
0.00319597227028575
0.050673406578408
-0.00437306362978492
-0.00574831370073771
-0.00198823565193877
0.0059827776886734
4.55768221849917e-05
0.0548404982954249
-0.00213200485779013
0.00292124662958534
0.0495603765168224
-0.000315647600862184
-0.00576234256234676
-0.00642616308103561
0.049955117348612
-0.000305605389700786
-0.000870416207473231
0.00637494375033851
-7.08136276899826e-05
0.0488950135667517
0.00295255863023316
0.04910466732206
0.00354576271746163
0.00650294299919452
0.00183019943427106
0.0504177241518051
0.00182039767591521
-0.0028271979905315
0.0057377845779047
0.0464440081806772
-0.00621960872067507
-0.0044309609398841
0.00029055645596101
0.0602400749369964
-0.00603131014645019
0.00305408970380275
0.0538177759057489
0.0052900738955008
-0.000893698854327764
0.00643341252166604
-0.00750305159711552
-0.00201725241411646
0.0453343024858709
0.00437536953076593
-0.00585573303789061
-0.00428787529993924
0.000636777908495974
0.0515037746714179
0.0463562345623332
0.00272997623742363
0.0068604265627082
0.0523054169040955
0.0552315921537592
-0.00214081104702485
0.0029943930471581
0.00707614563155652
-0.000376499288665333
0.000123783705198216
0.0011367613214204
0.0519010849635473
0.00284766144832232
-0.00303097886249084
-0.00278267576163954
-0.00549405331073942
0.00377416061651275
-0.00994448725577769
0.0528026357530949
0.0521193755301767
-0.00389924712872636
2.96063893484597e-05
-0.00191323580344099
0.0526632329120274
-0.00535470268783794
-0.000726128170270222
0.00390260035926353
0.00158913578445981
-0.00147968845843338
0.00967393378568849
0.00313459692741079
0.00425955173192264
0.00735348762770012
-0.0092344450776664
0.00117059315384481
0.000101826746801891
-0.00306185254388981
-0.00336468875337272
-0.000972270101542029
-0.00775641333260522
0.000257344043210741
-0.0073558672444004
0.00355994074033215
-0.00718025766204102
-0.00559272123516138
0.0567089359467164
-0.00655608269481155
0.00202853142211172
-0.00263695691418639
0.0523595950221335
-0.00139748867855389
0.00385840230068913
0.00221310965899609
0.00333777141664892
0.00141857677607053
0.00176899262634789
-0.00273828763896052
0.0510887743300116
0.00401739166674482
0.00131989037236074
-0.00147427796426168
-0.00155774556253975
0.00805577803604245
0.00136094460666554
0.00239316235455989
-0.0130793124939129
0.0485960660836912
-0.00010637547973893
0.0454886466331293
0.00114568750766806
-7.84804452967538e-05
0.0463342212152791
0.00865443502434562
-0.00619391268318344
0.0520218557160032
0.0583062520771002
-0.00616758362530493
0.0494879950265427
0.00110972900602492
0.0055191544010358
0.00165827259505804
-0.00396010331472144
0.00271283604284209
0.0513533577860365
-0.00661972704829232
0.00102503724619307
-0.00759226159338361
0.000907769352734744
-0.0068834379249357
7.98872540291162e-05
0.00455965371330209
0.00313487634161819
0.0501502667544085
0.00278002268168674
-0.00160031025284202
0.0540710829284366
-0.00116648955361548
0.0566385970882792
0.00643317480814692
-0.00297092889327595
0.0134825920896792
0.0551774981480362
0.0117725087857009
0.0073945558649779
0.000671878406893024
0.0516181521491023
-0.00483200322922074
0.00713756479321795
0.0540525784515956
0.00854550353729104
0.0540483412555858
-0.00228150315770581
0.00304672561714595
0.010463389331495
0.051031959107584
0.0433845126910426
-0.00509584627564554
0.000403941708705338
-4.14642232539245e-05
-0.00414834459439773
-0.000124426732938165
-0.00319763963020908
0.00712868294706138
0.000456545354573627
0.0561446591119112
-0.00877731475467843
0.00199614194672849
-0.00103926727476132
0.00171413697886758
0.0567257886144837
0.00149659796385988
0.000449227060037515
0.00613700368630208
-0.00606996639692695
0.00912599447298589
0.00226372446311183
0.00135814389655153
-0.000392639702367352
0.00927483221393283
-0.00489088055950048
0.0563902391566854
0.00327406202076218
0.00153414526040938
0.0021778839342873
0.00652423264238823
0.00574154299453697
-0.00820937672542392
-0.00776824611775129
-0.000925193972056587
0.0484368661098601
0.000886150850574429
-0.00201088998059172
0.0456161000170565
0.00310693406678428
0.0476381230265855
-0.0040402087181853
-0.00101634932178345
0.0056081274843063
0.0482906485757099
0.0140574856711227
-0.00638231849066071
-0.00901596939173541
0.00357263484669823
-0.00577016403926383
-0.00260498989685109
-0.00397029530674612
0.00024916746746085
-0.000957684731503389
-0.00708724647963074
0.00688378314368458
0.00666789418648078
0.00448554564059211
0.00226635157471752
