0.161097321059546
0.220600052237154
0.222673356030742
0.226870331622944
0.218876090825018
0.199463478247812
0.225911654310891
0.224226522382945
0.225793843056953
0.225517758506128
0.176538416233561
0.221869509813307
0.22408641677745
0.216747974160855
0.217304856506066
0.158898285665141
0.223493543720847
0.203403893708459
0.166961764164163
0.227915381487277
0.227198964877592
0.17325782614797
0.222313295503391
0.198584861420395
0.221609173528184
0.227031431895428
0.229921660003134
0.179436512441721
0.169763895532993
0.228729779825492
0.227480575957818
0.219376185222939
0.22605166230819
0.218197505103896
0.222827531973795
0.224561195847903
0.223605194003421
0.223847355286544
0.224128303574845
0.1780745080959
0.174940241599582
0.22041197872322
0.227480888786972
0.199584393173057
0.198339031486296
0.220334922518601
0.171087382987327
0.222814700784341
0.175420177057254
0.207548684691803
0.225301005009355
0.173428918392078
0.214423733905833
0.222158167422674
0.226330078552651
0.228516292622592
0.22065664342794
0.223840618080195
0.169696902568197
0.198658418227174
0.229975790206031
0.236664586977432
0.22567319271416
0.228535573448445
0.21530946339346
0.230562190951268
0.222228985217669
0.174701285700239
0.173992666401702
0.211190663728826
0.228236000875239
0.219262375443416
0.196793108326964
0.172803760333394
0.198638039212593
0.179907339761143
0.21815309523962
0.219780627615425
0.229665246248772
0.232206137126874
0.149002294296395
0.230613978344541
0.175518991909095
0.225354828987459
0.155190171729506
0.174204520528373
0.167005538027969
0.192976676847348
0.229707153752718
0.22699960505019
0.194520765814356
0.204491812283118
0.224621683356925
0.220865040129255
0.225309305032643
0.235271612630848
0.179570717583567
0.216895076879571
0.225336434317502
0.23342002406157
0.225950872385566
0.222310395885005
0.169478765618132
0.2257901749058
0.219335204420857
0.202942710065989
0.227652236654583
0.175585897997229
0.197562735166814
0.222665080457964
0.144984695465139
0.225655274916972
0.230855582387177
0.209926119199968
0.23097265110935
0.221719342389321
0.173865508892718
0.22099668234964
0.223929166138995
0.218319352775821
0.221493245508639
0.224414938848286
0.231075711501767
0.225573815452276
0.227105088280028
0.224231984070787
0.155545194509052
0.224550831423812
0.229023592847153
0.187199127040621
0.22993800496367
0.186539061055087
0.230737700010046
0.220429562498296
0.217498204140024
0.21965651423133
0.195151209022632
0.196374558191374
0.230004198176605
0.223959287562675
0.228324513723605
0.216538234996263
0.221936339945004
0.153320670251785
0.224527491390391
0.17798288120372
0.222550084849802
0.20314233892538
0.223903905776514
0.214176274418028
0.224328521596384
0.22321739150487
0.224055625859284
0.229990586148067
0.180498074031603
0.221878675465904
0.176381057807274
0.223356223540297
0.218780084516267
0.229182578353291
0.225949935160285
0.220068088585044
0.197814438840409
0.224350586080792
0.178634592358882
0.172589276899968
0.198062373758293
0.217187836757498
0.230541543117705
0.20528980880145
0.175578816555286
0.180456508622499
0.226427259587645
0.173972368621966
0.223557043194236
0.230155341871195
0.223067766041253
0.230999964257255
0.218317927290563
0.229966820070398
0.224241089778024
0.225512778801797
0.174374463902537
0.227877621283899
0.22065752284917
0.191796731793348
0.196548953564828
0.224763568731687
0.226819327546998
0.184312891472551
0.23446490357308
0.223208457539893
0.203620675347072
0.227490061035318
0.22657111105002
0.240622218091571
0.215448835230153
0.227743055924716
0.179176899040132
0.176664008421866
0.206564026721499
0.218522155760452
0.183809022960052
0.221113621562486
0.199681627215009
0.228543404576428
0.2258225537837
0.226818770512478
0.226466277899073
0.225738565780814
0.225794719772444
0.210591450420933
0.224209058179483
0.216969642663926
0.216801649064577
0.227649415438408
0.199814134294473
0.205889428852525
0.17443380523437
0.197310302289298
0.219215830710303
0.19254347099153
0.222895932844454
0.192666407925661
0.231286646965377
0.217193614041807
0.157223525733639
0.223792295281718
0.195219625955178
0.188557748598514
0.223451215914183
0.191980810711404
0.218269264542809
0.233020869155711
0.224160416244611
0.173574468252892
0.224058854453028
0.183656922869064
0.231592047420383
0.208556383478078
0.174177392056632
0.224916155675028
0.192318509821846
0.175083976379684
0.219341984443367
0.216026341548504
0.199334406798481
0.21643233512887
0.228540279922966
0.22521195457173
0.100063057661122
0.143202470792526
0.115772492560218
0.132635345597752
0.15818204045488
0.130549565231966
0.128796792539176
0.10067254223031
0.144372038931083
0.125037119267858
0.153560596384509
0.160146781636794
0.12537459547655
0.158296048735518
0.151842797201899
0.151186515537936
0.127920122133738
0.122759148048239
0.134621700534723
0.124787756942612
0.145580285254237
0.15703174153966
0.153282031035664
0.142618911607064
0.097353458528451
0.150118084078527
0.156615226188156
0.0994739984626222
0.122839952372549
0.151618217212474
0.130994096376215
0.121001046084885
0.139586536648465
0.115195863742879
0.122653980226428
0.151476799001505
0.123242499998805
0.127208715575959
0.0955392689930363
0.151111241480277
0.154059007053166
0.139447968320618
0.129273997342577
0.123220631165778
0.128688356413515
0.118776959389246
0.121036100809229
0.123476543799276
0.131025135091898
0.129054209978299
0.121070716858022
0.139929183807082
0.122433489998702
0.150926713054114
0.0999227604765313
0.124224996176245
0.130104936086738
0.156830976587023
0.142581091646893
0.145364529900057
0.144442288416511
0.126886346493838
0.149199381699096
0.128978078925967
0.142918131159749
0.146932937505767
0.136958315341068
0.115898990280017
0.126899149316395
0.115298802096826
0.130784891729258
0.151416032494401
0.135200482353711
0.101171457054204
0.145965995283815
0.156490777755572
0.12966102858553
0.123140157177167
0.149236102752459
0.148450336233374
0.145337458208947
0.137115138312463
0.131846435267238
0.146979316416593
0.11720898901055
0.100535010068202
0.118783907147513
0.140112162201842
0.119942054785434
0.159274240379202
0.114536080636789
0.133749228654629
0.127252193124454
0.127893045282667
0.128053482574426
0.155916255325018
0.148419973430889
0.120697946639569
0.0999755986014216
0.14877514815825
0.126042855864237
0.155372213891907
0.121967373834279
0.146193182154111
0.129422231282664
0.124529609370717
0.108432825457531
0.148138534308755
0.127733974395585
0.128499749750199
0.102708519082482
0.147508519010959
0.128941386332287
0.121453486045373
0.12964172499013
0.125391124837895
0.126618574238628
0.14791386146404
0.132761869335318
0.128162706075919
0.148409748379289
0.15143912683769
0.128271867728971
0.130226896838102
0.127198920569061
0.15450728710592
0.127118286302457
0.113019750847813
0.126195095346773
0.133996778720633
0.126680040768427
0.114504665108729
0.0974538619614164
0.150418249717223
0.151456827951498
0.117692537177743
0.141853004395981
0.122807146070938
0.12709689139339
0.144260967695487
0.121720467109226
0.148306248377808
0.130795971136922
0.125602424112097
0.146996180059439
0.125838046758035
0.148604615216616
0.147471969435464
0.12701690049139
0.117385539095404
0.107401370031725
0.128814232403347
0.153539014271567
0.120743943930915
0.127772536147159
0.152496586210287
0.14520855998461
0.13101848581076
0.12187267422477
0.147524563808908
0.14860166688415
0.104345243907536
0.147620664164126
0.13147364075884
0.132240384542064
0.119308330369222
0.151707796544475
0.13302639687904
0.148945061067807
0.128174753441883
0.128227673139622
0.107291611766367
0.129065487865357
0.136409166322703
0.121651629059707
0.122640180154778
0.149243494264103
0.12891235718902
0.11805000474656
0.150419890762067
0.129033336877611
0.122301461524612
0.15188434071193
0.126743833013359
0.146635867740318
0.126326083769692
0.150257745742561
0.145189864401141
0.120631471630205
0.100522227514141
0.127164169167954
0.158305429509126
0.154265336598499
0.150880535060455
0.139628668210662
0.123013515250057
0.128798295289979
0.15672622416756
0.152459476528751
0.119080032298001
0.100832879271671
0.145980093605542
0.147062388141169
0.152638663233529
0.147666387203452
0.116095517021796
0.125857357580225
0.117316742770224
0.134290795988514
0.128537976393161
0.120643610841799
0.120433448274495
0.127922368634645
0.151201207519143
0.154707339734003
0.118814694050169
0.127077243111199
0.14723564868651
0.149013557546744
0.124926942554375
0.128233475015913
0.0974493217142188
0.124621584456418
0.116456195475178
0.135720575251466
0.119710461425051
0.0980321421982513
0.126574874186948
0.142001798859192
0.121465517151857
0.157122812477078
0.127570198060743
0.11948941881377
0.143029391884027
0.132567437034075
0.126200729175578
0.148119595294748
0.122162228340922
0.153954729258715
0.1547363901138
0.12520285316635
0.15093642827846
0.124387599575764
0.0995180743921424
0.1492629132151
0.154864987860009
0.1550916132356
0.156951666437364
0.160188072754142
0.142773134777775
0.0220857426599918
3.91942079160755e-05
0.020120643470263
0.0274885495479822
0.000249066219470245
0.100234233619441
0.0285023985472255
0.0193279877279412
0.0816281995867142
0.0555279558368719
0.0543713120895104
0.00720465106693691
0.0495795786935228
0.077182883674881
0.0243282105635647
0.0757722067165822
0.100224577935221
-0.00218373244235765
0.0014112875045394
0.0734737967185649
0.0549393931524388
0.0509172140757091
0.0445262139967701
0.0265335648000192
0.0661583589715047
0.073675498695231
0.0548172626584815
0.0267816691289911
0.0581348382610082
-0.000466368917924151
0.0531777603866869
0.0201117619226208
0.0799858053045714
0.042690341880646
0.0447461578485558
0.0349834127718683
0.0468691687279432
-0.00597204504084473
0.103255167775877
-0.0015906304158076
0.0818182098136316
-0.00704798875535193
0.0231224093964558
-0.00245253323090494
0.00236086916862276
0.0334919172636388
0.0261376018825205
0.0220712576138717
0.0238805904935484
0.0189030473431766
0.0259862855874167
0.051830530136956
0.0966772175400871
0.0224943884048303
0.0217074692450783
0.029018702290284
0.00633096082657239
0.0774119951789574
0.0498601789867319
0.044535480948524
0.0782518317411261
0.0243900610155399
0.077154252947012
0.0766629846354744
0.0927082326278407
0.0257681952442869
0.0750174373412165
0.0238898342517845
0.0469286260044281
-0.00520213388241108
0.0289817879631255
0.028717466097404
0.0791586861014033
0.0275683458831407
0.0250306797590711
0.0286188178289611
0.0755282746709718
0.0664533935592967
0.0335737318575165
0.0473458035327753
0.0264319823270866
0.0130399382712045
0.069679819993835
-0.0016799898613924
0.00219972627703337
0.09429462571229
0.042872864997587
0.0456679547368196
0.0765803216894907
-0.00139916860291919
0.0756153582521206
0.0335052290242818
0.0349066120775593
0.0487528083115393
0.0477831862938632
0.0563549379884082
0.0165071861740704
0.0515717728572358
0.0701484325969488
0.0765992494594653
0.0971365432047279
0.0618076375847557
0.0292876329438133
0.0823917609558094
0.0347264925110588
0.0253067213722099
0.0252009368138182
0.032868958561509
0.00499084510610534
0.0776811659020824
0.0433652809408721
0.0562356141186779
0.0804866934878149
0.0578088529397121
0.0265280791288368
0.0542544800485219
0.0318753727114362
0.0172257866440663
0.0251454018535042
0.0775225708940789
-0.00118471680469946
0.0493275814120123
0.0476236749186601
0.00566509473474937
0.0895548884347445
0.0741884803854364
-0.00245207731413009
0.0464228646861443
-0.00667225575854406
0.0292918048859949
0.0578663557013361
0.0426070533471952
0.0680394063843627
0.0807607707816391
0.00665034083333118
0.0567741398842248
0.0518989317940556
0.0467276994577012
0.00361337607686895
0.0300751088726784
0.0274919081883094
0.0426182951953621
0.0422307723554705
0.0797829113757341
0.0304362448209314
0.0392379074618663
0.0293999192908906
0.0049654897869926
0.0259846404025984
0.0770687885457473
0.0349170427095574
0.0306274679798934
0.043169262719628
0.0775361337003099
0.0254319619151262
0.0705417407185705
0.0320705840773755
0.00461604142026619
0.104672983313769
0.0320158112676607
0.0789249178958952
0.0240527954734965
0.0192447897279774
0.0545888562911942
0.0235925543752564
0.0811571377251194
0.00227947543467958
0.0312453440081349
0.0175859597022853
-0.00230979895585644
0.0433074487237672
0.0444761475320683
0.0497451011854428
0.0761468442281776
0.0243271862519548
0.0740240068807226
0.0303275945290623
0.0220639490454381
0.0273706692406327
0.0566554278420581
0.0793330003694312
0.0440933190625539
0.0459727114216959
0.00465814277579607
0.024949408797661
0.0181915272164286
0.00455950744045159
0.0199816612074137
0.0315530595751315
0.0540564469219918
0.0228025652949191
0.0548261299616462
0.0453698781253234
0.069145597057813
0.0548432256700871
0.043450388004811
0.0785509368313867
0.0782384828329079
0.0253808104787575
0.00936269201746611
0.0802837835977243
0.0696476528442273
0.0253598385768898
0.0815410497732415
0.0164721976888942
0.0308595088836143
0.00414724350987324
0.0536690161760504
0.0112753735793605
0.0239485722278722
0.0260929139765426
0.0184626547630359
-0.00349169773760541
0.0576401811544897
0.100665873489757
0.0483245957156694
0.031775198423752
0.071526409932926
0.0700840597671669
0.0745107189172844
0.0691098209159948
-0.00879753849945462
0.0499013760958056
0.0265873319104122
0.0704353247783886
0.0157779717071772
0.0503653451410431
0.0233514053164894
0.0833718322318389
0.0772636325383709
-0.0087553353995594
0.0168238197154466
0.0998879010386345
0.0249142836581496
0.0999100634126765
0.0270446772425389
0.0296446103055117
0.0757987086513521
0.0251352197401456
0.0519173577553865
0.0449855681848833
0.0765651184700969
0.0550325016404203
0.0779308069807931
0.0274962871645325
0.0162027951655429
0.0874018477861768
0.00608386119421248
0.0246844964244648
3.34082340604919e-05
0.0715841863749093
0.0777764221830116
0.0223033461607965
0.0269749875528056
0.0438565841508398
-0.00634498162692939
0.0818260383390966
0.0778219670021956
0.0233468558054709
0.0818431173918839
0.0428577035913442
0.00418583035111973
0.0147969340272851
0.0489888266927995
0.0524137874240973
0.0496663821544665
0.0229479140097969
0.0286233160408728
-0.00313798871522101
0.0753853977361964
0.0429198726402931
-0.00318406047044916
0.0483071629508122
0.0282757956898288
0.0725922744857244
0.0482021167008441
0.0788042239553183
0.026386372548044
0.0761292937525008
0.021342277323507
0.0223854260518384
0.0518342581244773
0.00172230417172921
0.0287147830162567
0.0412703332006273
0.0495394145243535
0.0265821653632837
0.021717333296226
0.0219409788140324
0.00269191202054954
0.100322497445211
0.070602710714184
0.0462825895520986
0.0278933006758689
0.00320846483398462
0.0243468858156278
0.00532424756181254
0.0286043940962542
0.0460229433553946
0.0202922300827627
-2.05173380459257e-05
0.049980862860698
-0.00128145215985957
0.0999064646346556
-0.00678602441984338
0.104246895162508
0.0251759269786742
0.0689588368229947
0.000363334662065168
0.0276292051240305
0.0409855747964324
0.0276195768767457
0.0727619011763077
0.0732948968476415
0.0539586790648709
0.0522244544483934
0.0485268092287399
0.017091757859797
-0.00188051193524299
0.0603921034337666
0.0236487690877297
0.104528478932709
0.0230908627079699
0.0814468417958252
0.0503565066934916
-0.0037418034138327
0.00551799876374573
0.0729521980889279
0.0753735734353274
0.0418165503311375
0.0497040678433383
0.0111376033589198
0.0304704992678591
0.0262438077031102
0.0506934673687013
0.00399912082771798
0.028261386249777
0.0428764887028653
0.09882611911996
0.0472861628982936
0.0401634262666977
0.0261664137801534
0.020149584695454
0.0271482733829504
0.0270763965286031
0.0801661795351797
0.0471462828259031
0.00235280048913261
0.025710961106806
0.0225792415237633
0.0805935054384751
0.0252224780836731
0.0485179682789873
-0.00184977829676615
0.0200100046128989
0.027695623867406
0.0704116902277061
-0.00143776268996741
0.025949040116673
0.10496320704078
0.048054731528196
0.0484211038331831
0.0548510283805053
0.0319397921695643
0.0278063804607552
-0.00462778992197717
0.0339440909062017
0.0273000441669566
0.0283018025835475
0.0703577420663935
0.0703039103668385
0.0989469049186839
0.0497424446409784
0.0286847506624788
-0.00722758133633908
0.0309701108792425
0.0106776081222414
-0.00362927160561465
0.0782150344491365
0.00229793725455492
0.0532277618690296
0.0270957282847412
0.0339393633566962
0.0799440116912676
0.025349162266712
0.080240946733595
0.00666577301834473
0.0853660449643901
0.0742023979496925
0.0607314487113441
0.0273165081243134
0.0718021940044902
0.0302559410482029
0.0235391519719845
0.00267159327169779
0.0821118735613872
0.0534954855303718
0.107854801366257
0.0268064474344479
0.0195159669738539
0.0348325652028411
0.0253386437661596
0.0270846341662244
0.0296588455704449
-0.00261690053308271
0.0437209641341572
0.020144743483991
0.0268672536482019
0.0461841683744904
0.0263846945038331
-0.00167503311234579
0.0479130210847743
0.0329644482359317
0.0255449071437978
-0.00437559809491185
0.0534432434383816
0.0743813136190062
0.0815347902058427
0.0791537520398906
0.0598585724874864
0.0549032823450698
0.0230841955754116
0.0718565941280763
0.0154388952257957
0.0599871115899135
0.0995161014634337
0.0459120768629882
-0.00331795052026231
0.0749589800850734
0.0455992856821258
0.0492062370037337
0.0282220674713512
0.0761496728880134
0.0510740461427928
-0.00489128966034647
0.0270823337759171
0.0807202419264451
0.0536813812522538
0.0281002887187813
0.056897125591155
0.0424570620504654
0.0961324408708642
0.0741643265967932
0.10264707003744
0.041942966386594
0.0263490613521341
0.0167100460253253
0.0419807526702165
0.0324515585415882
0.0284684556338616
0.00312490580208298
0.0280441209029456
0.0249763037026725
0.0465734975442125
0.0558885908440793
0.0516027804044694
0.0702247539094662
0.0527186114411008
0.00685258192363666
0.0731512603867961
0.002189054115854
0.0509618126859469
0.0979778804227042
0.0271859309949509
0.0348490721599423
0.0287231929254131
0.0196285251544138
0.0756290852221513
0.0719799426243632
0.0236050253217109
0.01987389971058
0.0219671226523736
-0.0045957542658212
0.0738325946607199
0.0244645749608325
0.045209762940332
0.0285713608131069
0.068344307385545
0.0155068878371461
-0.00120129092778751
0.0261723345596714
0.0501186864595893
0.0461265641842393
0.0229980456838262
0.0779112089635949
0.0202177258316018
0.028535222956544
0.0788073224739311
0.0280975738507832
0.0721435947607636
0.00419256456291974
0.00305045235187396
-0.00262940499214027
-0.00195340614685671
0.0125501936175524
0.0229244242375679
0.0724881168016817
0.0794347456222569
0.0245568323754992
0.0193987713171611
