0.230421209555086
0.203392343589563
0.206139321019026
0.206711882331401
0.22565991716899
0.206804526990882
0.191368380166286
0.22692614201973
0.201117836045683
0.175912398620683
0.22381926555011
0.196397299466079
0.232747075391278
0.202014470565941
0.227425169950367
0.22369209526415
0.225786937799693
0.230098997415147
0.200620464378099
0.196026824258505
0.195535634776647
0.237644222202644
0.169694442565279
0.203470757825242
0.23149238617987
0.192457030836963
0.190579364720973
0.1996942251994
0.197786372204805
0.207193002170159
0.230053008015104
0.203294309448643
0.222417601522302
0.220596923208375
0.200537046872451
0.194184997081609
0.223451402130055
0.193795357399426
0.195358696791636
0.196089942820353
0.225592662585039
0.190813820432659
0.203516751634358
0.23290746583639
0.200261149295198
0.196930571336324
0.197911144952714
0.208000053326635
0.227539223161028
0.163455133466126
0.191477339388244
0.198009151806343
0.216728705402785
0.19892908546895
0.227389105032836
0.223112297901425
0.228516441027885
0.197219936227008
0.225712919592101
0.201768183813311
0.204351311684992
0.202203258447798
0.198716311294158
0.202121094498825
0.20074697520013
0.231152068689096
0.174243881250893
0.228231527251095
0.204773041025979
0.227662593120794
0.226819396445336
0.202444685045765
0.195461631333439
0.231665200214295
0.199986199561533
0.205504821162033
0.196326273895776
0.224581336287161
0.223591231814317
0.210606401736993
0.169872448333886
0.229449071895574
0.221893808100797
0.226325647598805
0.196347245179058
0.196803879064648
0.206400751888746
0.219319965287735
0.199256827936766
0.171059454597458
0.20344001690412
0.211341139297288
0.222262744479713
0.196942652971872
0.202916538946545
0.218798193933359
0.223890733397368
0.21755065738433
0.199971406647172
0.227489872230009
0.220790588805271
0.191039852073227
0.225144364565022
0.22800031916713
0.224654740548647
0.216288494476852
0.203122798496263
0.222106941160015
0.200079910727502
0.222278791007918
0.214866266960775
0.240522272052104
0.216403739123801
0.220030433402756
0.20713392544401
0.197527135218118
0.208402175935905
0.205076542133152
0.203260435707821
0.174078059396078
0.217864136827646
0.200067609980033
0.21586677200526
0.224446514779291
0.199743704089364
0.225082637412094
0.200804236714635
0.194848251853003
0.168400866346806
0.233828264614991
0.179296202133951
0.181386944212103
0.173051199445247
0.204247086546308
0.183610334411445
0.200333021642776
0.200113146453573
0.200373068616066
0.223869324503112
0.223444826847218
0.197877053017138
0.232028825291169
0.228359537984535
0.196169722506947
0.226552958023973
0.204534200733215
0.203741708313845
0.194185850421555
0.220935483992444
0.207153223645843
0.216970344001181
0.167961333014976
0.198303784528437
0.199539872543286
0.199493078219767
0.204390390368118
0.218678062892078
0.206424965005077
0.207855955014957
0.20671333755789
0.203323013289979
0.198877512331436
0.22859937026005
0.205989283779089
0.205592148132248
0.202686396113309
0.23343313067439
0.19409589838542
0.193180168569281
0.218422921658262
0.227082880629501
0.202842371851081
0.203857552800758
0.218508767302333
0.178769202984474
0.195099225452406
0.227173323196683
0.207204991993496
0.233521555338414
0.197324050414487
0.223928520618659
0.221357656377548
0.207798760433963
0.220003245059927
0.203562678163051
0.199624683718858
0.198501600817034
0.194624422657593
0.223106588103279
0.224604223434228
0.225893922094068
0.196996419574227
0.174001587607566
0.188617353206142
0.225327523574414
0.168488781471985
0.217213537559642
0.228925831969815
0.203341045147718
0.20264412006704
0.19530424808222
0.204521346465318
0.201833065372292
0.200344947107304
0.217192126681485
0.175191812404703
0.221176141581483
0.202221604639197
0.223432121148687
0.229831106756326
0.209428917392181
0.225466767298403
0.19788208846
0.195367189940023
0.227241469990554
0.188396004545074
0.22005335626347
0.193238009590244
0.197968888958599
0.227029065174287
0.226378569377622
0.197339482865574
0.223576914001462
0.228416335430328
0.177388308882999
0.217038754585018
0.175648153953895
0.203822222988702
0.21515352200472
0.199921744916407
0.197060002406384
0.227075446105303
0.204986756613192
0.221399099359935
0.220965118314328
0.223924064058079
0.226208950221681
0.226176851656496
0.231769704302532
0.220840561294495
0.160508186538457
0.202792175268019
0.222754656797981
0.225464181194313
0.222655210989405
0.22596736075317
0.18461786939803
0.202627498563368
0.179701531872888
0.214810511795299
0.28231382769415
0.281012125378761
0.207143733690456
0.19485319698175
0.274868942792318
0.202502817429548
0.198614508283379
0.275400484694356
0.274485359109593
0.200433730090951
0.280504865425959
0.270053171279194
0.271574802053284
0.200886622436409
0.276912708545487
0.274486419990181
0.202554748386266
0.205351047326315
0.278098733343266
0.199641097452918
0.198765919844714
0.274542538705536
0.193158179977173
0.268261272578583
0.266657310442127
0.198039721474324
0.271391988177009
0.199235150851171
0.201484045399035
0.277537886514429
0.275056600645787
0.204321092142853
0.278824129637537
0.271865674845896
0.272472590314608
0.276125004093425
0.272527847641
0.276364309395241
0.203199603371421
0.270623215402028
0.207718857688514
0.198388098858065
0.274308766889134
0.258378310678042
0.187887708704478
0.275083129413051
0.278941339902053
0.206572801893144
0.197921441742076
0.193882531620577
0.205576077227978
0.202184658448086
0.268277964675143
0.273394740342896
0.192591890492356
0.275726985853191
0.275726079490352
0.274574679542114
0.280020501883827
0.270665070842265
0.272582746057498
0.271661642386102
0.26842930651208
0.272657349564399
0.277047095346996
0.264704258366641
0.268676689582889
0.275415451076771
0.279016279809636
0.269651481391919
0.209387143103107
0.275338018493068
0.19379099685749
0.198385539886361
0.201861939241921
0.272032015528378
0.26043372831349
0.204870514017779
0.278916020399368
0.203541213984528
0.280390460365617
0.200039061634547
0.273754415853876
0.197486627906008
0.270070128041256
0.271481773282914
0.195899384068619
0.197889108824695
0.206136309069489
0.278155966651012
0.269956582435326
0.277437614715943
0.269396519749663
0.201756480490966
0.205559672874141
0.274666238796705
0.203221789595692
0.272654691397023
0.205549846128795
0.27118915314915
0.201020610398167
0.274126339033918
0.204686817874335
0.278920764878899
0.196932667905236
0.273505127807608
0.208331598576775
0.271216540527987
0.268802449395913
0.207739525456133
0.276331757815452
0.27515062106579
0.200417645338992
0.284397770089224
0.274422840385821
0.275464368274644
0.20889501400458
0.275326987835047
0.199343177648683
0.196046670664256
0.288108095994408
0.207693117135855
0.277569317697248
0.199677222313961
0.200562319373993
0.266210096174645
0.270704647271253
0.189585945375399
0.193754048112391
0.193624642590987
0.281901241453557
0.278997416637024
0.276429337078963
0.202034198563035
0.27016581329984
0.276343877311153
0.268802311929032
0.194145527848362
0.200229725975981
0.197135896638095
0.282252436855922
0.196717630099824
0.192640407851731
0.20208378220988
0.28104033652926
0.274220335230583
0.283454015776651
0.271478405736094
0.268207086351908
0.192597296103285
0.207629693198584
0.197528452848283
0.196347659489479
0.274947169614568
0.199537416303076
0.199589865142751
0.201532739362687
0.20350575646411
0.274311283726838
0.282314506615343
0.276877225002993
0.279657660732448
0.266589032741664
0.28175901317146
0.269889934298222
0.202462097743386
0.197011911108979
0.201212600215566
0.277758055053411
0.201270366989351
0.273699437509325
0.202260862421186
0.193070159157004
0.202339757957134
0.268849001054614
0.274166787275216
0.273686675646827
0.276996236706562
0.274406478469657
0.277124641630908
0.281059860693363
0.268352484600638
0.206090259681149
0.27080734242436
0.200213170928504
0.198730997185074
0.267782091808193
0.275953896811317
0.197958627361701
0.275987850710951
0.195246534640327
0.202316357757583
0.202844726654804
0.270615310940097
0.202889531193468
0.275495342434529
0.203173369429865
0.196019210160359
0.284795097166293
0.202870237853536
0.203109635109675
0.275885018414331
0.280971538476649
0.198491506192155
0.268477026410169
0.272107016936157
0.271839620408931
0.275462105875246
0.273150109439832
0.277202079408264
0.193880641289234
0.282581325355912
0.275595050802119
0.272165775497737
0.1989183403943
0.283372816497508
0.27883099992869
0.274460780651672
0.268567811001503
0.198885923506862
0.276758766696717
0.198185462231214
0.279148501025526
0.197736757146861
0.271235107156019
0.20840193210907
0.197795435353433
0.271380563636303
0.265287836504593
0.200325699248167
0.276261921479852
0.266139412302477
0.278845663675658
0.275628798453829
0.278665679752416
0.275082060561362
0.207843059884457
0.274973055896187
0.268828795112151
0.273945097051515
0.194053352104837
0.278413643446408
0.272268398733448
0.279160799456477
0.199573860268997
0.207230767989269
0.196496752479483
0.213937236046469
0.282188027116917
0.211535873799599
0.00295582516983565
-0.000497724245309486
0.00403138067468654
0.00696732137334809
0.00845317061325688
0.00219362405391315
-0.00381526945345596
0.00447660189263723
-0.0126725278805812
0.00556774395406617
-0.00575489861566382
-0.00705885284086767
-0.00446384799226418
-0.00338239057085935
0.00253260137711625
0.00440663206056517
-0.0101354391235973
-0.00226610767882355
0.000276383132670261
-0.0013326020570315
-0.00062863660717042
0.00238505194306974
-0.00137256097664611
-0.00505512718252073
0.000373678183160586
0.000573335216762149
-0.00141568443064107
-5.28258619840034e-05
-0.00478748762282771
-0.00688595962670685
0.00595232312026038
0.00389280892144121
0.00230853239801137
5.69242295604485e-05
0.000966023165151563
-0.00885240345483163
0.000172338881093551
-0.00122330838328986
-0.00765651461951953
0.00521958990020051
0.00183092317634369
-0.00340622110416842
0.00543185913002242
0.00818743121893028
-0.00281709411242053
0.00521477659814721
-0.00340537649704443
0.000628682950447078
-0.00251853355898112
-6.91808239220994e-05
0.00843108401938365
-0.0065615913113014
0.00119142054957371
0.00272132872473744
0.00519622633797501
0.00211669875235922
-0.0103832820835751
0.00184854920249066
0.00593729922279089
0.00488009800973582
-0.00171358071355124
-0.00696588796191051
-0.00645974344887381
0.00236129504569244
-0.00108828497673784
-0.00185339828788977
-0.00600529888543044
0.00528633597714786
0.00409422208346862
0.00965643050820847
-0.0053717912054376
-0.000154560367235649
-0.00737782641676847
-0.00346835498723815
-0.00586191495359294
-0.000963755179723829
-0.00148950506746463
0.00349072916503415
-0.005655769764015
0.00269018473688709
0.00418183382535478
-0.00375569406677731
-0.00181124633428426
-0.00109512767104318
0.00142320278088119
0.00169046573156667
0.00365298860958585
-0.00670439762208767
0.0101032768017992
-0.00356553796492132
0.00860822961048206
-0.00249697538598815
0.00189046175834327
-0.00222703720164184
-0.0016210161074716
0.00257776260311785
0.00169301515939815
0.00624572962430382
-0.00322421022827543
-0.00161304365860446
0.000729102562255226
-0.00423585844328598
-0.000301135899144499
-0.00091203405757579
0.00389413811775723
-0.00116457903978323
-0.00126726327478278
0.000730922801350537
0.00523569385704958
0.00341801269286663
-0.00137452198705418
-0.00129821267428507
0.0039379256762194
0.00222298864221955
-0.00464869623244794
0.00646876846476631
-0.00555110852643936
-0.00270517219272738
-0.00339972903118701
-0.00180531376890156
0.00554614768983184
0.00472224846907073
-0.00565270611378499
-0.00158854555325832
-0.000244907121284855
0.0054570147527168
-0.00241683698821914
-0.00339784156989132
0.00580916658916684
0.00477149332507193
0.00128404334007819
-0.00104774114435762
-0.00323200768084099
-0.00793511176928307
-0.00174671469661793
-0.00300975278529264
0.00298176666548729
-0.00465980583002446
-0.00326434490973747
0.00334089478966295
0.0100033288161006
-0.00330013518301918
0.00251514071857439
-0.000175058141197821
-0.00491920917728722
-0.0110285475287201
-0.00235085192449823
0.000166366231966409
0.00107740572963132
-0.00267838273383034
0.0010910463920921
-0.0108079342320853
0.00119000322498869
0.00247006109024957
-0.00416788336329685
-0.0052791100102374
0.00767074064436641
-0.00139465572217805
0.0101534927524687
-0.000757416194716166
-0.00296709386022253
0.0140670428475964
-0.00450125391344761
-0.0102631051396986
0.00113372342937092
-0.00156099063399213
-0.00264553390957719
-0.00464156380048078
0.00542171073171752
-0.00973163849674109
0.00509794341145031
0.00697813727602752
0.00454034365341898
0.00169901463335268
-0.00304587110017707
-0.000992239385271323
0.000651833716075418
-0.00362436233514409
0.0116001827908748
0.00598787304144742
0.0103960819108244
0.000456940780627023
-0.00202974349882555
0.00711127727642922
-0.00297286411919387
-0.00159014743985677
-0.00583154801601349
0.00427623657096686
0.0111636199463314
-0.00764167259244714
-0.0139016489072914
-0.0068400199222819
0.0110226924754184
0.000345125722438533
-0.004102892603881
-0.00157754049831896
-0.0112466565552669
-0.00552049051245803
-0.00305568000100084
-0.00505238661833113
0.00895354737708633
-0.00393085992294774
0.00357528171562791
-0.00822953867470744
-0.0102892324601751
-0.0021830026552853
0.00318164207834547
-0.00455885468573062
0.00199028471317876
-0.00320284668962177
-0.00843596908392319
0.00118892557676313
0.000529419379767855
0.00733107859486931
-0.00945727889507634
-0.00159648148204138
0.0070719429345727
0.00689474811067502
0.000661936986258826
-0.000424236173322211
-0.00253615491742404
-0.00176713167608957
0.00510796996764553
-0.000660434817689971
-0.00208324930701233
0.00727054330988325
0.000721957697954536
-0.00433300276446183
-0.0052727247007264
0.00475943955751696
-0.00240944900397938
0.000535784440917702
-0.000404906497552331
-0.00403474291854054
-0.000927503065413832
-0.0032839998431534
-0.00273797585690423
-0.00428448065963733
0.00161593390574455
-0.000428910957024568
-0.000699854714808345
-0.00238877857023068
0.00287878176935898
-0.00288761268443328
0.00391605288401211
0.000734307023697629
0.00330099115587186
-0.00258321333140571
0.00128933303255201
0.00734199357378755
0.011901217111304
0.00111132481216243
0.00564172041658561
0.00262350436034069
0.00109370820604882
-0.000431774462071731
0.00696874909207937
-0.00101825923145327
0.0100891953874306
0.00172788513344914
-0.00247345429543978
-0.00483524905912976
0.000173582211678721
-0.00368071275289587
-0.000608064604209069
0.00177668730462544
0.00249959793565077
-0.0089219609083781
-0.00773109094667386
-0.0038469018463242
-0.00449364170785683
-0.0102893251147672
0.00111562084463319
0.00201697171011573
0.00393505183302233
0.00324321049344714
-0.00526121954824234
0.000859984424300513
-0.00318208141854387
-0.00097528037908442
-0.0110193660929335
-0.00254347272137073
0.00892139794204828
0.0108117431759609
0.0014603634829237
0.00489278502287191
-0.00212549172908765
-0.00261444255763978
-0.00700914217680072
0.00830664136899604
-0.00861487768506338
0.00149432655729832
0.00234765090105772
-0.00209558204908184
-0.00132782057736955
-0.0108632272539586
-0.00096591296062855
-0.00539566110640769
-0.00441268328622628
-0.00568625537754343
0.000358741321878326
-0.000206748980423902
0.00619739288465952
0.00092829060515218
-0.00601968110363844
0.00234940069294926
0.000995236812132417
0.0067890542492147
-0.00735955736677695
-0.00379182954393982
-0.00159026163049469
-0.00290291946843524
-0.00146694182781693
-0.00874708745920297
-0.000263680861777862
0.00257517643269498
0.00240363059399535
0.00446203877247854
-0.0116844511505837
-0.00276369644029528
-0.000418148871468151
0.00900869743539232
0.00320017091882968
-0.000803301190434001
-0.000339192359953591
-0.00249646564369545
0.00627353703121698
0.00756642831468109
0.00368703403440585
-0.00705915233044972
-0.000230215172472848
-0.0022846243814378
-0.00581128463304406
-0.00301959321992372
0.00112198248912955
0.00720215203864039
-0.000605718265197166
0.00399142536218452
0.000849124667887079
0.000348644971083644
0.0081482882434034
-0.00460276060206632
0.000421387677763887
0.00185319666537994
0.00163307571592476
0.00658153667500816
0.000503352973330667
-0.00833971993362423
-0.00213358622204368
0.004350935223282
-3.04036077594116e-05
-0.0037609014543102
0.000209153643799602
0.00508238966683699
-0.00493760316167656
0.00285925243079097
0.00368773846529235
-0.00482918757098345
-0.000458291658390283
-0.00937386306350955
-0.000329470069866143
-0.00146915325517829
0.0045449138023881
0.00670315899243173
0.00456217124942616
-0.00343743370791389
0.0076948511612987
-0.00247667978493957
-0.0146957964988534
-0.00746318260886801
-7.97748267136704e-05
0.00722440748914577
-0.00107402906309205
0.00617596347570628
-0.000910365883465028
-0.00697199496680049
-0.00639320386967692
-0.00471681260125873
-0.00458170754213228
0.00102011594098585
0.00284514285764301
-0.00350290993154501
0.000209122291412423
0.00477554803114564
0.00544385556108296
-0.00943639461289193
0.00639080642662173
0.00503790350919752
0.0111190690735585
-0.0064887991265516
0.00111734500793706
-0.00451266599721619
0.00255224818938571
0.000197746264311787
-0.00236879675116777
0.005592211463829
0.00223385650983958
-0.00401507277125501
-0.00368425905433012
0.0042146394149446
0.00839961026552886
0.000351831600255536
0.00140173393110669
0.0061882806729525
-0.00366420977124649
0.00410345454242005
0.00887603616338834
0.00080515462545176
0.00200639458332306
-0.00464251022991105
0.0032077099058418
-0.00730237266734187
0.00321405683186706
0.00104965461245956
-0.00361966019970019
-0.000995128862321697
-0.00309773916049488
-0.00518600038109349
0.00673269258334404
-0.000223371401585846
0.00865838998089916
0.00129425097626532
-0.0162504038160494
-0.00481163264805552
0.00330715910798964
0.00144473568101312
0.000602706128845081
0.0022796915428683
-0.00230447585106824
-0.00242299062341274
0.00484402464365493
-0.00127697034073231
-0.00243311360023646
0.00626053042549198
0.00108094205305861
-0.00183134204571703
0.00304800195320733
0.00147157335610265
0.000517638482759461
-5.4805288912374e-05
0.00167950290877996
0.00499824166319672
-0.00212399454194938
0.00203987860301484
-0.00315367423141413
-0.0110188449881873
-0.00926555891895729
0.00910994193371855
0.00473036021624634
0.0058892260952052
-0.00187505988477066
0.00242732489039962
-0.00530828681140731
-0.00152796466683875
-0.00678359732962656
0.0108247968773056
0.00404337325332209
0.00108306040130195
-0.00682627583294764
-0.00422014499797049
-3.37531956006712e-05
0.00143876759711883
0.010832381338263
-0.00301277730903972
-0.00593746193510442
-0.00207706430818154
-0.000364062835508278
0.00522517618616251
-0.00148563424028018
0.000294115082490062
0.00299955659982175
-0.00388491233018606
0.00757476747302623
-0.000331581019728444
-0.000492752803287039
0.00211356737019646
-0.00377780937761681
-0.0068363131799805
0.00435541576936521
-0.00362940582689551
0.00150724930961769
0.0124456488278317
-0.00532861428117083
-0.00124041450304803
0.00480321278223485
0.00114599370506909
-0.00351302664852184
-0.00760011148453133
-0.000730115280588939
0.000782926247281033
0.000624238307981812
0.010522409803147
-0.00540072404505425
0.000298609787339979
-0.000172459436156249
-0.00488571858480481
0.000386057664315678
0.00119125383767125
-0.00285757400132528
-0.000830169734639282
