0.249774584833551
0.24675555256284
0.251126250401574
0.245371457789234
0.246577625955032
0.252713627659299
0.253085608245677
0.241974640403577
0.248105137929938
0.250161512804971
0.23903640698699
0.248497889964026
0.246751781498918
0.250013907211429
0.247529752609917
0.248122233866269
0.257031990592603
0.250492145897793
0.255197476218884
0.243676767082293
0.243560083123769
0.253421118572782
0.252929067120009
0.254270610183998
0.254001293594071
0.253430856693127
0.252399984675942
0.244452209760829
0.254135427568622
0.256364392186529
0.256455392147564
0.243935666839353
0.260818711253116
0.255139495659482
0.257479159623126
0.249228236594691
0.245583718424536
0.249676347822703
0.260557517837653
0.255535828829232
0.250916290699797
0.252422270122002
0.258653491473089
0.254229555080411
0.250692524057964
0.250446397604783
0.247197470786594
0.24479148416358
0.248318078300429
0.248963031785649
0.246737613099654
0.248972131301151
0.244995207054569
0.247061703253935
0.257369531986316
0.250167616506947
0.257959018932091
0.248094688435095
0.244405066604034
0.246847059822576
0.256758400789241
0.252730496981836
0.253385737302944
0.255936087071456
0.2488974218543
0.249899996109209
0.249113225206999
0.258263073746334
0.241648658170542
0.254763789639104
0.258396532050162
0.244967726035179
0.250257090111527
0.246663905125453
0.253320050678775
0.250652806082709
0.257621229327957
0.247692098508639
0.253953228472554
0.253659651380857
0.256151026163852
0.252365551260959
0.248492399464585
0.247075263956479
0.252209113144788
0.248389805840929
0.251097769253182
0.24868467243343
0.250613935510057
0.254172852396823
0.25757318047268
0.247255153746928
0.246451801612046
0.249668595176589
0.251139727489353
0.249593430392488
0.249538126224909
0.2502695787455
0.249192970154834
0.246463037369046
0.243664038867434
0.251589490954482
0.240677263397856
0.255385870872539
0.23909117065346
0.253233048001856
0.247048117995891
0.252662305041016
0.252728628204552
0.248131612513208
0.258487665726068
0.253016188228945
0.248332026877427
0.250919533716994
0.254082061683537
0.251252671428433
0.247277517974886
0.252902702467155
0.245415131354003
0.246571537733641
0.25476966353249
0.247079986855438
0.242908511162039
0.249245391486771
0.256049664083778
0.252188128762883
0.252594020991245
0.246586151560892
0.250767580506327
0.254756743006173
0.250513344501584
0.258232122174999
0.247166906382538
0.243327838097843
0.251860115582683
0.24487724902214
0.25023800386676
0.244199422191021
0.259884463197455
0.251880470861253
0.252185377478198
0.253976359103372
0.24778200632862
0.248562834896381
0.249748212834226
0.253009323560953
0.245243617413847
0.250219294465301
0.249225785233183
0.244783553390094
0.250607566736525
0.243196265105648
0.250919305428488
0.247884565561155
0.245490067774373
0.246332727879511
0.252163779897403
0.250113479719666
0.259697823113883
0.251942530269015
0.249725067810479
0.245498957626231
0.251215281686395
0.242008611604189
0.260130591895408
0.24922963645738
0.25637937640565
0.251643915196542
0.242106185396846
0.245483001829872
0.246158960779937
0.252410730114204
0.25990472352944
0.247454782100144
0.255357091721075
0.242695374461617
0.255267112412442
0.244103417759536
0.248123288547647
0.256207171060926
0.245992122784296
0.25734296885192
0.251084192529195
0.261916649640617
0.243337907239076
0.246654209312623
0.247467809628645
0.257024695053638
0.249176746259533
0.251304368864969
0.258496928681974
0.254708898326546
0.252796150775175
0.248655364926382
0.243514470352834
0.252523332032004
0.253688154568463
0.261836047818408
0.247053530430969
0.245115661992842
0.24437345450149
0.249614050322229
0.245679846665429
0.255401262348606
0.243948453368858
0.251210393163487
0.253761232144816
0.255358394310221
0.248159534539725
0.245553238247383
0.251312834065322
0.252765849081637
0.240702411814312
0.249193281181464
0.256999025210433
0.254395906033838
0.244119734250889
0.248286566887578
0.252208623624503
0.24511142991033
0.249437313250017
0.250867552108835
0.24313753782
0.257300528112668
0.245087045906356
0.255578993483507
0.236281709455283
0.247734270069799
0.248046627339215
0.249740025028144
0.253946819194325
0.248417554594912
0.249163477466657
0.24522314726534
0.247419543443175
0.247672776306588
0.252440598616546
0.243294202817405
0.251786570335581
0.252676348857067
0.244910108446375
0.247825954898549
0.242388095704016
0.260753442327498
0.252106977972346
0.256222557630001
0.242686355410286
0.255319322976844
0.251058882669915
0.256324242673496
0.122881656521919
0.10115490494449
0.12467252092695
0.126744146170637
0.126453045779737
0.133635028719132
0.117918271911002
0.10167283158789
0.124306538272841
0.12375496842515
0.128344813873974
0.113746976905395
0.116769871103451
0.105366014178996
0.121102718938705
0.1264907785044
0.134265377517918
0.116853421568829
0.0996368694863759
0.0919885612463519
0.124624244348192
0.10209080887931
0.114830285014022
0.0966296780184753
0.101359232494896
0.102936259153905
0.127204630220008
0.101871131185917
0.0998729226756781
0.119654406574261
0.128864316487197
0.118012475357802
0.120886314437877
0.122170156578538
0.100528014983911
0.0910730450060941
0.132680020851715
0.0978970603489171
0.133340832188065
0.0937713443690607
0.105516764280516
0.123212732104745
0.119662083480621
0.12430549845314
0.128638742765313
0.134260993408172
0.125901208557292
0.107476428027393
0.09669076114488
0.12714988293923
0.123399991111334
0.129403086917314
0.104123361010083
0.122079323289596
0.126606252842178
0.0931370107754969
0.127748014946488
0.120020234608837
0.0979028441734158
0.103845443448554
0.122462225401902
0.101452069073398
0.126560785713816
0.102735640359652
0.120175057595636
0.127736861462714
0.130026235563159
0.125043125829094
0.133870401861144
0.133625545174044
0.127413745742139
0.120604297722712
0.119934999342396
0.134076952260959
0.12608966535468
0.127618939752301
0.0950872810056754
0.100102104690903
0.115223143737029
0.135847226854378
0.105832457116422
0.0959881401402938
0.0978877203988512
0.121175857328884
0.0888377817106455
0.114082684253407
0.0981886832207425
0.106843954949885
0.126907764889837
0.122865168625685
0.096249715668627
0.117956767158268
0.0930721165248522
0.128320275455925
0.128001792509571
0.0996372163432194
0.108427697019521
0.0943736351650751
0.102915131006828
0.12435307961062
0.124312654105873
0.0899089323924576
0.0954708018191479
0.123331039819172
0.124819618924737
0.104735568551979
0.127711222806774
0.136043285917432
0.101017122993498
0.0967590019798678
0.127519701114517
0.0920376734132794
0.12110465573649
0.133082362725881
0.108619934702259
0.121291728286874
0.0976718029005093
0.124625621972367
0.1050889701322
0.12602515802192
0.0952467392859293
0.125444978123857
0.107113705878774
0.122379089833936
0.125988662914282
0.132004829023166
0.117283119352981
0.109351799788111
0.0985382215993191
0.130132398858604
0.101310227863102
0.128040827712631
0.108104197100962
0.12700768973499
0.118112047858616
0.10538265433382
0.106197138028602
0.117642300549522
0.128429338323841
0.111749826474267
0.121782053671652
0.0933544813625656
0.0984166973257137
0.120983814506535
0.127077804514784
0.127028748118006
0.128835795589276
0.103360121070388
0.127620517223005
0.124952572324472
0.10747544761747
0.124205688333785
0.120847809168104
0.126419834245179
0.122366909830641
0.0990892514849289
0.13317574239171
0.0979599741352103
0.103492424123928
0.12190918410744
0.128262156408559
0.0972914782151048
0.0956737996914984
0.104985487122467
0.132676445453503
0.0988834404378028
0.113781745802908
0.0960691305682286
0.0965655777265798
0.124126420007761
0.130422065667198
0.0918617498447089
0.126698357786666
0.0995473211784242
0.122032420511504
0.118085492985719
0.108140369882625
0.0931420969631198
0.132943428625366
0.131417574134305
0.120427443958491
0.101429745142115
0.1238392356765
0.128862164380993
0.11875329288908
0.125401372771225
0.114944573926703
0.12055727830889
0.125133213363857
0.12731471381449
0.10208759359859
0.113955546672028
0.0989312447779052
0.0940477368470507
0.12590805401597
0.123329067845196
0.129078289917555
0.124369253352344
0.0925391917506163
0.104196255339849
0.117938142865871
0.0951648868392786
0.100739890838898
0.101295093730026
0.102078380860219
0.0994253742790709
0.122779474056031
0.106721767542404
0.121145595325119
0.103472426638179
0.123712731397258
0.125764788650758
0.121330815503236
0.118239804308787
0.0941400525489649
0.129222008619461
0.117801973755805
0.0973391078335407
0.0997835786266889
0.097900690763529
0.121928458670604
0.12213339238416
0.103705886945869
0.122025761444441
0.117541386936628
0.0928688580692109
0.106331757175687
0.10104558718653
0.123263049284745
0.128717250916923
0.124315416301631
0.0990290122842926
0.125428356947557
0.130462062560438
0.123243901038918
0.122330158320472
0.120889635211983
0.115070424727921
0.129142993023689
0.100541805524928
0.0945773870321392
0.107940402189872
0.128757072764893
0.117356787453839
0.0877124486887006
0.0911851405614844
0.0905630791489671
0.102485126163182
0.131987055122361
0.0963498672098221
-0.00060904130440045
0.0490068598201244
0.0287257018386852
0.00209329194070006
0.00308782790443443
-0.00204819603362845
-0.00126027749891615
0.0438735809916079
-0.00640610935471598
0.006871999654277
0.0497291439504127
0.0402186114831316
0.0470443856115718
0.0380907468360151
0.0521884659262705
0.0480536398641798
-0.00278862105187061
0.0514489390482742
0.0591017170128899
0.00435815285212738
0.0446734978031615
0.0522139931893771
0.0472489567998924
-0.00388837612890637
0.0459076774521217
0.0493588346448556
0.000890348830326679
0.000313227318241011
-0.00667088875251412
0.0507470385021741
0.0414951181601886
-0.000521560111789775
0.0539291537743642
0.056370329004923
0.00232438534039144
0.0483660023236772
0.0052386300309121
0.0492771312235935
0.0494496522377138
0.0566580929586086
0.0547355655854893
0.0562108760266061
0.0504428933485264
0.0021569907252119
-0.00538721723081712
-0.00796548144404491
0.0525076601474293
-0.00221274524227992
0.0195561524363561
0.0623638994180462
0.00381306168268723
-0.000336631272577158
0.0478817317616027
0.0550916070954104
0.046037212025633
0.0539757581445789
0.00481843113178666
0.0486563108411093
0.0496516397020533
0.0493567146496672
-0.0102498208639568
0.00207659163900928
-0.00398582974239674
0.0454531233661104
0.0427644646891078
-0.00414359329644732
0.00566082433460834
0.0497960255174997
0.0021315153554003
0.0538819047085931
0.0412058605290703
0.00206246706755252
-0.00284630208443004
0.0564142612720204
0.048382723400669
0.00204656631515534
0.05056139845171
0.0546582531486751
0.0487775746465376
0.0512354844532007
0.051600498887692
0.000998494129290597
-0.00154679011529933
-0.00802328963355615
0.0524264843396276
0.0007239152682111
0.0501279505095567
0.054507741559202
0.0508751350767782
0.0543341048873458
-0.00546020214442694
0.0464051021793532
0.0462671524161058
0.00282835871045704
0.0321730002977285
0.0048507733268327
0.0544980510921397
0.0605126593663022
0.00531405125956631
0.0044166311029384
-0.00636199487379641
0.00140324608240303
0.0528860759531467
0.0426914539223944
0.0573739184078159
0.0059455402549828
0.0453833844217569
-0.00247858617802335
-0.0113740411351245
0.0580125136191852
0.0535137865480884
0.0578140103804755
0.058043107976841
0.00496446475289024
0.0495316978646163
-0.00843537584320033
0.00242798980719011
0.0539724079594432
0.0477931206432141
0.0520380695253001
0.00121047266831228
0.0507330625527767
0.00437250930116429
0.0501082035177446
0.0446732081145346
0.0401926419874516
0.0510311934182307
0.0556280089956265
0.00839878261772783
0.0439326356877346
0.0589264587334628
0.0483934446884615
0.0069551017677047
0.000921426905520457
0.0552460437053075
0.0562347329128178
0.0451672863892856
0.0532097648191767
0.0472726946162315
-0.0044275930722596
-0.000132168948664101
0.00361002072739573
0.00616116573331803
0.0466614472923937
-0.000427154113921355
0.057266490950671
-0.00682918165785725
0.00534596116583526
0.00116458409299032
0.0494173108450374
0.0242737967731378
0.046199137931706
0.0481523995550473
0.0460000408084177
-0.00479265729318433
0.057951524748222
0.0438923336357128
0.00800817484240134
0.0448886754086896
0.0486323084803692
0.0558775823716216
0.0575974517539389
-0.00640765821412232
0.00226355021042266
0.0461573218853402
0.000937135651156036
0.00191018748077915
0.0525796962550124
0.0397667889301736
0.0558508255208684
0.0462228332691495
-0.00281369628831589
0.01775439568835
0.0601877496291144
0.0577844517783739
0.0039723260239497
0.00415518646834967
-0.00188175855225508
0.0425664201003948
-0.00369523703146064
0.0511458379638044
0.054300203038076
0.000166857415434597
0.0467874165989896
0.0464674536710414
0.026218711045005
0.0467882648104553
0.0450606095686021
0.0506672551915475
0.00878522051448153
0.0375817241829726
0.0434385713015669
0.0508576428897299
0.0536339821752375
0.0542958525978285
0.0480085365213425
0.0447614699744805
0.0050695879532993
0.00128131613789974
-0.000706381990384617
0.00294615068028231
0.0295222776277997
0.046990094926565
0.0526280515569445
0.0620527718292377
0.00181155087620654
0.0451421568224874
0.056745861582549
0.000996006427836584
0.0569064085095711
-0.000183156393028184
-0.00224546650458067
0.0574924580073296
0.00316588798182854
0.0427473945075245
0.0570438945751875
0.00186899664784886
0.063346391776363
0.0513711041468157
0.000112020953446017
0.0495239926019043
0.045287205183131
0.0549886085136958
0.0493303379985436
-0.0108505469650797
0.0265219655196813
0.0459524688534375
0.0615302120307426
0.00137112200862625
0.0488606624810803
0.0485224774268558
-0.00701586983560439
0.043550079043348
0.0523755735661102
0.0491661228617052
0.0507931075606558
0.0478830027633356
0.00894004949776814
0.0033424686494237
-0.00612154894553072
0.00909236484070635
-0.00344805348835604
0.039153992785825
-0.00530897303071915
0.049318259484554
0.0619125952229256
0.0504042342092851
0.0220784916604838
0.0520345902915423
-0.00295278457773183
0.00920913923469369
0.043972841819974
0.0527135662724384
0.043445861203756
0.0264732679530953
0.0602172497198759
0.0415848607367529
0.012595163493545
0.045234525058832
0.0500995133753038
0.0487321475379411
0.0505826962673137
0.0443179157118521
0.0504384225713872
0.0473585095802023
0.0467504880810094
0.0513518048065934
-0.000195593034636175
0.0484542457426622
0.0530922214570672
-0.00419386026127855
0.00319797912520342
0.0499771647313268
0.0560905709501931
0.00332159451989655
0.0435581459490231
0.0465996938653303
0.0493586314092682
0.0240578960856297
0.000747547047462913
0.0483628800982391
-0.0103887850303903
-0.00580298468798021
0.0481769738668734
0.0488120851142
-0.0052938453086243
0.00848736811316602
0.0494333921949193
4.51955695004105e-06
0.0498321009930806
-0.00596967612601751
0.0585712505302905
-0.00446771539018538
0.0463681433237123
0.0464179736696963
0.0482030251516397
0.00304428422091697
0.0593935959807752
0.0374292442659103
0.0520616435564567
-0.00519613399834476
-0.0035188228338638
-0.0040067116019843
0.0513444612018861
0.0421070969560488
0.0498999475545097
0.0516805182044752
-0.000284111435447388
0.0566029114815128
0.0491669877919477
-0.00155145750939359
0.00445505697852573
0.00068087052739744
0.0574774245912132
0.0471346561890919
0.0443962633240863
0.0450913277122838
0.0460448778179784
0.0513436173035068
0.0552174797132829
0.0522992482976599
0.0589040165359255
0.0529105222811468
0.0510494946897984
-0.00148505762614052
0.0208248362846571
0.0503683876863281
0.0573528614292347
0.0570438282394492
0.0498981416382839
0.0513746110987654
0.054086257361784
0.0484522001269691
0.0525538313393884
0.0536536943484196
0.0119400020387011
0.0516957811969056
0.047834911288127
-0.000337765818745525
0.0541990826084331
0.0507065756026862
0.0493889558125827
0.0497395091923737
0.00241640009244836
0.0132285452383596
0.0556404750534232
0.0523585328833657
0.0539320947409211
0.00342639567485137
0.0477677667585693
-0.00215364707528119
0.0534164836061922
0.0504965189246697
0.0575852720328597
0.0440607200987668
0.00600083093136611
-0.00611089314797654
0.0575697059373339
0.0532648437996702
0.0486169719887053
0.0498235524673442
0.0483167103406887
0.000947418203872029
0.0532014168930915
0.00137404857562795
0.0496527202577992
0.054178257857333
0.0467595780584875
0.0541479569471684
0.0525448641811684
0.0507277461415482
0.0468698405323143
0.00602375719529509
-0.000938164336609847
-0.00469523956474061
0.0465734785212774
0.00263511537177227
-0.0107212858190884
0.00297059476780046
-0.00358416970531483
-0.00602198108894372
0.00451709423071815
0.0490627904697876
0.0517040041593149
0.0446564259708289
-0.00250162316972685
0.0497714315947854
0.0536830201241881
0.0440923828619662
-0.00238376586988471
0.0481837320690219
-0.0104842905436881
-0.00280990428632102
0.00872953649226852
0.000235443792171024
-0.00659535938369876
0.0247646529754732
0.0482172545234601
-0.0016148915691584
0.0426398756443019
-0.00631065595109146
0.0539215685851433
0.0492018053283231
-0.00202591587934793
0.0570674439074154
0.000609142996511239
0.051961518382686
0.0492189658140959
0.0460269802851668
0.0506026250222864
0.0481250066683736
0.0479293807725453
0.0552827458600466
0.0451691573401714
0.0433996513745324
0.0424755519489995
-0.00121790420650378
0.00290949007286763
0.0583508826591305
0.00196689128646582
0.0542175458865202
0.0469920518402429
0.0555583714970886
-0.00255391385343892
-0.00405441121574579
0.048866717970803
0.0484307576337777
0.0517340242573836
0.0510686746825365
-0.00696496775583416
0.00407652981437791
-0.0035123197649789
0.0413730096517349
0.00517553468361449
-0.00183893628701792
0.0388926944175479
0.0512268172670099
0.0490616498680729
0.0512000458268074
0.00501224391598043
0.0618398498350737
0.0504496979451383
0.0533027389396658
0.0493720053862418
0.00217781945861468
0.0078630089845231
0.0415504769932876
0.00231283257406151
0.0347643721452984
-0.000567340673675285
0.0534774135526616
0.0478258547860235
0.051147862962681
0.050359757959385
0.0453594834256084
0.00505209320853483
0.0533026519783742
0.0117636714353901
0.0504958496963105
0.00405736374156405
0.0449897439751006
0.014979823679714
0.0511744644540986
-0.00123032546205311
0.0034808826189236
0.00809176862385007
0.0476317821150108
-0.00606553276651123
-0.00721718625487192
-0.0031003862356393
0.00256635482001759
0.0508627264405052
0.046390061959753
0.0488288569578717
0.0504521600851841
-0.00166332632409697
0.0460182387162547
0.0581657361037462
-0.000355408499640602
-0.00184695695960339
0.0504641823530008
0.0507645728759665
0.0582561195967755
0.0499034635010516
0.00162834461444106
0.0447296113876995
0.0497674748117703
0.0553489662371234
-0.00520060215781755
0.0597846388212342
0.0523890424586566
0.0547565281836461
0.0406211039008476
0.000352015787867074
-0.00132040806548313
0.0489048135091728
0.0531734475101747
0.0127544341555678
0.0538964390813092
0.0502910558012095
