0.1817278968941
0.240860508946862
0.245284551628409
0.249911593849831
0.253719104208436
0.24229392167861
0.25379613855536
0.252674260243935
0.25713563045694
0.24809917823561
0.254244699724498
0.250697132539931
0.24997968994052
0.246531778079414
0.246644784213873
0.248025582688427
0.248743379063877
0.242412744601211
0.244886212259312
0.238088015949818
0.252404493697906
0.17070734753193
0.252288896444369
0.253691169379614
0.24860558132717
0.245596965459439
0.245767147626892
0.251766684292388
0.24984223598287
0.247087511620522
0.246650881282547
0.256923187986529
0.169524493222321
0.242901176206067
0.246728639205775
0.244919382058203
0.251428238710252
0.248998717132324
0.16631856656137
0.246563762972569
0.260153843921553
0.249898250698265
0.2501730120801
0.247051508926334
0.171163710504233
0.26004887604285
0.254171683646019
0.237845281406149
0.185004426928849
0.248853306093436
0.257242625326437
0.244579200448772
0.24810518717663
0.240818319928084
0.252452369043608
0.246240444998291
0.261129410517552
0.16556032702531
0.175299957817271
0.167877566758886
0.241718437649133
0.248071459547153
0.252648978416767
0.244179608635512
0.259820412990973
0.248605267174951
0.167709407625201
0.248430573236079
0.26243390947225
0.252105207543091
0.252816330055023
0.24966026541016
0.254116184677163
0.249146886309417
0.255330963895148
0.252870634156441
0.246417513398029
0.257200837542707
0.177505167483367
0.246612994180502
0.246185502253862
0.249212096514557
0.248602771010635
0.252253484002501
0.243237538066132
0.175129051353292
0.259050572424929
0.174057139421513
0.247828681911653
0.246851813433489
0.248815461847793
0.251889066331839
0.242414502944073
0.247893942404151
0.256417112186033
0.252090440988649
0.176853857617318
0.260379246647971
0.253920036934857
0.249750156605905
0.244495515401577
0.246818039571116
0.246693404442107
0.246262588193541
0.247853105513165
0.238376976751124
0.257512083382297
0.250098614845792
0.250586004975002
0.253276285239538
0.245313792994538
0.24586845564046
0.252114703204314
0.244192695039811
0.257069976737438
0.247745814758198
0.240855617540416
0.249889654889606
0.258627506989905
0.18049413997573
0.250602691480437
0.252739822762409
0.242583933543655
0.249342569720663
0.246257116233376
0.257628204245261
0.249310573655116
0.245416472436084
0.248484540575767
0.178579074025221
0.244207349363803
0.249743641139038
0.242017804593884
0.246011726172482
0.257364877414854
0.248816571017677
0.178229501153825
0.253099167505504
0.249358555724385
0.254234166613644
0.250523486669516
0.175314562800488
0.173838561884084
0.256980948284734
0.245417443572498
0.172630138277482
0.25172318383343
0.180788656557449
0.241895075024261
0.251212382007441
0.255868131185688
0.251328721245679
0.247943882902368
0.252780261385655
0.25607153934255
0.248171834247913
0.255271449684009
0.249288687436219
0.263350815384641
0.245061203777229
0.248669360654423
0.246307938666186
0.24916514664047
0.253153471343767
0.250864880410519
0.17721081198967
0.255065756292723
0.249070792212331
0.248148888491639
0.171951569541921
0.253940896841127
0.182109705950555
0.173387431564153
0.240892586422962
0.250241756705316
0.248689430453498
0.249310603352462
0.240143559838445
0.255319123517523
0.170304017660225
0.169862506047921
0.251920869866552
0.242391347499223
0.246507667925665
0.251319011922433
0.254641821140808
0.252842700665124
0.174731957583423
0.245092446261441
0.241420960944542
0.244123799403345
0.245509116228749
0.255043315362595
0.165443977720814
0.254692921196977
0.251031043344799
0.251818011906611
0.249339653837498
0.172175489653083
0.249525175900525
0.172008586212823
0.171665309591306
0.246782774384715
0.247119476084414
0.25177978215045
0.249527032531597
0.24892324716405
0.245830226950246
0.25221702209899
0.241582438512871
0.250318389481191
0.251520110897421
0.251865040057199
0.245178725416253
0.246102972488445
0.244131322816619
0.258615800995834
0.246232480485033
0.242656451072808
0.250959658201369
0.182008338253618
0.245998290327838
0.254913957311716
0.248485197981792
0.250632761597836
0.252101415210105
0.180084632127634
0.246579067763961
0.250007476202307
0.250247827748293
0.17607626851744
0.251733542067752
0.243243613262378
0.2522745352997
0.243971310897058
0.177266505396138
0.257308969786342
0.243627616528344
0.254139728697743
0.251385996366072
0.248281345403429
0.24514031671238
0.246083284131782
0.243699330658876
0.247141091989712
0.257228710664836
0.167887627706375
0.247600504074465
0.174103739672572
0.246347850873084
0.0996161211138129
0.0253555891171908
0.0963671752845477
0.0974629927968094
0.0981883439282109
0.103882994212501
0.101011470731587
0.017365005906558
0.102606105580874
0.0993681842864261
0.0978483128226287
0.101376527419
0.099220137370007
0.0939547505469598
0.0930125903840693
0.0938832135986603
0.093849292519835
0.103251948510513
0.103265531707975
0.103966582890761
0.0950342784417168
0.103907230607923
0.0250916554864857
0.0968937603449983
0.101109956023298
0.100021017809041
0.0249041871261617
0.0298644981057896
0.0988346424542265
0.0959659307080147
0.0196014038788274
0.0952976546705828
0.105734179117934
0.0217258034964714
0.0242643387200428
0.100133271665916
0.021690581066457
0.102772317562622
0.0979018961103335
0.105825445614036
0.101905887990618
0.0237889522360554
0.10387430928983
0.105304391102608
0.0255672243414686
0.113697909284128
0.102084054914339
0.0878760825954169
0.0261980716043075
0.0107476219883885
0.0207597687477253
0.0271366768122438
0.0977862267227078
0.098875904556601
0.100551106299972
0.0289464057104538
0.107867317743205
0.0209509531461245
0.0289920854121048
0.0258333825996879
0.107555854654644
0.100154717911109
0.09697606099157
0.108009968230921
0.102242155758153
0.104133012402378
0.109088176921025
0.0951417444423756
0.0282184246763274
0.102366357226223
0.0205164825941616
0.101161712727481
0.0996915257466693
0.0276087147272485
0.102405141840405
0.0270508559114979
0.10205579129083
0.0267561317356307
0.104386214142274
0.0193391223849264
0.104720639000238
0.0325461452099419
0.0859699548525165
0.0288790005992674
0.0261022360680244
0.102941453290261
0.101753043312631
0.0995852976874243
0.0961604516914506
0.103517420204979
0.104271811008429
0.0245141989568854
0.0957018095472211
0.0162108099016361
0.0198279199834037
0.0984656228848999
0.016641777982976
0.105628014156075
0.109908156530397
0.0331120682850158
0.0232500558145824
0.0999318100048793
0.109072899821551
0.0243598574208999
0.104914692528159
0.101576251663381
0.0290633300245255
0.0209459197768156
0.0178865094170347
0.103875731103723
0.030072726707606
0.0209924261160078
0.103919211695363
0.108982152919943
0.105412642225112
0.0923268411023231
0.104405795863727
0.0257185656700769
0.100863822946084
0.0330257958679062
0.102687066904701
0.0166299772305704
0.0996349301389735
0.0245362215945008
0.0954213731478638
0.104772896880422
0.0984741872749974
0.101968021370325
0.0201149898839596
0.0250134084803544
0.024507718072045
0.100686907201033
0.0171951155823019
0.0209555292164752
0.0997388879409306
0.101429084999317
0.0223093599913891
0.0978919607824435
0.097163264430473
0.110745836463875
0.0265096171229353
0.0991493277024215
0.10328711158887
0.0245810920608072
0.0979899816405277
0.104850157906304
0.023304860795433
0.0961538043687308
0.0979842424650952
0.0253129601445556
0.0268228914120348
0.105620037650525
0.0296141771854324
0.100291082114582
0.0231928030091481
0.0286300826424275
0.0203763648976272
0.0283432888722205
0.0965098772420763
0.0946142968547291
0.0957582536138294
0.0296393563403949
0.0931162574809812
0.0955313999281684
0.096771355225368
0.0986539569418602
0.0294153908655001
0.0932950663953752
0.0949110599657441
0.0315135732914476
0.0288308307569517
0.0966394411854919
0.0262670957981549
0.0251869477833673
0.0912326479745101
0.0958326141709905
0.0955164604896113
0.103604568240523
0.0996090143469166
0.0951429317145266
0.100334988814919
0.108912146063229
0.106945929258769
0.0236083277093675
0.0169449042763068
0.0206765545135811
0.0360931688804365
0.0984414180842114
0.0199535120338388
0.0969285087226674
0.107451028354317
0.0224693436137438
0.0191059912339538
0.106486751231752
0.106660037069891
0.0932254342049974
0.0152527998832531
0.103266924128579
0.100945364178181
0.0245182948837638
0.10180211379845
0.0186324539785152
0.0246681955590486
0.104864087805566
0.0985121753651107
0.106565634125932
0.101597308228535
0.0875302170318298
0.0216900145997779
0.107389785292796
0.0372779424225277
0.0969721467175498
0.102481365498612
0.0270717699148067
0.101381071294019
0.102243834837553
0.0983577380638715
0.0949282290830002
0.100368715010869
0.0341254135491481
0.0332459261561794
0.105365345964299
0.0346682807561173
0.0875458079944782
0.106913988094144
0.100453763649901
0.0237590044999439
0.0995730740652533
0.0324980456738923
0.0230764416497513
0.103553147013653
0.0305290708914838
0.024732377001529
0.105992848023568
0.0297621618978882
0.0955982943796205
0.0974541471308179
0.0130815151922273
0.106577765905544
0.0256058602320957
0.0364054655822425
0.104122956738326
0.101601169075044
0.0910139270879599
0.0248793028058135
0.0298393936293623
0.102218847380865
0.101340921809404
0.102907913861462
0.0291666931403203
0.0462082761091927
0.0260838915966998
0.0546496153969892
0.0280394573793645
0.0344304219032342
0.0234702632587611
0.124783743062145
0.0192664266831261
0.0231344241394253
0.121593851932348
0.0268451990730752
0.018389840530012
0.0171002215682938
0.0144777295303013
0.0503214119738821
0.120799926206102
0.0226873647525785
0.0202728546139336
0.0309801178401234
0.13000500227373
0.0202805882146909
0.0567587070553962
0.0153407286337135
0.126607733823709
0.1221010676732
0.0266835324518599
0.0145575514124939
0.0489842254384483
0.0267466634480517
0.0243916153779914
0.133046777179255
0.0516213221227079
0.124850242231162
0.0243163065801511
0.0222312520185002
0.0238720700219128
0.0239382389626075
0.128977966863773
0.0270116799618934
0.018488052086955
0.0510269525657586
0.125336322425831
0.132259292181913
0.0208377580034766
0.0250160994564986
0.0502572695045154
0.0263076064878467
0.119706498549955
0.0323231713072501
0.0181545337385312
0.021075321934165
0.133020297319129
0.121496138344058
0.0245196636120132
0.127663103428482
0.125808956521694
0.12577327322306
0.118835340779645
0.118334423258153
0.0242183205354321
0.0239363574982662
0.130847421034079
0.0225311323205979
0.0526164393769092
0.0174977029338282
0.131120872809763
0.0383046357687921
0.0258321446822866
0.0256592542665659
0.121701479992247
0.0276876512231185
0.0273477276714506
0.0294357627977766
0.124848514063762
0.0233145602516689
0.0248482771347533
0.120326793587342
0.0214958872328965
0.0196938060528229
0.122942453282992
0.0317406203431544
0.0305897305147151
0.129366164382081
0.0546324444134296
0.0201157517952591
0.0270750993585057
0.0275537521443137
0.0337093248674135
0.0263255904035435
0.00192351837811055
0.0224685082594966
0.0193889637734484
-0.00560032912108055
0.128631282744632
0.121803736645521
0.0329601224867542
0.126623200375863
0.122457864798316
0.115880285180509
0.0296791256139892
0.121806682679488
0.125827328060952
0.0531311309641673
0.0268172379992471
0.022887723896428
0.0196164151449772
0.0531746164962195
0.0312051735979163
0.0409497411836766
0.127676316572664
0.033329757495835
0.0199599917054415
0.0229949257236336
0.129180150376831
0.126312113538643
0.134522598814081
0.118478858642231
-0.00478802175045249
0.0193021500031904
0.0444661347928359
0.0297916350274047
0.0272089935699372
0.0455547763891302
0.120056378498069
0.00462897814103207
0.034264269964644
0.015539809243906
0.0201956145162944
0.0263865890036939
0.124624044631309
0.0276331169709962
0.0234746820183058
0.00168178972965619
0.126255293517665
0.0193607775494454
0.0230972481900116
0.12089827960541
0.0176650524345765
0.0257034860816353
0.0223015304644748
0.117808916581654
0.0263618236106423
0.127470695337328
0.0169115932432275
0.123827079745171
0.0296572074408787
-0.00172737693627792
0.0216450688880498
0.0187826806264018
0.12516345331865
0.0289984907442064
0.0350538499802884
0.123073129253221
0.0261895804501442
0.0491134445003988
0.0202718540623071
0.119084304333576
0.0269749553577585
0.118010835884433
0.127309656915999
0.0276804310355695
0.0273378954683052
-0.00389469529886983
0.125003139679555
0.125758515440475
0.0568188709597474
0.023978280868388
0.0277374449654066
0.123518490223221
0.0277868632296838
0.0238287230759327
0.0244029064773769
0.0238831124067078
0.0314450262243583
0.0316897094648848
0.130638636253327
0.0318248623487402
0.0275171945319192
0.0185029129339181
0.0492439339295703
0.127611738720943
0.0269531672214983
0.0242137613856057
0.029188842410194
0.0254125157486975
0.0306931647279014
0.0160261596292468
0.0243728431124783
0.0333874275009673
0.0309090642214898
0.122222963780694
0.124318237729928
0.00203149145760346
0.0553429802613962
0.114587695876983
0.0283981137008287
0.0264144805454924
0.132141261004638
0.130729205460952
0.0154187371050974
0.0176682432227873
0.0240065433901325
0.0210132650622618
0.0310334156445564
0.124933698945773
0.0226349029387927
0.0256431515895262
0.0290569012434663
0.0300755833323436
0.0258760784805782
0.0290407162644081
0.0275671733405208
0.114610922252633
0.125767880927313
0.0280027258307531
0.0541867688233045
0.129802520113949
0.0482800460100819
0.0286219428981282
0.0164169710775327
0.018203261359036
0.049134907040146
0.0195812890310374
0.0191993959196247
0.0473534504527023
0.0289317580025719
0.0394741264943871
0.119577189236144
0.126350847911038
0.0220281459793261
0.0348478168545565
0.037933258600413
0.121644157411162
0.135321497002936
0.119494239899727
0.117358554476463
0.0213991414516163
0.0227075704486398
0.127939812657384
0.0195288684138437
0.129525248966804
0.0175319230344825
0.023685473367352
0.0267688604381106
0.02678510922833
0.0319494974615153
0.124661747615762
0.120557082022677
0.00161358351456104
0.0210451216175701
0.122643903166933
0.129727738104608
0.0207924468648596
0.130085265246645
0.132676312079617
0.127880451617317
0.0538883427022634
0.0189372700920715
0.0466077194791052
0.0252005839583732
0.0292038420465373
0.02698349363328
0.0260284355861306
0.122176337838191
0.0464471444094284
0.123269685501866
0.0262145999605443
0.0244626211613763
0.0246400319315385
0.0192064785921732
0.0251115204098019
0.120160817187808
0.0205447200111375
0.0245037804286017
-0.00428560798328773
0.118644804043617
0.0489657765590799
0.0242258666135443
-0.00400769784957313
0.0557305931337485
0.0175640908599205
0.0236919418044371
0.0304156180785439
0.0239610802545706
0.0200911080684054
0.124375226920029
0.127394267085799
-0.0127631480421361
0.0276352095252722
0.0255228816174255
0.118437815523001
0.0379975231542458
0.124071322770998
0.12231220743511
0.124496241986791
0.0179698787679946
0.0220874397764715
0.0169758528443444
0.123680874899073
0.130593952694489
0.0279777842454115
0.0555716693958045
0.0306336299187694
0.0294660632784695
0.11703172610856
0.122873185240596
0.121613568673577
0.0229808272093295
0.0215305679194824
0.0185187705271471
0.128797360508447
0.0296749405074572
0.0309000649299574
0.0244538810391903
0.0446901000140924
0.12141036894325
0.038000994342225
0.0243280822492215
0.0181875862048443
0.125252401751922
0.0421702327462406
0.0240928710274964
0.0305745770135109
0.0487541952205548
0.1254903244548
0.0267641800027618
0.0272859684822101
0.0227569203250753
0.0402869273539731
0.0121484421376843
0.0221308822475127
0.122414278159558
0.0318589481126011
0.0258062098119443
0.131113144494492
0.0233500821658969
0.0258095472813686
0.0319205283979278
0.0207810213044306
0.122840636305082
0.031532240695102
0.0259298532679885
0.130554602835053
0.115899346082796
0.0256686398610898
0.0267457407801973
0.0223459541291603
0.0253597259765568
0.0278206976113745
0.0421649074847726
0.0291615804761239
0.125724956996318
0.0549171863462584
-0.000352829863986915
0.117824895489579
0.0168724335407759
0.0164691176621399
0.127007695152578
0.12075382410459
0.0262901990791391
0.0203963016896774
0.138816454838471
0.0565910340016975
0.122114017879028
0.118059064580482
0.13226907947957
0.122817824202731
0.127275784367588
0.0248790907985901
0.0207952131045902
0.0528490272505989
0.0223462334684319
0.0190980749589784
0.0348388937101034
0.130020688077352
0.126937074025607
0.0321926152871825
0.0288352617604875
0.123391270749789
0.0489829558517983
0.123770317367694
0.126060293454162
0.0232602095355935
0.0282145545733482
0.123773509921994
0.0238222973252014
0.128555779492993
0.0204558213176198
0.132236499508954
0.125500360834083
0.0487981032233614
0.0540547691725735
0.0568668353619881
0.0336164252681209
0.124575281986791
0.126814784793193
0.0247685342193521
0.121816604192509
0.124862114672733
0.129886515982177
0.0340355709355713
0.0292692051924231
0.0371823492578047
0.130300955158154
0.0256850776005198
0.0257770999918696
0.0229088649831089
0.024620572796148
0.125898454146264
0.118042343426041
0.124033115744397
0.119270383622777
0.0221953880209994
0.0237200687081328
0.0274517258283053
0.0591832757256398
0.127465509708779
0.128912957993591
0.121423791818703
0.0224144489121429
0.0198094592027936
0.0182180266520789
0.0240682884551854
0.0254095020735135
0.031893294343291
0.126358384196809
0.0210854249517876
0.0247380252378453
0.0203777011563551
0.0230285885107679
0.0475540173814302
0.129001713107415
0.0325066070853652
0.0238958113803127
0.0193926020354043
0.0360216026392672
0.0434045873356262
-0.00191025954425275
0.0368211467201704
0.0266655062558443
0.12766394408282
0.0340739934882895
0.0272554457379994
0.0268126706278901
0.0277705753645795
0.0263181169407811
0.0279677976231417
0.0261167002238174
-0.00450350681363706
0.0352208182187008
0.028741863646076
0.0243866196362979
0.0307940120258484
0.02478683902873
0.0265936131462407
0.0281334718639823
0.0204917887964322
0.129056137104441
0.0221301853822113
0.0162285752813084
0.12483860178539
0.023330828401576
0.00598703737009777
0.0244175782724237
0.0210722985048959
0.0517493698067139
-0.000196041600690799
0.127696474287377
0.0207381431450084
0.026436016385194
0.0227840091465728
0.0462472860128429
0.0473116878498649
0.0230525990992995
0.113353976046096
0.128847016673643
0.0460972352009928
0.0324069754581722
0.0224583901082156
0.02721278578619
0.0322229289743957
0.0254837691077795
0.022199819036331
0.126426623583275
0.03289074389643
0.0214965066023949
0.0501726666107778
0.0209841667771797
0.0239530425135421
0.126630484942829
0.124062621516613
0.130019971672318
0.0272605708927336
0.0270784815116419
0.116152700160216
0.127057013127797
0.0585187989043301
0.039151145262174
0.0233499882622319
0.0268701838382623
