0.199226706796218
0.193583443952322
0.209763385095978
0.209195100444685
0.168659248516389
0.148548433151845
0.194983515998832
0.174827676745477
0.157566810207949
0.207891742592598
0.203506657104232
0.200147217362762
0.197035552164634
0.195181132988008
0.200346029498366
0.200575284342568
0.196231892225737
0.207920530053842
0.144729266645263
0.192382860884233
0.20744111805299
0.153483985932208
0.194964928623424
0.148877854471224
0.200493103198898
0.201218578880892
0.153430651976098
0.199114464989225
0.198535052277631
0.198618078492987
0.198906043575768
0.153070335420008
0.19937022087459
0.173568878999773
0.194440685711955
0.206474009139563
0.202457645658776
0.200817721125034
0.197836959682359
0.20079300793885
0.153478542136989
0.176662709887844
0.198982002746615
0.144588048130685
0.195289926359762
0.205939678944605
0.201971166596679
0.179580876674666
0.190970686799744
0.202838075085064
0.201815675446456
0.1787158699968
0.197695025311856
0.208065963349221
0.211789860348366
0.196094154614416
0.201802887164878
0.149415629686511
0.170782902469107
0.208314067222729
0.174430248138251
0.193211531988801
0.202241749944007
0.197791686208288
0.202989294084633
0.193002870786659
0.146806174640994
0.199030537123513
0.196911871883712
0.190079842775562
0.206826918351697
0.199415947406491
0.15419897346037
0.183217031565676
0.201486260264914
0.149631401179326
0.197550019437407
0.202853208945403
0.196077125586288
0.178489357149951
0.150171781305004
0.212354044601914
0.203899654496163
0.192740025037085
0.184999464664957
0.168949096452094
0.201020047047797
0.207825184235824
0.210445198361228
0.159347307341141
0.178262153070357
0.196206712912807
0.206346624330099
0.187315222370116
0.195222442877013
0.187942216957493
0.207052403891009
0.177750930327146
0.143704356802801
0.19570802447943
0.195115771157589
0.197599548154293
0.149572137300324
0.199731788490314
0.203090389004853
0.197114913486236
0.195409297680063
0.172588578534998
0.207577792465534
0.203502516373067
0.195475710315044
0.151242499598517
0.147241512943492
0.196451343119113
0.204690105409262
0.174940553349694
0.19234554757403
0.202912329724416
0.198178245853206
0.196159450662746
0.173255796782142
0.196262059237043
0.196585209747169
0.201109116824787
0.178481738206647
0.206788379781842
0.208967814121523
0.201752302462398
0.194665533809823
0.155014830321431
0.204675893789996
0.173138132482251
0.207529423413973
0.204635810023899
0.139790984391049
0.197097061335822
0.200115084250327
0.203615422585435
0.198287314034359
0.207475914782525
0.181338903177517
0.150313368143506
0.202923606520477
0.177157693038468
0.211520344429738
0.19435274266362
0.176389263901734
0.202164707861359
0.146046585159926
0.197461259368651
0.152441806113794
0.201359519294505
0.154145255536589
0.202572262191422
0.142570772826885
0.174316478886721
0.175819110962333
0.194163219641386
0.153640207052063
0.196932779908759
0.198246733767463
0.203950310734953
0.202575667826585
0.199747935776183
0.198433944149603
0.203779611606322
0.203313882059623
0.197438940476845
0.198893753050996
0.200372906913805
0.14735760272229
0.196976015352252
0.198765412727195
0.148397748434988
0.210091384348939
0.155450869540033
0.183054542826389
0.19900900005631
0.19821455861421
0.199686534269628
0.205744185648936
0.190400772202823
0.214134194957129
0.148700890141082
0.175256910935051
0.199242480081125
0.201352497989758
0.203471462174741
0.197386313657143
0.200460984741098
0.148654291278607
0.15018233509607
0.195308301794223
0.20019491575819
0.150313692928619
0.201749013551162
0.209255023568876
0.205520068791723
0.172562356273033
0.203770946136347
0.203681118691234
0.19430132323046
0.201298119220997
0.204250280972095
0.20197835056142
0.203556795746257
0.196402979416938
0.204072107738637
0.197071390634607
0.204249457866594
0.19904418775914
0.152904252167791
0.146139414470608
0.148319419155751
0.17604859836373
0.177681293790585
0.165653681053807
0.198644314590456
0.194748030445923
0.195112643957689
0.200003619801143
0.206271370131757
0.205885207174342
0.144959280994056
0.2015004500401
0.205002241369599
0.149219648526944
0.206788470851146
0.200980414025007
0.201354423152139
0.198304866142362
0.202527620826394
0.199351354749288
0.201460685490975
0.195683926036295
0.193287002443086
0.205726063155265
0.154482158520706
0.198190440456981
0.199085014280531
0.148833807768172
0.202866083404564
0.199121686709655
0.143384166426831
0.151461104222733
0.190360597141711
0.195116626740785
0.209529186985297
0.174614736934958
0.155379857369174
0.101780424236698
0.102331392471376
0.103166675018842
0.103867722161137
0.0947028735419464
0.100898247933602
0.100920468064579
0.103473046421288
0.0924928297491958
0.102697916227332
0.0995420779880888
0.0984846203567461
0.0953056500347958
0.0971699841819777
0.0930918897321545
0.114477102460002
0.096870701466971
0.0977971281997223
0.108395031519004
0.0934902920001423
0.0973429880949058
0.0994283535119029
0.0967390298599548
0.100375083887528
0.096085456008217
0.0984344740130895
0.0962965357897643
0.101829287239683
0.0896658683207776
0.101313350844899
0.105961662477851
0.101213729284767
0.101943765045156
0.0891362122987307
0.0987637256828833
0.0965725915041757
0.099642458928303
0.102718976489078
0.101375664166164
0.108984922904959
0.103111912876772
0.101613785611525
0.101385922381474
0.102007866162098
0.105764116550511
0.107950716470556
0.102194954317926
0.109636198653014
0.103316658204105
0.0922053692295049
0.0951024412735371
0.0967653359810001
0.0974853857358795
0.0974415646496794
0.101595162801839
0.108235722191018
0.0961072370428018
0.107507303348364
0.0959319446047808
0.101586814861977
0.0965294245625998
0.103322415572499
0.102860445503845
0.102434682231587
0.102651690833693
0.0962570574633563
0.0993950732374228
0.0933884352748378
0.0962826382550219
0.0989776791315552
0.0900869533099739
0.0938009695554942
0.0929760620929898
0.106132138933535
0.0937306356155769
0.0977544303106825
0.0969699286146131
0.0976050322935961
0.0994595237331012
0.094390812393479
0.111269856701354
0.0966719459827796
0.100624323797171
0.102772077872951
0.104129421221844
0.0996542362206636
0.103494030969848
0.112880819186366
0.0935487884680349
0.094272924893102
0.100831193697399
0.0998192226254645
0.0972324409733564
0.0998023183642997
0.0972594983070757
0.104233141670465
0.0952541448053473
0.100728744081382
0.100804880590016
0.102206608796807
0.100048963865559
0.102208292872911
0.108473068412065
0.106148494859659
0.0938500505902564
0.0928981537556384
0.09690224084775
0.0974357893041777
0.103735465824284
0.0963964563431694
0.0972890618065284
0.101240233949286
0.0971655126562479
0.0906708806933601
0.104095873218527
0.101380012383363
0.10148869773892
0.104266463096619
0.0996057240339787
0.0968817607740409
0.108228157647664
0.102772487808588
0.0829919779979517
0.0988797205265454
0.0924997823143365
0.100822185861893
0.104768266884578
0.101815784665279
0.103657448083494
0.0981316749398315
0.102141831698787
0.102118987262705
0.10399417131651
0.0998891304470271
0.110063131645037
0.0976985734995036
0.101671400546431
0.112438628400739
0.0990004356223987
0.094922227523689
0.0969463001295486
0.102950126400764
0.0880819779300511
0.0926751895627713
0.098721266757526
0.10213425527208
0.0983035616074413
0.0980887585839936
0.0964032783301118
0.106862548688462
0.0956251328432369
0.0907673885044697
0.0914758078770056
0.0965159200863265
0.0940722835308598
0.10745115061563
0.105974874606339
0.102311345702627
0.102707679215598
0.0972926661308344
0.100606677592041
0.106576085262934
0.0945382822558871
0.102170418380742
0.0976449588337038
0.104813281639903
0.107621859303099
0.0923837761132778
0.102038775070201
0.106171046044658
0.10362207068529
0.100066454046256
0.107222793095519
0.103601940198776
0.0977219491763561
0.103854357870349
0.0893030353189913
0.0964120453414868
0.100019044027323
0.0977934545899066
0.105298922914722
0.0967173916426422
0.10051583450363
0.0889768891330237
0.0965210771089191
0.0946141499697116
0.10021343868297
0.102678988717851
0.0979037277461956
0.0988839516166872
0.106555752633234
0.0929566145191779
0.100171648838668
0.108364427743582
0.106737336426075
0.108084585211747
0.0981233454016042
0.0974284153273794
0.101328346672395
0.0953902103778883
0.105261248509516
0.0949965318971469
0.099228424521445
0.101851737198856
0.107303134656343
0.0978004652328621
0.105173509586447
0.0984503660253281
0.100576349266902
0.10764822668093
0.0960931060284374
0.0973639735899635
0.093555902156927
0.0995062051945238
0.097393708412006
0.0989015729941601
0.105123075168527
0.0998418900197111
0.0995237463503878
0.103959565617682
0.10516992900456
0.0986260715604564
0.0998285829762604
0.0983879089183894
0.0941597495802902
0.100387643009068
0.100605958640733
0.10009835851895
0.110521195160455
0.0973086161313046
0.0941830896475047
0.0995463580530682
0.0981087584583376
0.103922960856918
0.0920346060373752
0.0983294301782254
0.102996215804656
0.109953557144679
0.104774362978302
0.104724618778388
0.10160981811792
0.108427173948961
0.104330955995998
0.0993789373851578
0.0952853154944135
0.1002858251178
0.101622464470918
0.105407951146403
0.0973611972928964
0.0935468597925492
0.00514231010692818
0.0530638105003877
0.0501020360090289
0.0445911186985959
4.63492958004927e-05
0.148020222673426
0.154768119180241
0.156461860042678
0.0437261001968447
0.0479571832525233
0.0532857245461943
0.00882658924030565
0.0526832157869387
0.0516262490775252
0.047523590302841
0.0488005988247728
0.0384978562034179
0.0554024366300837
0.150515427048227
0.0015966237818862
0.0533451199151468
-0.00295566118829425
0.00291891133013956
0.056228238492581
0.0427548231777032
0.147003036884714
0.0560310087919522
-0.00294351893230325
0.0501279431056428
0.151456716497482
0.0543785331296505
0.0518503283859546
0.0510924228791652
0.155833423546966
0.04951264320091
0.0502540404668656
0.0453702838720029
0.0513872673129142
0.048157167439161
0.158266462044477
-8.64092887006832e-05
-0.000787007448492943
0.0481322531041021
0.0469347986226541
0.0417512012928858
0.00917316088885858
0.0506118076383071
0.0530014411353882
0.047383731453008
0.149280995992233
0.0466862982828006
0.00499785561908849
0.00469280115460505
0.145315880004621
0.0494005382937848
0.00431210866567466
0.0555043255297396
0.0577749973697915
0.0498952092588915
0.00719380265059845
0.0518170890105212
0.0553828009912038
0.00523770338831951
0.0400241011036687
0.0496146220732093
0.0556189162909499
0.148029693606436
0.0528518844964583
0.0022272133645479
0.0492469164240656
0.146074630106765
-0.00501908843786047
0.15709538897347
0.148268647035123
0.146046217927587
0.0392996463914344
0.141372621471812
0.0522981112512878
0.0513207208468762
0.151076897648604
-0.00127043233365238
0.145300991211188
0.142608831451032
0.0437121792559116
0.0545884255769956
0.0537055536750457
0.154833305476353
-0.00351031863425855
0.00646472509501905
-0.00238601872368156
0.0499565852653266
0.0436120596281691
0.156575273414191
-0.00127939946561704
0.154729039946561
0.148112399086662
0.0499483041897221
0.149463175842638
0.0492304097074339
0.152050238589141
0.0480644430602742
0.050763317819702
0.0446979556199489
0.0575849216215288
0.048053335144899
-0.00334128410338464
0.0469616715622593
0.040152562764741
0.153326715132088
0.148234226684163
0.140465304891112
0.000799059137342135
-0.00489567581977229
0.0483900854232149
0.14487381654918
0.0517067943407402
-0.00199204503750776
0.0553963235947951
0.147887788758631
0.0461312735195552
0.0521361827217772
0.00422036262291333
0.150830229558393
0.0479165441011158
0.141282879985632
0.153586134757677
0.043935957344508
0.0446865498457575
0.0539985389567087
-0.00696981502168677
0.143284361669334
0.152627374311909
0.0485395350515415
0.0441861698246069
0.156439202324842
0.0483228994222087
0.049937239969399
0.0575095766261185
0.0540989085576862
0.0566199175317219
0.0557325948132197
0.0529520801133431
0.0544913676270156
0.0466874018432502
-0.0117949003894955
0.0506124802911147
0.0510803898548164
0.143856443758684
0.0495928855921236
-0.00688964470304038
0.151096573298088
0.0451136858319644
-0.00438749193409116
0.146891518096627
0.048770939807643
0.0503217901277199
0.152689419907912
0.059458422108367
0.158315702110501
0.15513027884798
0.051967655379241
0.0561351361293406
0.142260786377417
0.0596071537111627
0.148696025997298
0.0551062646848754
-0.0104621907749524
0.142567138712069
0.15463179469279
0.0462981002809419
0.0475724797177247
0.0436084701719382
0.0632487448478405
0.0429638565486685
0.0551817750340259
0.147985078631544
0.0541783077751237
0.0519674075281798
0.0523755985158298
-0.000665390738577472
0.00380091502709353
0.0558642257602832
0.0578837749253353
0.0453271601593351
0.000354511560945108
0.150498039706824
0.0524471857534669
0.0466863201193588
0.0444645537559842
0.14981799529548
-0.00186550146640131
0.155973740818544
0.0552640139678212
0.0492759536852616
0.0504818498389593
0.0460359189864923
0.0481320434861586
0.00664561852457923
0.0494103520931976
0.00317233144822968
-0.00563272995898726
0.00629198889004852
-0.00435048180687694
0.15087009208089
0.0563217381785643
0.0502475408630542
0.0505012798431184
-0.00710052573010924
0.0507752788394048
0.0577482245450561
0.04325876839452
0.0462597282301458
0.00373032251062947
0.0511154183633301
0.0496549833240084
0.0454181938600675
0.0530176763914529
0.0490139322632688
0.04919620840906
0.0540715235211098
-0.00257053639061422
0.000291508466617088
0.0573644454777055
0.155376065099448
-0.00633612962303403
0.0492710695825777
0.154010487802276
0.0455960525665381
0.0456613345703657
0.154362066026409
0.00372808564302016
0.149271037871709
0.147823109442544
0.045505642258504
0.0539129062587679
0.0555492849199745
0.155453795471475
0.0486882604908791
0.148453972173516
0.156115950788389
0.0591300047067406
0.148135466417826
0.146812158838893
0.141474275389556
0.0528834842422123
0.0467508561047953
-0.00674108484639597
0.0488897252968049
0.0502756289918038
0.0450698430269412
0.159256661361566
0.0614629759119006
0.0557133977666667
0.148356939734196
0.0527970302422784
0.0483718661854577
0.0466262660806168
0.15213634504086
0.153883821839006
0.0492959116805069
0.145455705468279
0.0624126071272562
0.0465692328751415
0.0501570157042389
0.000687121585525782
0.0484692611298347
0.153019928864245
0.150497500957767
0.00211998450727225
0.159675012714573
0.0463597708524413
0.0469146015275103
-0.00325979928717633
0.0384614222137462
0.000606535037168368
0.052199885431945
0.0409029668849213
0.053410285840421
0.156180781839462
0.150103459540593
0.00591589460522207
0.145434084624192
0.142661369331137
0.0469316780767698
0.0564956439804962
-0.000941472230791574
0.0444485363723681
0.051729784729657
0.143616865590836
0.0475837566202959
0.000395322768395346
0.0507877554002374
0.156282360537683
-0.00746064974897482
0.049403188629124
0.138362264247224
0.0515519047160201
0.139422997900831
0.00599365459036256
0.0455521685522177
0.148800819051351
-0.000894740565129325
0.0586042590224932
0.0446430833343597
0.0400381547422354
0.150574964567445
0.149662150483613
0.00471125690487659
0.00294945173656398
0.0539170003419836
0.048543797366146
0.0508477880611067
0.0494988456225946
0.152920002210839
0.0575805345555538
0.0484015011896264
0.149011655424785
0.159442276909756
0.0495412561948176
0.140026722158419
0.0389971144053966
0.15643664398701
0.15353942835266
0.155109147466376
0.0635930648896211
0.0474126472003047
0.000727918427946634
-0.0011824311218724
-0.000394393697500622
0.0548158457297583
0.00148822664631922
0.0530841156177767
0.0534064224893831
0.141526917274835
0.0462439757258359
-0.00551567584471563
0.152246026728003
0.142398678780986
0.141842657048095
0.0476355933675799
0.150290576348569
0.0457878327587508
0.153383736818372
-0.00399753932722799
-0.0102317341131836
0.0465001002644773
0.146081992996438
0.0417068359579793
0.157643391738148
-0.00181130022202401
0.0539580692163462
0.0541185385071142
0.0431388615194696
0.0459258859544326
-0.00350006710311397
0.160967662420811
0.141090826985623
0.0502586851081802
0.153465312098407
-0.00269383652948245
0.0462556172404564
0.04712982607561
0.15955633457223
0.150466658095819
0.0354722586307783
0.0556359222607647
-0.00202036134572086
-0.00424239756883242
0.0514814450903701
0.00218047181978082
-0.00445577170528817
0.162537466426282
0.0547148353453039
0.15597707313641
-0.00783359248097545
0.145762362289421
0.149188593852166
0.0514371865418478
0.149744810945731
0.145403719691904
0.0503120428772393
0.046802761507596
0.0609584196286653
0.156415707828031
0.147005036683459
0.151826647917908
0.150742904375002
0.0487897063996252
0.00159381121185524
0.0535830079503262
0.0512014612994364
0.146978836216451
0.0468234022890344
0.0508250947427456
0.142003496317286
0.0491677053778911
0.15299053838746
0.0570138748422139
8.96143443221009e-05
0.0448144344847599
0.0449933126619738
0.150531472072001
0.0389287044088896
0.00264460790128702
0.146385241433767
0.0586205399862335
0.0582484791112288
0.053756851182217
0.0527707542600037
0.151172561530953
0.0472453425510813
0.053480146045342
0.057138596574194
0.0453554484053118
0.00703794370336927
0.00126811102824386
0.142329362134804
0.0497091967800315
0.146528584957093
0.0506828497391991
0.14976840980753
0.0457161890335778
0.14175740089487
-0.007284804082575
0.0435628367924217
-0.00436776623126442
0.15316642325653
0.0474249807926439
0.0521425939713626
0.00694212348496416
0.15242559795459
0.00174465710239251
0.0503063231370049
-0.00129538230482246
0.0518047224248053
0.0541434205602212
0.000787309282903714
0.142508332831723
0.0504404433223468
0.0515354201419216
0.147080276743066
0.154979087373313
0.158590017644382
0.0448599438090164
0.155655741233712
-0.00505383902996351
0.0489108022638082
0.154445276151882
0.0455970510813806
0.0570864633497324
0.0625624379305609
0.15276319972618
0.149133991673508
0.00732439176007077
0.144683603881234
0.0529185542912384
-0.00567072047736851
-0.0040048743554245
0.0493180781994245
0.156828582269552
0.0552504358245922
0.14402576388411
0.052337289077443
0.0470232760932499
0.0498858553676155
0.16006436479332
0.152254385969565
0.047947007418478
0.0542842125108774
0.0364441186636759
-0.00614436521593089
0.150044973348461
0.0518317226506155
0.0403044516581839
0.0446137369132421
0.0536761392839317
0.00375103282678154
0.0514826331170491
0.0476685246340951
0.149204319578044
0.0510785023112702
0.0526477093138249
0.147873747584116
0.149258654087143
0.1465630664178
0.0434558224005958
-0.00108640225636621
0.052728771390828
0.15230616465401
-0.00746215704206924
0.0478266905123968
0.0478485056993529
0.0528305100499139
0.0419673428950978
0.0496115731118806
0.0601872175327749
0.00120498000127532
0.0427598980794487
0.055010911243751
0.00263750688476472
