0.0750124167321107
0.0843726128740369
0.0725535146229758
0.00723201324019794
0.071435767970335
0.00258275390810743
0.00119097776274677
-0.00522190735420302
0.0723192913661723
8.75656541536369e-06
0.0691574924196301
0.00889509281819821
-0.00125780977975612
0.0732530866668918
0.0665114479777942
0.0704230619013068
0.0738011905891131
0.0728407044672959
0.00092238313454809
0.0826377904809979
0.0726661903934546
0.00902927002202577
0.0764660629508456
0.0776298486606259
0.0794672655039668
0.0696837250957791
0.0724251788997646
0.0714073841474644
0.071988288620273
0.0770581547588422
0.00222897261243924
0.0778350471189716
0.0755017313248336
0.00845911893763415
0.00242007931260123
-0.00063032798459713
0.0789362929090964
0.0865546608217726
-0.00142524483661921
0.0734698489783307
-0.00355720973477267
-0.00543729962638228
0.0671766885138747
0.0774248442487264
0.0701155183414476
0.0750802667798455
0.0757611834334075
0.00788484208850918
0.00255401256192982
0.0707445913632398
0.0838415224863309
0.0809033173546531
-0.00143042514286816
-0.0101639100483913
0.0741020432836321
0.0895701191274619
0.0882208150162682
0.0742850157453285
0.00444543691877677
0.00585369619903611
0.0610301345521741
0.0775381470239157
0.0749791521487033
0.0757941104042795
0.0766929012124728
0.0867131931100728
0.0801465513155581
0.0676321063431787
0.0728109978838417
0.0684988493723595
0.0714691447025235
-0.00176441860091312
0.078992478663402
0.0732366911772316
0.0749539170937921
0.00643273462076783
0.0695844063844942
0.0053102642018662
0.0772257433183066
0.0836149674499934
0.0679724950484051
0.0687644398494393
0.0858182228943899
0.0698506817875725
0.0111408597931859
0.0706685119927304
0.0724059422886748
0.0666268525328964
0.0762397094034583
0.0757191940466996
0.0767800269429196
-0.00511026109645892
0.0746680928973657
0.0768578639032979
0.0663293011780283
0.0674326747369592
-0.00793952775392417
-0.00607383835042037
0.0729150209599504
0.0701906005086
0.0706854500684969
0.074999708724197
0.00676945714998541
-0.00423693654010432
0.0713828875784093
0.0833108386746012
0.0734826853583176
0.0757717791236022
-0.00369635027657844
0.0729066378826163
0.00219213225051193
0.0625569028730877
0.0692534704715069
0.0069183302676636
0.0726090024210003
0.0747928492177766
-0.00332061307264152
0.0788631600585546
0.0720739446811542
0.00425572563512248
0.0750840440555502
0.0748065504306639
0.0791835364684996
-0.00297465649471872
0.0695836117940162
0.0765883719858305
-0.00248462307542198
-0.00274155339677233
0.0740072882416551
0.0785050537799032
0.0735815575412512
-0.00488323576729952
-0.00669082941204444
-0.00438987314705774
0.0809194794804756
0.0710647031542245
-0.00265860166290546
-0.000758825101637078
0.0783912096689316
0.0869260915848568
0.0707310903407123
0.0733158728601499
0.0773732568358137
0.0801894128527427
0.0705768724525963
0.0816475511727159
0.0725709481045462
0.000141913399323527
0.08208689842662
0.0758165638794253
0.00518560661920877
0.0736668723030392
0.071771492217604
0.0806411007259085
-0.0045983415665948
-0.000902573103786199
-0.0054011087276849
0.0675088048293571
0.0812101184619495
0.0762064982421366
0.0775791521760801
0.0689032358324962
0.0846499239286144
0.0693364259298398
-0.00585434231978494
0.0767425878438538
0.0753816925826888
0.00216813271978253
0.083706618020042
0.0661631364744226
-0.00491286218835309
0.0748109701217284
0.00557801268513385
0.0755450438280634
0.000933275929111957
0.0766774946680254
0.00312076869568151
0.00286855795247638
-0.0022387459451304
0.00429779432118155
0.0758748690454625
0.0671629981021478
0.0742062774982671
0.0747385902767266
-0.0015411827853052
0.00500196391441155
0.0738772683550621
-0.00549955081321945
0.074470744627697
0.0730040486216515
0.0687581836883078
0.00102863896526692
0.0691701753827541
0.0800575200227926
0.0769185232394219
0.000311536059491984
0.000772548750440192
-0.00379462427419189
0.0761452976213568
0.0805746603712414
0.0768383330968654
0.00364906637877022
0.0715410011622701
-0.00377475652493765
0.0625644714096415
-0.00282490011977144
0.0780429790393437
0.00579704020497911
0.0718374585560516
0.00516953030730302
0.0856019695641279
0.0718631782302833
0.0835317515420215
0.00553062244031673
0.00166077681689994
-0.000718050053126654
0.069732696085197
0.0794670304303688
0.00992325382448792
0.0826530268642774
0.0701854589521094
0.065114263824233
0.075676592166567
0.0754651510811732
0.0744194919969078
0.0752819074932397
0.00254427933194983
0.0774435712318515
-0.00781693873796986
0.0849398974623825
0.07718420015755
0.0817987568888855
0.00308271478131294
0.0766491389368811
0.0706203479825095
-0.00190138688748765
0.082867646910336
0.0746238279841714
0.0814799045465386
0.0731128998200811
0.00406253522176178
0.0721759855041154
0.0716905791460642
0.0779516758094094
0.000186650618130914
0.0019125533460195
0.0755043255611772
0.0799256155627524
0.0730922184393184
0.0671036305011798
0.126240713286182
0.185500961284887
0.175281551413612
0.12419916904993
0.173594497044692
0.126530605014697
0.125687907755203
0.175521713429215
0.164482195260441
0.121190498188276
0.181440045034352
0.168911365292784
0.167260956068846
0.168192462920192
0.180726222198142
0.173546333357319
0.173647005365777
0.172559857050676
0.179514242440911
0.180229202607746
0.180010011303178
0.174408096846731
0.173999809430272
0.171253523597099
0.112944889246315
0.129947121792143
0.179575508397573
0.179715803755626
0.170017070867225
0.123178873347426
0.172748277191457
0.177273076611301
0.11954696399745
0.179983670873292
0.176871962918115
0.182956770310079
0.175037718950833
0.184471349479846
0.17096999116438
0.177993360326108
0.120228972687756
0.130085609088541
0.175201259786355
0.170450947645177
0.167967848095591
0.179822679211741
0.128852503466918
0.132750418383169
0.175448501379002
0.129242014953205
0.180556422176821
0.175920476037787
0.180678650832032
0.126356938722323
0.172767452549236
0.173701521996282
0.182364029178717
0.169454319146573
0.170624242159358
0.138259212040978
0.123682794070974
0.177989122589579
0.174017792773035
0.127714639527314
0.172015054039691
0.178299112856751
0.170253342890593
0.184940836833348
0.128803663918316
0.119134828982225
0.173229723096609
0.131136106392556
0.135162030836966
0.126839259150635
0.177269697440811
0.127284520925577
0.130260011077199
0.175351643409139
0.13701079005041
0.127358041430671
0.115274204387098
0.175527309739146
0.170985332129171
0.165926326513393
0.177675095923839
0.17959147099678
0.173706080559207
0.171938212876983
0.17360949667058
0.173567717675016
0.174883109618525
0.174721098238575
0.179208747824546
0.120959874632775
0.178015873066433
0.131560893644054
0.122365802618517
0.172980172070644
0.175716792208878
0.18589521704439
0.175715788425346
0.128521612898837
0.175080656311862
0.176971987696136
0.126582859933657
0.130395790672605
0.169302193729329
0.168863015284417
0.172218592593196
0.123001867258845
0.169770651462277
0.170265019541415
0.119092310132862
0.129322256871863
0.128480696084787
0.168317567631334
0.173225578292898
0.173616911470665
0.122116056148451
0.181699992756368
0.132572321581298
0.170348964783094
0.168937680860781
0.17822166837611
0.183310370522394
0.165222304429317
0.127350990722875
0.179840317292739
0.114920981444178
0.164902332420387
0.124318508958895
0.189210883616365
0.17255272984467
0.130953156407313
0.11506227900918
0.186034186136255
0.184228557027102
0.122498380102606
0.177730222616907
0.171582375057577
0.123893158650777
0.12650853249566
0.125271333291939
0.178134331815861
0.126492656850977
0.179630106217046
0.173980112095759
0.128526457601101
0.174417796609819
0.180254646329677
0.17055382083679
0.1778897129795
0.166890157674756
0.172973007867682
0.171900080043305
0.171171470828006
0.117089602390668
0.17454093787474
0.176119063225947
0.169465038466557
0.18076511386184
0.180709862197712
0.178995695475383
0.173906589824154
0.179332380256525
0.181908234770188
0.165781165392251
0.178335091761533
0.180405043593931
0.170437715829253
0.174552192357101
0.125760846183241
0.177363524684338
0.13043953556759
0.175636330600168
0.165338851874595
0.122631603480102
0.126133185582576
0.115645446727101
0.179615200806542
0.127696758815799
0.119722299301212
0.170109691063885
0.125413441709285
0.182330516681065
0.167124465551948
0.12381603370681
0.180781549071093
0.181278888885794
0.17640806416493
0.169565530534282
0.120547264560705
0.170189054270995
0.168115941203226
0.119403550119051
0.123101109845096
0.125418716968845
0.120268295489724
0.128041502319303
0.174324283306912
0.121491134559113
0.175961442240612
0.177256041258364
0.173637257853581
0.172542302625428
0.178954243049983
0.175881088238507
0.17605309090843
0.170978288362173
0.169713819132151
0.130206512128885
0.175417983328522
0.167023069576394
0.175964844901723
0.17677377178862
0.125526976525444
0.170585165028013
0.171124648073388
0.120466322701726
0.127269220763512
0.116760195356066
0.168390624434368
0.174779746538687
0.17168835424907
0.172563448276593
0.16914178708882
0.120157468791035
0.128194980811699
0.122966483837076
0.171872711564108
0.178414713145077
0.122047410485029
0.121634135918884
0.177294139749456
0.175993120516388
0.18102250580963
0.163944448608292
0.123781505190884
0.131770514110815
0.115320913599196
0.12962466218488
0.164271916318951
0.125789937151563
0.182689093162935
0.111965720298496
0.173592192400754
0.178630682288455
0.168446750511225
0.181270675356114
0.186740633342393
0.073771469582839
0.0326161922621667
0.081021463215431
0.0776185130339236
0.0811576205069315
0.0850243198194608
0.0724155390580489
0.150787571610666
0.103864209310076
0.149245158640745
0.152145605102292
0.0822773106979201
0.0984871029397053
0.0673739883201836
0.0971562669101643
0.0778205251453446
0.0200652278264932
0.0738967770517106
0.145514202527848
0.142593487578996
0.0134829380463191
0.0662303691084995
0.155616837818606
0.0781572409684474
0.146662382231554
0.0964026312859168
0.14864644177992
0.105091055577139
0.151112404256645
0.148791591809251
0.0774782713882965
0.0950526972863868
0.0748257877059609
0.123164662642218
0.0771471446140707
0.0193738265464953
0.10077803172335
0.154127691184319
0.146942761373954
0.149298057208783
0.0765529906659099
0.156397469282009
0.0290885151327855
0.10329618781141
0.0235104930855632
0.0743541740268837
0.157026800590315
0.151483656887438
0.145680193710718
0.0325580130856925
0.151226295691208
0.0707713459512558
0.148926543599579
0.094830266648135
0.0699002479122867
0.078570945419086
0.0971846734591456
0.149121063227831
0.0915807748816933
0.0683078574221745
0.157004447483652
0.143681473311584
0.15611468521816
0.156698388905231
0.153754224912669
0.158002439478458
0.144984101808336
0.103766627493711
0.0791884399370551
0.0182061005959974
0.0848885168290219
0.107297385927377
0.0260417435992871
0.14806301930843
0.149218093636671
0.143330697119118
0.0238726706306015
0.0189364153800452
0.155696573938598
0.107639686801545
0.152104812065794
0.104012950268994
0.153505763379743
0.0215985134863396
0.0994786070402334
0.155182680225074
0.0246146895996727
0.0787783271163415
0.095344374147298
0.150456132931861
0.0806673757380986
0.101935239682601
0.0673573915853119
0.111194943134512
0.150770475067731
0.102306182844822
0.078807754864681
0.101512252133206
0.0643239294133165
0.160259961048041
0.148350924507153
0.106855985013612
0.102039288589318
0.0900981615329295
0.026113414023556
0.0991217648420617
0.0642566729883051
0.104651943315486
0.161453380302626
0.0722951162792014
0.158456214852056
0.102755687071716
0.151455755155372
0.0893610481246007
0.148935526229165
0.0985388870343794
0.140667836280937
0.0228614686457809
0.0646777078233979
0.157437296032536
0.0714269096706869
0.0907312912867628
0.0942970065831157
0.0720512798331554
0.151073495057026
0.157234073430981
0.15120548883683
0.0777215305204197
0.073736965004597
0.102247888012466
0.144583239807975
0.0741609115306528
0.145551416247667
0.14818849490789
0.0747323975631475
0.0957426540887312
0.105857373543323
0.0204443816831025
0.154603403322574
0.0266445521640567
0.150099016674133
0.146951105633393
0.154848444043436
0.07630434900017
0.0274201116819216
0.103062427011063
0.073166595931912
0.0979682988529941
0.0772954194220425
0.0973623073828655
0.0949453379537129
0.0690891548542034
0.103135851415517
0.0257406713698539
0.140471853211288
0.0989359115851386
0.0976585873836207
0.149520907593898
0.0817721906528935
0.073177121916984
0.149269168367184
0.0701012267658143
0.0759038004188771
0.0672060340613884
0.0750944612405428
0.155228650002719
0.0754270590854258
0.0970464092636719
0.105967241364306
0.105230675937039
0.0752039786014911
0.143678318996928
0.0964636826626569
0.0919715493651286
0.109292106331679
0.150342547280526
0.0796002703498887
0.146524466894097
0.0277363835715921
0.143406574437369
0.0977796827286157
0.149081285391457
0.100527612663724
0.1466991562934
0.156257333319097
0.156470143361684
0.0851938427161805
0.105960681603273
0.075252379645506
0.0705216507497805
0.0941430719746122
0.020557177509293
0.136504578420242
0.0748900285093305
0.0789652302357513
0.0733684715778082
0.104153408983896
0.0767722575831584
0.0761574009772947
0.0695840321127545
0.0651765616160701
0.145589249559701
0.100580732911165
0.150475746058079
0.0747950058508735
0.0927104090892827
0.0998902290051057
0.0777307275520068
0.0753223101142471
0.0720505658977212
0.0244769339088949
0.156340563614051
0.15005742872872
0.15138008731924
0.0768672724016889
0.073522946465092
0.146323981356454
0.153272647262658
0.0224939137126926
0.145289698367597
0.0949723609506248
0.0781901138169135
0.100343106764151
0.0852410036324386
0.0719703557027525
0.0738356515924865
0.147214068583785
0.151582648390625
0.150020882258727
0.0771854412073116
0.0966085091234128
0.14719443302179
0.132183760639977
0.146307392242215
0.148556156967299
0.157167282219144
0.149507005208505
0.106900547406436
0.0272276939253475
0.100082976833808
0.0764004832019113
0.0723142246268659
0.0359219644393219
0.0965924864091037
0.0925492846569978
0.0748072546528276
0.145192442578068
0.150526570638487
0.108303592785928
0.0804129463914649
0.0652821037092744
0.0201093786072837
0.148891399379515
0.158528491607037
0.0960949646623192
0.0732420704742753
0.103103843237714
0.152586243430453
0.070995939543008
0.0349603945441715
0.151282183399567
0.0198469283977642
0.107216797235647
0.107916027096297
0.151722204529004
0.103333230676279
0.0718525932764309
0.151132639502224
0.151467136124819
0.153426585972714
0.0184171926833544
0.0984893574612045
0.152227291001908
0.152456046043421
0.0803574438237734
0.155793926268364
0.0713949410421999
0.142867303551051
0.0784075769947983
0.0767150125448869
0.0732051001601235
0.0795076439285756
0.0757409620429964
0.154433318864171
0.0754548276736266
0.148620402616327
0.0268393025716156
0.0783622815878786
0.0276210218884668
0.0283883346514044
0.148144012781347
0.0716000274908875
0.151719576813348
0.0881513228370733
0.137681269023121
0.0265384564072235
0.0776259095157855
0.151117046091318
0.0793712021482044
0.155304390015736
0.146596117296223
0.144364050932404
0.160497436286503
0.150411543775493
0.154265478277616
0.0710268818422506
0.0724656822705214
0.10014078997571
0.0741570277944665
0.0967921872873231
0.103001701103919
0.0811413010493823
0.107551250111001
0.0910773725070989
0.0311036580814053
0.146153321023955
0.0204466341859137
0.0756265562759415
0.0704957598955323
0.0961802719643956
0.14819036584814
0.14803172837697
0.0673779979467521
0.023875487737701
0.153351381584676
0.0257348929340153
0.151333784025843
0.0739793901066479
0.0760947361627868
0.0879119950555365
0.097423718322934
0.152689228524997
0.150158132765455
0.0235532292372936
0.152290683330998
0.100215928838161
0.147770323510124
0.0763704655447749
0.153181442196561
0.0255606533863292
0.0981264241248324
0.0701295687689289
0.151208915622699
0.14660786649208
0.145134976435688
0.153006796833347
0.143524027139914
0.150616611270711
0.0952014972055698
0.0991525400319942
0.0703403805025903
0.0726662050626427
0.160447748201056
0.0863859924877661
0.0674363953234514
0.154237883278252
0.139375950856341
0.148990414681738
0.072993299500981
0.147537599128819
0.151833454761679
0.0201005224846625
0.0732991632210164
0.0783948279112873
0.0706911101731532
0.15112439795265
0.151540647810558
0.153696949397505
0.0722578040123091
0.152658028672326
0.13475346130835
0.153405114153651
0.14151623815497
0.104200303363782
0.0931069442077265
0.070812656237241
0.0742890200520915
0.14938787710574
0.152614052112053
0.0823833501963216
0.0643526804362667
0.0779071974671601
0.0759072605394298
0.0794368602105689
0.119718311420273
0.104138504333089
0.0962390021425689
0.0986590654834431
0.0205628293626125
0.0852353370416351
0.102474718885234
0.147075979847473
0.0684700737991874
0.0785696722148867
0.0946773709515723
0.151691878686517
0.149161443560875
0.148100637516724
0.0982654917443745
0.143080213428789
0.0256359675679748
0.0753792060089379
0.0977583698898651
0.107998915959969
0.0684251144961259
0.144355433038864
0.0796440999352608
0.0951297912623523
0.0991108310765677
0.0998718824143222
0.104242193923459
0.0815865935616978
0.150361518600388
0.100480034823913
0.146248895956788
0.0185927490669467
0.1582844504283
0.153855407366171
0.075835032014626
0.147962866947298
0.147435921214712
0.0758799689662539
0.0713800652653209
0.0998960542083429
0.0982541915385992
0.100993483213823
0.0258489645387368
0.151320738305658
0.0757363177806759
0.154294037574464
0.100721314356045
0.0964349009341808
0.10177421040998
0.0937921474014563
0.070816563564971
0.0701885654804669
0.0718631471105881
0.098291292946665
0.0931152253519727
0.0849033054553088
0.0782436307264092
0.071492990759289
0.0997283403267189
0.0324119775681274
0.0943062556838574
0.107663330624073
0.155987625753475
0.15095684196385
0.156639561454156
0.0219221863971266
0.0902652772529285
0.0925065181515648
0.0999506053414322
0.0697936807546496
0.144501279370694
0.0775683636560373
0.0903417738468314
0.080327225649139
0.0704990039153449
0.0704641345531942
0.0770112590104842
0.0996464934968595
0.102085102000219
0.150432892449484
0.150451350213191
0.107025002505958
0.0757032274302781
0.10998252103743
0.0773735359199978
0.0812415482001187
0.071921443949167
0.105922487851285
0.157789002607138
0.0643243249585936
0.150542696745739
0.104720572262468
0.09672259487657
0.105791353775418
0.103294638002648
0.149485382288491
0.149730970989373
0.0242779737826505
0.0748323359170145
0.0743511439300735
0.10662035401368
0.145407402440298
0.0716298350523834
0.105455735938159
0.0276582460060455
0.133126235076275
0.150044990168402
0.0968510300524603
0.0962499806936721
0.0256599420511679
0.031123979426972
0.109548473073976
0.0941770645831342
0.0733414295462726
0.0792600901328503
0.155212768641687
