0.20299430787042
0.19648001063624
0.170116124173906
0.196156456767485
0.192943917024626
0.173232342003612
0.200878313684541
0.199318157742946
0.205512832528844
0.199803031840631
0.209463712529018
0.166952972648554
0.198068043930609
0.198067681241608
0.168326608387525
0.196112575630798
0.19586876849816
0.176004023257795
0.203530234337779
0.169486911377598
0.205230023123458
0.198378225738162
0.202285608925095
0.20099441382746
0.209085407346458
0.197870831950496
0.171943174541684
0.195495807858942
0.207845324246386
0.19608571554467
0.19902598374956
0.204599564265279
0.204274613182591
0.199234861865602
0.199747138872004
0.19749611738773
0.196408496044571
0.196732535509182
0.173183559908536
0.183064696265925
0.199170027867942
0.207594087050914
0.196755932247695
0.193293573750031
0.201782455231756
0.192573116672448
0.169827796907872
0.195890732751709
0.200697913864463
0.203643168023532
0.203592177146593
0.171634711419467
0.176346193388857
0.150277183714184
0.170307881518403
0.200138803025735
0.172591739892562
0.196337319514234
0.200339743925418
0.198226831931898
0.189736689359429
0.171044141411846
0.180579829849954
0.19407752655071
0.196347864589911
0.174251002204821
0.203024743417503
0.166244314559031
0.192221545676081
0.199112292612917
0.191922937334413
0.177927350584402
0.198826066284696
0.173736652420039
0.199263133218542
0.176777977037896
0.197791552988843
0.196435233036351
0.204183466236164
0.176477948584322
0.207042769988749
0.193195366810092
0.209923938804338
0.201967936584051
0.170853784316877
0.196056856682905
0.195324463881552
0.194452495477928
0.197490764851948
0.20674138591401
0.199569893101069
0.197220362867894
0.190666744970576
0.207966499926932
0.20431262778228
0.17454482921459
0.173483414044968
0.199787034956224
0.192336463023884
0.182242616260619
0.17063053114207
0.204198839326283
0.204973819131565
0.17892244717572
0.198992897168829
0.167478359865518
0.198431937499878
0.19950400430486
0.170865300829159
0.195721891659992
0.199238598295408
0.196149518207519
0.174429631608273
0.175547617399329
0.200682785439034
0.196818840609943
0.199366884952435
0.193669956400079
0.200623213518412
0.197530669374847
0.202381559452678
0.170114252754207
0.202201764986523
0.168618951717193
0.190601038172061
0.202066097378655
0.201637786524107
0.174241932826249
0.18772109378673
0.197446130654769
0.194129925804062
0.200371286221463
0.179542267894931
0.201230777960858
0.195111065636171
0.202701179589208
0.200404060728429
0.199190662872054
0.200457903942508
0.199450375953462
0.19001793794269
0.204402847841971
0.20440360580022
0.193692644171467
0.197086007872439
0.199571591561118
0.20263342017671
0.171993287199839
0.197478648703717
0.202596690086603
0.199240143264535
0.199439370543926
0.188572568443362
0.204331701192871
0.208378340697782
0.197937950644236
0.199827570199662
0.195499140528438
0.193797432015286
0.178092941112855
0.201059452791977
0.17421730924284
0.174376416328748
0.205807122431543
0.176531611517038
0.201647379040224
0.197663209003395
0.202397721429522
0.174251733345252
0.200844122977789
0.199331595476561
0.20179415950457
0.203020923998222
0.203248462227073
0.205824948422266
0.193865017907382
0.200438913444862
0.197077410315372
0.196041602433877
0.205245730179742
0.197807890320352
0.205027864002599
0.205128366815155
0.211120704165871
0.184253502044681
0.172349753199782
0.183700593354658
0.20062033220627
0.205765863768416
0.202552774539801
0.202359682811155
0.21048362742733
0.170613343972089
0.190781919232286
0.199424318552345
0.180338468187837
0.197502168443168
0.206419847523552
0.194181331231938
0.17493996261414
0.200184401049394
0.170850221302756
0.190387555735945
0.172847172624968
0.205062671804957
0.197018270468843
0.20757855970833
0.180008804793621
0.201560059297993
0.210581086139108
0.17350323891595
0.197281085145463
0.203464758645174
0.186474604467636
0.201153897255966
0.202717835330228
0.200556416637364
0.194356018829675
0.198237452667941
0.205186905681007
0.199903390393217
0.174139310313273
0.20521747165275
0.205484139127349
0.20549878841702
0.201275734975688
0.17300232027129
0.197942903891591
0.195300120236676
0.177275209212593
0.193529106861759
0.203025467965657
0.197065823458529
0.205212032143163
0.196045656193488
0.202039985739014
0.199530419822826
0.174435716226881
0.201086835067676
0.203987066106232
0.202054377935055
0.202326194560802
0.195924140981346
0.204714842878389
0.204370145367068
0.203851908544821
0.206679109560785
0.193469519331934
0.204770435461027
0.200217545347299
0.117997346452621
0.0766621656508431
0.127952544090935
0.130218416469598
0.178978117708387
0.0764588064371564
0.169299628678939
0.176023425456975
0.0787828943929155
0.174205249624911
0.129438903417171
0.182388282083247
0.1267280597541
0.124904547244443
0.0790393092228204
0.174597190102801
0.173338430055062
0.122703182701465
0.177803107630777
0.168442243906755
0.128444357752555
0.172432676946569
0.178360290519103
0.17056129649361
0.177815724763769
0.078421610343676
0.183085787782714
0.123413181113799
0.167836222486893
0.120850925803656
0.126235115017756
0.119499236610244
0.0630068995222249
0.0759582889690782
0.17427765636957
0.122026441552743
0.118454289279908
0.127069094715315
0.113536434894099
0.122507175058133
0.171621721225199
0.125389962241571
0.12979483198266
0.127392630999076
0.1291944250444
0.175634384596596
0.170028769231715
0.168954818211978
0.125204070939624
0.0795077037963843
0.173911432785457
0.114813963658264
0.123625243548276
0.119222086284882
0.125035891879677
0.173064886115156
0.170446436118037
0.179523954079635
0.0797248344903343
0.180350974952829
0.176594528767343
0.128948048734475
0.123457633619784
0.117966691164633
0.124773582435471
0.176795847148059
0.172700426913969
0.131835791900717
0.122618355781358
0.176189665123155
0.132457062472044
0.172861403030497
0.129604613623201
0.177364834834518
0.133533514427963
0.184568323492873
0.0708334485325054
0.12797105958502
0.172111521223965
0.126245812962407
0.068346451128269
0.177839781270607
0.18110687519317
0.126882041030869
0.178361467421807
0.173108381077201
0.126197859991402
0.133896471790492
0.116858075773581
0.0801146671420334
0.173928710860617
0.12445586057551
0.121852132910603
0.116404296175477
0.176665369445575
0.176320445573933
0.169605791804231
0.18157055396086
0.175646624789225
0.119490371884425
0.120803667318826
0.12718161792679
0.17809695130526
0.12497161929236
0.174116480084459
0.175434002259494
0.131834570079028
0.178946932980859
0.124523787181917
0.0720610336017252
0.172042033810031
0.170935199228785
0.121756782818186
0.0720207394264132
0.170887291899782
0.179372138511235
0.0736226409074878
0.167779067223734
0.130969368239236
0.164918784695066
0.121667346908592
0.0675917767136028
0.172496188340951
0.173127805818589
0.176235429287254
0.121728295015414
0.12632379036177
0.120708959373042
0.124890891743335
0.133303966355167
0.176223447126244
0.171879343067688
0.136172898462663
0.124809030639748
0.176990478417776
0.124107576831879
0.0766092084569616
0.179339177328585
0.185943025323524
0.164644321962197
0.169428461367625
0.171014862298074
0.0710657436402887
0.125191039157023
0.178490258734372
0.125406860006881
0.179546897351822
0.117047296704893
0.126677922972907
0.137327797010999
0.0810924768482263
0.171231157774624
0.13647365282063
0.126026403665345
0.0787806796185718
0.172910084915595
0.0758402050969184
0.16733943530728
0.127818099946388
0.121541537705925
0.161445280132464
0.0757115499581573
0.120133560060988
0.177163274278768
0.121871357773282
0.131163629776093
0.163747886208832
0.166269643517813
0.176481755484884
0.130083293239545
0.171124204809622
0.0858073975110826
0.0758878824784639
0.121044552810453
0.121009013918306
0.129065666981812
0.124891331654066
0.124273215393306
0.129872332443418
0.125449325421797
0.169416713423666
0.178390785923598
0.134129794023031
0.0760136562955429
0.129492974357029
0.179392622515215
0.126424313060129
0.125388090691485
0.125295584745525
0.123852766939142
0.177674849608781
0.127304597625662
0.124478751501103
0.0768813839764382
0.121725736601208
0.119958618926997
0.178945692835388
0.179708395551749
0.123540811640121
0.169929388933712
0.0797493704155148
0.16773114357333
0.124225462402835
0.075351323240254
0.116999634583155
0.166165843344003
0.133183945301376
0.132122101503915
0.17511680508835
0.0788078365152221
0.174136162267989
0.17030262289145
0.180559158050238
0.126940779822261
0.123028972872075
0.186363963740438
0.122398290864828
0.182957344230651
0.125304422828944
0.12260924789345
0.128824158464198
0.176684029165489
0.129101486150394
0.117782180880349
0.17374397882335
0.066467709806871
0.170209636659175
0.17414247705278
0.119679558287704
0.122999804146149
0.176589325052479
0.1260072028312
0.129869012587014
0.172882638061171
0.179349931940748
0.174912522998739
0.130647407895038
0.170339750559542
0.132414341871235
0.127306248876272
0.178477912842341
0.120206221901705
0.185154365947711
0.121603001389122
0.126703609060987
0.129457993566284
0.180928321767014
0.184126994007009
0.182634653263635
0.121523802401453
0.0386984468559659
0.0467664803703609
0.069659478111369
0.0530925428684353
0.0854024666486566
0.0248407399688413
0.0781921565015183
0.0721824008558113
0.0808405289108007
0.0270648689945399
0.0521706890700263
0.0664405058770891
0.0566650381123594
0.0750486412841066
0.0482357645870492
0.0489793729280264
0.0780776463636518
0.052266711039727
0.0746897089236641
0.0870937591999786
0.0486973418637771
0.0483789949236231
0.0501018573924989
0.0543090026028273
0.0801729477600167
0.0564561722537664
0.0867874843101553
0.075413959340261
0.0532881934034898
0.0789900429427913
0.0711668801820657
0.0458801741872456
0.0463069528498361
0.0719070305806776
0.0624277081145456
0.0493552980088647
0.0487646185837687
0.0482588790416149
0.06179514924764
0.0684814061276224
0.0770809684120592
0.0712866374172135
0.0749548724679661
0.0485051558987059
0.0701071289610217
0.0745792286495378
0.0454520002172088
0.0456049552155154
0.0666496288746104
0.0565597058964809
0.0312938064593192
0.0729671850003603
0.078702810730224
0.0812048141706615
0.06933935107826
0.0720261544633614
0.0484161877247994
0.0514205077320669
0.0269029815861399
0.0454296037045009
0.0744378724686323
0.0767456925375423
0.0737028356112884
0.0733521006351275
0.0455598370086101
0.0786052992409387
0.0682367481431404
0.0493184439087022
0.0726400788007195
0.0472773025077572
0.0568097650739038
0.0705115865795883
0.0578793248715051
0.0208988298325262
0.0831783835110762
0.0640315773407163
0.0494788863649164
0.0452919107463192
0.0686284159912201
0.049582575359296
0.0787055723557134
0.0705169937412672
0.0738917211414128
0.0487157420974217
0.047532086488363
0.0508477702149798
0.0554580733329325
0.0535168734135604
0.0871667184225751
0.0599788529559059
0.024784626670681
0.0457233082183969
0.0456077297962487
0.0787257717552204
0.0793870410326125
0.0511416218257027
0.0515518949993712
0.0223115751951591
0.0432869514128869
0.0735162953728842
0.0796938474466337
0.0710479252905472
0.0503645273093029
0.0441771924846615
0.0824341971548956
0.0702298731281517
0.0508308936593382
0.0801534731553946
0.0772124742445436
0.0525767446728132
0.0437739856918788
0.0535080565969201
0.0358711924793337
0.0745157762914326
0.0704769236248111
0.0445345935666103
0.0404955728527369
0.0455896407106108
0.0874624342819866
0.0720750506484573
0.0784425319717792
0.0420652934476038
0.0562634770086208
0.0734012889748619
0.0706217797859024
0.0496405062425171
0.0534569247949035
0.0672716103701418
0.0757723544586813
0.0726074816742884
0.0412144277137604
0.0461920540374973
0.0794015749621249
0.0533715197926634
0.0212264434024469
0.0489758808263903
0.0495248014019194
0.0251013916640399
0.0762816743233891
0.0727821001805856
0.0496309158138449
0.0411313403152908
0.0826384050584444
0.0269599267074261
0.048969195168071
0.0317138913473284
0.0757144440428339
0.0841647782589273
0.0222684604691003
0.0724163882563443
0.0534318580399736
0.0562163554599054
0.081653932759693
0.0650221502247626
0.0750472148780781
0.0758198870577976
0.072338320211266
0.0468011614576434
0.0866639548962508
0.0719518596474661
0.0446405798218114
0.053070415499366
0.0824192231549999
0.0470721592338277
0.0508583907512567
0.0724100437741086
0.0701122705013084
0.0605994334458251
0.0834826748581818
0.051462605001517
0.0828730210437263
0.0722156490995918
0.0476825577776335
0.053040934999429
0.049290715307514
0.071386464982831
0.0681504411603504
0.0194579132097296
0.0796949555955463
0.0260332776874247
0.0490657214499722
0.0892354642836989
0.0436417579669243
0.07303624309359
0.0750706857281106
0.0501064865301679
0.0687050722159381
0.0769888126072424
0.0777567318202986
0.0417854297263023
0.0417087242659025
0.0810079148364799
0.0498335810400368
0.0604851692340575
0.0576449602676996
0.0465552713017261
0.0434181783928562
0.0451584404774898
0.0773698309750479
0.0443500448914125
0.0650116905197405
0.0663402061663536
0.0739147613104831
0.0495610669880395
0.0753067117623048
0.0586035329846931
0.0785023090509555
0.0728572369565194
0.0692251758095989
0.0720496831850807
0.0564829839234299
0.0835032953324538
0.0538489650667687
0.0178682233210797
0.0817989409330086
0.0681272323921029
0.0490708626949227
0.0589249182458496
0.0595348912011293
0.0803473475970602
0.0769245011269976
0.0771293520039817
0.0725897879590963
0.0549427779834978
0.0779009423751817
0.0803927611952239
0.0561104371926634
0.0463943461206539
0.0515850504890543
0.0452124948517843
0.0746716735767662
0.0529128243205384
0.021634430171041
0.05951181185254
0.0468013452298129
0.0786126760665423
0.0730050848288699
0.0206460900280865
0.0765309618601069
0.0463922826813759
0.0735222590938213
0.0769264354483903
0.0780639027004101
0.0390211938732664
0.0533478061361214
0.0292442594742589
0.0746464916427393
0.0240334342462546
0.0771729037943673
0.0787029165109798
0.0765806661921555
0.0770682059289942
0.0790709792393432
0.0467847022634906
0.0527097557357267
0.0552859992519574
0.0773405495045798
0.0530809578374966
0.0567685137265551
0.0711865861182376
0.0730760979931741
0.0720614387097468
0.0766153442058221
0.0207541736914448
0.0447913628364255
0.0517752243767102
0.0785610114424408
0.04885813450665
0.0240483079465186
0.0412308908794335
0.0483798863809549
0.0756044728247641
0.0751821625166428
0.0244041869305222
0.0728515654326541
0.0463554018304168
0.0759263382166962
0.0473948810200535
0.0470870607333415
0.0741724783047484
0.0422762750870332
0.0506898559478563
0.0407333696831217
0.0456999265384887
0.0720395688176661
0.0526050775499039
0.0533155812924417
0.0437126201359962
0.0587585572586305
0.0776331344703453
0.0488412283355546
0.0498970638745279
0.0531100244045105
0.0485769718167905
0.0660993707061523
0.0189599683411172
0.0712644944641232
0.0659269830956356
0.0474458842191964
0.0841947596813669
0.0448548343224763
0.0458775294240861
0.0430254303804771
0.0777103426387033
0.0441850382959474
0.020221574499299
0.0726820931993783
0.0684435559005009
0.0562601120804426
0.079006247880219
0.045290118294735
0.0485463541126058
0.0330974672519363
0.0501603484454629
0.0667550297738488
0.0506084741344473
0.0453225383540891
0.0503771154155894
0.0615338285560313
0.0740348710438698
0.0732369542556874
0.0830379981892942
0.0490252736596613
0.0225937632256323
0.0488851548342107
0.0785187261448554
0.0483588483877494
0.0521392988519489
0.0651784163058211
0.0747952020938423
0.0755914829583582
0.0739008262042047
0.072346663439755
0.0735213480037574
0.0657002190450997
0.0507379537207595
0.0892074365641079
0.0723422261718332
0.0556244877490876
0.0207107494964565
0.0461573122233292
0.080241608345292
0.0818507020898922
0.0488679174974602
0.0529226667547426
0.0527003623823461
0.071880729672444
0.0706493989821966
0.053637279975018
0.0431682272065161
0.0677731984534029
0.0828682253973761
0.0509484969306977
0.0500115600388581
0.0573588290537815
0.0529100153463278
0.071086023607592
0.0511600583423841
0.074355850156235
0.0536872658766809
0.0754047403484081
0.0818967364748636
0.0754456728879867
0.0458550935475161
0.0458687359105734
0.0756746101418423
0.0831481721823433
0.0599267413280431
0.0430448674904818
0.0527096026021265
0.0725556286539838
0.0441251230804502
0.0490844926768956
0.0783939668593506
0.0584634494768674
0.0744603228061009
0.0544637247761632
0.0789660352795256
0.0537107878031268
0.078514744556566
0.0570843355192341
0.0648670283053221
0.0468828803037278
0.0798323141420248
0.0693348493169997
0.044236727897646
0.0495562942931907
0.0500352257917121
0.0745695315946647
0.0534128974038168
0.0566682760905529
0.0551830854268309
0.0679284037786653
0.0503607149822967
0.0763062733623653
0.058581448587329
0.0785979923518453
0.0518992336685337
0.0347755731972883
0.0469185421372987
0.08672078857468
0.0788874478351899
0.0529463623290677
0.0489842975423285
0.054285354283403
0.052644021083102
0.0511769850972764
0.0704614444945357
0.0588844657716978
0.0557738319109047
0.0434956720537053
0.0551678513167279
0.076048037273932
0.0563382058660446
0.0462349382566082
0.0417191139515989
0.0486911966449356
0.0509320565036997
0.0743843494758511
0.0265169883992652
0.0728056649937502
0.0518422342792486
0.0439015126766159
0.0609077400739905
0.0743433146359945
0.0523041181151439
0.025176096241098
0.0699504772678673
0.0453266339366186
0.0732826936081583
0.0774675253916881
0.0677815793725882
0.0498128180581602
0.0506845616388547
0.0725527258212851
0.0741927061859969
0.0774520015178235
0.0672597661440512
0.0778126910516058
0.0503175618264114
0.0769694899233447
0.0745416671476646
0.0764007227705153
0.0793166388707784
0.0721029783810664
0.0471494186296766
0.0597133298717691
0.0662999586651252
0.0697793399004706
0.0459680546342532
0.0524782403139081
0.0411253111544306
0.0818991583006795
0.0397027626295394
0.0734867070767226
0.0564835567672641
0.0765653383376489
0.0527409518014658
0.0459246536375548
0.0532366611239362
0.0743715739917218
0.0542598388429024
0.0687476204370577
0.0487953304543515
0.0710223310984768
0.0780147213527195
0.0480802050735306
0.0457533169658601
0.0510177620115248
0.0693440300092238
0.0765903194579335
0.0493142584565309
0.0709239159277393
0.052810621946785
0.0535943644558146
0.0458907326307506
0.0477061819093813
0.0461472649224619
0.0526038592859076
0.0753256328192727
0.0760222820591133
0.0352256114012123
0.0484274343238203
0.0468120903936855
0.0541765567932343
0.0811770791664
0.0481747238103013
0.0455663906205552
0.0280851900976452
0.0536507288313885
0.0458412852743212
0.0477351442612286
0.0503337386330477
0.0799024897485454
0.0434411384735192
0.0810166927611585
0.0531916624758195
0.0505428102193472
0.0751535014740118
0.0718750229395388
