0.15348971385956
0.147520411403784
0.144363752434974
0.148330481265074
0.15113112920236
0.158207872239928
0.159952688571618
0.145813222145409
0.14750587077821
0.145774393008648
0.148127554638914
0.1496611748073
0.143362866389074
0.159123795023607
0.151495354948374
0.14096907772795
0.156689533376897
0.148432067163891
0.15428308944147
0.150524674755951
0.146947981782834
0.145867418090099
0.141094376741551
0.15267498561969
0.140884392800602
0.146700719063473
0.156549046490766
0.144385420314333
0.152217879132227
0.142889301889146
0.149512766517766
0.149115164959211
0.15459846059012
0.158239041870165
0.14527215904575
0.148303408052106
0.148791752278357
0.14285436575196
0.153185084184973
0.151233914042271
0.151882644151182
0.147729137688909
0.150186315999917
0.154763749205446
0.148737631807345
0.147041701866968
0.146943100254882
0.15725491104122
0.152904068703615
0.152831594403197
0.152502909928527
0.160431287221399
0.155084151336904
0.150079009441434
0.155034533602614
0.143582348116717
0.160091769267285
0.153247108596722
0.145668648762202
0.15378078879887
0.150996588545649
0.147690940315741
0.143959031535522
0.154248474241336
0.155875296041426
0.149013435130744
0.152317518695587
0.153146863996515
0.155599869031125
0.15750145224658
0.161199270241751
0.152746544682393
0.148999443898326
0.146922822015847
0.143645648490025
0.152889966747398
0.158835520818148
0.146345119812873
0.149322943818833
0.153746213601629
0.150155051096023
0.146545912415865
0.147115403338581
0.14781775795635
0.145903070906342
0.151080127535177
0.146584412077195
0.148292555881993
0.141561641309459
0.142758506232763
0.148968494452094
0.146657859401907
0.156300434180035
0.154670495949109
0.148272273209585
0.156485118935683
0.148121454701752
0.154549635584119
0.152614730230676
0.1572194304895
0.137008831665012
0.141596309557378
0.152943191970662
0.146359447101655
0.158141510878795
0.153564018812567
0.157095957862067
0.147336511019224
0.148304049083684
0.151574862037009
0.155102826233506
0.151936931620605
0.150102877788671
0.150156718491283
0.152167769254876
0.155346471462084
0.160762261647309
0.14616087062267
0.155764651281407
0.154810318455617
0.144317336611914
0.155850939654307
0.145046414986317
0.149821224943151
0.150198936032268
0.153633906771776
0.153204868351849
0.147849102252145
0.14830834549906
0.154315582491373
0.147926302343191
0.158332523868226
0.149940283460381
0.146339807946902
0.150386706850534
0.138827431093435
0.151287318085502
0.144065197530107
0.156787454518367
0.152675343918236
0.141737931713518
0.145869106773
0.143321438340664
0.149436093678605
0.150976814784121
0.152471671142204
0.147183839294095
0.150802697833839
0.157238301361234
0.153440255170376
0.151256500977626
0.156343335440524
0.149743872832599
0.151715890645358
0.14720043930282
0.149173122131544
0.149503172659698
0.158419158162724
0.156227667074943
0.163546797730144
0.147184791844534
0.150468876043219
0.15344947289166
0.142280703233077
0.147308612933141
0.150693106858682
0.146650310275536
0.150422638348678
0.151595461653981
0.151171501637121
0.155935862244965
0.154909383566983
0.146967808794202
0.147528829745204
0.157926140681408
0.148415927521027
0.149938924644829
0.156123416239676
0.140939541688222
0.155472230398221
0.157046964848852
0.15517985341996
0.148197238306113
0.149450446941336
0.150054261077264
0.150890992880766
0.152374625802316
0.150005328434779
0.149739108586443
0.150978648004349
0.141455657623655
0.152089546382292
0.153477521528777
0.151763989909066
0.156970897714674
0.161959903965178
0.149629517212664
0.162015822424001
0.141850307766009
0.144411177709746
0.148784723736325
0.142833068969689
0.151353728853289
0.149834107653279
0.142176321570625
0.154671802147404
0.157132272375819
0.151474518481415
0.141796349111545
0.154219796627804
0.151315932060351
0.147499198579977
0.15560754000628
0.150245017802616
0.156303703587084
0.139197817430259
0.14774556213709
0.151516974717138
0.152475054893298
0.151239481369029
0.140644038883265
0.147784220858806
0.150504688883636
0.152570983624709
0.156611908075399
0.153403410123523
0.158285641458744
0.156262746393095
0.14893333950032
0.150248315348072
0.145498018645763
0.144549881195933
0.151812453422052
0.146795282669533
0.148179027585257
0.144308902737913
0.14324260234062
0.150566600089515
0.154322149696447
0.148097114836648
0.154229826902592
0.158329767510937
0.149862461300333
0.149418025861648
0.151896877234601
0.153517470673364
0.152024169499436
0.151994910623918
0.151200232916058
0.151475598797265
0.291834936213561
0.248993282039675
0.247159125606499
0.256532054473367
0.302508019814527
0.248688702544059
0.297793915092238
0.300417452221253
0.247284326898357
0.306455383574137
0.246039258292068
0.249119630934146
0.296280932407753
0.253527570082747
0.291495506755975
0.260259819362054
0.307972865237824
0.294013182817072
0.300457785830571
0.246402354519409
0.237691298401469
0.246976289887035
0.299787589781978
0.2451393656399
0.25347959916017
0.299682324615277
0.295298076805664
0.299031716583793
0.292718098035722
0.251208858250176
0.254784857780637
0.296635808771946
0.308737424318319
0.246836411488775
0.247606605195313
0.23554216375295
0.246718972321797
0.247806493954824
0.247622557828135
0.245947209498717
0.261050707975973
0.25292428939738
0.308731664708502
0.229959408812068
0.301818646113621
0.227635432030449
0.243374041837172
0.298938399505018
0.302750710841225
0.298118972392806
0.240702055837259
0.301525534157236
0.302967946825785
0.296374899198218
0.243666434478526
0.249851122310582
0.303598122659816
0.24834470353006
0.249945272424181
0.258754786095651
0.253842113040639
0.254332597196015
0.289899108664836
0.296946081900769
0.250870313899608
0.25109453258415
0.303426673164911
0.255306255652342
0.249016430860783
0.299313203547339
0.300288695354522
0.246446486121983
0.299198000494489
0.220777229158257
0.251693051070849
0.250100128746641
0.245302493794329
0.247024620556903
0.303121153112408
0.250688179147084
0.303066135452348
0.249044196443607
0.303668342838796
0.297209083206915
0.251613958094164
0.246935188072705
0.295596263143642
0.30176237235893
0.301023364682036
0.24407327689609
0.251017072928903
0.248840828500802
0.248816270986951
0.289103650941442
0.301652693026703
0.252209642102674
0.251817879691834
0.30248845873268
0.252516501993283
0.244803330090082
0.296361767835632
0.249857500711717
0.30220748604722
0.301933270640498
0.24829916172615
0.249212217678554
0.241336642042415
0.302533917771603
0.297254636208656
0.301978888573589
0.218556523944149
0.298250974311453
0.295336365127142
0.254233427390696
0.247768488725999
0.298897273576886
0.301988531034139
0.254915918804571
0.251314778090556
0.30384376851629
0.296217609199011
0.299996614103112
0.311466696534112
0.249538795333009
0.24254544503089
0.249255128570943
0.25075540138312
0.249053468878886
0.248509375855781
0.247750824823989
0.304115170968213
0.301468763920247
0.298341759693334
0.25141654920508
0.246912089613342
0.247690214810557
0.299614189862797
0.252873831695623
0.2997245364172
0.258364902081583
0.250937755599343
0.230535876603981
0.296257657473771
0.249932317318886
0.302387973725291
0.306051891387434
0.302377020352544
0.294415911512535
0.301374609101557
0.301300033799841
0.299590127274625
0.256593997909315
0.253814920136662
0.299821403292732
0.243882856680467
0.247857550846289
0.301006610478233
0.297201448484237
0.296657840716757
0.248859385381655
0.301809489333078
0.298694197171743
0.295776236383723
0.254011370550856
0.257686106419789
0.256085239074875
0.249491943786116
0.251075269884884
0.246102276440758
0.301400969405051
0.247750926213483
0.294283833894755
0.294424064822956
0.246950802297501
0.242117567642948
0.301819696302011
0.25313914589997
0.257134477629466
0.258387017056992
0.304691338241228
0.257606323429473
0.247545081076989
0.244984656567283
0.245880380005266
0.295042569226104
0.258183658254052
0.247048846881792
0.243926571750657
0.249674738325761
0.256930973855575
0.256587758481418
0.302128674550797
0.25401432210065
0.25802833521167
0.248955839887143
0.295644960837665
0.253331900031114
0.298946010598089
0.307741782093753
0.240893284848444
0.297791919888073
0.239538201947522
0.2903929471701
0.298288229417523
0.303002598647065
0.292047112705499
0.257503052625494
0.297014011834581
0.308878732537019
0.244757116815842
0.299570636358677
0.241466937085928
0.249667310769291
0.303006824805958
0.301905896408734
0.253421962672106
0.306563309044253
0.252345037343589
0.243366144783637
0.244043556217635
0.248427373642488
0.25437750250128
0.173843838035951
0.304031578235818
0.253806414006722
0.248700594181514
0.295839306492551
0.252941936980305
0.251669717842349
0.30432030836664
0.253470643444038
0.296467447643173
0.300647078522455
0.253378515716042
0.254977043097292
0.300580189057113
0.168175804951546
0.253187465624094
0.298069283779968
0.309813199186643
0.22513049483482
0.294512463681702
0.254463690271615
0.294342494334256
0.252793439245125
0.293702389545289
0.30206060714811
0.297036267396286
0.256252759272829
0.296660723192339
-0.00233477920113963
0.0529602027296271
0.00110152599792374
0.00254711833271996
0.0463408842499836
0.060612849666446
0.0494506258402862
0.00357124784281845
0.0568936136406697
0.0507448270987926
-0.00222192355628886
-0.00839956535120303
-0.000650213025434985
0.0583301127941193
-0.00611251354083577
-0.00469589880943403
-0.00712294774262838
0.0553284462386379
0.0070797738584908
0.0482002628750922
-0.00692558460585413
0.0478507180574006
0.0508853703851148
0.0542783220038973
0.0451276028172285
0.0547135235553388
-0.00168117657823567
-0.00433453968556475
-0.00221012931859999
0.059059561081789
0.049360015478654
0.0523794393549639
0.0498948386398997
0.0463094970944513
0.00823021229426901
-0.00340863824806229
0.000554447963845195
-0.00848069746381295
0.00507495792568866
0.00517729925353826
0.0464301233620484
-0.0062626631748968
0.0600377993385856
0.0561009377270801
0.0453794106856137
0.0546191033411994
0.0496613183871479
0.00463510232002767
0.0568213475592421
0.00380872781429041
0.0458340733645932
0.0503913170262884
0.054151183616587
0.00459513802819645
0.0467967827224711
0.00681191267755736
0.0490131484920133
-0.00120639857034382
0.0528371303803329
0.0520842981675732
0.000548789335063317
-0.00048185969184973
-0.000310640564667985
-0.012936581969608
-0.0094121598382211
0.000679598421099563
-0.00284665419844567
-0.000176615323694707
-0.00292592905548958
0.00297602414968526
0.00166248468727698
-0.000167312965691733
0.0062787151837966
-0.00655212576109713
0.00231551604975376
0.00928325060929256
-0.00165184580101849
0.000803966168854383
-0.00505010955606197
0.0516521589366731
0.0535969599162837
0.0559602869821372
-0.00503387710887576
5.13209720070624e-05
0.00584567852059581
0.00609375331817733
0.000650395705850734
-0.0047308745054338
0.0573564472875967
0.0494487690680105
-0.00210255629580347
0.00604431563823871
0.00394755177220359
0.054250081841852
-0.0157542115159101
-0.00248130571105112
0.0489175012368595
0.0556008905672285
0.000456642472275562
-0.00548230933288229
0.0517649048243193
-0.00287948394616294
0.0496513738909536
-0.00504586698065998
0.0499755365751363
0.0130020349862679
0.0505029846987535
-0.00465124592859156
-0.00582014085872293
0.0486075583719651
0.0480659003363496
0.0521394192582999
-0.00144160557543669
0.00909552961576861
0.00248782719766721
-0.00225276725867412
-0.00220713746028506
0.0584249212606727
0.0435472765576512
0.00474596173226198
0.0563084896245122
-0.00062283175196161
0.0474841897825797
-0.000484262384161931
-0.000690719764782399
0.0489410918552576
0.0426434172999775
-0.000869228762192913
0.0550428214006644
-0.00226608066286294
0.0420030317669416
-0.000579146229712248
-0.000261949036602357
-0.00151330855338597
-0.00300148960411258
0.0552814020251285
-0.000388343127547457
-0.0119714210679751
0.052441532298229
-0.00516096199368589
0.00650480183041598
0.0481404667465447
0.000415551500374683
0.008937092484304
0.00396013780281479
0.00144479735079282
0.0049351217672247
-0.00674592005413124
-0.00187985957316689
0.00560124785036159
-0.0046047242663678
-0.00484560636666431
-0.0111833678899418
0.0369795992580297
-0.00222069278695121
0.00307723943305924
0.005275625719584
-0.000162222886812346
0.00733555898493314
-0.00306969934317452
-0.00124316079697739
0.00165223902628194
0.0510333596433666
-0.00234995255996202
-0.000785964481714136
0.00489034892553998
0.0496083024990754
0.00444772735383784
-0.00142463274308176
0.00088158040975198
0.0608605978657816
-0.00111004313966612
0.00266748147519319
0.0492029053308903
0.0075250261168585
0.00288486471120144
0.00377992688795312
0.00235080480683532
-0.0005741608512444
-0.00383383844666928
-0.00256690376059054
-0.00149352061523726
-0.0048402963653297
-0.0030282223614233
0.000996642888881173
0.0564780296104501
0.0558362131312188
0.00353634466884582
0.0505450331182167
0.00569286616993579
0.00180888064810515
0.0463358972649906
0.00532336779267275
0.00281465788327348
3.52738898760083e-05
-0.000670967795882766
0.00389386416562047
0.0557512793832498
0.0472005551134928
0.0526517992906696
0.0421896898428162
0.0010873425265439
0.0483477868909151
0.0564785078999331
-2.03498967211128e-05
0.0646129701807772
-0.00330627600329689
0.00182914076921747
0.00390063120770967
0.0500622640013837
-0.00648265436927797
-0.00660600158725488
0.0581247910293018
-0.00138426856025271
0.051043480383433
-0.00150926786360638
-0.00304975524090791
0.0137696789516324
-0.00225015827907878
-0.0047744542369478
-0.00497175480949968
-0.00666325088067515
-0.00235034267206634
0.0533296131271615
-0.00354082336140033
0.0459843138723572
0.0071238390211631
0.00445758434751661
0.00738190388812701
-0.00236053584983559
-0.00471002814680196
0.00255443680860998
0.00515413951596435
0.0030167509811878
-0.00310041838299604
0.0369751572336574
0.0425503448687099
0.0433281510694934
0.000645639772416395
0.0429080513291856
0.041988234026828
0.00776514898638708
0.00235874730206572
0.00188012246727328
0.0470586625452822
0.00413192164061167
-0.00312273128075778
-0.00997535071165272
0.0411256017508772
0.0514236254106624
0.0527708527662779
0.00525376632649499
0.00650113841506352
0.00958346887981139
-0.00134406677926614
0.0565163714679993
0.0450710446030855
0.0503353667754355
0.0530245148934755
-0.00162580788227122
0.000980051593107237
0.0533972211834864
0.00433277147347047
0.0445572025874667
-0.00264920032490216
0.00366899412155188
0.0494686888404034
-0.00180382298355
-0.00473550375281582
0.00732167707774285
0.0410666053065849
-0.00329026167313437
-0.00110763068238488
0.048962997549638
-0.00504249297191945
0.0491381106992564
0.0594218707457926
-0.00234729349147125
-0.00607819557616721
-0.00135795077985614
0.048821329392185
0.00857329919563775
-0.00415548359407001
0.00543790534658352
0.0523915593299944
-0.000923049613418803
-0.00438848803257945
0.0030954065584994
0.0576283750765241
0.0128147428098319
0.0555585542008721
-0.00364551924874863
-0.00320287483189218
0.0419731842085822
0.0429881016314873
0.00761299232079763
0.0445428457508487
0.0568243531857707
-0.00260045704237077
0.00376243134254115
0.00712628740461863
0.0464503234667071
0.00826928453982669
0.00080218525220567
0.0579778601394082
-0.00668379721508853
7.67342819059883e-05
0.00396927957744876
0.00848144436138749
0.0572163245766854
-0.0015938853325662
0.00308299792454382
0.0452859589314989
0.00166505304418218
0.0541933375600955
0.0525725551686988
0.040793647420108
0.0511856128727642
0.00195484161846723
0.00625117128889576
0.00801129341950275
0.0508109656452171
-0.0103757267916123
0.000917811604658933
0.0556737799783861
0.043045014596467
0.00351158744975687
0.0518111916984302
0.00161121140661134
-0.00404841469300897
0.000750135423231499
-0.0060530714447686
-0.00447178966393273
0.0403376970576493
-0.00807229530824826
-0.00853153664479957
0.000508079611177174
0.0590795224604967
-0.000639098641206214
0.0586120277798368
0.0071186122954079
-0.00263815428269774
-0.00876847072169151
0.00256760826623768
0.00482745924533627
0.00367392841297402
0.052147134080615
0.0420578059530816
0.00361035283399266
0.049848688797421
0.0495363149718754
-0.000291335942449488
0.0529282446482917
0.0430322133644896
-0.00529343849251673
-0.0068969777864793
-0.00972221221834477
0.049860505408273
0.00815047363834718
0.0572841209611392
0.00264188006752344
0.00594943589964308
0.0436652252410253
0.0534374600465144
-0.00192271406134836
0.000614465112673861
0.0520540647443635
0.000873166297498139
-0.0046182579139671
0.0487178448852284
0.00467389696440693
0.0503779223656758
0.0502156015016777
0.00267949709625937
0.061311193211355
0.0420556754173259
0.0566606996359451
0.0053443092024306
0.0453503889062877
0.00372282363343349
-0.00344972175553577
-0.00212789898706457
0.0451828439512256
-0.00529113693848229
0.00128663020054872
-0.000845420106868354
0.0416447767595471
0.00123817773114393
0.0077239308262925
0.00316772734289783
-0.00140318499643549
0.0502897294627687
0.00730256375027546
0.0477672294623692
0.00155960536998465
0.00365363127154137
0.00451739248266767
0.0484317830613463
-0.00530963003212693
-0.00202649390212372
0.0538359235858041
0.0445502725966176
-0.000353411154751556
-0.00102912978392457
0.00605343937034265
-0.0076127595169716
0.0055040687360862
-0.00535727602685844
0.0501529107340827
0.0485640783902476
0.0545085926918416
-0.000441569302856527
0.046649972073593
0.00146748396308418
0.00118768491407402
0.0438018463186856
0.0475242213732706
-0.00699468048768027
0.0432107448246111
0.0424222728230241
-0.00298967018240891
0.0544482297707596
-0.00810614746414101
-0.00342565100092054
-0.000459296074670555
0.00534374691242591
0.0494006731307464
-0.00613386342384675
-0.00791393076259353
-0.00242882435540934
0.0549738865875723
-0.00209178478390471
0.00586481040753486
-0.00798195851847269
0.0536958145636099
-0.00258132988767717
0.0510419114673905
-0.000883200819724366
0.0529707978023077
0.0558726813582534
0.0439429377333522
0.0330430221951016
0.0498673794653337
-0.00280820031082558
-5.84433996650503e-05
-0.00862791602165442
0.00401856930219299
0.0454396148904138
-0.00218472844892382
0.0546597962061657
0.00279420434005349
0.00484316436367092
0.0084589138642083
0.0562422968813083
-0.00211190128848175
0.0107402648745847
0.051228806626967
0.00729370497232294
0.000714102808654839
0.0489889050919458
0.00591990990027697
0.0011009923080755
0.00262645133193973
-0.00446953133915861
-0.00152526380671697
0.0436886887223007
-0.00592838777650855
-0.00358826182748519
-0.00428324436624656
0.055027720570637
0.0442267742582092
0.00509787829421875
0.0567400845623867
-0.00337671729119972
0.00138932580967318
0.000953674669301975
0.0505485188488014
-0.00380637913485381
-0.00034688357375593
0.00310959416826697
0.000177800023536966
-0.00386517440281105
0.0469894816849113
0.0478859866096206
-0.00218602563695933
-0.00025694797510255
0.00328552589342914
0.000259106581921211
-0.00189119996561498
-0.00353263526351677
-0.00702414904452476
0.00236590351507488
0.00653028106666269
0.0468890309329501
0.0445777547306883
0.043555097223468
-0.00119203791142886
-0.000948452716182071
0.0485506984733498
-0.00529128133924919
