0.291656459582472
0.303573911866533
0.274372323306092
0.269542087168057
0.296333349528181
0.302411294110774
0.303760233155339
0.294663614697354
0.294688961018689
0.28195768311013
0.292084766577668
0.302114811992772
0.274522428355893
0.278445738191599
0.249684251168337
0.307070287801598
0.308780663179658
0.276382467530837
0.30047433415025
0.267102605282443
0.251036592546417
0.261958762732215
0.275359284850497
0.278729699974861
0.251227118010484
0.297918120496609
0.248935221977935
0.27517072827321
0.308646189401612
0.299385031950801
0.260541734134693
0.277290207856258
0.272775106115233
0.276392343019486
0.277763140961608
0.283294186042317
0.300551037655516
0.29621944132893
0.278276677335957
0.246019683967515
0.271541442101523
0.259074983913737
0.246389883270202
0.241258589849365
0.302071122824643
0.300759781467328
0.297603662765488
0.273533523887704
0.306388538516521
0.291220663881994
0.267103103089183
0.271273676196458
0.290006141567279
0.254732278782939
0.301703301550187
0.302794424031551
0.27774885855208
0.281801767117201
0.255336419542736
0.28146962493404
0.277386981650504
0.301085871564569
0.266001499005318
0.279050807843777
0.305774921450402
0.285796246079102
0.246763141093358
0.270707486106733
0.299549848057968
0.297086632332459
0.243676621044075
0.245363237772377
0.275038768132041
0.277397348168168
0.300832868522242
0.296758698196972
0.274908400552296
0.304269840690566
0.298501225990052
0.254901900340451
0.297494696529968
0.303939670201368
0.29582961519686
0.256237173675135
0.291867576921468
0.296752507100912
0.276562731281408
0.274068050469617
0.304071185640338
0.299271532203102
0.292898262815076
0.271949493053903
0.268873897931278
0.27489851085921
0.297394326962334
0.28864445024236
0.279400630953172
0.275344903592972
0.27850660305686
0.28026292388575
0.281540101729009
0.292378343713184
0.307934074073324
0.306678073861337
0.275361659888276
0.29003102369119
0.253598424212073
0.273586984869221
0.297852364917978
0.296670966733174
0.274577043083046
0.298577183695422
0.298632500802867
0.303233447548243
0.252194389806132
0.3104050111055
0.275638898079463
0.30900447772038
0.30166802690194
0.275466069996223
0.282048781378428
0.309680005175931
0.299916348962708
0.293149375846989
0.277046080721641
0.304436829676443
0.309387416942109
0.268032581842964
0.302679121368633
0.252334023647033
0.305282122692147
0.298513280157511
0.250175323790099
0.299103878189766
0.300793060846946
0.299145007894061
0.297133027905804
0.304791074904207
0.294243098564503
0.302998245389459
0.291851066121342
0.303649875866649
0.292918658963034
0.265020906472397
0.297715263380567
0.250086869666297
0.247261438136059
0.250627238788306
0.245660804069794
0.297466106598006
0.300586426204856
0.276100002147682
0.276615980925977
0.274952757335717
0.275242448685035
0.254356216650599
0.293126969058869
0.299064154039877
0.247865375126586
0.303354018284883
0.247242872026737
0.296252431893586
0.300018722199346
0.275493141257833
0.29546156078092
0.299282138518951
0.300573068880865
0.282922707114517
0.277383027319054
0.311412491783369
0.2802605077552
0.277687976339621
0.272809129069489
0.30837117316176
0.308510035122189
0.274430249592586
0.268922989896729
0.273896897552983
0.273761332285793
0.300934108132798
0.267814273553143
0.280279726099307
0.304554878597171
0.27238604322644
0.299142267215297
0.248567784002011
0.297368416043495
0.259948234390339
0.270487529134442
0.247599918213199
0.299022059004889
0.303412726236938
0.285509543141904
0.269203497124964
0.300913688384848
0.300622991301768
0.306495869407355
0.267139301472203
0.299786661042648
0.305495509477316
0.299418709433048
0.280274439770564
0.251931598286483
0.303154738673391
0.304942601404971
0.302682469062349
0.298846203461777
0.298809139384822
0.306620787826174
0.271005014343655
0.302968307727477
0.316514229607614
0.302070193869046
0.278788182847773
0.252589051649848
0.299160894374036
0.304057502215936
0.280620473887472
0.26495695698296
0.275642742278029
0.263395116516208
0.293896277308455
0.273645420539619
0.279006039663761
0.305052747197051
0.298865779699919
0.247190073366713
0.272554676324646
0.302425805002386
0.307672143917985
0.304774529181623
0.307067757768916
0.264400578138047
0.298524210784072
0.250896577842358
0.270330676147125
0.294848216225841
0.283097616041957
0.245334068935226
0.275115974209327
0.299949058216011
0.281853312441357
0.252354005991427
0.309455106056541
0.29775211524876
0.301214500404917
0.253512201976973
0.292786528573516
0.237717190815316
0.277365543004693
0.176377220488417
0.173924730370595
0.178003757976306
0.170230839315746
0.178518695856642
0.176863497122071
0.173862142229149
0.179990593259678
0.178136450192104
0.174753994002686
0.181232245392411
0.179044981515408
0.176412989017131
0.174620246034047
0.173328636363971
0.174068987893945
0.179544257491229
0.17171879926195
0.169912559961267
0.174485672829519
0.174452412181147
0.16637781015851
0.17758030256696
0.181401635148266
0.172728156350918
0.168877082148332
0.186260515938121
0.172162440307916
0.174992440212996
0.17953020100442
0.184002232435168
0.170797208520327
0.174789826636958
0.181803788533547
0.178572674477931
0.174998741447171
0.168661147127929
0.180210579345027
0.174965134643771
0.170713267596379
0.172423997518771
0.180469427148171
0.163945925280623
0.171943476248339
0.172263189608317
0.173925549140674
0.178941428506038
0.169680682564481
0.172714700319288
0.172557360059831
0.175808662895094
0.167399138648754
0.183134413183927
0.175091045586238
0.172276429203438
0.180659558591921
0.176043748190728
0.167617656633455
0.168047821271715
0.174568974442549
0.176694262958022
0.172899488002037
0.177173524532195
0.168168334613486
0.170946828637281
0.177273231448309
0.172403587379386
0.176521033159147
0.182162325601387
0.172581119916173
0.179423704509815
0.169440841672117
0.177832554219365
0.172813448335373
0.176614473676083
0.171792236946451
0.169896694932481
0.179834622974908
0.178800447821731
0.173573039140983
0.174884540407561
0.173983968322536
0.176502168481557
0.166567078016549
0.176479226139268
0.174048241187849
0.170630328184708
0.1721051410424
0.175223403105349
0.183142171883772
0.180313304944762
0.169911214443732
0.176007929434666
0.175537171951841
0.176107544743807
0.178374758537446
0.178280480175753
0.181447087007855
0.180748253949739
0.171083591531267
0.163624330020414
0.176233565629726
0.170564097864104
0.179214138250141
0.165864315225897
0.173852068754719
0.174855605949662
0.177808349295086
0.174999042594267
0.183844740597007
0.178687743763309
0.181130066329969
0.176312011050088
0.173413360994605
0.177530373542151
0.179377195224602
0.170884679389616
0.174274361780623
0.182074002614919
0.174864624137324
0.175719767592066
0.173736485616275
0.169781860990419
0.167238189735262
0.168818222198622
0.17381832596126
0.175110457164639
0.183486490375708
0.180126177563904
0.161980781158965
0.172601477070475
0.174263461085951
0.175611178556528
0.17790149553683
0.171375018835249
0.176477294850209
0.172244464130824
0.168126534476652
0.175522368767499
0.175722330322219
0.174653360711219
0.170073229667371
0.1698320525845
0.168621852180607
0.184029160117016
0.180517838251861
0.184200677233121
0.177874790820635
0.174275332538325
0.168562911757901
0.175504267588537
0.171626440500124
0.177123288790817
0.168848250096611
0.178377702285862
0.173041406211515
0.174479540284716
0.178250163080073
0.173177692842093
0.162089715544057
0.179703610640295
0.176524442698933
0.174408066764999
0.173863229158814
0.176130205163777
0.171892098001062
0.183534198439058
0.164711084896548
0.175431991975657
0.173376608926383
0.179349215426449
0.180457400632274
0.174029937984505
0.186167997162867
0.177594999511468
0.174906383276707
0.178198817787821
0.170392578804542
0.169950343920064
0.173208132767543
0.170882330523278
0.173654657005022
0.179016452039265
0.175290953926088
0.170066209751877
0.189122176415545
0.17610378802253
0.180626958962166
0.181329306484294
0.174537927814741
0.174964251600301
0.177992245485941
0.18240739304386
0.178209791776061
0.167833560597693
0.177903090635348
0.178018966804909
0.175851888923476
0.172012332738849
0.177587128395035
0.167960037189935
0.179016676228266
0.189102743766333
0.174016767713462
0.168501100049631
0.17051729051675
0.172706947039381
0.174536239879993
0.175734248073939
0.176010777182527
0.17369221056685
0.172271544765711
0.178233156552241
0.178207584947694
0.175908001399137
0.174675073471882
0.171668997350964
0.167691841146157
0.171369149213911
0.175021833977048
0.176440087186981
0.179313799259155
0.169936561172043
0.175350992641679
0.170741154810256
0.177723632286127
0.179870087397574
0.165981294453653
0.173215411804189
0.171247511874468
0.167300932398232
0.167972034428469
0.175595289109652
0.168451963755421
0.175833695315236
0.171697171014929
0.175321838124558
0.177287242005761
0.168709901974826
0.173477217928964
0.173979518691619
0.180443777228615
0.169677504117646
0.179554146891052
0.173246484802112
0.164777658772141
0.163209330911757
0.171288935948227
0.165304220240291
0.170701123992933
-0.00097568621145885
0.00104520920723804
0.00089256798864935
0.00496010005002774
-0.00810525633008257
0.0156621190613951
0.00504933558916256
-0.00735558675066527
0.0271298143334916
0.028741761293591
-0.000307354129046203
0.0248288577675724
0.00901470628648525
0.00540161635090673
0.00512888018627836
0.0269597478672473
-0.000568218259773076
0.00535249811054991
0.0268719815694323
0.00396857112907125
0.00723506151672538
-0.000128160192358583
-0.00933190796521597
0.033434298831704
-0.00341196526577215
-0.00026705528940442
0.0266592443890096
0.0287644121536374
0.00236752178807288
0.0239251621878397
0.00688318776392479
0.00450694018909775
-0.0083759357478602
0.023386204687348
0.00210109111576129
-0.000847686618501038
-0.00888512183476321
0.0208538369595797
0.0343989644549551
-0.00423956112203228
0.0348147248330182
-0.000462061228958017
0.000461549339346051
0.0225800281362748
0.00388817443874421
0.000313775568767251
0.029173095845678
-0.00973220164470026
-0.00511993419859935
0.0238811084811386
0.000776746384604223
-0.00546422372167707
-0.00153989995890438
0.00455727947139803
0.00312632947524293
0.00793243035371717
0.0335527927683647
0.000288697291416827
0.00674829987527831
-0.000122001577146403
-0.00251079162209261
0.0245990240513018
-0.00134126258192591
-0.00474079281777429
-0.00741154264846001
0.0264729791516309
0.00834029979448165
0.0218855872142196
0.026534764054949
0.000955572230491257
0.0330159869717857
0.00243351520611987
0.0281087693576185
0.00284252450544434
-0.00217323814011453
0.0270751764211308
0.0215990778223705
-0.00491369585308818
-0.000197782927307916
-0.00220688479497305
-0.00421881999635502
-0.00402367874455303
-0.00344314074058293
0.00327215388150334
-0.00611574838377328
0.0340166038131188
0.00342763863160345
-0.00481888362989422
-0.00639361403515623
-0.00107398792325216
-0.00122382109287547
4.44955355064356e-05
0.00656829868045822
-0.00122959523274983
0.00197670300102987
0.00418253876552902
-0.000638908497214604
2.62227741248672e-05
0.0248102903462346
0.0308681482643859
0.0329664309508214
0.0252185692850715
-0.000665514084174292
-0.00381943436885679
0.00302613238991284
0.027164013745069
-0.00329065277304704
0.0134156916167637
-0.00160148771834844
0.00173163310316358
0.00579237389341596
0.00594236683172529
0.0348619342137065
0.0181193290623763
0.00470546763418129
0.00434795522973299
0.00527638593434783
-0.000704029169478858
-0.00663288022048649
0.00294571191985672
-0.00059628161596585
0.002652086974103
0.00108737494989728
-0.00419003452069282
-0.00689029094413472
0.0306798003162174
0.000354313609592321
0.000771747232597853
-0.00535559563469966
-0.0012675779061538
-0.00311694958897902
-0.00357855792756227
-0.0064167906428801
-0.00678055759425692
0.0322319900525599
0.0059299253676895
0.0204531784582208
0.0300652701866432
0.0227494570621742
0.00957048233390521
0.0295663794211189
0.0292367275675141
-0.00208361476966443
-0.00925018016292552
0.0131503617104309
-0.0086141512013916
-0.00209844430175296
0.00353205190313598
0.000333972519817547
-0.000477212151014094
-0.00188225260730378
-0.00387628950387943
0.00484945214965363
0.0284193430495458
0.00162180811020822
0.00563858659004749
0.0180871870549338
0.0157312036054544
-0.000653745191084969
0.0176816991805279
-0.0014632305333596
0.00691688382313988
0.0214299888507427
0.0264812936462523
0.0248527689407822
-0.0056090889625597
0.0316400618177971
0.000184817057853822
0.000303602911630207
0.0258288606271638
0.032467332971203
0.00121919388757108
0.00441070689674002
-0.00269132932590979
0.00430812097322047
0.0240141803596117
0.00549844600555721
0.00488272579462356
0.001010689186476
-0.00124039664646134
0.025450746515313
-0.000468084532422301
0.02343677225532
0.0227128815486443
0.0052360595858413
0.0229582551619106
-0.0110767071427019
0.00111176102071163
0.00431538828192891
0.0262396938674538
0.00697110903602119
0.0145885693250306
0.00641059937327007
0.00549801559267326
0.0303588970399634
0.0291342827696019
-0.00477608544982619
0.0047129173676984
-0.00694447668621931
0.00435245319717856
0.0255437368725672
0.0287761569715433
0.0218468957229449
0.00609838477370819
-0.000191471676270875
0.0346413826646809
-0.00158929701674011
-0.0122659008690242
0.000443704717842025
-0.000497505925596586
-0.00153780548443007
-0.00891338098089444
-0.00117822714833398
0.0013376975541397
0.0197830504981033
0.00141564294694818
-0.00122894382506964
0.0222787626294127
0.00369177443227943
0.0231033444659494
0.0204274367970163
0.00296890707500292
-0.00622622235745085
-0.00466122545643968
0.012867232308746
0.024938528515567
-0.00441809578126866
-0.00145669228020988
0.00525345206945976
0.0023665289870985
-0.00104628984336135
0.00127976652675
0.000327867495420495
0.00094418404085774
0.0244499901244446
0.023655662539076
-0.000863289973138518
0.00152279558900726
0.00936691301347285
0.0247689907617415
0.00570077657044108
-0.00866155283875197
0.00371353894643156
-0.00886499552754594
0.0284391594271935
0.00198474388052266
0.00556885256806006
0.0274495869815817
-0.00243138888879452
-0.0112566083877011
0.0225474358777056
-0.000126866597336893
0.0289620198952836
0.0169014245498544
-0.00632432909421081
-0.00695386045370251
0.000485907850149629
0.00434027581670282
0.0194731135689434
-0.00251247423298676
0.017834213762914
-0.000738227748237986
0.00424789638922093
-0.00109548636812373
-0.00338426488892262
0.0350280582508947
0.00572993999098958
0.0220970531211187
0.00435667947401381
0.00301373119993579
0.00188028639044634
0.0313879161241801
-0.00614141663200383
-0.00267310062278592
-0.00419998069092892
0.0229797468639809
0.024390714414244
0.00238892792038121
0.00369530230995718
-0.00384961160691319
-0.00700880568891117
0.0061057610922871
-0.0088470866422057
0.00579356864507551
-0.00457950143271911
-0.00273378822475658
-0.00917037116102356
0.0254951879513864
-0.00306353212243186
0.0154432297086165
-0.000337859461394957
-0.00252787519835968
-0.00278404232006385
0.018551666924249
0.0246336476511249
0.000241358966853689
0.0281465487478419
-0.000503558537950507
0.00572451531699301
-0.00243794827835434
-0.0144170619630336
0.00544081759354305
-0.000306203446668168
0.00119983979888508
0.00605067569316967
0.028399048047185
0.0190449432676467
-0.00513561355920502
0.00487887631380372
-0.00468640021180591
0.0311297118749828
0.0279246810013933
-0.00207169264231266
0.00316789805481418
0.00752232773414689
-0.00101581625453244
0.00294345348212806
0.00550335176010704
0.0245780275841518
0.00535218639053028
0.00154673928222279
-0.00332490678576977
0.00174821395965583
0.00233921163280863
0.00800754793011053
0.00279759186311247
-0.00725459756397109
-0.00911972386593666
0.0280999323593938
-0.00283393325973109
3.63321574504215e-05
-3.99274058925608e-05
0.00749737556891756
0.000464863107250029
-0.00586797729907188
0.00117299068949483
-0.00224380401257585
-0.00640451422722554
-0.00684355375176053
-0.00344600784890249
0.00540091138747125
0.005022510231151
0.00524026780815406
0.0269397306961861
-0.00201671452541488
0.0297009604619619
0.00157149575340198
-0.0103316787722143
0.00606160514075354
0.0236500080880472
0.021747294677277
0.0309569694741065
-0.00134528839662589
-0.0026290785451856
0.0188168519119184
0.00586895235468196
0.0201997427304103
0.00183123131482015
0.000405949076990845
-0.011218853214106
-0.00262203375523558
0.0261487820318484
0.0111195362469833
0.00489457988174956
0.00161074730786268
0.0281337226209374
0.00324716826296352
0.00250746513558346
0.00067521050765787
0.0217803997958199
-0.0134964029825701
0.000985292650825432
-0.00323001720536712
-0.0022007168563857
-0.0066583679815528
0.00498334393532244
0.00564814799393699
0.00283978481220267
0.0228323991966279
0.0130796828427172
-0.000421995646474325
0.0202967700387791
0.00667436151206921
-0.00465278581173651
0.00109568222134439
-0.00468132458053858
0.00736298976484452
0.00519325221756642
0.000375647557906304
0.00268433953483586
-0.000276795620507688
-0.0027432985993627
0.00497668589581325
0.00371146275234865
0.000506203560108192
0.0067503040040011
0.021525154848238
0.00047903374525544
0.0257316921051787
0.000801675284463393
0.0238366448953179
-0.00279965521002579
0.0012965534654385
0.000857445332957237
0.00909998039005588
0.0230182652793483
0.00563792362253605
0.0217376678001988
0.00301655307638908
0.0023021036974851
-0.00467318700939731
0.0169731772353863
0.00201037664848157
-0.000173077090396416
-0.000849646816836732
-0.00152212063838429
0.00224367453679346
0.00325765292274768
0.00436379128712178
-0.00215736809192452
0.0327709894409535
-0.000523865185632675
-0.00736486053691074
-6.41287750662201e-05
0.0282235383751369
-0.00226547105586061
0.0252755774313879
0.0275837468698543
0.00317908944754835
0.0185117051761617
-0.0100726119815622
0.00240110255669421
0.000101671550014161
0.0240953177494011
-0.0068591250748202
0.0292275425965869
0.00885922350411606
0.00193437904381147
0.00311342113773127
-0.0007443452297727
-0.0025756048517722
-0.00157719939624458
-0.00195758720258701
0.00676603565025357
0.0173023862120545
-0.01140015112073
0.022614855151731
0.00514058056869437
-0.00496427480444938
-0.00497931060541416
0.0363918620764985
-0.00464308162162123
-0.00279361374000358
0.00218435984024696
-0.00378791307809522
-0.00141715005987485
-0.00190694996548069
-0.00102820522861938
0.00227481576560077
0.00226353975319899
-0.00202925988336174
0.0234804180620308
-0.00101206518328065
0.028679676495943
0.0246238155522304
-0.00442399219190353
0.0364182362257762
-0.00177540412448251
-0.00217958561300174
0.0167466766642267
0.000906688364323419
0.0263390188793784
-0.00917033772106389
0.00134676473594767
0.000835512324138011
-0.00280241392319674
-0.0042848140859336
-0.00722165193865527
0.0329281219182174
0.0318544257756785
0.0275195000833573
0.0254431283724565
0.00294720699067441
0.00521032659699875
-0.00401554657703233
0.0207692070980969
0.0247094349646138
0.0286031641950482
0.00303629038129236
0.0291541117420409
-0.00498027682292151
-0.0101932831934267
0.0229765514546127
0.00351070731487881
0.0114003658143638
-0.0048153118165293
0.00742962171024268
-0.000793785254118114
0.0229119610604802
-0.00550501499136479
