0.205817282830466
0.208254264978741
0.199578664230872
0.206709142044673
0.205768449757734
0.193498513367257
0.195635525323693
0.207923264337044
0.19854580461204
0.197353265592276
0.198569929884306
0.196920622951474
0.201135476994097
0.191829790221288
0.201979007716781
0.203668209356709
0.20333926270437
0.203593571224389
0.190060761686573
0.195297817480224
0.20182992610508
0.200082997967903
0.195582347165778
0.195972789591331
0.195505812704709
0.204428785173582
0.198424964060579
0.20306134328188
0.206761686585826
0.200605369087134
0.195750024293703
0.195909303255841
0.188807573707141
0.197228508194342
0.198979528365399
0.194982967368482
0.195008568051805
0.197928247744739
0.195795005335275
0.193221340540096
0.197536736163279
0.207888239391725
0.199674550139814
0.191515361339499
0.201176920995783
0.202695035975948
0.197719935424005
0.195467063139661
0.203221337626031
0.152931170066982
0.153339613727943
0.199867643912601
0.204880196681952
0.196921545898002
0.206115888184909
0.196383817241925
0.198667371007448
0.197464391436737
0.189610502601196
0.198599305605404
0.195219961895891
0.198300593342305
0.200881768119836
0.19048830617455
0.204245396048855
0.197998296114032
0.195187940796885
0.193941010526924
0.199804354906805
0.205324635865774
0.202862688951575
0.201877710017796
0.198965504026712
0.208198065372373
0.137712326667334
0.193368337195764
0.204548123010752
0.201603801496302
0.187492330591434
0.195629387486814
0.20450230615814
0.193742257875043
0.202255956351144
0.192680165301009
0.201091958369187
0.196228407685122
0.202274036379831
0.195756871517727
0.19756449543336
0.201887742994409
0.205580486910392
0.143473803453355
0.194110776765577
0.195631271399632
0.154248547985058
0.204437199189544
0.201053361034885
0.195532828515004
0.195462557037182
0.196319759668536
0.193871836253381
0.192668110791877
0.152771358014167
0.208971030777556
0.194789728761838
0.191808903418846
0.198147571221675
0.202055294510674
0.196696080893494
0.201830983049921
0.200037706716578
0.204983168438202
0.207153130170454
0.201970128413592
0.206843148210569
0.150661770575856
0.208395846742118
0.199452498717165
0.198741548272891
0.202258850333716
0.1961206054552
0.197315674861533
0.201460736140943
0.203937315077822
0.201046959572917
0.200543560980172
0.206982136281707
0.201406262013716
0.192619722103613
0.196430960971272
0.201675647947722
0.194782941856614
0.187551642424621
0.20104392121931
0.195992996381541
0.199118216889375
0.193079292355346
0.202347439682842
0.190341016666831
0.201407140096123
0.196299031793975
0.19609413073905
0.204086580803447
0.199968054816433
0.201065313858888
0.196304011250905
0.205995817410734
0.200871052192581
0.208402544005007
0.198309390897912
0.205991593004713
0.200112914291368
0.198020950682586
0.199333422878043
0.190982040707739
0.200518531104221
0.191226926932612
0.203414102412444
0.21520665279948
0.200026534090497
0.205831087421562
0.208480382924707
0.194299584931294
0.200849991005024
0.199159175763822
0.199814560688073
0.204965174242327
0.194667727948861
0.202221745616456
0.156604898115798
0.211359814442236
0.195124825786672
0.198818128102435
0.199562262645382
0.203336029725129
0.145506690191143
0.196352104465041
0.200795220098601
0.193103363185385
0.149167603334666
0.196553221748865
0.206911430730393
0.199360851597935
0.19467070816777
0.20479662369218
0.202782939073805
0.204364199121133
0.148016344900662
0.209784399625432
0.196214141054166
0.200864738362216
0.196627266968071
0.196984150399195
0.199361155897845
0.158165884603644
0.205745345049436
0.207891508154051
0.196839727429389
0.201137076722086
0.19688230997566
0.20260854273404
0.191666361336255
0.199030281866867
0.19607854308293
0.201481197015855
0.200548072305367
0.206803866810359
0.149483011714756
0.147776997004917
0.19964238208576
0.205378710575579
0.1990696683692
0.21385147041561
0.195715067115093
0.153955036216868
0.209801385678126
0.208135953326818
0.191021954062063
0.147858188969616
0.203693050058299
0.199643398584275
0.203002823323542
0.199194167309833
0.205042852908069
0.200149425933406
0.199047438109255
0.202344338532877
0.199269357394224
0.19561338707902
0.205710996239787
0.189386744046622
0.194178752394765
0.20308274879696
0.200494646619223
0.19829426465306
0.206281098247644
0.198782304671444
0.195944541903182
0.210127421795612
0.2083605629304
0.201255274593226
0.200632939993969
0.197387212654754
0.190910739894324
0.202687333602768
0.197877715403499
0.202603663435572
0.134691124244244
0.209576662935652
0.199734559488285
0.203687653769406
0.228895422937554
0.226885894004865
0.0929147375411922
0.207210194661944
0.247372509680374
0.17415417802606
0.225694929272089
0.179672616710444
0.148952571757702
0.0478334764259233
0.0495336878801378
0.222030357427932
0.152906328798654
0.255738632208002
0.209592051463281
0.227939999743788
0.249584263776967
0.247874436766171
0.17573997581524
0.153401424785928
0.243707417128482
0.203840283206088
0.173096854008287
0.225049313088861
0.197855701077636
0.246158068427665
0.222682400432538
0.229477378763207
0.197545603271738
0.231905431200289
0.151854289424595
0.223490423894924
0.108763028372139
0.19814148725214
0.0719462237656477
0.22527433924249
0.251045459160379
0.223494955600177
0.0994386331993964
0.253274022103945
0.248424352446855
0.0944201747418891
0.222061889491958
0.252797524567887
0.200183384454701
0.150362958130153
0.0497791818035116
0.198680370331215
0.199605689358001
0.172367524198903
0.252235262537094
0.204107915068697
0.206290956758953
0.194309452456206
0.245008845342751
0.199188783855302
0.225972102105597
0.245513027102821
0.175300628406142
0.148621339997373
0.208412430271964
0.258106562961981
0.263501422408342
0.261166492937479
0.142379472284364
0.0986760335079455
0.2099271264951
0.181328473628399
0.23268344355904
0.0681027081483923
0.201838014155707
0.249541492083695
0.227312373922934
0.243373904371593
0.252857189700977
0.254405492986492
0.247789746577215
0.200078336099829
0.216978686902524
0.152432473731086
0.248472073610715
0.190517912257081
0.172261406245071
0.223315904920142
0.250479729704841
0.225753992661521
0.230652125759018
0.234543882514502
0.0949249244212132
0.219356335242157
0.247895571884223
0.248320915977777
0.175909624284343
0.254617638245959
0.199976994088494
0.199058183933239
0.175311425822292
0.256124568742081
0.25304394967259
0.102437640316553
0.254968447177088
0.166571955178027
0.23754068197223
0.228690335725306
0.207338079796453
0.200100424664786
0.226207011654426
0.257745403088121
0.258292836461416
0.226229251829199
0.252241821974761
0.197648010957993
0.221727799388201
0.202027684293149
0.198254675597323
0.200408302767436
0.149838970766999
0.254807703889336
0.245513724002131
0.0751471100493339
0.220528106580828
0.149777521197034
0.199383506193392
0.0759311497373478
0.220447095590753
0.175323235705835
0.205813634204163
0.232727801992437
0.202646364045215
0.199545404062438
0.200862700750244
0.21734699123064
0.223761285486273
0.25259411739415
0.248198167449464
0.220703532926013
0.253937557303665
0.223879142456722
0.203592182457624
0.182076858985908
0.147605223573516
0.174130815213451
0.254759968389747
0.244396244064566
0.195991628532773
0.077032589003806
0.112086935254558
0.146306663937545
0.177802623208772
0.197532683032569
0.175070575608322
0.217752775600889
0.223059309232633
0.153405305232473
0.181393084092634
0.221881309097055
0.0993285708486413
0.0785261207743322
0.160928508967997
0.246987055645903
0.248408204802962
0.169057336268296
0.200638182146836
0.248986729243418
0.172446832048238
0.195016737492937
0.250821422649124
0.253223500322732
0.247291391258125
0.252316081604301
0.225605193791687
0.17269667274908
0.148289116917327
0.149901584522717
0.241729697894013
0.248914772991681
0.254192773944032
0.203945428211781
0.236189757132025
0.246802848796946
0.252286622404607
0.197549739485779
0.210194455458533
0.251939719724089
0.194153849814354
0.0763183543955854
0.253782423289911
0.222626397121323
0.103070723267457
0.196855280002348
0.245962861542434
0.241031593309861
0.201542559395121
0.248608820240823
0.197304578223929
0.227109043773795
0.248021143149894
0.248158630661721
0.221421344466499
0.225303452474907
0.222026528093076
0.226966458269904
0.188774100375916
0.241960336339665
0.194327067809866
0.24918002678817
0.179342423914257
0.167841506273085
0.0988377607714102
0.222394631392916
0.0541159078979712
0.23352779129466
0.224124071212368
0.251408295883973
0.191219110692076
0.23017527620257
0.214346504829463
0.256223689202362
0.222044158256962
0.216964385478038
0.248783607566322
0.228263721128804
0.150520818310601
0.241845841503937
0.251507123632395
0.250098856641919
0.206782067610443
0.199270913764209
0.1022226406691
0.238061397556619
0.246454820519507
0.219555773327221
0.198380599779224
0.225368706512331
0.191484337600241
0.231787813413021
0.169525459737625
0.22549651979775
0.175534001667656
0.223221208567235
0.223541407432804
0.244189054030934
0.231114114460296
0.144847368608271
0.255260552428031
0.217089329113081
0.0780422919915926
0.20395610985857
0.0493278539819994
0.0289506431960981
0.0260883556947642
0.00695744119013414
0.0301427290187605
0.0131987762361099
-0.00728928989160109
0.00044893094803113
0.00127839204747021
-0.00867353173414944
0.00561430408025627
-0.000666603139238353
-0.00875940147289642
0.00482706974979503
0.00738693366114253
-0.00658082617451437
-0.00261101768528321
-0.00261914919706649
0.00998075920612613
0.011954861602581
0.0206333518546046
0.00596801371189282
-0.00202379760602522
-0.00918455697793381
-0.00248802871945212
0.00210879641848456
-0.0104390438025717
-0.00634030202993902
0.00392943902387165
-0.00399300167710488
-0.0122527096749093
0.00141219927990251
-0.00211601996702695
0.00203547564555872
0.00747668365987361
0.0190398273077251
-0.00350622610391703
-0.00158654862928975
0.00964191066042203
-0.00358324851355928
0.00141876832568886
0.000391507991736159
0.0259400160256178
-0.00173859138796039
-0.000210182207023096
-0.00197279011845167
0.00102639946967812
0.00520682617319852
-0.007599841368551
0.028984101487039
0.0069384902782517
0.00524957858536295
-0.00276654843133173
0.000392909807043296
-0.00782673797876021
0.00753976670903195
0.00313782836339976
-0.000436270001707947
-0.00632994127881694
-0.00395988753055393
0.0151204949358402
0.0218321691045617
0.0092191425730241
0.000469154621252308
-0.000844781643179632
-0.00245459475623228
0.0248589028153675
-0.00868346513749713
-0.00589260029745413
-0.00127600528434108
0.0205869523348209
-0.00365012089252961
-0.0020807452233682
0.000216887156677529
0.0292518543372604
-0.00410926770090846
0.019398344411176
0.0216646452481825
-0.00463832721857122
0.0242778027372778
0.00160116932070675
-0.000469987612561043
-0.00788681162548966
0.0087455284305012
0.0229237641574128
0.00160263875418212
-7.75284203858199e-05
-0.00334039651414026
0.00479372300571427
0.0211824362550844
-0.000791309403717313
0.0239686460860816
0.00157721211060518
0.00608718610110023
-0.00382405572320562
0.00130339130588738
-0.00426474337090731
0.00337412680763832
0.0300466341494245
0.0211539462143007
-0.000694273590398713
0.00170156606647001
0.0216960790103994
-0.00937308761433197
-0.0100064020866694
0.0114268517378048
0.0306456921300896
-0.00802490768437524
-0.000831261656433474
-0.00244861917591038
-0.00395049737300135
0.0182479961298123
0.00304908921464722
-0.00182907637187681
0.0277732574793351
-0.000771479705938285
0.00429768328137184
0.00412140566618395
0.0206230415539074
-0.00873029194844017
-0.00111462981288022
-0.00389847657646291
0.000172907374982623
-0.00778199839026844
-0.00118066839831862
-0.0101865560073162
0.0233399835287662
-7.76347674165204e-05
0.00280112246597554
-0.00661045159810985
0.0220642203477437
-0.0109901289466706
0.00249138975986282
0.011084943276635
-0.00669030677708426
0.00466364543247033
0.019728572065218
0.0383051646739713
0.00359288756801763
0.0045955075482326
0.00259676077237881
0.000195852167228685
-6.34125407637822e-05
0.00548695932889967
-0.00045985539886457
-0.00259425309763587
-0.000961634098750026
-0.00454659275157708
-0.00163205885653341
0.00480164951297734
-0.00664644432299207
0.00542282462366408
0.00219498009710337
0.0223682652899096
0.0286633812873015
0.00236422609790417
0.0220270088592661
-0.00589530841289241
0.0311863195487532
0.0286169073042767
-0.0100652855876753
0.0112802789336011
-0.00197628922091837
-0.00753742809020179
-0.00576506852087426
0.00151296287148248
0.004121541962894
-0.000154293103105523
-0.00368714437342592
0.0209896673258914
0.000229374075991004
0.000538980565607772
0.00730643554309311
0.00947089888600935
-0.00800215849232505
-0.00130040296633643
0.00587562550578919
0.00369538941766479
-6.19497262333222e-05
0.00363626143340775
-0.00287133376610798
0.000105829328925322
-0.00134419806649937
-0.00357855632853288
-0.00727927341414791
-0.00647839601820825
0.00320008532619516
0.0003373922432028
0.0159056387677206
-0.00745704366973962
0.00231330314300738
0.00592141306889238
-0.00306792844435051
0.000832982809935047
-0.00482134275314275
0.0244546369024011
0.00825802477071831
0.000376641075586319
0.00884330977147322
0.0331446035232881
0.00363369338424847
-0.00844667175262129
0.0342693393532166
-0.00943007219315337
0.0010427871077526
-0.00854051160287677
0.0215586268921443
0.00766380717753042
0.0105069937065899
0.000466045920258893
0.00120832249974361
0.00837359448760854
-0.00342058233654128
0.000182355473098063
-0.00259415853261355
0.0227893725750055
-0.00523061984106946
-0.00234467875344344
0.0220794431911309
0.00210103686279179
-0.00584327845104394
0.0342781347019182
0.0225685509304897
0.00628843484278913
0.00421607765714843
-0.00267375283384236
-0.00311094535026862
0.0291302667323643
0.0194278792680672
0.0219363830749565
-0.00288289072342396
-0.00050733076307511
0.000308096343314634
0.00650065646562825
0.00639050170813472
0.0237840395073507
0.0224475340303356
0.0205260706607125
0.00305163239873995
0.00386078063407778
-0.001272019698223
0.0281677821756447
-0.00364595478335641
0.0328124455159185
-0.00109093572801495
0.00292252165076322
0.0290986550158669
0.0252259309736272
-0.00476030758720506
0.00621888419103702
0.00449680185195224
-0.0106205820613795
0.00165362465089437
-0.00544117037918818
-0.00403419594643714
0.0278446964530222
0.000523177183553912
0.0291978181405122
0.00329031692540398
-0.00973640397782586
-0.00349045846909118
-0.00395963968732953
-0.00417667787016203
0.028673869427631
0.0302688588543248
-0.0102803212271251
0.00605205617222376
0.0212252332613064
-0.00359686875115708
0.00276195519245724
0.029077325257394
-0.0102120242077307
0.00705942102919856
-0.00202069807619474
-0.0030186271687615
0.00169340015008373
0.00389120162867458
0.00263134081262664
0.00314886740685618
-0.00191243900667176
-0.00935789501121601
-0.00325989255440556
0.0295945757313857
-0.00493345178650773
-0.00577720979883672
-0.00126642410821017
0.00280225476487028
-0.00536479748850559
0.00254434922212975
-0.00352461548671994
-0.00248739619045349
0.00156967545438103
-0.00291014015487372
0.0210584656230363
-0.00294598398516052
0.0293779174370853
0.0270221431157238
-0.0112500673097021
0.00399984097890609
-0.00658052017635833
0.000547101943426727
-0.00718034922454474
0.0287759083573292
0.00571210810539532
0.0046339550290207
0.000438297565853751
-0.00683721949183553
0.02948754385173
0.00833535395678186
-0.00333141412484504
0.000541903403537095
0.00541637912343946
0.00347094253507739
0.00356042446820434
0.00420162309526025
-0.00129498611076397
0.000998927797448089
0.00410653602825601
0.0176249678462362
-0.00213074357005362
0.00153725504573713
0.00545544060215822
-0.00105441762090602
0.00421831232221058
-0.00186966121713106
0.0185715164939348
0.00260607905550881
0.00481187034147731
0.0126746087379475
0.0224539160411914
0.00177390735421151
0.00120497511779289
-0.00337632339478605
0.0246282428014952
-0.00538056207452856
-0.00213943314563527
-0.000575660221312902
0.0221393495427832
-0.00289000151470982
0.00069367432696565
0.00150493844789128
0.0289930076814673
-0.00702223809664626
0.00244551531671973
-0.00414369059480271
-0.00244105643073839
-0.00852624985326382
0.000285036439039855
0.00300261162181457
-0.0038917360360152
0.0292552678898152
-0.000177093612670417
-0.00336133892764031
-0.0049023114063746
-0.00105200686184941
0.024781764458931
0.0122785000619087
0.0265070037999597
0.00424076836353839
0.0286732010351146
0.0204190327639331
0.000990513340621044
0.0275084799478365
-0.00023514515211651
-0.000291912514778065
0.0033337669070589
0.000767498830452693
0.0232691189104843
-0.00519234432923727
-0.00521068529239407
0.00314715949009117
-0.00452278514083018
-0.0051722805903082
0.00696182577123234
0.0247243344831954
7.35807544066534e-05
0.0178600349516218
-0.00337692368935753
-0.00343669363133565
-0.00485924047939034
0.00443362201989347
-0.00550749650024932
0.0290099580324282
0.00502552756261166
0.00943481689060813
-0.00368675676853257
-0.00233982771115909
-0.00879924304160386
0.0310776886760996
0.0335422185422408
0.00713558824773832
-0.00149322603025612
0.00235958228798006
-0.000782802023330963
-0.000178925800231504
0.00370634715503321
0.000920587524853341
-0.00297382691962993
0.0208315468536958
0.000913468260781358
-0.000130437044372317
0.00469156086167706
-0.00473038436678588
-0.00483330603461303
0.0342099913997208
-0.0120022465776385
0.00118161730839368
-0.00373509045593444
0.027317952201729
0.00419063187013158
0.00076647185457583
0.00578633767692137
0.00731420466243929
-0.00412585603737038
-0.00086083738522023
0.00125089767921386
0.0025945413189535
0.00921200881580464
-0.00514734950428874
0.00298054125951504
0.023530855013252
0.0258667370124544
0.00518932389349114
0.000340398208634674
0.00169247950236956
0.00237020652261706
-0.00534972305346005
-0.00244799261171032
0.0256365416758351
-0.0115427813879209
0.00395293373763595
0.0028331160028905
0.00577094848186744
0.0278433317166416
-0.00604079604390947
0.0204454638118789
0.00585055916938504
-0.00475308662341491
-0.00557678998773268
-0.00565484324580504
0.0264517730073064
0.00951709386166688
-0.00491914318281468
0.00171668953646191
-0.00627319443553146
0.00116278001777796
-0.00773071117027202
0.00648062843698846
0.000997204304626928
0.0287597442975621
0.00564516292639252
0.00347729908529108
-0.00564775024316603
-0.00457217060087777
0.00304017282064601
-0.000140012073367148
-0.00331608179216237
-0.00120835427838252
-6.638087293906e-07
-0.00274570397184909
0.00667109934817719
0.0196976539832287
0.0010591041016672
-0.000496391125148363
-0.00156420295721564
-0.00123662401980203
0.0139911274251457
0.00443375494870599
-0.003075186954663
-0.0102526243687586
0.00547319378529247
0.00516624158006871
0.000870624205777452
0.00943178139230987
0.00569134350218118
-0.00173494615678941
-0.0099680396802057
-0.00574697146315441
0.0171142123038868
-0.00500622350104308
-0.00845557369729768
0.00349513278869407
0.0330605684197669
0.000300247056719692
-0.00646931963198345
0.00030833324115956
0.0199254781424615
-0.00360049558373825
-0.00111087043874175
-0.000942884162350823
-0.00220953868034857
0.00456742465246826
-0.00413937450743557
-0.0076176457419954
-0.00165102066037297
-0.000838790120857016
0.00409486276561229
0.0222515333307298
0.00145055719493233
-0.00919032133924448
0.00209186598005878
