0.149796659608945
0.133811247146191
0.147514994830474
0.151802527454758
0.127322217401518
0.128293524158782
0.127517864135578
0.12610584745164
0.115512918744208
0.127165089827063
0.15333208479311
0.152893024029916
0.141791134595191
0.151699758607399
0.15043171595096
0.121082856577338
0.117491061047763
0.154807382180023
0.128496588674747
0.116790159604488
0.120959232883648
0.120244442570172
0.127459840042362
0.126686645255079
0.124280209524355
0.147680841716323
0.152127248360881
0.147315445351889
0.118402132376934
0.148369367514096
0.150238099511635
0.148625419946806
0.127608073514224
0.141512288554728
0.124047906430151
0.12501111356925
0.157733941708847
0.151673811653289
0.154616353051528
0.133425466200605
0.155333782941537
0.156060309605881
0.151934244530892
0.145677933740188
0.121700219481991
0.124552256635156
0.137766311477416
0.152349099052381
0.143166971059556
0.126314466243322
0.127109313349951
0.14435812492817
0.148825547013934
0.150580726199375
0.127414123972109
0.150387796540086
0.148485935591919
0.124370330991227
0.129774618325219
0.127583180859656
0.126820107575005
0.145007969496016
0.112158673994123
0.120045258460386
0.141596497040453
0.125280802919281
0.124444574323589
0.15892905943844
0.148483800957772
0.149217551502649
0.125916904314097
0.125312903581488
0.160137923539672
0.158629046455658
0.154532332097536
0.144249651122382
0.147884713951981
0.127786833437345
0.125700696746563
0.122905205093547
0.123202005954109
0.146685384612744
0.155397830340056
0.1274422872412
0.143030897801578
0.154454994495573
0.126863290924788
0.14874418627714
0.127980850595028
0.126397195912957
0.120782649277847
0.122055398569916
0.120616902630053
0.144681145126312
0.113994763066168
0.125345901208292
0.11844447836424
0.163311800489098
0.151245256521795
0.122570242094199
0.125260205566183
0.121402045134226
0.12225376770711
0.150238392148284
0.126403340103735
0.126451901998068
0.123007255391949
0.153030726226378
0.13006114794755
0.146043158451918
0.161150658354296
0.151139613403676
0.128817461026612
0.127796431857332
0.147555842513177
0.125768061156422
0.124405116877898
0.125105579821756
0.141032653224352
0.126105416775586
0.135286716715467
0.124537188758514
0.125902030505043
0.128372090448094
0.147283275995176
0.117996122761432
0.123870423593155
0.15516902090627
0.1589188272948
0.152682070633683
0.147992783445069
0.12381607641156
0.133472982713148
0.12630954858927
0.126889603267785
0.148082173022709
0.123746081632428
0.118827342738391
0.118960168841682
0.127070315403833
0.124755637325897
0.131478161785404
0.12862838760267
0.121170812221504
0.156275368056942
0.145704669853027
0.154343109041647
0.124234131807293
0.125812824256701
0.127517206100822
0.149488311040219
0.165535823003517
0.151847138425325
0.144806094304582
0.123398178041406
0.122991134191559
0.151464625178017
0.124990734996095
0.150128252632436
0.147149210415544
0.125463906408598
0.151852428324895
0.121501222841242
0.146819613434193
0.147773287799239
0.140788627394755
0.143928168773208
0.125269080973063
0.148765086191944
0.129873406533991
0.130629513285534
0.152730914230194
0.154369634803628
0.15428411643224
0.126254821716216
0.115871298115347
0.147847692942947
0.147058625545012
0.154373106109876
0.12748597486938
0.125780093955428
0.14766648441877
0.128055092038468
0.125782088456151
0.149443740735517
0.145079922317295
0.124179791407329
0.131704799854066
0.123463406940011
0.122128098381961
0.130369386877629
0.128610281148458
0.154581266618466
0.144958978258471
0.149370185712623
0.128926150542979
0.146841610937296
0.12171296731927
0.156272856723151
0.156161099034438
0.156119351748907
0.12356331661173
0.117578210724609
0.122713052867534
0.150891871602404
0.146517764959297
0.128915135687454
0.130913335440648
0.14771367763643
0.128646262282131
0.130140192026672
0.144834584301079
0.149208535600765
0.123832467985957
0.152059607130516
0.132934958114648
0.154471100053812
0.15400473543713
0.129155736890461
0.144125411830744
0.142536961795426
0.127892444669753
0.115968041286485
0.145542130664611
0.149521064227868
0.121897777795301
0.129606216319379
0.143834950912884
0.131335613574901
0.120199479613701
0.133092294584404
0.135428698443522
0.133286228186524
0.135628485657977
0.12123809689277
0.123411955871693
0.147844371846134
0.121021431387201
0.12752063675414
0.127156545680282
0.151543721092358
0.120369056968571
0.151561598841903
0.128072114586426
0.156012292365001
0.152561149686612
0.148256388642447
0.150331425497073
0.127685802507559
0.148698927863713
0.103894905323415
0.10364653277787
0.0959220940602441
0.0989494857628566
0.0990165340889852
0.104256525824153
0.0976529262182661
0.10028456247017
0.104850604832539
0.102203869301657
0.100396434374573
0.100915327893263
0.095997432372154
0.095005688393552
0.103197436089183
0.0990628780176434
0.0967896948338299
0.091701088491405
0.095058584767914
0.103193094094247
0.0971807114916018
0.10115924871523
0.101834570766162
0.10068406876941
0.107635669622536
0.0969932162723796
0.115292350494619
0.0924510619828017
0.113239526343358
0.0985010516196026
0.0975121975642236
0.0988232580968181
0.0957695659745563
0.0976784178249986
0.104941607341109
0.0969414423818983
0.110123162371428
0.103358983401236
0.097243654987596
0.0955670443699026
0.101026407549645
0.0945186881317048
0.0980192783256897
0.0823891488037515
0.114550168225593
0.106296453024304
0.101595552582505
0.0957680615575711
0.101680239385445
0.0889195106799765
0.0992860604606697
0.099790312680182
0.1039077460187
0.0965029500996513
0.0966171440820023
0.0959672247316332
0.0921545261857077
0.100439086176126
0.102832885195633
0.0984935455849016
0.0519152244040147
0.101694382374832
0.0997671613366879
0.0997149589154977
0.101892097560679
0.0969988086515419
0.102533425113929
0.100940350386919
0.0998265566215751
0.102203003416436
0.0997356864631064
0.0943872843817189
0.0957434746708627
0.100042420830739
0.0896342636744176
0.100652453238052
0.0522833671141317
0.0524341310543425
0.0466347038841614
0.0975969082429099
0.0939432825119202
0.0989377772807646
0.109716689602636
0.104624692022922
0.0979573675821196
0.097772673271914
0.101695990997887
0.102470175739012
0.0959175403341635
0.0962163798493572
0.0983228660412373
0.0970232454354185
0.0975402693065634
0.100671918763323
0.103132108016717
0.095334529675787
0.0927346545023104
0.108311751695917
0.0946378368035384
0.0455437350590229
0.0494849696935554
0.0994212063793622
0.101362531374921
0.102481138280079
0.104006277423729
0.109039758342437
0.103010932964137
0.104760611173421
0.0964784429944761
0.0949335978480142
0.0993756594933089
0.103238129863893
0.0928712747132334
0.104451901444656
0.101555666598457
0.0918975803571288
0.0943614502515709
0.106898297482599
0.0949743927691191
0.0971696510177347
0.108011731447334
0.104771669208189
0.107579397890857
0.096093029210062
0.0930683573855637
0.100181072522919
0.104413147846224
0.0994792595186756
0.106379855530115
0.102229217994872
0.099252014157538
0.0514012392090692
0.0955082635287301
0.0499497303685642
0.102616568397827
0.100116532928342
0.103036301595543
0.110677795213325
0.0980524820409023
0.101802060526534
0.0949777985887427
0.10507624975206
0.100083805928216
0.103208602186261
0.101423931141516
0.0488605915362557
0.105817092999921
0.0944080734264387
0.0963142957521587
0.0939008619908242
0.104042445995535
0.0976939076734987
0.0967743664048235
0.0942770885939421
0.099892794641299
0.0967128932435906
0.0966012828279994
0.104811463354829
0.0954316166558132
0.105563016215389
0.0956821630010489
0.10431252084622
0.0984066691258101
0.0998557656550952
0.10222975061321
0.0910195574695468
0.10220789938309
0.0965741879525013
0.0963472248273863
0.0962642413016858
0.105117374604242
0.100136286078898
0.102279154419873
0.0880115439368515
0.093605536701326
0.0981120484375567
0.091645025787388
0.0976534606137646
0.0996645677719143
0.104515766588713
0.100317533996449
0.107899113847881
0.0941750153263908
0.0987487641891671
0.106627019569358
0.0944828118841344
0.105565675872654
0.0993096634001354
0.105759266335522
0.103343901824807
0.102141779181731
0.0942930418571601
0.103088353215808
0.102525415893634
0.0940763242769872
0.102540299061919
0.0923450810243829
0.101010589513199
0.0899188471142626
0.0959314484949713
0.103028938043097
0.110622102656539
0.103976283406526
0.102507232974384
0.0984457322836326
0.0997883217926016
0.0942323628773266
0.102283868383388
0.0968581365217698
0.0961233224279026
0.105040016813806
0.0961939815330676
0.0986700129439225
0.0931118096520887
0.100997134728268
0.0969902902569927
0.0935732858338456
0.103243831577101
0.0988425156233544
0.0971593421163726
0.102035250472558
0.106697289696827
0.0973946336191332
0.108973635217935
0.0984913611974001
0.0977276879416406
0.0961162698703981
0.0999408419424378
0.101838413677594
0.102461004585685
0.0532425971274713
0.0988193167674331
0.0961406737989084
0.100942359093415
0.101109163764904
0.102254879841321
0.102450279078168
0.0946193608156069
0.103792342729956
0.100566936687061
0.0948219942076872
0.106619483372773
0.10147024495883
0.102526352515338
0.096837623923539
0.0938150750280699
0.0972463183636554
0.103650537235923
0.0986924709584679
0.0924557536604994
0.0500277447015642
0.0476239220023135
0.124735632868655
0.0419843119489721
0.0512233460852595
0.0560541813280802
0.123454722975951
0.128658144658914
0.120496504996415
0.0468643805111522
0.0501670253365955
0.0432272549955096
0.125001348367546
0.0519448409398744
0.0487688635248503
0.126903208984954
0.0491216268251865
0.121464522373372
0.0547773894644865
0.0566949064737591
0.0539366202693818
0.127025496594602
0.0542895699674296
0.0546406951647543
0.0474100252461874
0.0498804448156217
0.044683778317027
0.130313332739132
0.0592583289629815
0.052485397183838
0.056006667438132
0.128216067388355
0.0398602112574686
0.054470470329399
0.12040130402627
0.122958681288186
0.042080866419905
0.0401887736571952
0.128030664242292
0.0498139168187658
0.0571675930934151
0.123576637927871
0.0560687836644726
0.0605862015921745
0.048191944013115
0.114899194488753
0.0524465399279614
0.0503146412092749
0.125062173045204
0.124027137205275
0.126183850354881
0.140136630621871
0.128376915175888
0.120629515348779
0.128638798508674
0.134601969139485
0.0521318356326848
0.131762496385158
0.0547570401035495
0.127587486138062
0.12898114035261
0.051943951395696
0.0526249964618907
0.0473596222385708
0.131788485392297
0.116966636657521
0.124118166562243
0.127876682219293
0.0416438429171071
0.126927089085487
0.131119133187307
0.0513316245646502
0.0555596895408194
0.0591524564379962
0.129278634549564
0.0495565882445293
0.127799674256442
0.134464896116578
0.0478794363920199
0.0424682342099322
0.127072229512852
0.124351812102533
0.130317433375639
0.0547324004503268
0.0569434127605183
0.116206258024999
0.125789119102555
0.129783400850206
0.0468767625550672
0.0534084043477137
0.118737549462366
0.13114288446714
0.0526365050089418
0.0461488431350864
0.130461869928775
0.121010023808977
0.130420467168706
0.0521190190127291
0.121097181268046
0.0561777857149944
0.0427952694928163
0.120423784201166
0.126863838285585
0.127396932632567
0.128113762787182
0.0414235539788107
0.125785820457722
0.0415397152062712
0.0447851777592902
0.128015142413284
0.121285441164538
0.0465658564797309
0.126589917892096
0.0480747769958185
0.0486352133499939
0.121390633491717
0.0454182376829454
0.124612625682759
0.128772965268383
0.134454171361218
0.0480803423378822
0.0488735467490038
0.0518714292592688
0.131914991512982
0.130033850551253
0.0495259035187182
0.0388102972144174
0.123218074356049
0.0535734714316378
0.126421057587383
0.0483148285958341
0.0520042090541742
0.120482961354405
0.118787400801196
0.127313921744823
0.0482360097972964
0.0473636443727046
0.0464610043677074
0.0441724610482592
0.127732980943291
0.123634952638626
0.0466606538573055
0.0399663292218999
0.049251838679889
0.1306787105397
0.0457627431009932
0.12670657196023
0.0571263282186698
0.125587988286406
0.131587719194201
0.128273440412683
0.131342125564249
0.0450677801211153
0.05394622898213
0.0519050185594983
0.0530469707990601
0.123188687383257
0.120312194791087
0.044381914421076
0.053132757055172
0.124426410145149
0.133028575867973
0.0329497725512564
0.131191186458507
0.131397829123275
0.131065364799934
0.0473804283737703
0.122115198906175
0.124235090157346
0.11822737110772
0.0489759135199023
0.0556894923882956
0.127329067939689
0.128362824954116
0.118001846611256
0.122359053010343
0.0478801177361655
0.0530172612869239
0.0481765441896305
0.0470339174619289
0.0445631798473761
0.127782813652707
0.0505253717703003
0.0463405109821695
0.049231258036269
0.12090898821725
0.125089274810211
0.13212044380178
0.05342268813138
0.127511078783422
0.128766763828714
0.128936382028308
0.121876273433443
0.0479891956260537
0.127844459394457
0.129504774611284
0.0531099743655239
0.0510236461938915
0.12233988278988
0.0494934288641471
0.125779378681022
0.0471680031578534
0.0465473978056791
0.125479758545328
0.055763433137983
0.0539431835958549
0.121754376701622
0.1206548461331
0.0497342229039257
0.122953613963654
0.0554673624106174
0.128593772497764
0.125029207923279
0.129531274594636
0.12133847914486
0.0470164337498025
0.0466443815244407
0.125522463786058
0.129536294920592
0.0436501117290335
0.129881799017261
0.129759337433187
0.0540168884898191
0.118701927487174
0.0386014191646616
0.125323417261958
0.115207330800676
0.122128519272987
0.128418309488009
0.0445377594189366
0.123953286905121
0.0425676871735059
0.126647653219412
0.0452895871599086
0.0499002009137469
0.0494011437141155
0.130409646878224
0.132036789188989
0.0590422477677032
0.0495518086563748
0.0453627651077685
0.12670168938469
0.0530943193028302
0.0467878000652693
0.0487156961514577
0.115220583208357
0.12898898789414
0.127670501243609
0.121114641570087
0.131745184015679
0.126234598944004
0.12963769277188
0.126156088322406
0.122060181592352
0.133543589723435
0.0465514690941191
0.127245218625636
0.123924210369655
0.0523428422442369
0.130710770522918
0.119866503926194
0.054615783967238
0.121009080958493
0.0517408323379168
0.117668867131572
0.127627364424892
0.0524256876997049
0.0513506580639928
0.0572190974883674
0.0514616058151859
0.0518526555637653
0.0487890542214903
0.130845775475491
0.120151585260871
0.120463763417544
0.134828624092473
0.0498943671226293
0.122559764992298
0.0448358743152318
0.114572806477688
0.0487610530875375
0.131646314816926
0.0518598420030769
0.0503786129045908
0.122623935078415
0.12083729961825
0.051408004492356
0.111314250239477
0.044256631304114
0.128474646902915
0.0526954898762248
0.05202815726457
0.0480202784704087
0.119646681985384
0.0492747636214461
0.121735074419251
0.123125357640539
0.0456794595255299
0.117107388590395
0.0432119223681223
0.131297887973841
0.0599373395572865
0.125178395899835
0.0578475823032743
0.0577473661269121
0.120628084934377
0.127899345677104
0.130057304272126
0.0467687264137521
0.12961584428065
0.129860746006868
0.0544464837204461
0.0500620731748022
0.0514119095770045
0.0387025681709001
0.119021891200694
0.0472895417312046
0.135303187588213
0.132951580846992
0.118745052565382
0.12212302512804
0.125731005921562
0.0405044450177385
0.128430950346427
0.132813034389481
0.123350241467618
0.131233393857411
0.122100374599121
0.122928701700123
0.130262547494947
0.126005209554998
0.125961181204433
0.0378629239519883
0.125434300180756
0.0523348481139088
0.0535100296439898
0.128476038558386
0.126467643485226
0.122883851563341
0.13661821520362
0.122096562289205
0.121250656751053
0.045541811340653
0.132045324811382
0.124495295564625
0.118996950686742
0.116372180754013
0.0469180417760598
0.117360762982551
0.128517115428033
0.0583992325190159
0.0547882085042397
0.133286457014912
0.0610052308919348
0.0562630659786577
0.121586079971034
0.0572474748772662
0.112031892666033
0.127929350753488
0.0476368528579958
0.122666608469661
0.0452349296274342
0.119069680807229
0.126243017661411
0.0505964177435791
0.0515844622006141
0.0520246251379463
0.127610933993547
0.119813727651066
0.137529292399539
0.124363042587222
0.0444324496149355
0.0460679408279587
0.13342679001549
0.123786033890171
0.051931580023789
0.127508923665089
0.0462124661124429
0.0498951921777105
0.134807094604276
0.1185633529002
0.127615459251826
0.0412004456560547
0.0482984190055228
0.0537518247918849
0.132281138153153
0.114415573762542
0.124982194870858
0.124964609692529
0.132499004172063
0.124406793792012
0.125394439657279
0.0505464102309874
0.0576412905411583
0.0427102870018095
0.11798705012966
0.121385923902243
0.119826105856521
0.122091957123111
0.121517731818314
0.11229495811044
0.12932551602979
0.0469060508210018
0.0531392169731988
0.0517147002059649
0.114286028767251
0.0477086601327862
0.0404548155469334
0.124406200695716
0.0494656743053509
0.124150715452666
0.134264354338536
0.0486366041295992
0.050448052899162
0.0458956642921508
0.0479456999075702
0.0501096109940141
0.135642081282414
0.0449747782106686
0.0541683089376383
0.0460542466934895
0.129333307965743
0.120446071765358
0.0493386441496028
0.124328040357323
0.0526138756468434
0.045247646653641
0.0558228613011991
0.124549847695646
0.036240257934807
0.0402271994466671
0.0578851878601306
0.12372782679851
0.126426280405804
0.128540359234681
0.126852654697495
0.0460461570433046
0.0506783177945892
0.047506500954261
0.0469075099961604
0.0486273060578188
0.123372309799865
0.0449425969005126
0.114561644380591
0.13083747852464
0.121500153103459
0.12874683013427
0.123882817341723
0.0550478541588228
0.134222422373614
0.0550354710808527
0.0441238494827651
0.118680066722318
0.126855475521514
0.130451816606283
0.124234955747158
0.0497844582224
0.0546826392406114
0.12704207420427
0.0560154229952554
0.048640100526549
0.129026576649813
0.115573938958324
0.134784424564507
0.126579430199776
0.0519492193166938
0.126706760782917
0.12569958986684
0.0448575056988073
0.0593864584124343
0.0519225261830205
0.127004609960253
0.0495102448764339
0.11759604682277
0.120923198717636
0.0581826658782476
0.0438098494724169
0.0544630360106116
0.11975761699079
0.126045689183418
0.120990964095656
0.126187581737662
0.0528903181191
0.132467065805923
0.115637260024741
0.119555853026067
0.0557513052301369
0.124934255228146
0.0527920722867822
0.129853391565653
0.118901365116021
0.122014682506483
0.0475476962110939
0.0480119893363101
0.0488772313047406
0.0435854280611335
0.050687295071812
0.121208872541713
0.0548617485653628
0.126378264171256
