0.0702420906842908
0.0242629703912558
0.0764544971836899
0.123238713716513
0.0257834977845407
0.0709551941166979
0.0319815223351681
0.123182299123753
0.0760957577127518
0.0750032989070189
0.0717005003415063
0.0197427360099254
0.0721365193871449
0.0222665919795986
0.128614756005411
0.119582704479118
0.12083874352135
0.138020994230157
0.130887639634517
0.033223581142199
0.126267645663324
0.0859564514309977
0.125016804553301
0.0778117092373197
0.117631744609828
0.12020494255035
0.123529958573071
0.121105620000932
0.124025377382047
0.123201547596012
0.0322428412164453
0.131859880220915
0.0787092958262183
0.0667142151156694
0.11659649088626
0.136927272761476
0.1288785053551
0.0264791899482057
0.129024814372495
0.0759022261879353
0.114028110955964
0.0255385380717057
0.11837956286608
0.0806334328780539
0.124902742769751
0.126423914195681
0.120934670229655
0.129948860566421
0.135229704709179
0.0271407497248335
0.0764370436114005
0.11949008913811
0.120779319087998
0.0784499892632297
0.0707019122960691
0.132248641774268
0.124351274472304
0.118398435816147
0.0233570553311167
0.128560830811915
0.024692165726341
0.12769920910031
0.075591827712074
0.0715358929744952
0.0767214291831096
0.128181601406141
0.127462366059139
0.123110924398978
0.133898996639534
0.121305020277785
0.0834878490910164
0.0786355184075055
0.023951018336094
0.0754139537989139
0.0733197596194125
0.0276696779538801
0.0785441854372646
0.0760600841151429
0.0797551034036658
0.119250364018473
0.121401756978943
0.0774569315590896
0.0177833402337583
0.0777505647572814
0.127461280236248
0.118911152694272
0.12771412395902
0.0260769941535218
0.12953037503347
0.0252272750637988
0.123438379245788
0.0736488275455611
0.132158812708972
0.075101481064234
0.0701217202935748
0.085698297277765
0.0745880491638712
0.072798322320325
0.0749616351137097
0.124531143989405
0.121833900790913
0.128441292840792
0.0660968692971474
0.119690538895353
0.0788250974049672
0.123085490846616
0.11426903236317
0.0731186456165666
0.126500223307277
0.118294223701251
0.0693017606874837
0.129746227821329
0.119797826322246
0.123693040677163
0.0655505983898298
0.0241600662227487
0.0727776522629205
0.0287104901175161
0.12171149721167
0.130104244759735
0.126393355848307
0.0700665259519401
0.126808099834013
0.126843782600901
0.12677460445765
0.0746529477097544
0.0766681316623811
0.120759932141588
0.0778136459073045
0.0714165678742633
0.02400949792726
0.023134166231028
0.127702857209818
0.0266133369087874
0.12537612888481
0.024308994785325
0.081959201827739
0.127557725898802
0.122599999471553
0.126290316156604
0.124631855683385
0.0728179547921081
0.0770330277333926
0.123943376086156
0.027060752473633
0.0235602762434382
0.0765173569332785
0.125313898188755
0.118075925306183
0.131816958304505
0.13700417239343
0.130924355758698
0.0786043067881778
0.119243936111749
0.0228588419922709
0.0607876063006801
0.12667445984044
0.0329920172222717
0.0742690866226534
0.118731349143631
0.0302231342225136
0.119850561506352
0.020810026316361
0.0767590603551137
0.0700028517870087
0.0777449840315088
0.0712874064760865
0.0805666916925607
0.0662273560384923
0.127424292008193
0.0193338745341599
0.137071325457705
0.124189458000775
0.067451878119398
0.118988080515269
0.0749215065490816
0.0347715452920336
0.0684508700767382
0.122550880724877
0.0705098788840156
0.0779662413640881
0.0221302104131061
0.132183741980843
0.123373854788055
0.120914315758272
0.121262069225706
0.120776507064663
0.0214651250686599
0.0742765854443924
0.115186221180377
0.0283219113692832
0.129683759857964
0.0688082691112969
0.0820234376362647
0.137540280505763
0.0755948445723052
0.130397893682048
0.121226174879711
0.125019933717087
0.0776384706508862
0.0292322211346658
0.0849208891983099
0.125415968623113
0.12967388503071
0.117549485607761
0.0611121317662433
0.122315987227737
0.0726680362818747
0.0229635262492585
0.0196096340905534
0.125373567111876
0.128569085129119
0.0268778639584982
0.130133679441047
0.123170972681392
0.0373001405011497
0.130437172595091
0.128563193110711
0.072442006866903
0.130622499974669
0.127165634692741
0.13418459708547
0.131333033700538
0.0306310641948828
0.0732254072277217
0.131322621618165
0.0322032789307955
0.0769268347394101
0.120397806092939
0.122050974001322
0.130795344068052
0.0267639933108308
0.0734525117358158
0.0802908427646672
0.0216959015203956
0.118235218970406
0.066452274552096
0.118910325951963
0.0787429381878815
0.13183322798387
0.0247637492556226
0.0631500360013159
0.0265977962326072
0.126329878554556
0.123883604159396
0.118212722638338
0.0190055327541273
0.0259925733335955
0.0218626908952992
0.0744447167879841
0.143268694902337
0.144941633876193
0.141808560495766
0.140714749777113
0.14796034761259
0.156757026895766
0.147931271928376
0.148584212886156
0.160223932699154
0.15763422548146
0.152852396365204
0.159255577541495
0.152564752382542
0.154642489477937
0.146351908340831
0.155287450371509
0.145362867448295
0.154931326750579
0.154100823540788
0.148349905670699
0.152980693919819
0.145748289598982
0.150560587100289
0.15036654822063
0.147778159706664
0.14544108287899
0.154183182936722
0.149730053970105
0.158552440970681
0.147095834847604
0.143802245046117
0.145091030524166
0.156648334415516
0.149023361186613
0.153024434930304
0.148004247764526
0.146093726449396
0.147925597263129
0.143234542602564
0.151665136942104
0.148110776113548
0.151649068107114
0.154078395475723
0.152658688441401
0.155699822856996
0.15243560739332
0.152082047019516
0.154948994121107
0.155199086018864
0.148538759369718
0.150915646193928
0.148278942829608
0.156969395296102
0.153372030043236
0.147941096948179
0.150709514563937
0.142448205139495
0.144475129611373
0.15761998935184
0.155052735071473
0.161559719886726
0.148442803038275
0.147993382599792
0.152267465975516
0.153548316522528
0.149004158406428
0.15365585365104
0.143729436870755
0.161259953823306
0.151699100110891
0.149450534295663
0.150783632570804
0.150842459547355
0.147149698486477
0.146849605128484
0.147964620616356
0.146203820087015
0.150075948557217
0.164560458626698
0.154493562198244
0.150784619447589
0.147123811332703
0.148474009922899
0.146753975721387
0.154137312504779
0.151184893760152
0.147761233809188
0.145379729452793
0.145650657212077
0.136117826182973
0.150898141226276
0.14901747475495
0.151430366534763
0.147000575611184
0.153013383627902
0.153255058695914
0.159317230493038
0.15821641579006
0.149150978600214
0.151088309577802
0.148766716895131
0.153416062616128
0.149297560032798
0.148520535914506
0.153073181061186
0.148941274193609
0.153528842713293
0.154691898728272
0.145452369236353
0.146348396584704
0.157764013735665
0.148950624302344
0.148653584308851
0.1490593114194
0.142294504902052
0.149475414732682
0.144986297471495
0.14715388483789
0.155218629585218
0.16229646475974
0.155285376852856
0.152756854070003
0.154490569689934
0.15430927986832
0.156155662784586
0.147197178498759
0.145091726260903
0.160221567984041
0.15464023202153
0.145932430772892
0.149443898790462
0.145598667664608
0.153789724370738
0.147577868788313
0.149982458413325
0.145095757366004
0.155349703134265
0.1549039441981
0.150542148507806
0.152544659385065
0.150491384902546
0.137269471352838
0.149064138099041
0.155634771809669
0.1471872197333
0.148945261236452
0.160624465790143
0.146203120756629
0.149751732133527
0.145249118922606
0.140676439875899
0.160984066347533
0.151055809831899
0.155524848169973
0.149543775613736
0.138780265228964
0.146552551881618
0.159616020472126
0.142367210813934
0.154609359929061
0.152061606930716
0.154789901461664
0.150751478495364
0.156693260429893
0.159693446198675
0.151242299400928
0.151611380635759
0.150801840191105
0.151825731836907
0.145903655148972
0.148401641835223
0.148704817643362
0.151115451657461
0.147211285498704
0.14910746625479
0.158263044549797
0.16459103342191
0.153735156124783
0.157156231900525
0.142026974191046
0.159696111086699
0.144882615429487
0.150295038756383
0.150651486620479
0.155508553764732
0.151864230366432
0.15424690198801
0.152435569658886
0.152515504087353
0.152874367858815
0.145765056755838
0.15081091900039
0.150379645214648
0.16046035157365
0.152197421177507
0.144432976775752
0.149350905275383
0.150579193488085
0.146145101959196
0.146511167818408
0.154248645148693
0.146076290514519
0.153655730034578
0.148819880951816
0.151211610938565
0.149708502711318
0.152645129936048
0.142967116763674
0.152837298980337
0.151651581506903
0.154580975503836
0.154283177721638
0.142203004238815
0.157559123586042
0.143961013429568
0.152247648893795
0.156505116140842
0.148054352851707
0.150937264146038
0.146281863497983
0.151445945065037
0.150849662126935
0.157077777131986
0.146748579179247
0.148043143931516
0.146145424125457
0.154129239186726
0.151467865135692
0.156458582349584
0.144362224905412
0.144296178928033
0.154355835351473
0.146987920029358
0.150841164024381
0.142186256073657
0.15265157333482
0.150785347324837
0.150165590153541
0.160453894294319
0.147213954753608
0.153310463431875
0.156527562488422
0.15093585997687
0.150203344107526
0.153557022203155
0.158710610491923
0.15813417750497
0.148839792269262
0.151586135971009
0.151098758859422
0.124857002154593
0.158531653077527
0.0715362818603205
0.147034634319111
0.146202189421611
0.157389112261193
0.157249726840592
0.149320798478827
0.147428688719761
0.0777590170890877
0.0728575610697644
0.0506041940871272
0.0769694201392219
0.0756973681258595
0.0794604684558942
0.0721215930776953
0.15645489734969
0.147712091223125
0.0759060685103958
0.148331424633059
0.0571620138302482
0.0747180681476477
0.0717416769366828
0.0779388579547543
0.150493185347612
0.138944913719281
0.153982205991702
0.046158292672154
0.0784169494016238
0.0749805221240874
0.149848846689632
0.0734117464062859
0.0796103423734162
0.0741217112094626
0.129753368290173
0.0470244106943892
0.0726322095950856
0.145469031978874
0.0528155701510419
0.150493234064908
0.152885248379318
0.0722271118649155
0.0845417485626978
0.151757088083619
0.0549714299003241
0.154972960932859
0.068019617104816
0.145928879928896
0.0819304760741672
0.140836951179571
0.0792574046057149
0.0725601345773213
0.120231146551585
0.153162951653442
0.0550471477644948
0.0766699140332695
0.0668121885112006
0.0686394232621768
0.0831069795807165
0.0490493372934606
0.143072302200243
0.14679703848951
0.0731002044816407
0.151936479453558
0.158985766245792
0.067948677518088
0.0508785083068949
0.0807863357267055
0.0718123201303134
0.0779861420189836
0.0774010229141737
0.0690206010158949
0.0728067159046446
0.0734337032840233
0.155733782896055
0.0523270115777442
0.0708682744015789
0.150247543406976
0.0756323904007
0.0777448812636963
0.0711946694280632
0.120081919692918
0.0781108330907102
0.076369051539325
0.130502324537932
0.151303616936061
0.0778379360971943
0.0778304753076952
0.0725991828908794
0.0549685550223794
0.0504398922849513
0.153177362949195
0.149822814261503
0.160338636722751
0.1539748213335
0.157883629456678
0.150406345885146
0.0493204527513996
0.144011632042311
0.0783826252082318
0.0900392640481463
0.157115605800322
0.0501099605652409
0.0446621826821291
0.0482995562414635
0.147259365572583
0.0558099559240028
0.123369361087628
0.152563828966144
0.0740627789316002
0.0671961920032819
0.0806877708783887
0.0719113597274412
0.0521601679793335
0.0717097958204229
0.0809994861623424
0.0775037233906642
0.14766837437021
0.0532175682102313
0.128707465772235
0.0743479326710683
0.0696931677072654
0.142233524577943
0.0772013733270311
0.084807868571674
0.0504420126815933
0.0800061462221739
0.0537474286248843
0.0776896301427648
0.154849557841205
0.144371527244035
0.0746405337532255
0.0442862995944758
0.076997943872746
0.0825710165100154
0.0845687232888656
0.148029508664459
0.151259684672761
0.0746692821657187
0.0756365061207952
0.154704087126168
0.0713019661722365
0.0516954030084886
0.144279170887352
0.150292745018804
0.0755051374252687
0.122463361300131
0.12258038774579
0.151886721209563
0.0778919024032214
0.0722981468526471
0.150958216791388
0.0773104082544782
0.0765651028560778
0.153977181805085
0.143520120434171
0.147738404122377
0.0737316265139795
0.0650469518820738
0.0711742558236108
0.0687774221562732
0.073632338295995
0.06575560676484
0.0511261342187427
0.0730535215373828
0.0788333827220854
0.132624236934825
0.0503739918082053
0.149096937845147
0.080328602440739
0.0828194055519782
0.148710763567319
0.0743866397342486
0.0763293375176531
0.129405117916653
0.0572942477045872
0.146727743072354
0.150465193579939
0.153955132508252
0.0721051297709322
0.139528636148791
0.126046071647846
0.0806498270770707
0.1478889248367
0.0525945129051316
0.049009968531041
0.0758031847377754
0.0673248143130574
0.072691019841965
0.122215264385457
0.145829832141971
0.0385748747492426
0.149239816586567
0.0705376943814011
0.0454406657865657
0.0458777185819011
0.152425682004178
0.121707874509768
0.0679533632454096
0.0587508386628553
0.076052759618655
0.0770199590892865
0.151350121939117
0.0450400321722906
0.144659487786438
0.0580391757381693
0.0532922475819383
0.0575545398110061
0.0747384210405333
0.0776806526117587
0.0751158659051694
0.0746809503147091
0.0830493423950765
0.0520127200420371
0.149209463020552
0.145389735530209
0.125647233487139
0.145757338014667
0.0564089698401576
0.144397825295444
0.0670721387850494
0.0461812814981552
0.130375191544873
0.0499273660825238
0.15253375952843
0.0380587106180324
0.158600937696845
0.0736590523867206
0.0774574031419475
0.128755354397745
0.155909909981459
0.0784392249412286
0.0743982140507024
0.0695379547454701
0.149181066531992
0.0741791940514163
0.0751607608930862
0.0726622176088033
0.152177710677287
0.14615455045969
0.147283376391983
0.0686672712854373
0.0479211072905387
0.142663479168645
0.0754831167520254
0.075891072979032
0.143190227761538
0.146842343213043
0.131252594628432
0.0793061722262575
0.073508821257524
0.148072242200415
0.0676372945024945
0.144692310766699
0.0708916367358646
0.0549611995209773
0.0755841941481906
0.11969376157043
0.120970342340707
0.065509630205376
0.0787936628282163
0.0723328057484537
0.0553063365782743
0.159868462155636
0.150629111060682
0.0495736246599372
0.143174805255483
0.0490619901340916
0.0672432225091751
0.0709552526946483
0.0785388336816295
0.14888205948576
0.149587608461742
0.14615571634805
0.145095004998011
0.0773350513206678
0.0725026745601681
0.0754492100546265
0.144740353687776
0.0657411928665589
0.0718782337437363
0.0713931850345994
0.0697727219742732
0.157962682060375
0.130161684051024
0.144331429873022
0.0809540868265998
0.0630460096082527
0.0714811945116862
0.123692296455448
0.0764930304635582
0.152357758225306
0.0750357153857446
0.0759566347742066
0.0781362858675134
0.139338555725727
0.126650384425327
0.041965301591901
0.0476269864784043
0.152653317650865
0.0549830090563735
0.0729896825811759
0.146506151259969
0.0825584166148947
0.0715806785395059
0.0486903186684709
0.0740784085058531
0.0755634712448901
0.053209361285548
0.0823585840690112
0.14863618804238
0.0499360078874272
0.0610721785040912
0.153998345532595
0.0753910707495141
0.146374214874464
0.0781528085476312
0.0716871757861559
0.156373291899372
0.158161360845167
0.0744443820438764
0.0532140026817685
0.0835069115763903
0.149248237737383
0.157702224933077
0.0764049682810976
0.0797250186927453
0.0775455013726038
0.142522709762022
0.154743467293346
0.0832018846928055
0.0789998992075074
0.046687742105662
0.144975404090136
0.0513969141474048
0.150425756938459
0.068858940857175
0.0715758614369115
0.0728803596171158
0.146346012919759
0.123934173534037
0.0789105005532492
0.0667614218401175
0.147464769152642
0.151152964577833
0.151530068692929
0.0804233223601198
0.134433073635696
0.0743223937053854
0.0832417707775108
0.152599883626231
0.0730776912346745
0.0677699383282061
0.0800244107243205
0.141615367521561
0.156280968084283
0.0773217034512922
0.0772624439522515
0.0787405343465982
0.155724194128101
0.0564028071261156
0.0776329868174639
0.0476962744257263
0.150398011642883
0.079932479081001
0.122127955797056
0.147964264364688
0.0690131220572349
0.0737323830689925
0.0753483543846791
0.148395965139532
0.155241178222008
0.0849209744771552
0.0785132510992047
0.151742727781153
0.0713989259793907
0.075215341898271
0.124896095065008
0.0437442832464909
0.0766642640857386
0.0417260819361678
0.158342107374916
0.0764475026540642
0.0570889002603803
0.11653607676657
0.0723039222556124
0.0445913479608129
0.0709247792738935
0.156656941638907
0.151278176587271
0.161733058555086
0.124212046463535
0.153100175855785
0.0788206575867281
0.0696428383386434
0.0704296870956589
0.0724924074042667
0.0444257658442092
0.123204707131448
0.0792119086100244
0.151799293940108
0.13027153545675
0.073404081158206
0.147723071769221
0.0773136964587892
0.149525167249719
0.0784521192684049
0.0663948069430271
0.0656806600931835
0.0735033975218952
0.0731639649708995
0.119970657564106
0.0788028283392952
0.0464681950786331
0.074526127343654
0.149231521382731
0.0697038261418804
0.0740521215584973
0.162586737801421
0.0756328437496143
0.0546286559846361
0.0795281448160809
0.0773261668502979
0.0690667661695016
0.0696074869810634
0.0694144852853639
0.155232290787768
0.157208158020722
0.0566203014666342
0.125244958831686
0.142624352022317
0.0704954013656009
0.0733574009118613
0.149745397204536
0.129115506984362
0.050181907894211
0.0528192695358622
0.0677506598581245
0.0650457591621227
0.155582311882455
0.0556841539381384
0.0503615513620681
0.161758354401538
0.07677461412198
0.112758912474744
0.156856586096878
0.0690939461849406
0.0754833436393568
0.0690871225591967
0.146771589440685
0.0685307248229647
0.0778397468729906
0.153736620971309
0.0861138996124167
0.148040086854743
0.150307584774101
0.0499352198558563
0.0716534273338978
0.0714987712009896
0.0806586690720725
0.0756017564572483
0.163818391063727
0.0757210506552696
0.0851671467069056
0.144597979288769
0.125624035275554
0.0520255954691861
0.152200413457465
0.0664660245593226
0.0502904877043134
0.141028415789216
0.140730183078214
0.050669890348556
0.0665792879393037
0.0720780546995358
0.0692978250467909
0.0727463542133127
0.0428849666589684
0.0677897282030108
0.0786581616806204
0.128323392053306
0.0518508693797859
0.0503109245402911
0.146253416032975
0.146463278463932
0.14227399691748
0.0819765279439018
0.0718928881228247
0.0529978197369571
0.0547795961454765
0.131123001993015
0.0748884747160702
0.0511394353686449
0.0798628435434516
0.0699605825784567
0.071616449488251
0.152462228396337
0.0702951750059854
0.147709859319612
0.0740954494714387
