0.0426243359501094
0.0452559086381612
0.0511299340736373
0.0451772135518938
0.0537118692786487
0.0497347611807075
0.0168912133509996
0.0324605097542696
0.0239794570930635
0.0537571894141263
0.0487177491359196
0.0453967790486463
0.0492915965364396
0.0446264405945236
0.0519859065336326
0.0468316272315349
0.0474851878939882
0.0504600243829077
0.0488689406085087
0.0220309482056081
0.0495396241889274
0.0196411489482046
0.0462865588527381
0.0514337342653096
0.0508249540347526
0.0622885040977903
0.0490193386053108
0.0624073161732006
0.0220638375874362
0.0163124269464645
0.0599883874304315
0.0535276651630708
0.0222731517019598
0.0458721218642765
0.0278617240243697
0.0187869312152691
0.0551858565533299
0.0560838776063028
0.059474477256364
0.0406098604792465
0.0516235350745807
0.0457746940702616
0.0485116519447784
0.047354012045438
0.0475900689266582
0.0584860288995234
0.0529423396734674
0.0498336187905547
0.0443561536464734
0.0527514244212297
0.0586175839663904
0.0438190814842442
0.0416124624291962
0.0492202780932125
0.0475134392720069
0.0599995486711299
0.0569130761109015
0.047851082179806
0.0501302216294284
0.0483512688108214
0.041535798807076
0.0466479179605183
0.0438957867712602
0.0148755480542748
0.0256170231015462
0.04794948460413
0.0141866305276777
0.0249287422714156
0.0269891013522292
0.0478467741030057
0.0483661933658546
0.0590053130241054
0.0260209822557971
0.046070640969779
0.0620412329412549
0.0445637787461157
0.0113679996044942
0.0465664852690305
0.0529393605157412
0.0266743661532993
0.0500798913074978
0.0401853361004311
0.0225957307587768
0.0428449889674087
0.0257989651793584
0.0474694501136068
0.0504033218837114
0.0229073485481184
0.0371861922715103
0.0473671466388661
0.0229029901404573
0.0502147151616378
0.0430534941863946
0.0444298793153315
0.0306415141109722
0.052455906689131
0.0552590613000035
0.0555177465003168
0.0481394922628649
0.053259262756659
0.0225899031893245
0.0539568179138318
0.0575952087051844
0.0564673849409139
0.0456951931545799
0.0498004739822951
0.0497383469082595
0.0474941293803001
0.0491026182782815
0.0588500968772527
0.05355117122347
0.024438437040922
0.0490138856650137
0.0554463649513931
0.0471763792728326
0.0440531465739482
0.028464625330279
0.0501664119035405
0.0413300292028683
0.0528115896070479
0.0451699578548732
0.0127446497850961
0.0508035070763149
0.0417424413974104
0.0543680935508915
0.0447404227915341
0.0268278986703481
0.0442990365945083
0.0506083039811958
0.0501503281341038
0.048960050616503
0.0440409249353474
0.0557925036087756
0.0454368836275321
0.0481632426036484
0.0501616026147892
0.0319134836099831
0.0586488077441712
0.0508127545813594
0.0186273828579306
0.0486727947806317
0.0240118286763507
0.0534680036332273
0.054666299047545
0.0515953394127849
0.0517784402925917
0.0495404569466556
0.0451391876714504
0.053379542182347
0.0567433775872161
0.0315474985036514
0.0500332065900377
0.0233270014490295
0.0562790541027732
0.0523615105071152
0.0458591127391715
0.046084791130528
0.0522841140182744
0.049518363279897
0.0524881963620452
0.0499767715784695
0.0560153468388555
0.0451937719614758
0.0530378129011771
0.0445635471532567
0.0319716183800135
0.0213106880642062
0.0545556069487305
0.0501650440716254
0.0338319178785248
0.0530470551226131
0.0341285109720732
0.0540610463987999
0.0422281181879354
0.059429065469239
0.0511655161418927
0.0285467147149328
0.0518715005256723
0.0465471384691165
0.0551519517498771
0.0370056165639312
0.0307783204378548
0.0220554393283473
0.0492494456193537
0.0536528638977258
0.0420726758034327
0.0472348781779935
0.0292192755299815
0.0523454134277481
0.055497884296994
0.0401720264475025
0.0526761650186551
0.0531687464824835
0.0201213501451161
0.058161351588361
0.056016265980406
0.0265144486258697
0.0464853012905311
0.0445135928291413
0.0447573129034508
0.0545563593033483
0.0477864653398574
0.0328485225591848
0.0583532685137594
0.0462905443033283
0.0442988313715583
0.0475936834115099
0.0643724669503312
0.0430931477993809
0.0436845448601258
0.0553806373014227
0.0619693403923767
0.051829607004964
0.0604590602292542
0.044762201493794
0.0515195404096625
0.0457768069226831
0.0506788541536931
0.0463776683965794
0.051094318597784
0.0476655643924756
0.0468050978300846
0.042261862861553
0.0498534313426084
0.0386788495368527
0.0180882074708854
0.0460232255403773
0.0475232169804636
0.0539301988502747
0.0530957110105804
0.047419490163871
0.024453753801406
0.0276243226279582
0.0441435000444761
0.0494975613724741
0.0228981591395885
0.0471012317341184
0.0452731438371578
0.0436685132302676
0.01896251201876
0.0250543446525987
0.0503617261253495
0.0523110156667963
0.0267959092864179
0.0336347568695674
0.0511128094839772
0.0457477476998775
0.0571210374542037
0.049174234430449
0.0186795881919692
0.125522825288744
0.121053440177733
0.0495563910358895
0.12976097997419
0.125690217922866
0.132529265361149
0.0461037194286127
0.11516135732133
0.0454919011577415
0.123904616358822
0.121668447418234
0.127214757116457
0.0413767695700406
0.12903803700415
0.0446557660151219
0.121868777702872
0.124959588328552
0.0450213959897612
0.121704805508133
0.0508623353849661
0.123075735635894
0.0459112950742207
0.0567331825181945
0.0481179662983285
0.052923024090503
0.134810686563554
0.12494124513637
0.0427470253348608
0.0521568932300234
0.048703041475765
0.056658131556525
0.1287384187975
0.127486142768536
0.11892844911206
0.119975303180694
0.12881720745581
0.13198855919474
0.0507757288657185
0.131534409257036
0.127118569683735
0.0558378617170209
0.121281550991371
0.12877967716498
0.0468934302700913
0.132768706292212
0.0494636188368168
0.0483813566815211
0.122960946447696
0.121515777994823
0.134668149594248
0.122910795974367
0.0572285537556345
0.0602668705534686
0.0513651793131959
0.127373415107772
0.128931920843654
0.0530058215453084
0.117980540739162
0.0432517131656919
0.0557143309002368
0.124623714612635
0.12860214835199
0.0525610661183038
0.0410315790859578
0.13306905201959
0.131575465738637
0.132674905311414
0.048469286820225
0.0401519471546225
0.0520974030745202
0.124160705281244
0.131311689340251
0.123695621086124
0.0560541091831212
0.131166182428638
0.122227179604029
0.115067793737618
0.0498008730284494
0.0495329741157342
0.127736352837113
0.044911314370107
0.131356206270304
0.0459944518897059
0.117585354546596
0.124573197843084
0.0515017603441721
0.0499420797192361
0.112858113555875
0.127777945957338
0.12249383307908
0.0542991417591175
0.125414394095926
0.118096733769315
0.132209462133842
0.136857364473947
0.12453823824035
0.110881041236513
0.0585408949826019
0.120652920578736
0.123903771244987
0.0473145200879436
0.122064337705493
0.121008868298718
0.128635179401483
0.0522755875663166
0.0527552141633086
0.0501116192689991
0.130252678002877
0.0526309516963319
0.128205714739018
0.0531723408429662
0.119436742846431
0.0455908415835169
0.124067259478519
0.126624044661172
0.0481700404149501
0.127385628760915
0.121318591188067
0.0398266602829859
0.120184580985034
0.0502204054713909
0.1149911202676
0.0450518044600139
0.125216804274833
0.0539606912804757
0.127533266084994
0.127646003038996
0.0559931605387518
0.05232386366965
0.115495042942437
0.126932617657249
0.0473091931338027
0.11811110437062
0.121679235423234
0.0535080986782813
0.0507492556511083
0.0457472786771075
0.0497766331179446
0.0531892954551173
0.127856362577933
0.114428434329651
0.0420167952222968
0.0463393680456662
0.125371749678896
0.0514354945756317
0.0531078180074225
0.0541560309363964
0.0490391356962167
0.123504620920252
0.126949877884413
0.130511961582759
0.0537062600532119
0.0529888993911842
0.0446725666157944
0.0544118993568751
0.0400410042713807
0.12102579377817
0.0381806336302338
0.126364125892937
0.0518435607007527
0.131786789514504
0.127631701048722
0.133760822952071
0.126980944459013
0.0502641238643505
0.12025556017528
0.118056047888914
0.0527763435694808
0.128900468140773
0.0506729504612452
0.0502612159667381
0.126949651690529
0.0563919716779941
0.116338405667918
0.0490253686358777
0.0482590748267683
0.0451527248377634
0.124008215370407
0.112137090417744
0.0556900271019335
0.132433460459722
0.128463542447583
0.12677679540754
0.0536559762677019
0.0484324468356774
0.0545229974933831
0.0488496441748688
0.0512216186153108
0.120590288227967
0.128633169595593
0.0482581233837406
0.121893930759714
0.136519855241636
0.0474145344872197
0.122935649275263
0.126055441506578
0.0510896766717285
0.128874627733058
0.0530807681745939
0.0443298396806335
0.0513636609142456
0.0454507597950825
0.0527072713627916
0.127368915783559
0.047472953797782
0.120533002402426
0.121809686870088
0.124332249443665
0.0496228151985144
0.123541140191945
0.130782147117277
0.129947176190922
0.119580835209144
0.129204607158686
0.119410370536876
0.116647355823223
0.0557918267996848
0.119543551284736
0.124656755026425
0.122550133149315
0.126326704042814
0.11853679634461
0.0493119477898212
0.0463078326470142
0.0508313368810031
0.128157074611563
0.127089221597213
0.125742185285116
0.120850829127795
0.125957223937102
0.12560754969976
0.129347778521102
0.125976088982244
0.0504484197674718
0.0537384376941888
0.0524789728241425
0.127296845880981
0.0479062193474435
0.119957057750246
0.046945506033411
0.124450921515125
0.122348642609593
0.0466389128399053
0.0465432862008618
0.0442287480741384
0.0446636219823053
0.125771455900861
0.120124346618494
0.0473141208610233
0.122620132182067
0.0472318783513842
0.169600006870201
0.0999000104120203
0.171158984597987
0.169109324367257
0.106893650551066
0.169208315342796
0.0771478844545348
0.17631402868445
0.0908379314792054
0.0785907930580196
0.170437906449129
0.174965314124517
0.0101094425778312
0.0470077759329688
0.170557743811037
0.0995585725024524
0.0719164185874347
0.17136676907168
0.17183375299031
0.103073125417168
0.091868633984998
0.172743484744061
0.173411530029178
0.16891136681536
0.173345457949111
0.051582626187329
0.0528447274953159
0.103915245569349
0.0975287055679134
0.098213025334848
0.097091775872377
0.104014002551296
0.0952089423280096
0.0494222335754346
0.0618019457904951
0.175921222442667
0.175563089673825
0.0978583890211756
0.047398593790875
0.0671852342459364
0.174428543821078
0.171460900780255
0.0544277145838784
0.102404788657129
0.0523227032812869
0.178836020462497
0.0497147700730641
0.100272116089823
0.0757670691802738
0.162207761965237
0.172135214773536
0.177637522616626
0.171852602426598
0.168023732396854
0.0473492203957117
0.0727969909912176
0.17709981427526
0.068565866041171
0.0522946108620658
0.0443069146356511
0.106432958266739
0.172177424713163
0.056395211796012
0.171811812536609
0.0878261159470729
0.174614451831385
0.173705045818397
0.172785577855312
0.0475394200718186
0.0479867724828637
0.181986497938979
0.10024289474243
0.0792855236558925
0.176316316293055
0.174193833767908
0.0490588190734176
0.0556685849971824
0.166437951744092
0.16751577470294
0.1046020904584
0.0446310178866055
0.0472123092304927
0.103658173195567
0.10577357596151
0.181651604112513
0.110451294487327
0.174545043307512
0.0774913144230908
0.170428764209212
0.0996659764298213
0.105966758799034
0.178990697036696
0.0447968109112536
0.176893672079002
0.0888653990911728
0.168639671280734
0.166462118593128
0.0468190573219164
0.0750155376012418
0.170507763904848
0.173831602981351
0.0797727024271077
0.183398277032396
0.179407241276744
0.0406312255870687
0.175168317518047
0.173812537212558
0.0784123236425134
0.0588581447693947
0.09736864554465
0.108806377930293
0.0467224038234915
0.181199497226844
0.072638217108625
0.071752962915261
0.054112349038739
0.100164360479488
0.0831965203563472
0.18118102597229
0.185248694825481
0.160167271179899
0.16462076585972
0.0969112484549362
0.106159530312553
0.0465563840861544
0.0988503968157952
0.182280518642031
0.0507124594319104
0.0506130607083821
0.102937054898466
0.175288342415599
0.0934596251228218
0.172563313443549
0.0957341057420709
0.0773599851118282
0.109183428619352
0.183414773293576
0.0504007104339643
0.179842476741323
0.0923036125218104
0.177807255427835
0.176796845464508
0.0812066967035797
0.0529563863853279
0.170406936916308
0.180415843161242
0.104887358944801
0.0911260508123632
0.166475077682695
0.0392539493866017
0.175767735075354
0.175621122991895
0.0847142676505558
0.0490067418369087
0.070649086879023
0.102830540259614
0.0537091133189987
0.0975247160073524
0.0712714893271134
0.175719981431418
0.0510608442899551
0.176200745651511
0.0749714208311957
0.0971277784348086
0.0765737596514706
0.183286249683713
0.0513827874588812
0.0987799165103955
0.176017877670015
0.174665870802696
0.173496510189747
0.15094034604396
0.175831485231911
0.174776711173168
0.104543179977342
0.0426549009019941
0.0452598132624917
0.183925703329523
0.162401231097899
0.176390779517166
0.0527385879831041
0.0512527903224777
0.0990362401760241
0.103811705097237
0.0530066282117154
0.0963475721235334
0.0426983302798709
0.0744329395370171
0.080097299034011
0.102985115778682
0.174259120055452
0.0787832119826708
0.175277820154357
0.110828474456397
0.0732628019849912
0.104195012631409
0.171295261977366
0.175700035169133
0.0634113615382364
0.0997226916585323
0.105928619535531
0.184738813534253
0.0976798899976301
0.0966354107615564
0.076227549283062
0.171892707836912
0.172860068486753
0.100553751706094
0.170987394817258
0.182995940127861
0.174012153411569
0.172118734924267
0.175458617738724
0.116909258233901
0.102523256260767
0.103932787171241
0.0502284436487917
0.174289712688797
0.0457522573429618
0.178182920730798
0.178891439154604
0.0552002095737387
0.0491182135933976
0.16996340445942
0.175324691504923
0.0983116112132415
0.159438767775907
0.10329998335476
0.184330252747683
0.0682915107218363
0.0486311004993858
0.0974875552752383
0.00131843236689747
0.0419717337459515
0.073895625431291
0.164918379215711
0.172793008614897
0.0990915393048103
0.0545245582711635
0.172430589943564
0.0964446022887969
0.168506446225672
0.163269027952642
0.186016366666281
0.18100091988847
0.0527176310031054
0.048813810935536
0.0930135862817221
0.0745442150473588
0.0854108626023565
0.177177052312799
0.0992848275747402
0.178210754785514
0.0971224009273082
0.173623298492763
0.046312169400538
0.178682618634646
0.183051990877326
0.093416186459648
0.16362523406358
0.175128000604226
0.049378373029624
0.103970486318975
0.10227446689272
0.0994744029427462
0.164459274836168
0.179059021642581
0.172224747818878
0.167125437049953
0.17788452333953
0.181847199291179
0.181219406498549
0.185901715699851
0.0506705065840383
0.0950694822240267
0.102566445680716
0.1766844377355
0.0558759703997538
0.183307066691544
0.105620905697344
0.112194831663592
0.0526822504373668
0.174183271179085
0.100408496884186
0.0712198275981938
0.172884574479506
0.180936068680642
0.0501323107319136
0.183332070568177
0.0972872591502683
0.0480526681476696
0.0436037291690701
0.0743806562760295
0.172696115234738
0.177026026234879
0.0978779453309158
0.179715930252283
0.104602685405585
0.0533944663537544
0.170068830295913
0.17737657908843
0.0804394565354896
0.174869978374286
0.0750856298395703
0.0510257464466145
0.0726405775351349
0.0694230808610168
0.0711294705655814
0.167215232873351
0.17139761466224
0.179134270606708
0.171475737256877
0.0940780952271155
0.182022197539297
0.0462406702663422
0.178239898361251
0.0954968673557349
0.0413583985311398
0.102483201032836
0.072772005444773
0.102185361426298
0.0975332548835704
-0.000484604800939797
0.102090708876599
0.17670849224819
0.0930481640118865
-0.00230759934512246
0.176294220904038
0.0809767437579813
0.0950096909578817
0.0800672892182753
0.10493971672813
0.17674332640503
0.100594874121211
0.0541538371326957
0.0748137999944964
0.00329496654253851
0.174086143065522
0.0998166961253754
0.0511229344507657
0.0913314880308002
0.175562514094461
0.108154602510035
0.172199793553041
0.096711876053873
0.170904286223498
0.180562017726402
0.169536559556977
0.172519473733948
0.173996040506434
0.0533510161772534
0.10423335225327
0.176215238580974
-0.00448332474455458
0.0812600953112618
0.180701843278307
0.104887485866848
0.0760240419610161
0.0646628383550308
0.172467224068747
0.0787938282799701
0.0601928571265364
0.174368353487291
0.0962296496875087
0.107964913576051
0.103604037596231
0.0749530326549109
0.0508295417513057
0.0570952005457929
0.178438260600306
0.16901457347589
0.177317274794181
0.169548235694417
0.177279648902943
0.173424794148479
0.0539417102641658
0.0981311290706721
0.0988786947360806
0.0742277108288516
0.172565898516096
0.077370121256174
0.0500610476457239
0.104373174522188
0.171959827439833
0.0786616078160007
0.00276807410662906
0.0527460993711148
0.0765925906980117
0.0544946680693235
0.184554735498209
0.17444517982766
-0.00481193209832856
0.0561248373793844
0.17935189490304
0.182584281648768
0.074980362936171
0.0965169099197639
0.176501077682114
0.0930480138353135
0.17733895668852
0.0556233347667028
0.0722659614939672
0.175712304286497
0.180783094980808
0.177386545687676
-0.00405775098852367
0.0478647611398677
0.168685726981735
0.0462673628631996
0.10504724293394
0.17812622573944
0.0475702927114502
0.175137626415022
0.0780761136160518
0.0904231476621046
0.0442619246752832
0.0737136634696963
0.179937251694883
0.103518890005554
0.0824371228935319
0.0964659162095295
0.0546672106626656
0.176174748101005
0.0454087660931685
0.083619844835578
0.0449186427480577
0.0573215899046388
0.171130112684472
0.099013486896069
0.174512342278482
0.0774516200200384
0.0955158496985176
0.0906353556476617
0.175206672814932
0.101138816134764
0.183588904690824
0.180235985547221
0.177308929478099
0.178304492453982
0.0874925063699539
0.0716716279381635
0.0556835844740611
0.0498343695837894
0.103821960195101
0.0904286644022929
0.1802392071789
0.167978393574729
0.105883535865464
0.0997476731938941
0.0930996117519118
0.176814445640958
0.102607731264471
0.172848750583024
0.175494191907077
0.16038513947628
0.0721433675276387
0.042646678782931
0.0934230119923254
0.0703122062582559
0.183509195261785
0.17510198459144
0.175856921520598
0.176683210878175
0.172356061996769
0.173495961994688
0.177810981994712
0.175791109485402
0.0481467157738278
0.165125207211856
0.0956894246941607
0.107062296640212
0.158778174944226
0.0563128111761777
0.180477919381674
0.0734703147452364
0.179199427807009
0.179010870113335
0.0535881130780635
0.106304727562773
0.0829030767171412
0.101592080136165
0.0713337917036986
0.1766550884095
0.17390534048286
0.042310379589413
0.0626873686819408
0.175958021145081
0.171039976552899
0.173283924509018
0.174166787205446
0.1807863992821
0.178652202554306
0.182011359967903
0.0960563694555143
0.0767521770195488
0.186278968938716
0.174747998534682
0.172092548062962
0.108404183913033
