0.121920369076203
0.126917278384833
0.119774737174348
0.126368995018707
0.128486578798451
0.128209121703585
0.124887984763105
0.127222974017624
0.127695920355888
0.12837051463443
0.119810509029748
0.121936656603001
0.129423461839688
0.129597144577305
0.12001672793615
0.120820391432821
0.127908830459838
0.126931759644888
0.117135170908541
0.125106753327696
0.128862090163345
0.122216363227443
0.124858900363604
0.118986469532358
0.128637601738171
0.131192055285809
0.127594664772825
0.125523120097128
0.120672603785807
0.126778487410925
0.130549179681318
0.124352554699778
0.121831896822959
0.126025712271974
0.130679096648377
0.127480423065733
0.123321527708358
0.121726475015889
0.127537287022221
0.128119397409494
0.122986693762018
0.123911833183804
0.125866467596685
0.132971484068649
0.126093856487878
0.127507219589264
0.128824362981864
0.120847046045443
0.119047732815528
0.123528871704279
0.122236570976728
0.122019059740054
0.12512142926443
0.135402032477231
0.131249458073304
0.130246561601822
0.118334280091608
0.132525098845579
0.120374516752328
0.125364370618034
0.12547622731722
0.113185565761877
0.123568346170213
0.123113745614906
0.124356981613645
0.120321232795823
0.126949393629739
0.12323299372701
0.110890060953116
0.122721541895157
0.128657864498989
0.118435746091252
0.126543853036579
0.127345401191406
0.122276695812739
0.12949658570446
0.125316297259992
0.121389040333194
0.1238620791262
0.117321995032101
0.113888068719288
0.123743158530634
0.130188750555392
0.119639593778205
0.109261651414756
0.114511325627726
0.12269858680167
0.119333838729721
0.120200289752228
0.123021391319373
0.133851328056808
0.130387037887804
0.131849755071119
0.126326975015049
0.125139529663808
0.127530303078947
0.11313008428172
0.129723374528513
0.126447223092112
0.125106833514796
0.137985632836252
0.127126857002523
0.122826679777599
0.121052482110915
0.12414543154766
0.130649090583953
0.117311410072157
0.118723510175146
0.119430444308719
0.125550818988206
0.124473465792049
0.131169811167933
0.129351395893889
0.129658727485256
0.129593097434293
0.120325437044332
0.132735167906716
0.123815443624769
0.125501285093114
0.12945504683328
0.120914294089407
0.127621482981273
0.118768799955786
0.138536058202549
0.125143863215886
0.12328807480609
0.125677266873569
0.124536757932208
0.128275357962742
0.127158814635246
0.117994289569966
0.126996608312612
0.126920541596152
0.124947720971408
0.129048423335743
0.126479247858342
0.122654097394944
0.117609361729403
0.122575949298446
0.122200419541941
0.123593581032857
0.132140733245341
0.13142756921121
0.123756070631064
0.123686745919064
0.127357891672421
0.132141588501221
0.121541237581882
0.129240249759717
0.129167501006622
0.123547868221147
0.127503137228786
0.123990137768734
0.126812098388706
0.126281459600441
0.130004239625551
0.127379498307305
0.131370359675729
0.124105340246007
0.126154905071123
0.134475691430623
0.114752403770648
0.125225762318322
0.12479687365857
0.128793204562601
0.123429204883105
0.128424375821921
0.126056803481987
0.114800292035623
0.123598234155522
0.1301985915066
0.1251657438665
0.123390664076806
0.117149440376269
0.125892453549563
0.118309769434269
0.12644756098493
0.117540737167227
0.118440206665128
0.125721496814484
0.114469454020156
0.134485160197868
0.126724903009055
0.124388525866878
0.121591232560242
0.121887491358848
0.110152643590209
0.129313501542787
0.122024234768969
0.122371384982232
0.122122468763575
0.12723565298586
0.121518450972173
0.126304256602715
0.115240897966764
0.128730985327107
0.120761694425768
0.12114962300755
0.141053609080996
0.13268967106665
0.123849781778678
0.126985637860265
0.124590991240269
0.117237506843826
0.126712282861241
0.123371692989517
0.122165231689918
0.117967909176625
0.13050681801964
0.125438177146023
0.123034854075258
0.119611204166132
0.126087079109148
0.12223624502779
0.126272400807546
0.129655421505558
0.12876370701125
0.125806593169519
0.128169876492135
0.133424191468985
0.132333478100935
0.118832824652643
0.12268381681551
0.120818569220245
0.129358008043333
0.119993644555584
0.129953512710606
0.119539219586086
0.127616110557889
0.137101048932103
0.122568471045005
0.12825609058547
0.126574590929258
0.128277119052224
0.129119574683202
0.129666069797164
0.123359350384005
0.129795659252944
0.119533245293377
0.1219619810177
0.121216345280993
0.124669941110112
0.127821328376075
0.120905640191512
0.126047773144797
0.117679140664696
0.129530675588951
0.131083758221842
0.12151958183449
0.116024714636166
0.0714445808155776
0.083338155614335
0.0784461489171593
0.0793931703017153
-0.00283760692359191
0.0776702930654739
0.0705070950553719
-0.00517910544832595
0.0706175852537066
0.0706450156490979
0.00403398568453718
0.00124583334537401
-0.00603869587616691
0.0762882243443437
0.0849644168198648
0.0730694782199442
0.0703616496188101
0.0736453241778898
-0.00410057173924037
0.0737870853657532
0.0659362632653235
0.0783944686718495
0.0821347713168875
0.0744934632592845
0.0727304197493857
-0.00432910348294008
0.0769800822300783
0.0747177845809197
0.0653165249876559
-0.00837963223719632
0.0712173539722205
0.0809589765888536
0.0776577880545542
0.0730750618229414
0.0769264793596154
0.00057907303434886
0.0849808809361017
0.0776036488418453
0.0107794792607505
0.0779165870534499
0.0656453106569282
-0.00330483834750049
0.00100756641475064
0.0733560524438823
0.00283554386102356
0.00123935530205047
0.000223542144771075
0.0652136087665787
0.0748231035231027
0.077823459975348
-0.00411187451165873
0.0813390696865095
-0.00313043621207365
0.076358923326909
-0.00779346745730334
-0.00483851187330826
0.0745568260866525
0.0721666416971142
0.0050266189293977
0.0796631505985199
0.0711478732417114
-0.00316090458797503
0.0745518866571735
0.081057014745811
0.0749938544775584
0.07146657439327
0.0731130844647307
-0.00309992473046581
0.0691136940219571
0.081429079609002
0.0735418664132466
0.00919007151557728
0.0742617060994376
0.0811780973733989
0.072292143794902
0.078061842479708
0.0740150620103251
0.0657433100651685
0.0768648437496111
0.0759723310082151
0.0702625355542705
0.0760791727030976
0.0702966058346144
0.0729591211524557
0.0736658579273394
0.0738678186056074
0.00134152754240409
0.0664162452940441
0.0844914314373524
0.07588174663348
0.00560578911793951
0.0733031572153606
-0.00337995493709835
0.0832416169460077
0.073771675726287
0.00951537748053547
0.00401804206830656
0.0821938834515623
-0.00648542927580024
0.0738842897604089
0.0784927500173276
0.0690825586579302
0.0716590572299909
0.0780779378936719
-0.00475141772917083
0.0735829200793985
0.0779264299470879
0.0731095634256902
0.0793380298983425
0.0743152457740045
0.0735563833039918
0.0011272785426991
0.000936558729807611
-0.000252023745768818
0.0745616486482949
0.00663760933924957
0.000985038987883316
0.00186077060170273
0.00278315219450893
0.0768177241172661
0.0774182857999131
0.0818174679939362
0.0730960941706641
0.0792967852462626
0.000849379712362222
0.0743129152810968
0.00664539853191844
-0.00244811736385205
-0.00201346433801468
0.00226675412426511
0.0743462254914618
0.0783749070775219
0.0797286141776658
0.0024624712172876
0.0817081569848077
0.00724678494055244
0.0786342177456565
-0.00104664190722189
0.0697870375242833
0.0667272318961665
0.0727018503197466
0.0761478274754572
-0.00654427610633136
0.0812495234917525
0.0693529858225575
0.081667106149037
-0.00388134196134001
-0.0058814019335596
0.0786315999275127
0.0767509755865648
0.0725713946023553
0.0791405350238203
0.074617574498037
0.0663376881426848
0.0828496253432431
0.0700834687697821
0.0684901501790226
0.0823379229357423
0.0763892337538322
0.00124006284491898
0.0736806814053509
0.0820036896008921
0.0733955693245696
-0.00714569556499883
0.0831576013067039
0.0627363105616772
0.0106527595744556
0.0763306188690973
0.0712049416923297
0.0819889856326425
0.0774110728349713
-0.00339013980383278
0.0721727632118413
0.0757455594631737
0.0779468717151447
0.0707968244294072
0.0759610596242629
0.0808548895713738
0.0859945502374415
0.064722757126667
0.0764196833140151
0.079880890276324
0.00452391475405178
0.0827059743594068
0.0763759916141074
-0.00146701445875165
0.0735763330812468
0.0760742789363604
0.0802036072888587
-0.0030433707922389
0.0794181617423227
0.0790251126998601
0.0827286262265811
0.0790582199480184
0.0702846947443304
0.0730763399281797
-0.0100850125809097
0.0823253790311877
0.0768476926018566
0.0791462074896645
0.0753629325829492
0.0729626475519704
0.0662541356745142
0.000959739025256882
0.0777084519959979
0.00354319929441161
-0.00738688659471082
0.0753384201254284
-0.00253740353061873
0.0791866711781163
0.0757640813843325
0.0766714437354114
-0.00502132837082231
0.0798182897239334
0.0748269167842282
0.0772026054268088
0.0758923367220629
0.0820278742938623
0.0692867905031595
0.0740309428784598
0.083238140516713
0.0762705251267618
0.0778288115887999
-0.00129652251358621
-0.0056732120926899
0.0751276615459839
0.00633357126691198
0.0810569217654507
0.0817485562040381
0.0709662060379834
0.0706020726795896
0.0703552232603056
0.0840929146597157
0.0785290442434229
0.0710596550777086
0.0840484671150575
0.082118776732435
0.0727263002177768
0.0735287546985811
0.0684339100889662
0.0724778246401772
0.0806664638112838
0.0757584300768894
0.000214692871925561
0.067030733464358
-0.00378064438538964
-0.00311142103513795
0.0698127693551433
0.0731044745523214
0.0741603548961045
0.130876103459029
0.0756825197280701
0.116885036331924
0.156556175132604
0.10210525419577
0.146299416003171
0.125908652452457
0.145680302667539
0.119440922696837
0.139715538270948
0.0966651208623417
0.118073843748286
0.100564796844502
0.129163422725668
0.142738566540075
0.121496521496322
0.0533903482724724
0.100507202694224
0.0475251260197275
0.145045168896589
0.126722049983263
0.123699498424259
0.129717383325675
0.121222911125087
0.12401522341537
0.0852607128823139
0.129530653896516
0.154953667298748
0.103338369081185
0.128616855249344
0.0987585231050077
0.122035439613797
0.12483751406336
0.134780289729312
0.0772614210354231
0.0722982759997544
0.125830853516004
0.145933430129062
0.1501088248501
0.0744265985764849
0.115357890972312
0.122912196463171
0.127254291367319
0.0811830368806446
0.0488823375400319
0.134466930083314
0.102056034076488
0.075647677003021
0.145261516515624
0.150836869635534
0.048927856835899
0.114899006595321
0.099303717816581
0.0719795892581064
0.118567910043894
0.153101116382954
0.15343926019912
0.144048788737691
0.148613913878774
0.148909426192334
0.128705765482506
0.0763554889108024
0.124909624198524
0.107871847718513
0.127203568977259
0.101530386854198
0.0739440457799582
0.124978174959935
0.150722155806053
0.127631736947568
0.125324021772305
0.148892906738826
0.0548005794549518
0.0736650092684448
0.101706085883442
0.08235758494031
0.0421479545297722
0.142478689033645
0.071276867458459
0.0742475606808701
0.128641478351926
0.0961361709424793
0.143659258118448
0.0525826585866912
0.127060663362571
0.0746763679092578
0.126535214974158
0.118995552858046
0.123741732973185
0.127155640451186
0.0959904919686108
0.0789305987038429
0.147578314169499
0.0980912778026989
0.125392793582708
0.120012765721072
0.12198235818397
0.0731808573015378
0.158454670825923
0.100095811975881
0.0522297825220155
0.131133899854375
0.122324971102637
0.0972925948342522
0.0685346134574916
0.10308825680431
0.10327915873131
0.103631006057542
0.153165314128389
0.12722967415165
0.103729757606169
0.116204433932582
0.127239277149487
0.106806310375627
0.12737053754586
0.152144121258842
0.0980988888976321
0.0971812065747339
0.096558468351388
0.0699028728225566
0.0690813960165272
0.1006153135251
0.0839349459193411
0.118101606118022
0.122295633462824
0.0770790889208637
0.0720109443041792
0.0508320243194794
0.0692933371567584
0.0859860754880101
0.124093552124998
0.151081475057297
0.0375944746596469
0.12253125632887
0.157465102922175
0.0729754059048312
0.14853137857584
0.0811033063823617
0.1437648419911
0.109089698564785
0.0943461206594258
0.0990271610297771
0.0473838774653634
0.0744331385552969
0.146295075825845
0.123419344112546
0.116611691834636
0.107249549184727
0.123866578452587
0.131475937855967
0.12272431912983
0.128172006166461
0.149634618154561
0.0778240259785352
0.115907773951335
0.154996086569165
0.134771131571528
0.125548950901262
0.104052225981473
0.132106759098847
0.122481379125294
0.131618225687318
0.121518108583831
0.116783089816554
0.0740546906546044
0.101248354877259
0.120077564124464
0.0540077265615301
0.123373830786085
0.100920598009252
0.0931153216832023
0.120525368842806
0.0747339035131611
0.126774400307954
0.127775170723829
0.138748277255735
0.0754339538215419
0.151140312948883
0.0994874972722204
0.0694554029915691
0.0972470411150407
0.127057770956909
0.15495526319721
0.102595986511978
0.163063377834234
0.0761399062141424
0.122572759348513
0.0723540700344815
0.149714324947486
0.124127185493998
0.12041859693395
0.124258666920469
0.128317945079648
0.123152388789043
0.122635987494789
0.0995847661298038
0.126159819285873
0.074766485477126
0.124676344520482
0.133446211944498
0.129053057451825
0.136632271533713
0.117989075642874
0.149379391056656
0.123727781943116
0.0953000737726292
0.106873191928209
0.0642353729645017
0.14446375063266
0.128396120873889
0.13102918892112
0.093340143636374
0.124902362552004
0.121433014141013
0.121764567365469
0.154411130913201
0.133790174762684
0.102061858497526
0.102702381968513
0.0775522193117391
0.143562025381969
0.148322469852078
0.143052835781655
0.0732289435297842
0.162713974819228
0.0809873892851841
0.102816745443403
0.12911103227196
0.155346822014771
0.0778724087506914
0.0749540645424495
0.0996443988919943
0.100318434800671
0.0971090367067722
0.0948623428464783
0.122921629743906
0.149860390603926
0.102692279638974
0.099925502850192
0.151104700991851
0.0871029421105405
0.156710070735807
0.131501491580958
0.101294781696306
0.0539777733088161
0.116988975836092
0.160761328732001
0.146411746927085
0.125926900309357
0.075698975124334
0.12875822074683
0.14428654265034
0.12076885756752
0.130852450564513
0.142942652725206
0.124042506206002
0.123202302184577
0.079209233500838
0.114577173671583
0.139860110678376
0.155326459428913
0.153366008578113
0.100796313237235
0.128095805085632
0.0730975864170197
0.0774591794200443
0.16229959806827
0.125328344234166
0.0952220857514667
0.153801110945544
0.102333498721238
0.154066356464995
0.121828990875152
0.105125890410676
0.142629810328829
0.163328552062782
0.0522268523423967
0.100523524021023
0.0947320649581936
0.142012684359119
0.116030122709109
0.12214718717063
0.107105753321361
0.11362205182049
0.150313915279414
0.116854848383122
0.123320310233135
0.100899287388515
0.151346715855714
0.0942794831739806
0.128892989230376
0.127861868519281
0.0462124634025932
0.156242185127353
0.0788553821814558
0.100141147468084
0.0687912010093158
0.121614969224606
0.153063319408854
0.0866028990305009
0.127157380413639
0.0506601605331852
0.0765745753779347
0.0728854783887149
0.0999380616551117
0.100075849967122
0.102395311067013
0.100746107152632
0.142853507328689
0.1405162375178
0.0517612246271294
0.1476839784665
0.124083850228382
0.0761426835028359
0.127017117716795
0.124586101577352
0.137561432326001
0.149109386760473
0.144121931410395
0.14444449399914
0.102389529361982
0.0706988877377701
0.0718725529952319
0.0783453840832627
0.0823456444841565
0.0780468609383133
0.0750414174358109
0.147212800064488
0.0529106766227699
0.105299197904732
0.12637876897375
0.146595991330606
0.144533258006399
0.134018983815938
0.123578483351394
0.0780262320843456
0.12116689444017
0.0964770054531872
0.128508813447445
0.124291200744477
0.0790172647241889
0.0767683127177564
0.145199283154312
0.124830646485111
0.129556080523892
0.0763638146684511
0.150822912266876
0.13037008572682
0.0693540184581199
0.147174126285335
0.129726356715432
0.111529244414862
0.101730961980088
0.0802981058724684
0.141746514431941
0.133693719906987
0.100155321471483
0.122365130718462
0.157377243054082
0.120647167173814
0.125157585422766
0.120893663031655
0.134359464915221
0.102464326178143
0.105467689466262
0.128325510345667
0.124965923885653
0.116540509181594
0.0399627955412756
0.148966704762298
0.045621327776697
0.148351719490946
0.151863282966256
0.0746277783149789
0.147546823443724
0.124096069261744
0.095716686169941
0.127154443532674
0.093944700246077
0.131532323415573
0.130279683636212
0.0766357326452602
0.161157378994743
0.122079970190845
0.122247271240486
0.13122594377965
0.145758737592502
0.131660894669487
0.0773397749137711
0.103148418382161
0.0702320385228495
0.137888819068356
0.0642735461992945
0.117864425089603
0.156981218516592
0.0764039582795938
0.0964698163819716
0.0467849051916123
0.127821489464791
0.121325514021964
0.0443097365374171
0.122680581762612
0.147324932851225
0.151825616511421
0.154074691745636
0.126365811040812
0.147286349354892
0.160331652886875
0.148445898127561
0.0723369140163794
0.141738184795097
0.130673063732772
0.126814188191393
0.103971702868956
0.153404321201005
0.12876722100882
0.0967693128666762
0.101336574693488
0.129135271410783
0.134221567624823
0.127689488749121
0.0983855867282282
0.123897857643778
0.150419754627272
0.148564913940365
0.154857874621578
0.0829786230497236
0.104441700301382
0.0916482076105452
0.155043530407244
0.127801596847783
0.073229028156042
0.0697567841388961
0.124091676106342
0.128209515371304
0.0986525662565043
0.0493900428915844
0.0715936341323478
0.121861403760776
0.107689858879728
0.0722581936625663
0.0953235170276749
0.148379903791419
0.101791275461742
0.121830531879975
0.151356307429109
0.103443321839106
0.130937878370527
0.127348419872238
0.104585308421788
0.100475619979855
0.0949492133609796
0.143538822501822
0.103504219082314
0.134609827677373
0.097713761924804
0.118908830422068
0.125130019274158
0.146740272667509
0.0451312608792772
0.134761849806363
0.074762945363704
0.0977779106963999
0.128486720308068
0.105115326474208
0.114521569762061
0.101988614320193
0.108835466945881
0.153793266790671
0.082636961957863
0.0683554660005693
0.0527498084710544
0.123449449230365
0.0846676026423041
0.120861950557185
0.146515028173014
0.125751197138123
0.111251245036058
0.118022553013116
0.159257154034756
0.150093235332161
0.104330671809486
0.147308732121951
0.101802727736354
0.146855972730885
0.125423574426004
0.0675110209608459
0.148315583967146
0.0664612430119872
0.123692159478746
0.12227328695874
0.127492927776801
0.0840112316032858
0.130115884682859
0.127030119528969
0.0667186360917031
0.143015389652066
0.122768263578815
0.0461676644925957
0.148727293527846
