-0.00591789195457388
0.052632406669972
0.0494481491780119
-5.77576802768988e-05
0.00248092970396895
0.0467141095041759
0.00298393249174143
-0.00552301700944585
0.0440953733129965
0.057985184394476
0.0507620984574268
0.0457747713422429
0.0605690044348096
0.0479939719996283
0.000876694722601022
0.0557276989732736
0.0505457473896092
0.0548741347810378
0.0531277388511389
0.0486167736935214
0.0486651698070008
0.0523890436650919
0.0504281521017042
-0.0101852138687932
0.0399407008593504
0.0414775148034572
0.0447813780269565
-0.00413366223060133
0.00481093739114652
0.00570816395603352
-0.00656559058602194
0.0520778754159528
0.0555966460575755
0.0443890085322622
0.00226476851186673
0.0494066366061256
0.0426030381942344
0.00106102607570144
0.0595013560867061
0.0465685383709255
0.0059996911896499
0.0507606541156184
-0.00393491828929999
0.0505887575757903
-0.00107936577338364
0.0516455172099109
0.00373906502419663
0.0388799364964777
0.0469021156796529
0.0462901060919686
0.0464025350461927
0.0541352554286134
0.0623422039668514
-0.000375447957796984
0.0519455253204385
0.0444443489020475
0.045157803726694
-0.0118849237565711
0.0546922477191423
0.0415511064868667
0.0507227431674457
0.05659624141415
0.0639747226138006
0.00262672126335974
0.00264748680778813
-0.00615029957105435
0.000684306018125272
0.0485948995807442
0.0517406353609944
0.00122168838619425
0.045059576048697
0.0656975347089064
0.00185309031299687
0.0490591047443787
0.00667255684651792
-0.00448711872323007
0.000603508809804045
-0.00240551216210529
0.0503044913120523
-0.00654231946511372
-0.00106250598365397
-0.00735416496527042
0.0485141839886174
0.0384126829509838
0.0446462692047814
0.0594655293615754
-0.00914218897139085
0.00516485148886928
0.00802630731208885
0.0536673639511792
0.00144279134415821
0.0105045838547841
0.00256867481285516
0.0499281264483648
0.0539230271272824
0.0525465852701561
0.000223677166546723
0.0450608360625996
0.0505705513626628
0.0454971817786842
0.0567312968360026
-0.00738599622656219
0.0511344686712474
0.0448501718109732
0.0536785547854985
0.0552575783884706
0.0435256490615617
0.0539896603269486
-0.00234243861886976
0.0509300981156168
0.0502508334361172
0.0046422551752728
0.0498778637457592
0.0490018701351055
0.0477192207459193
0.0489243446823435
-0.00110874616951088
0.0490058266201016
0.0511522943843181
0.048015108993681
0.00581273344128762
0.0535857296654322
0.050389235210982
-0.00876381178037131
-0.000160473838347681
-0.00196163344897032
0.0515662330538296
0.046562302803547
0.0502464701799133
0.0414830563175517
-0.00249235771345552
-0.00364513077524083
0.0523856229650018
-0.00479644837357609
0.0549424194315599
0.0455429122718222
0.0433979051124956
0.053217310375494
0.057998702157729
0.049705776728949
0.0582300380302624
0.00691908512532365
0.0605558465420648
0.0526712898472041
-0.00330977868783589
0.0468117916209516
0.0454085505558993
0.0512083565643884
0.0497838364628808
-0.000221632921517603
0.00232188485389202
0.000793442954393296
0.051044515092414
0.00460081262375503
0.0500194221462794
-0.00119633503317336
0.0503628772291465
0.0548250879040754
0.0514693860967358
0.0518872566243491
0.0466619101544213
0.0523345006248076
0.0528294360981508
0.0477749941328336
0.0549478046012228
-0.00267870278287651
0.0496478799012951
-0.0140156569357498
0.0107566184789172
0.0485927843062962
0.0549462794902164
9.14064065137673e-05
-0.00311663382839935
0.0594881929866954
0.0550057862563307
0.0557420571690273
0.0537873772974083
-0.00297037557211678
0.0513204671990481
-0.00115505695762165
0.0101133382804992
-0.00585275012680059
0.0546094126942382
0.0522714971191499
0.0498468081450991
-0.00191923629073454
0.0470057228664411
-0.000799149939448555
0.0469106698093167
0.0474261088428249
0.0595583714986661
-0.00177281036101669
0.00480819824610205
8.3258086863182e-07
0.0455500070841845
-0.00470245476959523
-0.00266340804221315
0.04539047963197
0.053774423380911
-0.00238547904894633
-0.00890511021543165
0.0529268956360092
0.00225963588876292
0.00110748417632541
0.0488606230439093
0.051363700105727
0.044116946533379
0.0566814120902269
0.0482061567144401
0.0531412813614866
0.0533833599674895
0.00642132361929742
0.0475024430003872
0.0569487867096911
0.0384514441335713
0.0533857447395928
0.04692652551583
0.0421573335458042
0.0505255380482844
0.0539639457996186
0.045511396855928
0.0447952487058334
0.0582729998541193
0.00135825163686777
0.0439149046972959
0.0483737728356761
0.050983566186744
0.0511797513080626
0.0582308540019253
0.00650745249319939
0.0503364542441991
0.0539074328084126
0.0464976995441354
0.0029855719810522
0.0469738268933541
0.0413651763572697
0.0514701783149386
0.0428676664335577
0.0477528205467499
0.0568424417293371
0.0438360547455806
0.0570048656256777
-0.00456924716440444
0.0577623381072825
0.0599111363249859
0.0545173712480247
0.0515754763226495
0.0517422118970419
0.0561495106080205
0.0111052817638916
0.0822946640224274
0.0717162494973967
0.0682816542954808
0.0790893428288685
0.0728702511568546
0.0710324428607756
0.0768036963653519
0.0748138468159807
0.0753602084351389
0.079031932768635
0.0807359309067711
0.0811355238428993
0.0739003426984566
0.0826959194410283
0.0714659932525929
0.0794826384677508
0.0790826111434111
0.070425013560808
0.0820953503916203
0.0718164071431502
0.0764186138551553
0.0729800948150315
0.0734649531991367
0.077473415984658
0.0793120033004407
0.0732123651661919
0.0740351744716066
0.0756241236658678
0.0807218995400023
0.07268516820296
0.0737492154352112
0.0715079017735862
0.0741038531811603
0.0651830087694984
0.0756574777658154
0.0688573948955681
0.0750204452807584
0.0751727978563349
0.0739159309793143
0.0702413196204694
0.0755677735304094
0.074782281254731
0.0744573100388122
0.0751958588003606
0.0634015881987354
0.0777552609562893
0.067125844722156
0.088325275947601
0.0797289167099902
0.0813093210861791
0.0779742041152343
0.0699377702564268
0.0693418185262405
0.0730174692755568
0.0662361620506438
0.0789121000652878
0.0759013422354326
0.0797828965561918
0.0780987742090707
0.0705947627963753
0.0757062831983848
0.0694775253346424
0.0770209988110004
0.0693457437649526
0.0730304689524324
0.0796052860177553
0.0787914200251723
0.0764380985558115
0.0803647238534482
0.0717529039247724
0.0816943070312443
0.0738846788030068
0.0783815321352305
0.0779205826700642
0.0779944273892718
0.0710438490194813
0.0848122908130787
0.076005700612121
0.0711808024761146
0.0796381852232794
0.0738000889671922
0.0703113256033647
0.0780134013351185
0.0777916890737527
0.0745303689315863
0.0773808318289112
0.0698322974148713
0.0694826742988595
0.0770621560716663
0.0740339921360521
0.0761144310178003
0.074196794027065
0.08054901751431
0.076819453819016
0.0747528502087755
0.0729271175123126
0.0744784655134446
0.0702438146494517
0.0794134665483039
0.0800617088600873
0.0702636007662703
0.0728008570720787
0.0846073223130494
0.0755326682433332
0.0719869434864171
0.0773116041819529
0.0690405465136131
0.0756120268401842
0.0863728752069449
0.0786191052780795
0.0762284540853247
0.0798740937735214
0.0631734392220426
0.0754590531875571
0.0743342566884268
0.078690883381885
0.0766966826693788
0.0747529899345637
0.0647318040790225
0.0756506234988656
0.0761291168273404
0.0680760006018037
0.0864386005823886
0.0760346652418296
0.0818394514846681
0.0769813151839062
0.068104159202627
0.0750505191139594
0.0721117373807602
0.0651937769942558
0.0798504411340995
0.0705841037786661
0.0837970374790822
0.0785878367019917
0.0784392553965489
0.0796305807427054
0.069886364384287
0.082162404556323
0.0839239653344943
0.0706032783528701
0.0822505878128675
0.0711298736092828
0.0797269094208634
0.0748909283766611
0.0728756250197761
0.0704098583466893
0.0818371531113112
0.0815227945684275
0.0755647576788106
0.0766514302890655
0.0771226878964688
0.0764293398244235
0.0782921972781333
0.065403445807035
0.0755942879664233
0.0758402746652616
0.0767625176038312
0.0826836944906291
0.0851896493871268
0.0795651003094485
0.0699170962871024
0.07000089715322
0.0797410307024283
0.074482526864855
0.0785342303673101
0.0682321546682695
0.0738230514975066
0.0746266424347726
0.0797048835793469
0.0851624167466451
0.0744874219129141
0.0751259783494717
0.0674774963357071
0.0767511684437017
0.082264364908928
0.0826883073037944
0.078348063914073
0.0701811692630566
0.0665835472687284
0.0670024173716657
0.0796650431721293
0.0784535277172142
0.0672833408231081
0.0666014111470625
0.0731346119810383
0.0800741402496319
0.070133976537572
0.0682645986477609
0.0754972132121456
0.0815125763374718
0.0736991284489291
0.0695611609310033
0.0774118406776859
0.079572324587732
0.0693668440857059
0.0766129446337531
0.0793009953317279
0.0683454350760261
0.0803654123614442
0.0758726058930757
0.0765880689151954
0.0758697357352611
0.0732697904992998
0.0764936933594415
0.0777106459214811
0.0747163043945439
0.0762946678370637
0.0787803313357593
0.0722018075398879
0.0685799795580624
0.0740203934781229
0.0776220544118389
0.0689363068858252
0.0770810045529232
0.0720066305099937
0.0804123935864227
0.0719507809777156
0.0721702690377906
0.0811374021163252
0.0632448299281514
0.0789476958836102
0.0817379346505317
0.0716187545810359
0.0794488532263339
0.0754044624989275
0.0755209496285232
0.0699486951934828
0.0787122690557028
0.0721753094418602
0.0820620256777733
0.0745845579920841
0.0725760804903249
0.0821426643388006
0.0719659590562456
0.0724992158376524
0.073980516635893
0.0779298963130994
0.0790023179236662
0.0750415236733102
0.0786226471619257
0.075461768361588
0.0849355620030612
0.070988347907521
0.0694156824387847
0.0814661633303636
0.0754172947307069
0.0679731231230311
0.0674661651111119
0.0671751066709692
0.0759518122936331
0.119215403950511
0.121463099495279
0.0783208442258705
0.215569293562437
0.134141614268219
0.0733424865394608
0.0796897829990066
0.000300588034344445
0.0732196098437537
0.0754004100195668
0.130081580500248
0.0852495892496615
0.125886054153913
0.222488059337828
0.119719414044972
-0.00218577929076821
0.117174792841049
0.067572749454569
-0.00296822492340157
0.126995798394026
-0.00354947318723691
0.124944902815106
0.0806094952916893
0.216664953203649
0.221220415099712
0.000154045266824408
0.0744667808254253
0.222289343017029
0.00784585186390875
0.0836283847154173
0.0741169990710985
0.218261872131442
0.134442654019029
-0.00738590878379345
0.134777615220407
0.122253828136073
0.0789601787387971
0.0798319488170883
0.121731998029703
0.132709275927167
0.118771186974031
0.0695580141328305
0.121884539070883
0.135540421821983
0.230220596465232
0.124875959408484
0.217169682270147
0.132078342876588
0.218566626735403
0.221548784572474
0.22240734645723
0.0738805721313862
0.132567855632663
0.223490366057093
0.0861598419499099
0.0751455592539702
-0.0121878435520304
0.225176659830874
0.125659554989635
0.133659414671833
0.129778569562652
0.121513124033925
-0.00548360307765479
0.123579439680239
0.00128025222645088
-0.00442210469637419
0.230705883643254
0.074425009418197
0.114409333333385
0.0763710793075533
0.227929960567935
0.133843109694509
0.125468072158739
0.130644100192086
0.12493928941924
-0.000120878002878951
0.224999959551931
0.0749197626164681
0.0749767107850433
0.220829734704691
0.0764444578340517
0.122489876459549
0.130266365533514
0.122885624443149
0.116462597159678
0.0732736557937173
0.225992254508143
-0.0109981172065112
0.222775361081374
0.123994900030364
0.080316160549497
0.0681719990927938
0.00159481111316092
0.130018481695448
0.222325898929178
0.0702387051517976
0.22760735252926
0.240182503986591
0.0818966632548395
0.221613625001702
0.0705258506391116
0.0704305715419333
0.123927272453479
-0.00102606835706876
0.126574701561363
0.231714643578363
0.124324182572613
-0.00583065076253515
0.117522126592817
0.07688917791535
0.119378095247852
0.124506580794111
0.124832764552284
0.119366707222432
0.123507175467933
0.0687360498582404
0.116743517642969
0.119471047448021
0.232908091171354
0.0691771981080211
0.130004242618413
0.0119279047830987
0.0725975724021882
0.0819490685004296
0.00502517538159696
0.128046621873123
0.120974200360823
0.122206780048314
0.124028148754973
0.0811282399704559
0.129648182199135
0.0732242617783206
0.130319130960832
0.218589282543687
0.0789540644086694
0.130221262383233
0.122770263079101
0.223507400495038
0.0704360586022727
0.0707596387509093
0.126139642564659
0.065809801816158
-0.00627969584595302
0.129246488273628
-0.00443569122187167
0.12244668984752
0.127789166199665
0.117638590579639
0.00180032736885353
0.0725653642364067
0.121306627394224
0.0773829108735604
-0.00420577854010411
0.120813621562173
0.0686614380737943
0.218044387169341
0.12639398872145
0.000623482860406592
0.120045583237076
0.226732224848354
0.129303632676111
0.123587955306017
0.00145063701832894
0.0706492696877431
-0.0075277430709267
0.224779135178433
0.130648433592427
0.227832324969717
0.0761219406253002
0.00939390017330295
0.225021653475424
0.0764121620075192
0.126903833630144
0.00717519878759396
0.122608689970567
0.0743406266759587
0.118463948539601
0.218033320760944
0.0779541031643487
0.221928229817911
0.219906128247876
0.0693801061983009
0.0772178173910306
0.220886204264922
0.0744629037486727
0.0740782076406295
0.116627570177613
0.00486909292136348
0.0729209059906817
-0.000506734847580018
0.073531136313857
0.232022128830005
0.231212479661154
0.113906202969659
0.137309851759153
0.0822331893667425
0.067515460584481
0.21590120643984
0.125701327833711
0.0677427948101564
0.125111487540602
0.211639772302995
0.131127846734159
0.00393141463574153
0.128544003919952
0.121799070822851
0.22913736514162
0.0813493680044341
0.0772564668840774
0.23009409820268
0.0688723348384465
0.12825965544191
0.000270995813182174
0.22477729834533
0.0726254328932412
0.0828150575436493
0.0748132521999112
0.230325991618093
0.118747850835656
0.130190004847991
-0.00724317266998759
0.0755493947411866
0.126559512164169
-0.00451826340502136
0.120554263558642
0.124933051212501
0.00188028230505692
-0.0061358117142084
0.0766537401070597
0.126587761483511
-0.00351831592061188
0.0670877429928695
0.0629061026644644
0.00975267384542406
0.0725412145174375
0.222395318610785
-0.0063412139726487
0.228260288122419
0.0721366547538946
-0.00754102287924606
0.121531092108409
0.133775482580102
0.136531301819208
0.00951661937459519
0.126276509614775
-0.00217744703161525
0.13061218043563
0.0690892616965903
-0.0106190969462943
0.0707469727286792
0.230594036729745
0.128908232140085
0.223486524769277
0.128889550466868
0.22779852712996
0.124289635410851
0.124160851105538
-0.000781259209628983
-0.0034929169152923
0.239333213713035
0.0772719611718768
0.221618370593429
0.218228654819701
0.0728180774261948
0.224713968995217
0.116213061862503
0.133817161334856
0.225264296547725
0.0709080544227552
0.128579286959332
0.235393401938685
0.221476909896796
0.00108486487914997
0.0677644148692228
0.12350930877414
0.00481467154019059
0.113523416853888
0.0786163866016755
0.0688410862284366
-0.00256340869621457
0.00550926479976233
-0.00508008102308229
0.222167202118648
0.077203468130194
0.131299711778367
0.215525423357107
0.217420661316908
0.229599390785859
0.221167849487685
0.12028684253956
0.0783678534375668
0.0767721768526118
0.0771842017593381
0.0684121705531409
0.0644297777900081
0.122469388578747
0.12448734638704
0.124591791978627
0.230000162157933
0.219511846740068
0.0752275411720215
0.116725384479407
0.231181648655636
0.124122701056452
0.230699875577579
0.22447085389743
0.00465155834884639
-0.000370634969999848
0.221339050221311
0.22407469535307
0.126349798907778
-0.00441416045139237
-0.0019109895090378
0.123280531183488
0.0777354846366764
0.121790937169725
0.0779671066325482
0.227716845215366
0.0720722505967213
0.222153467632497
0.23051532571307
0.0081812162012492
0.0777804307690725
0.0716565955575021
0.132618594722
-0.00126583922442429
0.129156778599627
0.0757767288740385
0.224372419740468
0.224291366334141
0.226512201726746
0.129136188136491
-0.0102632891145052
0.0849384500190679
0.225842670727866
-0.00134554703562998
0.229238934034449
0.135316150357223
0.12738272707255
0.110242410414185
0.127150125199715
-0.0123546174140384
0.127872138388256
0.226130874000175
0.124482628948533
0.129212929689654
0.221837554833541
0.0771024020004801
0.078070496998959
-0.000446348492638516
0.0742795409383773
0.0751923997009358
0.122835076141644
0.128935512341466
0.22469028282514
0.0777977013993414
0.0785266134843786
-0.00190339005298797
0.119848815566112
0.115438646991328
0.106386324700641
0.120592589023064
0.00206046197215116
0.0735293282622491
0.127681875483484
0.133593090213097
0.0683280745483678
-0.00121117363977156
0.00353942699633924
-0.0104270110443102
0.0811488818329627
0.127280617304232
0.0693811678517505
0.00180620258401271
0.130088445239304
0.22631445143143
0.0757295723070256
0.220306772739704
0.229690934118058
0.118647890617151
0.129170750619857
0.126994134232006
0.0775085384585964
0.11812255157327
-0.00475966039565975
0.121262316444264
0.00199482754184287
-0.00277529213934993
-0.00501058186903307
0.0052743483549912
0.0818815317587618
0.223780352671229
0.0775765089240308
0.130590413967332
-0.00374466141538419
0.236483090134289
0.228607501166334
0.216390559151927
0.00147464660686291
0.218481288623759
0.123653301141211
0.127964095408576
0.0729422084624342
0.069042464659831
0.132803827960214
0.120463431875696
0.12431645306469
0.136118692961399
0.220657662891276
0.130234066821942
-0.00721272766729145
-0.00123929202970741
0.125167699999667
0.0742091214929103
0.224919597796693
0.000512308840074017
0.214189354139819
0.0852931937303548
0.122425856442898
0.0690311479354082
0.0825171413085748
0.00246583244615792
0.0789722197482075
0.00233173010435772
0.125142243030557
0.224112488485473
0.119562610332194
0.131646558192881
0.216649522660283
-0.000258920159667403
0.132276444580212
0.00430464045368314
0.120815275715267
0.0834999859935769
0.0710714794250464
0.0605041662648002
0.218027598654085
0.134415760905245
0.129855490606665
0.077917031546421
0.23050461880036
0.0774727892512835
0.00218867530727781
0.22532680873433
0.224043883555771
0.119474383560069
0.0769170004672649
0.225253240205304
-0.00034882239734548
0.128400341237863
0.131127312319315
0.223402748457647
0.121801914889749
0.0752369486137366
0.13405010296088
0.127002048397264
0.127620386430069
0.115583334854961
0.0765078144056276
0.129417559941738
0.0717610972159141
0.132995204299977
0.133895518298516
0.215442915174231
0.221005217408361
0.0623333524832906
0.231808577753689
0.00355568534738691
0.0706154192691694
0.123702331444204
0.0808072980978344
0.0772600127694479
0.122648277776506
0.0768951953466242
0.123961453259747
-0.0103786393002866
0.223080942574007
0.215923909870259
0.135462598051552
0.0727827152304318
-0.00328642181294173
0.0782555866947
-0.000863541411929584
-0.0135224322898591
0.074171602239129
0.0805000708606429
-0.00351386521104583
0.12881573056519
0.124064234475012
0.119714118220779
0.083473863602966
0.128517659841252
0.127502253003356
0.134916863504207
-0.000381094448800893
0.00623688895200117
0.0788467824295938
0.220194363637129
0.0699453446058968
0.0719275852674915
