0.221637813398334
0.223137685897505
0.232853674348251
0.230800376937381
0.235246374568648
0.228029175245181
0.22049363559962
0.224462911091353
0.231051093172389
0.225991377183691
0.223528525630282
0.222097019769824
0.223461848641862
0.201976490614006
0.223022720250539
0.223325849175655
0.214809144323052
0.224392599069583
0.223476776179277
0.22211632806078
0.22212308955019
0.224286180697922
0.221745797295845
0.22347711140666
0.229376773795641
0.222947092473218
0.226980644769447
0.224835050381827
0.219076309528093
0.225475184500136
0.223761368051686
0.226226432573309
0.219119229059495
0.235285180329749
0.213182905721421
0.223506821100631
0.226116164260961
0.219738857830002
0.224561362499662
0.223764101133827
0.223045040888102
0.225702271419947
0.221884524584458
0.225205671795083
0.218143325591854
0.231054597168398
0.22873062811041
0.214662901583466
0.218295675873425
0.223553866703731
0.223305993094081
0.224508010960713
0.220569164145405
0.227114381155861
0.225524938401987
0.225533770566118
0.222597805966213
0.220427185127213
0.230329336896639
0.22204861526888
0.225679331917687
0.224466751702285
0.223773813275546
0.226769562069092
0.231571963820377
0.221647930768272
0.231953408420292
0.2198032816069
0.228986472351904
0.225604180302543
0.225701563195486
0.224374183022613
0.22486108418391
0.225418791031119
0.215509227981314
0.227442654254867
0.230442869867389
0.22142525689154
0.222243451293895
0.226845425721509
0.222366356200495
0.225643643831374
0.229147423327636
0.220579949127454
0.227752114338417
0.208332114384583
0.227222399954246
0.220322672393619
0.225536390301855
0.232815855918411
0.239244473153191
0.222241423900552
0.205431318813353
0.230640685276981
0.230894196648533
0.218474990705878
0.227526459112542
0.224872271081113
0.223362049325896
0.195431054199779
0.219873680579785
0.229291813888568
0.226405282020769
0.224327967853565
0.223256847499496
0.229976880146006
0.217587866993338
0.223136087759757
0.225285539420318
0.226211768691015
0.226373562953477
0.222866654378999
0.225107116380385
0.225224606077015
0.217093650569523
0.227877416779841
0.221905858001466
0.232404251596254
0.215528814206034
0.220914046503161
0.220759702354204
0.229007487787699
0.22240362599303
0.224351263467499
0.218052686999038
0.202195071470311
0.222576609796862
0.196438761104142
0.221540527075747
0.221765681521534
0.223288656593103
0.214933348486812
0.226401015556435
0.221812316592922
0.224145722062386
0.223455920640127
0.228723244084401
0.221000175782058
0.229929191359203
0.220113281673826
0.222682315025593
0.223399905115344
0.229623820168787
0.229355331307624
0.221825687314274
0.218069729373341
0.234511281640459
0.231162027983295
0.232919016606952
0.226260935501909
0.229357220165004
0.224617146349655
0.228768019316468
0.22658688396848
0.22631411137469
0.229350764475005
0.234212527916296
0.21997070400493
0.222456847342561
0.227212257813
0.21874794344725
0.221507766771476
0.224170479724948
0.222788944309113
0.223833084877094
0.228898473524359
0.225769173156396
0.226602897813416
0.225413159254869
0.221608407005731
0.225354546900548
0.225501896457273
0.221861190607832
0.228648791623662
0.228692116170481
0.215588426937391
0.228144374756415
0.227097762106688
0.229528946372788
0.214416561031437
0.229617436870654
0.235231754803706
0.226194384468724
0.219248893311653
0.224270900392165
0.228041166627071
0.232003130329605
0.2042324542277
0.227629696117708
0.226287052631708
0.189062716482804
0.232162893145291
0.221076942535378
0.22099644700381
0.220339632178365
0.220581232757842
0.223487616403988
0.223991612794598
0.226676677338133
0.220638771461093
0.220188281651602
0.220611475593858
0.217685623060603
0.225258040502166
0.22549249063932
0.225342398070238
0.236242651223692
0.217531572421946
0.225694914893338
0.226177694145758
0.228066682286428
0.224987943673326
0.221304027147904
0.217807097602082
0.229817468998919
0.227379670728481
0.226783848143022
0.228016124234917
0.219300800000405
0.214873934451814
0.211962301445971
0.225909477366475
0.222587891162729
0.231228653731749
0.222829143324631
0.21980651224526
0.22249960283252
0.227479000800233
0.214549712052689
0.22474205775421
0.22856905154957
0.195674630116914
0.217410480646791
0.226727865925338
0.219905673148178
0.22323283075546
0.227071894471315
0.22340495247792
0.230111637943909
0.224676925667185
0.228169746886753
0.225590484705267
0.225255773579384
0.216915976026108
0.194994108671604
0.220484423948868
0.235197227004005
0.230013899649305
0.219886220176889
0.22343467923979
0.0766497989892265
0.0733203930905733
0.0831373897728399
0.0764127464820996
0.0778161519404797
0.0772948320658669
0.0758728677932206
0.0684270637201961
0.0758756463046579
0.0761999326726378
0.074931641460263
0.0731088492050243
0.0666525453141134
0.0808747620975756
0.0758419777242963
0.0752725313584369
0.0710759158740115
0.0667928040911184
0.0643638805024029
0.0707851006274441
0.0668308604482204
0.0720337909507859
0.0732500308281788
0.073481260098406
0.0711743353077742
0.0722242264341556
0.0795717805267549
0.0785475233183542
0.0726586011159496
0.077564551610904
0.0802561326127388
0.0721990779173645
0.0781423032728629
0.0843519529195634
0.0773340835829351
0.0722971167219416
0.087062736634591
0.0728420697107854
0.078523490868176
0.0797570698813367
0.0740948307017147
0.0758644775358807
0.0709742686895284
0.063894516616128
0.0648389828427404
0.0681921529947093
0.0754009000304886
0.078086220979442
0.071943134660316
0.0744896664499431
0.074150060223403
0.068143607824645
0.0760768510506072
0.0755505488427665
0.0780889237666279
0.0763397909888775
0.0727708928779533
0.0797217079061388
0.0753125407111415
0.068383905897818
0.0790291813465083
0.07386825335587
0.0672017752846502
0.0730279752628214
0.06719913093259
0.0716075204988028
0.0794027919771956
0.0777167224510933
0.0712464923729422
0.0756517822020655
0.0751156837905644
0.0682423335763099
0.0686624945974914
0.0764127795830171
0.0750479070295275
0.0791107402258415
0.0764732443640636
0.072107718360688
0.0812494471580121
0.0783398382654802
0.0836720136745504
0.0697187387606898
0.075229745935647
0.0745137057369286
0.0753419477933567
0.0720594075698554
0.071817640283165
0.0736163175651934
0.0770992130039805
0.0726021072803618
0.0763965164056932
0.0766504123911523
0.0737922328656932
0.080755300908718
0.0736576867563325
0.0747645179088286
0.0688271902928624
0.0780496323757701
0.0820168526738882
0.0716198541858482
0.0782317183204693
0.0856633603701312
0.0688901540143519
0.0786610896693988
0.0831891216986608
0.0740148362134019
0.0809914151380052
0.0765318797159449
0.0783279518385194
0.0762573849510432
0.075153598508178
0.0670774690939964
0.0821178273650635
0.0722510933855979
0.0791067002774151
0.0824781310141217
0.0743003534509055
0.0598216039957743
0.0742551037615067
0.0797077662362183
0.0666539993928935
0.0748333686048191
0.0804964932404155
0.0738226111034145
0.0734110792016248
0.0651793313633669
0.0810175441894436
0.0761576388934672
0.0807179384362807
0.0734222900817581
0.0788091062838249
0.0764894953349399
0.0794701572205541
0.0793598491412167
0.0866058461971152
0.0751302565612426
0.0673723106631602
0.0779196916634922
0.079834879321037
0.0730373078420898
0.0680855199183447
0.0708181388056558
0.0722963409483809
0.0676991970807914
0.0813717286500617
0.0685830272322474
0.0699744804089209
0.0764523087772721
0.0749772382235647
0.0704328000990914
0.0767530814510032
0.0736090774057237
0.0724152828159827
0.074156620798232
0.0809486105259248
0.0753154068467481
0.0762314838209759
0.0759809931734605
0.066357811027868
0.0721693076305662
0.0738199803773965
0.0782331512876395
0.0735787094249246
0.0808752643578367
0.0765639457323791
0.06874839989922
0.0862970771388577
0.0738301969651499
0.0731789140708676
0.079008565783224
0.0794104700378332
0.0719291400925311
0.0738533880569285
0.0747947843549704
0.0807474440555005
0.0762948356933209
0.0644793279441755
0.0769552226579645
0.0812092517739042
0.066158640449315
0.0677376308409537
0.0723024037660497
0.0722281862818049
0.0890030721370651
0.077767626547936
0.0786884748427877
0.0755270945381562
0.0764282550191668
0.0769223864050028
0.0738769417406711
0.078832785827482
0.0807197271960232
0.0737158706415429
0.0705274888743977
0.0739317548359213
0.0697790160719587
0.0775867960795909
0.0776675339501861
0.0709418855329107
0.0736338406816962
0.0771064983662677
0.0808282860977917
0.0733780712031929
0.066500874484168
0.0720602809934732
0.0767571212331145
0.0731849752857889
0.0752343702343036
0.0699151838831036
0.068536035037072
0.0738581068532136
0.0720245627479023
0.0821260036441224
0.0725621502514164
0.0768097193177626
0.0738622014187326
0.0745720459257011
0.0743925826786477
0.0723659848059694
0.0770507260615206
0.0733842166369257
0.0736214958516451
0.0759222539176844
0.0739312354260925
0.070967845662582
0.0735889978875176
0.0839921867289523
0.0758926996477806
0.0661040682085572
0.0691024537062025
0.0737200805143974
0.0856933773821102
0.0706216470152723
0.0757924605368947
0.0751703581358743
0.0755998202413356
0.0747416516523611
0.0694060059178581
0.0801272867986139
0.077934982464026
0.0640760227011957
0.0778341182142903
0.0812372192050071
0.0758832920326108
0.0719076552793309
0.0805182277408557
0.0776125307764771
0.0708979617412087
0.0836656278393556
0.0750937024036397
-0.0017865092015308
0.129879062753636
0.00137337021472651
0.118290683715406
0.0195195591465897
0.023242815166486
0.120158549868073
0.0790040701993242
0.117602503825819
0.0749202214012222
0.0266698128953853
-0.00780078257731725
0.0735936688804908
-0.00173914395151225
0.0248864597445299
0.129918349552483
0.0743484411766799
0.118577001218902
0.136393081292948
-0.00208213026372257
0.0018885089308331
0.0174674021203967
-0.00302651673135993
0.0779741448385638
0.0226461136583827
0.0208631327209209
-0.00639257881641892
0.12313289930027
0.0283529898921675
0.124261641772189
0.116418919128215
0.0717591907051181
0.125582100900459
-0.0149593156174535
0.0132441774709856
0.120615447766388
0.00705774451957209
0.069605408637021
-0.00349213001509697
0.1223455396218
0.122372837230906
0.120975328576133
-0.00150597160337029
0.130346846556108
0.065310557861335
0.0787468029579888
-0.00613844655767453
0.00345749117250242
-0.00904653247611178
0.00189574941239088
0.0723402265406435
0.117920841475301
-0.00211315365119564
0.00142712153046663
0.12210613033913
0.0757677720187868
0.121376450029975
0.0739953094252088
0.0701879252501921
-0.00555574739801949
0.127992989579902
0.0847614650051471
0.0785170693842426
0.128627440307598
0.0232543325567181
-0.00335445354331989
-0.000910188919447855
0.125026255189971
-0.00160593864617091
0.0804208420574825
0.0245810804588954
0.00148784299650905
0.00572898703699521
-0.00971801355808937
0.123493505413236
0.0288325850488642
0.0225598036375895
0.0228947218754751
0.125297831300321
0.126349294278576
0.0257221852958859
0.0106843116892706
-0.00216108797689876
0.11097217416855
0.0303798747198532
0.119395574921263
0.119454440461405
0.123289461535008
-0.00483763280765885
0.122950210271457
0.126032527420768
0.00761222748630003
0.0811565080539995
0.120197323424942
0.126334133174818
0.0833631385026414
0.00763593922083019
0.0692897744275831
0.00196156650565631
-0.00980985033982195
0.131889055071826
-0.00674180036520272
0.00205006167700573
0.0250272488569458
0.11858334312454
0.0726725052926847
0.131987035845792
0.126881608416975
-0.0048735850538328
0.0721775981852861
0.000770391174232742
-0.00196516077418014
0.128441372946884
0.126585529047252
0.12370038475076
0.120361491760416
-0.000386965654836429
0.126538492548727
0.117777343129454
0.128354276167657
0.128781374732358
0.074378414778445
0.0733204582103917
0.0739484293800942
0.00324340725140955
0.127000354163449
0.0748193437731573
0.125178922538224
0.0237450106529047
0.0174038148194742
0.120913675665498
-0.00310173307954256
0.114963852479667
0.06658553064073
0.0075859950160744
0.000595820604377305
0.127277905068704
-0.00146874440850495
0.00219544958372836
0.0766234027134215
0.0251706664742033
0.0772576377228183
0.133497056603116
0.12233882856071
0.132390806318303
0.13438102462386
0.0720176102214112
0.121308821984312
0.0862939118049373
0.12931544586676
0.133172576533804
0.00743952976554095
0.0747194429353505
0.123921629033844
0.126452617870229
0.136524192172801
-0.00368274424639556
0.0701114188837199
0.00132023399836814
-0.00940152692903697
0.133421160559522
-0.00672755832876135
0.127509712256206
0.00881994564453168
-0.000195212063757189
0.129233149220949
0.00023807088931108
0.123146780261548
-0.00219057722194074
0.126477158485097
0.12772637023429
-0.00116767056976011
0.128721024709162
0.01577026194252
0.119665177320453
0.122171592253617
-0.00315024927404338
0.130046274487157
0.124064081130226
0.130090751576866
0.0745713797190537
0.0756634222214249
0.0150221970775664
0.111338075661735
-0.00150465196366312
0.123706853891241
0.126498316726648
-0.00086150648292456
0.0753878178252304
-0.00457635724392781
0.136481364615549
0.0683956076173138
0.122824626213845
0.124825696221591
-0.000395783547253508
0.124689875644499
0.129669064741483
0.132620754968654
0.0730929042477956
0.124645837183804
0.129877089708872
0.121318997966958
-0.00337975995617408
0.000987657503036948
-0.00356743793788381
-0.0020134728822974
0.0656786147647285
0.129704070932609
0.121826044619821
0.0778061769285544
-0.00759116010281725
0.120703945103902
0.133637987668015
0.0294785796242527
0.0242988412558349
-0.00238799952903879
-0.00147344235025359
0.12741416852081
-0.00121063043202898
0.124728250470349
0.131090350771214
0.0759303873145857
0.124898861206585
0.00294146660644044
0.133585899807742
-0.00698112488994565
0.11135591785545
0.0751885099931348
0.0238860946491918
0.125070004074677
0.0669576163378933
-0.000316196607182056
0.00101834216636614
-0.00537649535682882
0.120404803526177
0.13546438159946
-0.0026700603074433
0.00445261919130142
0.118612295585606
0.121019069936167
0.00064908132253952
0.0240466890624062
0.00567582607935152
0.0221162746009256
0.122666848081452
0.117121834010909
-0.00742406436912105
0.0252084387825247
0.00770613778743033
0.129634102334394
0.0864215830396606
-0.00226635455243919
0.121051120029182
0.00258383864095625
0.0745970818669449
0.0331561184009646
-0.000821169328263672
0.140460253353735
0.12228687703237
0.126100916501226
0.129775036326814
0.00482185069712855
0.124186237524744
0.0293394516462216
-0.000617838687258139
0.124591929138672
-0.00159400233565144
0.0728898687079535
-0.00195739083880888
0.133234620542375
0.00341296563184848
0.00505588652350704
0.129547209426665
0.017583732949116
0.0694184802116304
-0.00694883347874846
0.130049562044388
0.131288614923382
0.00347193320841
0.0807759389752759
-0.00162036510354611
0.0273140861024512
0.111678357224555
0.125813675924891
0.129250747429615
0.0242189861352428
0.0258541999319232
0.0770501852027794
0.0800767541683973
0.00889465994515698
0.0780749824836534
0.0782747552306345
0.0793666925436532
0.0787739152257715
0.133122862656838
0.115041289044086
0.0305324706272175
-0.00264401878395333
0.0195959215200172
0.0718115944417561
-0.0017141534854843
0.128873835470465
0.0743902705175477
0.130443806420339
0.127109885902459
0.0705012648914722
0.00514528898522353
0.120680181812074
0.0743897509712749
0.124844682371712
0.125618813606353
0.110587221864627
0.127758029574504
-0.00442137721147199
0.00403299197162812
0.0896793998373934
0.0119834175549074
0.0766525399857545
0.0649938004836529
0.127096668135942
0.119348416522095
0.115115398856368
0.0695431261709909
0.0182356989600746
0.131858343938461
-0.000168163042373621
-0.00532769830059238
0.124246886802915
0.0200820351591213
0.115647830890971
0.0767178710752866
0.0679213890915111
0.124994048920783
0.0222786697805501
0.0806732186193969
0.128950292639979
0.133248435151251
0.0250917866145307
0.121512359333008
0.124344216285276
0.00109534177841154
0.13019476829157
-0.00582305390582418
0.0716221222707536
0.0255464300012387
-0.00590036210605185
0.026249073142438
0.124996304392655
0.121765101657779
0.133960157810308
0.128457641582971
-0.00349373483756307
0.0775801945630934
0.000291064215422649
0.131238155264258
0.0766348185008009
0.0795474972140802
0.125717069460132
0.0798266022213
0.000680880885491868
0.125226577142948
0.000313081871839935
0.00269782328423865
0.0207475473279153
0.00922472286033223
-0.00906216908405893
0.114906421193465
0.115509268561003
0.124035044048396
0.125116604552642
0.127353350699259
-0.000465716644171169
0.136369262227475
0.0102903629469273
0.117924632257716
0.120503295344977
-0.000857314117546868
0.0702299353484405
0.129045353767937
0.132744073253876
0.0215373037158424
0.127276008534593
4.79873152255006e-05
0.125062936458556
0.0766301954328198
0.0044592511123479
0.0692315498577479
0.00780954997763977
0.123878286340398
0.12222312093888
-0.00214885820549527
0.00657019647039337
0.138672421420109
-0.0035564103726917
0.0824705327411917
0.117878413242176
0.0765248994508384
0.0363322151033762
0.125421385044842
0.128418858076534
0.0787005680306779
0.0152269844851438
0.114135231816132
0.00118049289320679
0.0180675496308364
0.12488560194585
0.0210833256292445
0.0781257658140323
0.0769837210050556
0.00532300042748148
0.137530686108101
0.0359191532010368
0.0262713863410188
0.0268946122252817
0.0322191380870132
0.0696643715926248
-0.00340352636282183
-0.00492969538385998
0.116488651148346
0.0725722792547038
-0.00863629865388745
0.0735940834649225
0.0200192032939176
0.0240212960811935
0.0742799239306955
0.000128540482068602
0.12383306960775
0.129939627308721
0.117833506426757
0.120201928043517
0.121416153750335
0.125519150080638
0.0180666757050951
0.0758710639388378
0.121054212452053
-0.00562178393389425
-0.00445099793432288
0.129039219988836
0.118477914845697
0.0281606988287141
0.00319008313131868
0.0667181931119029
0.0271633823069888
0.0223479883472632
0.125204533807235
0.0796505007177513
0.125307247531872
0.00564410382366049
-0.00117571509847533
0.0241638929987461
0.0810278600852035
0.116012698152195
0.126577775125149
0.130394146137501
0.125742535919575
0.126337769450143
0.0734627198829682
-0.000224355819864821
0.0785488493011837
0.0696789549186297
0.0722502155561679
0.131792314987257
0.077388045921927
-0.00503980500019487
0.130611426170934
0.000294438674033923
0.0698150869162201
0.0720869537717854
0.131216993989385
0.0745550932925828
0.121289583629075
0.0721142754524024
0.114010439488339
0.0248947978951234
-0.00726710450177291
0.120569177888114
0.0235420031150316
0.126031854350857
0.0654762543357405
-0.00157782767899287
0.123919008306975
0.00450865135487411
0.00224164833360127
0.0739209454575406
0.127585077867471
-0.00271991871986833
0.129273196877069
0.124721987749364
0.0259473667161282
0.136367535868143
-0.00907502391536329
0.0056488952791438
0.0761262775712113
0.0807666562102077
0.0689176313741807
0.00138499414521745
0.127040688640777
0.11800738736036
0.0701985544093456
0.00189631714720217
