0.101632636087411
0.0769774277162084
0.0808713362049683
0.102529419956551
0.0995977040812215
0.0999014559461929
0.0972621161715194
0.0932148591578851
0.0800812688099639
0.0749077866959697
0.0781425705620084
0.0783845271141421
0.0788727633088596
0.0738365682478033
0.0936877265709259
0.0861602873783995
0.0732063055896459
0.0999282920822031
0.0783959735577471
0.0691317909625465
0.0556595787456146
0.0586365146946988
0.069347364250495
0.0733148975165596
0.074224152324092
0.100881667929603
0.0939018012215864
0.0942996476385221
0.0714176762451104
0.101471357210427
0.082902587257926
0.0728949204190755
0.073810354975535
0.0782529462693698
0.0744489285645237
0.0992647975232167
0.0799456718123165
0.0671691102081026
0.10970810466224
0.104063651933808
0.100860843423477
0.0709837414217558
0.102912348878363
0.0759341654927332
0.101743740498665
0.10170632475036
0.0984734526828286
0.0755341654868894
0.102335849340139
0.0357019620924066
0.0689489751183369
0.0786639153007044
0.0751751081272255
0.0677045427741387
0.102282427016524
0.0701528027022259
0.104261559898018
0.0772215343803492
0.072966706384412
0.0960623879526286
0.099937856262107
0.0722419850818379
0.0959114373635577
0.0859735483851797
0.0499019633539667
0.0915367914628433
0.101913138343734
0.0808671024628624
0.0760679894706092
0.100203672982587
0.0738767650185822
0.0925518184537603
0.0665955613431089
0.0966753271962173
0.0820133990457655
0.0757102060671609
0.0745650593836941
0.094512269145385
0.0701089410908854
0.067634362116228
0.0635389520315816
0.0925490215180805
0.105429991565727
0.0995859191187442
0.0751405228793337
0.0719184946810806
0.100327166647835
0.109289686232205
0.0766869917824376
0.0807366029988174
0.0997190776532811
0.0754952654162996
0.0786791431686434
0.060413622886413
0.0820438993166755
0.0913260191825824
0.0936553036726049
0.0768745977090262
0.10116964414033
0.102534725895087
0.0804218281421638
0.077217937987902
0.101744088499332
0.0969881865797346
0.0923884773560382
0.0741615942884235
0.0819763686149385
0.097035888370247
0.0766961397545593
0.0766905111234875
0.0964875037869506
0.10651300900764
0.0749004982541878
0.0927577161692507
0.0780389950956396
0.0752139088138564
0.0683275020707095
0.0992456675657988
0.108131889639716
0.0998471506019478
0.101150502207352
0.0780841110381283
0.0964908374857394
0.0799929814398521
0.0672606345193024
0.0708647947654062
0.0852960911189889
0.108065270396212
0.0735312263184889
0.0758122737392551
0.0713028456520383
0.0780558892053975
0.047668078487276
0.0785567588659133
0.0779249978662824
0.0797734537935315
0.0990515304078557
0.0629650815627553
0.0521240504584951
0.0964288646994257
0.0824375013560603
0.0708499576614054
0.0991499640952753
0.0813906125679556
0.0777268863712476
0.0968663242072919
0.0922374391395193
0.0628189926603114
0.0743379871040362
0.0750886986565855
0.0746852339782677
0.0744108863216888
0.0783313430031772
0.0688671534607659
0.077131662533451
0.100508604090029
0.103113757887205
0.0970768298150941
0.0815213189365119
0.0768475934601701
0.104865938724129
0.0722912560940019
0.0709858352593718
0.057146380879636
0.0779804400084758
0.0969362682819188
0.0715980388419638
0.0987334062083459
0.0794491436735002
0.0846485993191282
0.0781796492147713
0.0757386430526943
0.0966802135607896
0.106150327631986
0.0746185367444733
0.110056626642517
0.0511244659511041
0.100594836230745
0.0472111509381254
0.0986745269781275
0.100923982853746
0.111050636402965
0.0768607584549437
0.0997797211143121
0.0775086904473561
0.0806882386199415
0.107252227163093
0.0985368999626147
0.0797482049550628
0.0603105976287929
0.101286217607596
0.0964608304767805
0.0769375819401104
0.0703050392690052
0.0453357003229566
0.102859074967865
0.103796345791166
0.115575681257831
0.0851541321479751
0.101038565557091
0.0848950697595481
0.107245074044244
0.0767827980249576
0.0849572488163259
0.0713174009634749
0.10075367612633
0.0986544955376532
0.0753105028078753
0.0770248944137728
0.0755440441087089
0.0483468819525647
0.0995538321025462
0.0996501793609415
0.0988985873136747
0.0987494213610382
0.0468677057389688
0.0885147146858467
0.0986511614257792
0.0755510704701893
0.0433951887702895
0.096533301470053
0.0782056751182897
0.0734092883449619
0.0968177284990736
0.0985390861628886
0.0716341432403765
0.0989353186258144
0.0722077475740741
0.075265698397622
0.0764680651910766
0.0745646044994665
0.0461663925637213
0.106517417651055
0.0785366763757522
0.0966282466262986
0.0762292184477785
0.0800676722772648
0.072905840837035
0.0945166394705723
0.0718264563943439
0.0508763710978252
0.103938191375545
0.100620418674366
0.0786953166311856
0.0913782276553088
0.0767168896444276
0.0958634945336611
0.0775798209006245
0.105368175624884
0.0510583304916942
0.124205934530836
0.0777158800257391
0.109553294117054
0.135286972603444
0.0737190948464157
0.104312673174833
0.0694524380759278
0.06465041369461
0.127043140417159
0.0751868324432543
0.0707981361188495
0.0780496449227192
0.133448588672977
0.136376986718736
0.103937936734877
0.0977098303675299
0.12390205233904
0.0737894640206195
0.133965055893149
0.0968918188260513
0.119096200979338
0.125263271744621
0.0711742380512183
0.0772359842578772
0.0779599931604901
0.130307455126643
0.103206057643327
0.124071953799719
0.126253636061829
0.103039778923286
0.133650340951209
0.111752990345621
0.0820413291860381
0.120603057722562
0.128238975770847
0.134119256286789
0.0962511784778885
0.123596712670536
0.119942557421606
0.0778809774167409
0.0815412713084713
0.103632846366589
0.119089114974048
0.0950741416863549
0.128077155764676
0.0993880391778206
0.127914070580661
0.1036569896756
0.124332668076502
0.106058842838021
0.129283614203345
0.0758154531812566
0.0749631590395223
0.127762836918799
0.118589196201744
0.0736526481631179
0.129605029846641
0.128592933020253
0.0739547099972501
0.0920965565809995
0.120495120067936
0.132336848280616
0.0961530892230627
0.0784683410806326
0.129608614511018
0.0713357624835908
0.121293360045725
0.0734259439753163
0.119736045597402
0.0753640204285649
0.125323141201837
0.107290128723978
0.0692111638777886
0.126275530371107
0.10932733853925
0.0731410395921462
0.129660317001122
0.101241299053936
0.0751467177997081
0.0611115410129086
0.123241602018029
0.124024719536441
0.0701562443646837
0.108204136600277
0.124332286580529
0.0772121739708215
0.0780407919561061
0.120961636487121
0.124385792637558
0.0997742573050482
0.118492881535465
0.126422445069942
0.0998921651577931
0.121455601865333
0.0742214889142815
0.0720242305111081
0.0725490191239826
0.129145350021699
0.12283022316691
0.115945512774478
0.0637914849091612
0.123548565706556
0.132409929848802
0.121090721080519
0.119277445998873
0.120242342897838
0.0955339976872284
0.126005019971469
0.120008518286573
0.0700653312214381
0.073792093969976
0.125320161113501
0.104209196038724
0.107063721166476
0.119872472461507
0.0779110025684384
0.0958842322084413
0.0754142344870318
0.0725572472543848
0.098371644623677
0.131609763678701
0.117674041829508
0.0619932300245051
0.127507340769792
0.113655835056125
0.101680919299929
0.080409320240847
0.124835717965529
0.0768418386370006
0.122180509684788
0.125308671401012
0.117762414565289
0.124743369815343
0.0701722868388915
0.09082756293253
0.0740820760556156
0.118459783820008
0.0796358842632886
0.0685910359179608
0.0751607594194044
0.119701057971095
0.13433865785175
0.10157028336511
0.0788900438582858
0.101644070692615
0.101658516112162
0.0958412483507573
0.0740488577374644
0.125629227251249
0.0671608705675975
0.125689581229316
0.114527978870366
0.12465876334775
0.0746638528057035
0.0757834431016141
0.12219473024111
0.0800900344439812
0.104433613974195
0.0974637055582987
0.127353938418088
0.127537959791346
0.0794137831981431
0.132865017643491
0.123232167722041
0.104600851629422
0.072942421509252
0.0819568421180507
0.104667356655769
0.104101445920403
0.0766844977101255
0.107986269046483
0.101654796522255
0.0727999766820213
0.0946999293604313
0.108732146582235
0.0744774098491027
0.077055258387738
0.105769208411498
0.124502111851998
0.128543947425116
0.121963103933917
0.0788827232547896
0.103500733994882
0.103456758524835
0.120566659217201
0.126617214991412
0.0680183217875095
0.122591101812831
0.129809378331265
0.0767917381138455
0.125852254644653
0.100341605148786
0.12243928296524
0.0753486455208702
0.0734233466385487
0.121586426529926
0.120557823951535
0.0711275379952467
0.11026412164615
0.0695691254048966
0.0726101211277234
0.0994414388246564
0.126270482720487
0.0997920259352676
0.0998799698205798
0.124155254013151
0.0715086698179764
0.12656126359942
0.0727466004436147
0.0964387350991502
0.070942227872599
0.097466004499074
0.126858187930377
0.106498936321698
0.0674179423353078
0.0953708285951155
0.0727928800175472
0.126006282543039
0.0746625871632958
0.0677121109787741
0.126651340104069
0.129295888770058
0.131530283095558
0.12930621050649
0.119391779970645
0.136535628961658
0.0774714800760108
0.118465658616719
0.0708656769321061
0.077900194411605
0.125761441544562
0.107035877331339
0.0810008623189614
0.0689415881332242
0.121047595886134
0.0698802628128398
0.0777825015655706
0.100433532052205
0.0956921445103966
0.120045472485277
0.119465119311993
0.0949471560043613
0.090878546398535
0.125776321057602
0.125642374678036
0.126150070128654
0.125447609074667
0.129402482577733
0.100874995029072
0.128497574689425
0.0695846130637802
0.149609284322891
0.0728745579791368
0.146028079574817
0.148861894808111
0.0746574490131601
0.0681840551151626
0.171739239612404
0.0747373627817193
0.0748130964362881
0.0826716437834223
0.164779597791033
0.0724829355916031
0.148188663651906
0.149112293053755
0.0750784386330024
0.0740826698229261
0.149519928178261
0.169542713961764
0.177464464291608
0.171812000507515
0.180652126749356
0.143298385559887
0.0759735400900508
0.0804821841229697
0.175484959410496
0.0775403674479529
0.0766582429514558
0.156257285348611
0.0703868322915637
0.175646431778551
0.0803120737563246
0.17120459974812
0.176606280106249
0.073812502799051
0.0767909654240707
0.147941264369895
0.0748504912762751
0.189315400614228
0.15367288434392
0.0748861277947553
0.068241515792194
0.150477237939223
0.0780245920228509
0.154402878550892
0.147991116602174
0.0804006666032684
0.0771032267560398
0.149553682758008
0.0789655649920618
0.0660754661470305
0.173295016201493
0.172285131891473
0.077694212126127
0.179233141916109
0.0778673214053773
0.00512371670808822
0.153555051257262
0.0753798171546177
0.000239484838906416
0.170590036289255
0.152868872618482
0.145759917200424
-0.00445576563960044
0.168514826060157
0.00318918984662484
0.0733473072144484
0.0775245753419682
0.143317335908112
0.0750993962839614
0.166814318181828
0.149295818792001
0.0746951444356889
0.168828256822518
0.143701402336806
0.176877549830819
0.173877955330448
-0.00727362114995255
0.0766218547680971
-0.00102016908255341
0.0774205296355725
0.176790298911837
0.0750005700432921
0.0767117920702611
0.0718724959598397
0.161607541273929
0.0709488648493417
0.0820818944105607
0.135907961004328
0.150457326945201
0.0742828719143485
0.0816900644650445
0.148243175392319
0.0747478231635487
0.0734594554608462
0.169742699965097
0.0731726306450338
0.175325111850651
0.0721301196717214
0.0839137183097142
0.176896189947203
0.0725569407435065
0.148334070644782
0.0706001846521206
-0.00706774342214313
0.0760777562384136
0.171021426295516
0.175519658171215
0.178797247720351
0.0790915005803662
0.0655595660712679
-0.000237723097987406
0.156215383870515
0.080828187896523
0.0820564719236501
0.178113164744621
0.148901724602849
0.0810974291530688
0.14391927847665
0.150271786588387
0.0668306464253313
0.151132798164963
0.071770582141468
0.182009093264236
0.0810062918056664
0.150590251292713
0.074767853548265
-9.20108988365451e-05
0.0823008676512858
0.152247009951493
0.0714730515721593
0.0674242409688592
0.171523064145341
0.15592885608113
0.162960163968601
0.0626863592741686
0.176107658010763
0.0715913515214739
-0.00606065737239511
0.154411809278848
0.0718934473252301
0.169741827452416
0.0837253240281692
0.0630513899930157
0.153013484182525
0.147810582002049
0.0740074700089558
0.153320870503296
0.087223130313104
0.147750986182234
0.0854466180922887
0.0721713652144071
0.177912450306202
0.148927357517022
0.0754089952032585
0.0694475823317506
0.170570577147993
0.0689655642775506
0.172512069763575
0.0670425288216011
0.0681613914473475
0.170705495704475
0.0748377761968431
0.0790452858301873
0.0718513922112059
0.0850678966201902
0.146527885340442
0.0698992789265487
0.1495679662673
0.155653413557764
-0.00854687640564876
0.0814616196920317
0.0767620276947929
0.0841007736696856
0.0685696220254871
0.0799229186597078
0.0816568679173758
0.0643176226384918
0.0738249929718464
0.176898240832015
0.15567803584566
0.172528890188385
0.0699070229730157
0.153764754943766
0.172954820200007
0.0692856851352713
0.146794092898818
0.0695118350210474
0.175812903008651
0.0694578224812562
0.0794725531126557
0.175462233608732
0.149886581889476
0.180573306394283
0.172590609184831
0.171198323270749
0.0757232773647982
0.162064750697807
0.07726880170467
0.17415671927613
0.177829316039022
0.0712827551151249
0.151984644028109
0.0731171434738301
0.175724394426103
0.169806569243913
0.0716057834587045
0.176215925415544
0.174326508461747
0.153048464659833
0.0765528280825983
0.171132272207163
0.181364590870223
0.0727726446724622
0.15279647151385
0.152804295003502
0.0732760016983518
0.176411400827559
0.150764538435606
0.179449162767007
0.149828254584778
0.0804078493334581
0.0740715634530374
0.168403418056619
0.173964427471701
0.0736663002793614
0.0645987798894326
0.0744755673793101
0.151431979055583
0.186293881375132
0.0806914924855783
0.0873490571650117
0.174908055422148
0.174192888567509
0.137569554417872
0.17271618304334
0.08044324768792
0.147320930436309
0.176020424445937
0.081497327882019
0.0750519757900924
0.178273540732066
0.0666449187016593
0.171586877438433
0.0750210694294094
0.184883356705158
0.148958529811973
0.173932648913933
0.0839840896194334
0.150429824638132
0.156979196284996
0.172058671479331
0.0780962171564934
0.152297185078961
0.164211383839265
0.181463545905744
0.173830885408302
0.149412777994232
0.0785635159739578
0.145429936163721
0.0724910599802358
0.0794841366432578
0.148512599336226
0.0794640048381051
0.171283323583555
0.182248716693267
0.182601507888226
0.0773196872436848
0.16549130090365
0.0772234885109707
0.156734952799257
0.00348319059074447
0.145703170929166
0.153679853550912
0.0730960099997372
0.0837185159201493
0.0685268858673628
0.151085855565942
0.144840249588962
0.181601754477064
0.00977619483688153
0.172325600743897
0.00233583361200851
0.076779227100662
0.155461226580917
0.0787264005459791
0.177993382425543
0.0742269225529855
0.0792102052354234
0.143017775787105
0.0762808471345561
0.182498241618403
0.0751219841329301
0.0814413283676294
0.0799650732027235
0.144387506341254
0.146168586872444
0.0768145228417223
-0.00428521540758738
0.0764406324830023
0.152539672423
0.177804099286767
-0.00387636709500345
-0.0104478232805912
0.0708722440031665
0.0813495170917421
0.0609383449647424
0.171585119098857
0.0787783942557496
0.146152521121099
0.0651895696991804
0.172444188678731
0.075249277566923
0.0812817637871966
0.141495287370811
0.0768954813406807
0.0786429078436291
0.0771533652704579
0.0798276116039383
0.0662476023871901
0.169563144883014
0.0770326171206751
0.0734841661206081
0.0770930796516928
0.176955655547168
0.156197997282266
0.0713814218804644
0.0766839422258303
0.177597066746225
0.0774127626187987
0.165094123802357
0.0717397644857971
0.180050281740431
0.0861618817590301
0.146949212165742
0.0780389125014043
0.174058285223716
0.177834523549445
0.140385877742881
0.00758191680579273
0.074701901326832
0.142941670854195
0.1743401082158
0.0709579026760734
0.0777902986651316
0.137672902428683
0.0787688257551173
0.179864976439097
0.176549688258618
0.0852630730436781
0.14974363762165
0.0758174971756775
0.175669703620275
0.0789624792369904
-0.00638433041745981
0.180986506415196
0.000293267313845159
0.0690929235079551
0.0782902942512399
0.145686116428399
0.178993011800138
0.0758670910023898
0.0762041558270033
0.0821747844006679
0.0770929256614061
0.0677608057198958
0.0582247761642952
0.076521990309881
0.000643835479424434
0.0820286653511343
0.167344224385799
0.175671667602935
0.152709879851667
0.153667246663364
0.175282716665971
0.0746444475972583
0.0067974953386988
0.0721444142683834
0.142105681311906
0.168769069810749
0.170973912952621
0.0773233386218603
0.0658095263308467
0.160815920188748
0.067152871105135
0.074843696798944
0.17263358772285
0.156650634930733
0.0813722698843923
0.0808639887391903
0.0707880443734648
0.0691517533267561
0.174150755645287
0.152348454999446
0.0750315158130154
0.178395037268669
0.0727307570617436
0.0773533703041773
0.0752836267058816
0.155357509026551
0.156872768624814
0.149244151757671
0.0765423126603109
0.144091511039981
0.0758968277529215
0.0706508817092083
-0.000313182936878511
0.0656153193372744
0.0695184400619169
0.177900180105673
0.160450151417489
0.0046309468085541
0.149114239020364
0.0661547816985676
0.142495632450636
0.171003247380549
0.174720711116735
0.0769632397425163
0.17471779638062
0.0705240815494177
0.0650832909307643
0.078364851332624
0.0788556916809922
0.0763626592466396
0.0747061235046253
0.169955681998444
0.150207014776711
0.0692553064318076
0.0781136785391949
0.166111953010212
0.0811707438361986
0.00348789201123687
0.147308590677314
0.0740750467547578
0.16278445724227
0.179320469045909
0.177104434196097
0.157860428630064
0.0627413300885882
0.17395994910759
0.0789905149435218
0.0759578264695596
0.175499739852115
0.149007062532059
0.0672147079486
0.0673999700708882
0.0674557836817877
0.143319032151766
0.0730990422296861
0.0722722309151162
0.175035857660381
0.176710493339233
0.169719652069231
0.164129141181398
-0.00311607386539561
0.0758844428059565
0.0705398187126119
0.150757171762528
0.171706565536718
0.072745912984403
0.0735199070603591
0.155399252469976
0.143193593470775
0.0710141394659972
0.0743549282221448
0.0698069671876312
0.0836431654718841
0.151890095851852
0.181122924919696
0.0779296608194988
0.179530901393091
0.143091610139885
0.174765040274804
0.0662832768771159
0.0767655732673179
0.151124272449566
0.0735372427602543
0.167544253459462
0.154840680224865
0.0801101234925526
0.0716252979810237
0.0744358870549458
0.0800632832093423
0.175796277993614
0.17064646091582
0.0730024752933135
0.168395430175444
0.0751524794355743
0.00488931809362154
0.0856051405986341
0.0699771053378532
0.0703742908127474
0.145465019879049
0.177388471286923
0.181707623157431
0.181056988139819
0.148960107834972
0.0670099488654541
0.183500884616975
0.00339300289695417
