0.10212322281527
0.104065872171584
0.0511268268641982
0.0528376531038223
0.105332965312312
0.0456100783666644
0.0520516608787697
0.100058538515411
0.092156239501372
0.102561717491321
0.0459406743163718
0.0998157970548794
0.053079162496638
0.0948296110636433
0.105644041682824
0.057761152672406
0.092390207301425
0.107044802716731
0.0500409947833674
0.0596382161639848
0.0500894361983849
0.0603787717037646
0.0937889354897084
0.102561423015697
0.0630205290173144
0.0400409301291064
0.0961088838438166
0.0925289676507134
0.0936961657157936
0.0993948508271143
0.057071661242602
0.0527872497321172
0.102241228539987
0.0986802554749628
0.105300246724894
0.102608119481248
0.102033905529605
0.0539329897757166
0.0467402307566293
0.0613602664000029
0.0498074856237746
0.10072323927432
0.0550309804001121
0.0964991669090806
0.0488992130941822
0.0956256036690281
0.110490769687602
0.05203871007165
0.0926670029230291
0.0971212033885103
0.101217939713926
0.053068204447481
0.0440819165245794
0.0532885752307041
0.0490255297694659
0.0474255253325261
0.0904997822648617
0.0958143325555974
0.0568886351940199
0.103429913519179
0.0958819107381735
0.1013911927687
0.0459779167901876
0.0930618378477822
0.094035768279815
0.096756373176639
0.104092433265867
0.102358224839645
0.109271485159203
0.104286182761297
0.0468813075620958
0.0443108010031515
0.091554471509539
0.101012397006499
0.106203980272383
0.0970291654770509
0.0574245354888639
0.0997454312100279
0.0951587276095486
0.0959904294458538
0.0537506580281568
0.103803957940284
0.101126525902625
0.102841232455895
0.104089930121474
0.0553894156705009
0.0512068210862204
0.0983169654189272
0.093022829296041
0.104596905589412
0.0441686661854603
0.0541392396507861
0.0510883293462972
0.0981125535772195
0.104080369204934
0.045961471260301
0.0472899245474543
0.0967696272713852
0.0525703692917369
0.0484181431082068
0.101721343291828
0.0564413851989147
0.0940388355915707
0.0992190090572928
0.101581502546458
0.0991357231694405
0.0482769718266368
0.0484384442289586
0.0402055246311882
0.0547496955074137
0.103052769301256
0.10425405555226
0.103250730690452
0.0961036782820488
0.0999799737876338
0.100715472266477
0.0567921474501895
0.10789759239072
0.0448982174098999
0.106996234315862
0.0994112364063701
0.0981071999527327
0.0940151777833602
0.0484928737227468
0.101560035839769
0.0470700384822253
0.0919716908443853
0.0476860093220057
0.0954449972695
0.0999573925034409
0.105618748012268
0.0939688835673739
0.101340088646942
0.103927962222368
0.0448239284405207
0.0969807575737215
0.0458895166483112
0.101438241286232
0.0989524813004338
0.0502748907382972
0.0459587975618626
0.0395791738668869
0.0452017629791026
0.100447545403036
0.0536732231836889
0.107314490874653
0.0983025504688024
0.106911769711058
0.0417137700335457
0.0972063245679894
0.103622178473471
0.0930184906518321
0.0937309968948957
0.0964351316951839
0.096715900091773
0.104926018518489
0.0967406671618447
0.0967250520877779
0.0874165223801558
0.0954692138474679
0.0448836489356354
0.090858584364001
0.0989988805551355
0.100467958187363
0.097478572188295
0.0983972520661134
0.105612416355814
0.098323739921833
0.0887262390265383
0.10001834788664
0.0403411958003242
0.0495945788713631
0.0931877650311669
0.104068110391039
0.0543977428188984
0.107225623156873
0.10284543782211
0.0938785485868685
0.0922068674626461
0.0932458047447067
0.0984191966109946
0.0490312337166268
0.108079157576992
0.0951471136328585
0.0435951310943781
0.0513658362909795
0.0972503343114856
0.0953060271268114
0.100368603588026
0.102678243470274
0.10553032911913
0.100946729394128
0.105508071341658
0.055298713089509
0.0528087053770858
0.100626721267532
0.0494261444229618
0.0927668818353955
0.0944371852868704
0.0490445531024557
0.0965530730061913
0.0490572548582089
0.0403796022494754
0.0478138480375105
0.051944035685599
0.106004873403491
0.0977255828396498
0.0945300647623469
0.0959705895102097
0.0998847477657545
0.060818878843723
0.0945145296412615
0.102902222189228
0.0521923420161916
0.0932093540543213
0.106439568334754
0.0541099788810314
0.0982836707911336
0.095034686156017
0.102870236272001
0.0972214948848054
0.101874452557466
0.0940670966316847
0.0508909787762874
0.0474119816835125
0.0423995796489425
0.100601774652732
0.0982100144877369
0.108033128757621
0.110850151640311
0.097526841242638
0.105050852398501
0.101431900394012
0.0481100302794167
0.0523319846835908
0.0470140559301358
0.0989979925253376
0.0480643317636319
0.0987936598359758
0.100189642325583
0.0516474681793791
0.100160546958695
0.0420904151993253
0.094809902993235
0.101548947472234
0.100216621573887
0.0951777253056134
0.0987311365237429
0.102002453903895
0.095362299612898
0.100409375381203
0.0751906688356807
0.103575923631825
0.0935019542344957
0.0715589594070713
0.0979676790570589
0.106233196077435
0.0733117928799494
0.0220805070695869
0.107248769521471
0.0432883201783023
0.102986663504433
0.0980850971184499
0.0726873370242792
0.0764704977589831
0.105473771300278
0.0929355925709762
0.024451824109212
0.0996962584853723
0.103685792602119
0.019037025760392
0.0984566311848998
0.0715426180547128
0.0752382289034786
0.0655609862517683
0.101836964978646
0.0702957391516342
0.0768986409488466
0.0763377761339443
0.0761262251011833
0.0967600666246865
0.101386969881574
0.0746358539065322
0.0994581496965829
0.0987493029214298
0.0478982166526572
0.102823801461095
0.0926136577235315
0.0997211316128573
0.0985552689160593
0.0959575757087513
0.0800462621494975
0.0477172687172541
0.0961821857430223
0.100976232849139
0.0355108096803722
0.0985473610874249
0.100429981730958
0.0716794978025048
0.0194500179617331
0.0703396094422587
0.0978237345422158
0.0812699922584969
0.0693888666086468
0.0961135532629737
0.0446536519126354
0.0964604936903056
0.0463713302026482
0.0933242503777731
0.0771410241263244
0.0838476524933853
0.0701572701881542
0.0707032430183626
0.101783431004244
0.0847261682925408
0.0484459653975287
0.0965734452293998
0.0703135047390253
0.0968636960680562
0.100352178524673
0.0905466220348866
0.105919842165437
0.0987527578374661
0.0992726932148851
0.0216547174640943
0.0868241156639843
0.0525052630307044
0.0968300330638697
0.0942523427052608
0.10157624208295
0.0768649899320798
0.095086745157826
0.0991966616029242
0.098702894892658
0.0764877242207632
0.0981356475864889
0.0743122556648401
0.111406890938669
0.0924467556584275
0.0992113940725484
0.0772698872928607
0.0816961636780095
0.104712750496378
0.0973788781024011
0.0961804771127358
0.0637419650149513
0.0987705765544926
0.0235519030753148
0.0984892279433393
0.10590026292348
0.0767515704632364
0.112697720012956
0.0974786362238718
0.100083870764903
0.100158034078313
0.099352822637913
0.100705525204502
0.0522632626076993
0.0805552236962041
0.0979982679327499
0.10298923442296
0.0772055530749543
0.108497942512133
0.104467087535402
0.0949378996440796
0.0830097991591462
0.0744914159153608
0.100021103617031
0.0932970994631778
0.0798144113889085
0.0956163379925309
0.0981821318436848
0.10841704929919
0.107984728584354
0.0671455235393588
0.0286938270653343
0.0938822186456945
0.107141979493644
0.098730822882838
0.0945620269041294
0.100367784122591
0.108337093834003
0.102044201320939
0.101010232527003
0.0732698662485636
0.0906147590280527
0.101440877618344
0.102087396924007
0.095608314718579
0.0539688051964892
0.0971822117048641
0.0803384189933583
0.0751842973466148
0.0545585460059607
0.0522655316099168
0.10163351384479
0.093818682755903
0.0749633596115153
0.110443679830952
0.0981864028634585
0.100215677609683
0.0762847471539218
0.0778072091297648
0.100183199141198
0.0533845101881303
0.104341864201871
0.063129871659007
0.0477657392985315
0.0189684658384349
0.0911065753484757
0.0694070302259562
0.0289504877362203
0.102748046343222
0.0890908325868962
0.0936118853303677
0.0491966098924776
0.0697503378409064
0.0988023505089194
0.0235119312703387
0.100282928265029
0.0761154180944486
0.0985624620426932
0.0964649165915696
0.105965270395163
0.0978338343875263
0.0772554078639547
0.0305498465066321
0.104788346708024
0.0938271646427595
0.0436865708980871
0.0967319424846975
0.0723113332193713
0.0997143541912595
0.103318910061586
0.102875133540638
0.100004068495568
0.097756850960884
0.0951606070277946
0.0811561325385802
0.07716853326427
0.03384551968298
0.0215489710495289
0.0817465615981291
0.0520258700327972
0.11191494964892
0.100715710740734
0.0818053337212573
0.0755543652404911
0.0258678079948468
0.101102732830197
0.0478974248429042
0.0916672134612058
0.0961705291392476
0.099327841608362
0.106434457526477
0.101527444946861
0.100572549356588
0.0753943338959591
0.0241068806243072
0.0751960036668566
0.107303319844505
0.0780620801208032
0.0998243757608081
0.0505728056205712
0.0941979254710061
0.102886265095366
0.0732666925528569
0.0724885352096055
0.0732562432402796
0.0918730602333875
0.0494034362203215
0.0836384188760729
0.0736169469331165
0.101700843250444
0.104613177299797
0.0515807315037403
0.096739022420004
0.074172120591146
0.0754149151705676
0.0777923757740679
0.0979808528853175
0.0822023462184723
0.091477911945754
0.099494766718138
0.0962911850447421
0.108887998707685
0.0308833735016676
0.0835444845166253
0.0551138397102033
0.103921399895927
0.096936545328082
0.101743923965596
0.105465970505523
0.0766611988528325
0.0464806744858262
0.0800710382796282
0.107507842537134
0.0503782186769728
0.0886170027315199
0.076550001333898
0.125551655881536
0.148979094582763
0.15069420978392
0.114644154111233
0.124341786729951
0.104602637736975
0.153268835377977
0.121337136380238
0.0891696990213405
0.126725705837043
0.154638120755827
0.120032452956578
0.144197912728735
0.113748693065404
0.132172351815391
0.127240786822967
0.154511782963761
0.124920950583908
0.160299294911193
0.151670218610508
0.151309022985285
0.159209827042447
0.155847710535441
0.115202009113733
0.121728538316505
0.128821967952567
0.148661544845616
0.118072676975621
0.14772364378734
0.124580752142366
0.126009138552564
0.145038762852668
0.128723646254911
0.12326827067969
0.100029943514667
0.153206930391525
0.124217076865342
0.150080351264085
0.118591664386545
0.130783885297331
0.150018202197984
0.120525756343664
0.145083168906416
0.153347375857897
0.155537070832059
0.103892766056668
0.126873949090108
0.123879474088424
0.140673057785228
0.103022534768182
0.147719160169338
0.150606465735854
0.107561817114273
0.148428628087187
0.149015832987323
0.125611562281342
0.13775038266013
0.117114464947368
0.147475579588749
0.132363246272266
0.123661292882727
0.130686652783604
0.131917723696252
0.117201055518759
0.097849872944423
0.125960574129893
0.156390975285473
0.114577333455295
0.125653752016855
0.143330515051829
0.148960120306488
0.151317493789743
0.146755144894692
0.13400762602527
0.104011047421215
0.153228264775959
0.151620564815827
0.124507719716982
0.153853577387688
0.121516590640756
0.130456751178651
0.122242468787556
0.129886322241233
0.146060564513177
0.143698332071605
0.100658187678548
0.121860591186334
0.125177455219031
0.126694337329467
0.147217968892718
0.148315361703016
0.149031674061013
0.124394260113534
0.120081571468968
0.139927605850433
0.151241975145915
0.0973464847679271
0.127964439905774
0.126865567292657
0.0995743617543591
0.155811032811178
0.0913142622461624
0.121237003786589
0.127316231061932
0.124874885071414
0.134184361403342
0.129987935304768
0.149926213806574
0.151066229221716
0.123484145008489
0.134130864427021
0.151632253725666
0.149945634925892
0.143750765039395
0.149728039393043
0.128968289419872
0.127252954277778
0.153750404471712
0.124975586561509
0.116406338563264
0.147160810273187
0.129636932662793
0.145271869118203
0.145932995285486
0.12281909540322
0.152079311483211
0.153092053938992
0.126260433527838
0.12826613577744
0.139321522365278
0.156092711520618
0.124720906185609
0.143800082319274
0.12997505608482
0.0973859352582419
0.147816827751364
0.131618536927987
0.120473449776269
0.124681536353585
0.0996498481724916
0.124431210327905
0.123228073139558
0.126788074950105
0.155882046076984
0.148202150854444
0.147146031742988
0.153764890963027
0.123085760530153
0.120535980042808
0.150625009234659
0.133246701560974
0.127736812771267
0.120627686281959
0.147141309827505
0.128877808022811
0.152474093135764
0.130782525730654
0.124866689626302
0.126103822697482
0.12857068794949
0.122087487792801
0.152480705961244
0.127346427178067
0.132539365382458
0.139403563936441
0.142194436199373
0.156156502719174
0.147785883271536
0.142785913633975
0.151631651978424
0.127556941184653
0.125429221661643
0.128338635529022
0.10595649199987
0.15197285689352
0.125855975293917
0.151993835779652
0.148839209448479
0.151496201610269
0.143484696223206
0.147794136763463
0.0986803578140062
0.128506564870355
0.119558709562989
0.154260014449563
0.157618440968592
0.122533460118129
0.093626039899726
0.120207553836894
0.140686416034382
0.149144999172048
0.122433851740153
0.15564890050658
0.144478136079706
0.145911331811552
0.150362200846262
0.123345831116229
0.148945617611944
0.0981365039831605
0.141216077390604
0.142712421817212
0.122780491401446
0.121368428672422
0.154616110258188
0.0945681355574332
0.159216258458272
0.120711744934645
0.126415985443129
0.148931549542059
0.128109934664699
0.156589293777448
0.122574538568328
0.110225780098877
0.147561536260481
0.143699546427546
0.128862326879679
0.127137077410469
0.102189115494031
0.148864387690099
0.123259824443341
0.131083598851866
0.12908833985419
0.094657483864853
0.153845894850341
0.149991770545878
0.122288331624784
0.148100340844971
0.128998044610498
0.151317568278816
0.0913332690583002
0.151687963543243
0.135493953579566
0.149031858120388
0.148205472654466
0.140072524412836
0.143429445558848
0.144939050524889
0.15127939922058
0.127091879494876
0.149506817935775
0.143684196110195
0.122038843631427
0.119559334925509
0.126276826351813
0.121136808398918
0.152459617527611
0.147875897644987
0.123610646097056
0.140389655706711
0.108790082643795
0.142202819925708
0.126264326225727
0.156842729862606
0.149798003289705
0.119704750646451
0.127584446607354
0.128472110380826
0.142158118981954
0.118047161842299
0.155361879168326
0.14969954737448
0.131126546683071
0.15347033785682
0.108357365903931
0.122721718986926
0.124048416836529
0.128495482544412
0.151772060982262
0.121091009146039
0.145546226772743
0.146090838919867
0.122907090907994
0.149491075362519
0.125742316538061
0.129358998115667
0.145716234778964
0.151260551291412
0.12325198817252
0.15431848130046
0.1254800335473
0.14969136404573
0.148088267613234
0.14785248442952
0.149213414168701
0.112071686483429
0.118810955090237
0.153980460054496
0.146536469422595
0.126066102222085
0.120806882237168
0.125333019494717
0.144540528414223
0.153362210745476
0.101257230030383
0.120201715316875
0.119735113348972
0.131252343643328
0.121185151067141
0.134468609140206
0.148576324220318
0.126133474039231
0.090995158745098
0.118256279279823
0.103081694958914
0.149554325082405
0.147708144071815
0.155762385924794
0.150218990339492
0.128798938548273
0.150920904482868
0.132443347238859
0.142376892837869
0.120187848301735
0.132576045434443
0.146891540985027
0.120794818945082
0.146921830338283
0.129683114289039
0.119528866793426
0.124793352100671
0.0988342907877306
0.155165954711224
0.129771157585468
0.131305477137602
0.128255822118476
0.145587785449217
0.151344190633711
0.148105288874886
0.135253995730475
0.122929084814199
0.126711820772506
0.130247704028829
0.0994840181513714
0.142763886822208
0.125090055977221
0.126445000090891
0.113642402571599
0.123731505647933
0.153177368522106
0.120419915292079
0.144708703576446
0.128250575704523
0.108240588178343
0.132574796349087
0.129639012484493
0.153035953622789
0.129577108825751
0.159881951549396
0.157828724047126
0.124301833397121
0.153908256963628
0.150061733961875
0.154065417611088
0.126698034268466
0.12102689476503
0.126186074232262
0.119546606714507
0.1255395377574
0.131119777861781
0.152696911598002
0.148615872222832
0.150620908137563
0.153310861677076
0.124556446269888
0.154645305014869
0.152459637548268
0.154476818483935
0.119437978405217
0.125511409929608
0.151382162459185
0.123796043883163
0.125387435239776
0.120677239291299
0.11677242638529
0.0959359269548612
0.0972827200987534
0.126368516728892
0.119568519767978
0.149414829264424
0.159703885999554
0.123598788372329
0.100944760547404
0.126116740748262
0.122662703624766
0.150605603563008
0.131714628468874
0.121381732205734
0.149609221084462
0.129448759450877
0.14837176720338
0.126859629411965
0.101329638462663
0.148902545392656
0.145288473452483
0.151242566459366
0.147233259123064
0.126346746757383
0.151401119339587
0.125228773151432
0.138304282956694
0.130814022179192
0.126196827015067
0.12552440294143
0.120423542230502
0.146911889660532
0.118934233373974
0.130885327318949
0.145050188581745
0.147921771520682
0.125175715903427
0.153475140039556
0.122003721447213
0.130375255706213
0.143208214683901
0.127787231553117
0.129021172072302
0.153271655219227
0.117846151428843
0.15785926027705
0.153512930237405
0.119189407483858
0.126080538901982
0.11833407523509
0.147075002533172
0.124678739670948
0.142205986126747
0.10689910433275
0.123565241959545
0.117265068332374
0.152699843550831
0.152083829044483
0.143050744948719
0.121633938546812
0.147567933340275
0.125722902721714
0.126536446405846
0.149068038970973
0.0973376666287041
0.148400211223935
0.137033735396196
0.150507100277862
0.126888458316076
0.156943901809424
0.148048122867699
0.119873234744063
0.153333156592982
0.11779244540809
0.139680756820051
0.152371097681168
0.116720873295775
0.155399100525691
0.154600092288634
0.127789130910529
0.153253720761066
0.0956699606120215
0.12817065223484
0.148638901035328
0.129001125100563
0.125226127299237
0.144006127125748
0.131057184925494
0.122918291550576
0.153687346299064
0.144235224231549
0.148009343585226
0.124773616092376
0.119834515176888
0.159213045264361
0.131084557227596
0.153854916722394
0.151900214897539
0.12194387845757
0.111196185215001
0.130144955192818
0.148198360878253
0.127206662152897
0.145194358601601
0.151731599162642
0.156580798820367
0.124785380383774
0.129792539609487
0.149157812744075
0.145709300887115
0.132137934243708
0.127622565602457
0.126618513316343
0.156657349823039
0.148232616405443
0.155604685653496
0.126176531145704
0.122099604708299
0.141409558214504
0.148122502657002
0.136578579972882
0.147178894926633
0.130527293836289
0.144891091715996
0.147793493023006
0.126523040148037
0.110432690065556
