0.0936433500060551
0.0722592117631488
0.0746377519026232
0.107210793984237
0.0751362641012442
0.0793829228135462
0.071130745872049
0.0758123442956414
0.0685581596171005
0.0983525280229323
0.0953359342851544
0.0979866637649422
0.0919869715280924
0.0689999428731446
0.098735592525517
0.0784506605983456
0.0990344139635333
0.112633896355414
0.0795217101580681
0.0994468457575286
0.0972446758213124
0.0977697931253287
0.103582177955179
0.0688746134247715
0.1005731057258
0.0684734595284131
0.104258467044794
0.0965277818617438
0.0759309422526745
0.0839576447516014
0.102982965576059
0.10363317599248
0.100441372145925
0.104470546233592
0.0909746180347564
0.0974223047478523
0.0795052194294709
0.0738876286284985
0.0997260176322058
0.0708526602348234
0.0879441292142168
0.0822755750683516
0.0953964951089335
0.0731308392297962
0.0976567114189828
0.109144183621364
0.0789898876885169
0.111907672431557
0.0811477225736289
0.0770816010587951
0.109836924889935
0.0775856730759077
0.0753000020054171
0.0824966656429781
0.104658036555195
0.0965379237602988
0.106949014835344
0.100015334807303
0.102146557361072
0.102443716630023
0.08238840789145
0.081648411065036
0.101745573440426
0.0755865120847506
0.0837290592151003
0.0999220751378328
0.101164140400323
0.0990381647087225
0.0823116975145159
0.100778417774622
0.0730821710122746
0.106745668696008
0.0761816501345355
0.075329324948259
0.0797733782675583
0.0972004184917128
0.0717010348834508
0.102790600513885
0.102434864068989
0.0775632257153942
0.0772287754988325
0.0813748982984761
0.0767746458468465
0.0767934391048454
0.0751240306699434
0.0766989228127597
0.101742608414944
0.0738574462846683
0.0735064380765196
0.0706072958179177
0.0996718981450911
0.0698145711051916
0.0810487378222124
0.0992500572136581
0.104692994078091
0.0807830829971428
0.100874160567054
0.0929117003478703
0.0777984434379289
0.0694248683480499
0.075393592713259
0.0714596085204195
0.0976688437206694
0.0689020892609376
0.0756599836358184
0.0856347539365814
0.102693960667951
0.0922968794594975
0.0988936658981239
0.100013187529105
0.0643098782504955
0.0998507590350752
0.0972616842154889
0.0774195985750162
0.0742304346243013
0.107448040661455
0.097925581209159
0.0714969727070817
0.07299901706863
0.0737342624367054
0.0834472823235127
0.0941090718219313
0.0842440400722265
0.100327203499482
0.101963589718684
0.0912411038284478
0.0687110324679795
0.0732266744753774
0.0986774572300081
0.0982576558016797
0.102819809940508
0.0985976181425107
0.074777251973674
0.0745300971737373
0.102697637541174
0.0683426960148182
0.0922641232724391
0.0965377278968649
0.0759937049933851
0.0780526172352549
0.112800130984879
0.0995043844964337
0.0776982250024161
0.101702521305619
0.102120333597175
0.0960943420535499
0.0994334050637239
0.0998713748503515
0.0762944138225416
0.100897046986266
0.077878299546267
0.104313895167907
0.0979061634044382
0.066456093691376
0.100985859580591
0.0763119876929764
0.102485332759784
0.0924895329379093
0.105059686867998
0.0721046369680994
0.0754845444838542
0.106658750570711
0.105985799677289
0.101489086790041
0.068257640052705
0.106544972190881
0.0886357650961268
0.0737855639085059
0.0827351762261101
0.0949129733050958
0.0935946303525785
0.105251838762736
0.0961872981528239
0.100855133263933
0.100707459964219
0.076697222452793
0.100343578283789
0.106079046332575
0.0787514993369656
0.0659837973782416
0.0814556209602352
0.104452927888894
0.097465085208509
0.0725768664942384
0.108082161630284
0.0723746358195255
0.101753024887302
0.0724095506696912
0.0733404948561974
0.1065472127788
0.0646352776884474
0.0770187286591319
0.0969177446115714
0.10698377446566
0.0774263044314998
0.0748574938044323
0.079376353321617
0.104535314156967
0.0671995799934819
0.0978121896378071
0.0793874738673584
0.0683134646654669
0.0739924539554261
0.098551656912235
0.0956329758549278
0.0690957915800307
0.100764746073928
0.0712221525514219
0.0810472579261779
0.0739145144427762
0.0747614696529645
0.0729612572182465
0.102167113794454
0.0957139098640633
0.0992557649108812
0.0992157431371991
0.09912501818699
0.0880006387585345
0.0753878146730247
0.0623770798122133
0.100144658748177
0.0918326240000118
0.0697741069476183
0.0687570014919265
0.0998147964209128
0.101118602655036
0.107375122140956
0.0556586014081562
0.0945141996859953
0.0755636994750281
0.0971850785402958
0.0794030178563602
0.0689771319768021
0.103542771298433
0.0657678138029466
0.0960590138446267
0.0715422307226429
0.0913734505120524
0.07914140601249
0.0701285455488244
0.0766742405393755
0.0915192626977862
0.081028259412458
0.0735484934005866
0.0869166056948943
0.103647102581835
0.0998454865912659
0.0715484745791054
0.107652353389161
0.101308034614425
0.0980477368632622
0.0767781538680206
0.120804094328799
0.0857990551043869
0.101561091546969
0.0779821055112603
0.101584186887451
0.0683349378999664
0.12925136614895
0.0965840963698792
0.10010394416768
0.0983888478639465
0.0790564236799828
0.0756880615724016
0.11873332661866
0.100662573605356
0.123597750957814
0.13363893395393
0.12355268112911
0.106694030361006
0.127044356909603
0.126653990701364
0.0975337309299305
0.104236550900192
0.10821134805474
0.129314777569827
0.131206523035894
0.070146115592199
0.101491726339973
0.0997539660837483
0.105550163817305
0.121567511209538
0.105587629281032
0.131442831856805
0.0765275952548931
0.12138495981595
0.0987931352077718
0.0965397001484077
0.124855080793126
0.124312311125013
0.0978627816349094
0.122776424963377
0.125556138176744
0.0695320183845189
0.0933844915186073
0.107584364167246
0.126461397351021
0.1059225928384
0.134804861219818
0.125638642905506
0.0972344084850855
0.0987788752688836
0.125203522063129
0.120955692357654
0.12789919706185
0.123399235342613
0.0862279560551781
0.107229143291953
0.131026869330502
0.101375336538147
0.0936023567984782
0.127210850606641
0.0990423558319168
0.102929771958203
0.109873858576525
0.100728202178648
0.0994022393559644
0.10024272237135
0.121729275309698
0.0457119416864079
0.0973438262241371
0.107964224646589
0.115446345463961
0.0967390988754486
0.120837234067853
0.122290339781396
0.123883059580791
0.11866067128368
0.124984143410805
0.125513279502165
0.133072856613936
0.0938707816739436
0.10384615631457
0.0675640088489335
0.0949397293231001
0.120458121651817
0.100346207044457
0.100462142352498
0.121114564898996
0.12262509002375
0.0957284837620211
0.103089590810583
0.121661169914355
0.0984790576267988
0.11949476681249
0.0969477081037177
0.07258331048913
0.0964671489924478
0.103761881554751
0.133601448865366
0.101665514710779
0.126396816607189
0.103330840524285
0.12073828506096
0.106252781557322
0.102764116079267
0.102274197554316
0.126696619736539
0.0953682969725725
0.0949657365508118
0.09712405347792
0.0972943335442292
0.103637352010748
0.0996398815457218
0.080098580723879
0.0906030216530602
0.0796092036944167
0.123007038721129
0.124116179598338
0.10281226936094
0.13203522487985
0.124098778214644
0.0947115851535012
0.102965648429365
0.0787024915977442
0.091658521652818
0.122016206862721
0.118202314125018
0.115713336732268
0.102593320576829
0.100019467113743
0.123188030372186
0.0985444665584987
0.124202388329447
0.102120522993752
0.100259483667817
0.124569264182991
0.119501310236968
0.115925909920527
0.0959201323270939
0.125987447703908
0.126199210649961
0.0704740277675244
0.118127870865477
0.127615829707424
0.099820713424901
0.129747133345898
0.129583258173447
0.123764817693258
0.0948843611002096
0.103242483055915
0.116271272363737
0.105827657310417
0.127255817519265
0.101263883838931
0.118429421422796
0.11057406092533
0.0680853559156159
0.128706434578132
0.0910886445312715
0.13408045305537
0.12533417714918
0.105134965439966
0.129675219929267
0.0977990292467806
0.123914019516652
0.0950139101944506
0.121989122072957
0.131033188297312
0.129434526914296
0.120073486512802
0.0935463376429767
0.113566664544323
0.126035824003141
0.091308929539768
0.11730680362471
0.0756756348173246
0.127534051370135
0.122145044633791
0.125852013145872
0.120660039118769
0.0936035905529218
0.0991264799712993
0.123725784878277
0.0987316910494153
0.132311650468407
0.126195835467654
0.0965103713596553
0.130136742746485
0.128573318394357
0.102358434182088
0.129330280529746
0.128304906478918
0.0978359979278026
0.105957631429456
0.123023381826725
0.119881842990611
0.130378012865911
0.0774067597783413
0.102451984761374
0.0994966664885211
0.0672790956305315
0.0931576073127032
0.104837165144739
0.093897973207696
0.105230748332383
0.122418966365623
0.101219127596284
0.101185986927694
0.101108962863753
0.0938698054771288
0.0961027611843554
0.122975530904376
0.0790750576988705
0.108051216591817
0.0938390509121702
0.0757875989450413
0.0831666480597924
0.0959921749866138
0.121791007360963
0.0991963184825956
0.0722831363469958
0.073952412196803
0.0784954591926866
0.0798404896581285
0.0987450327336728
0.0940910694836815
0.125952218049274
0.123480825426212
0.098656934410585
0.121972817230264
0.076984469701417
0.130137354884229
0.0939587843612896
0.0738846378262526
0.0970827447809027
0.104426031571813
0.0889382796747681
0.121913837530559
0.12338415586523
0.124362700445545
0.0923876842865689
0.128039996394565
0.126066353397381
0.112237232753215
0.133881387721366
0.13594404987277
0.0670545768241766
0.0983208698746315
0.10041457348154
0.121121235581594
0.146314608196112
0.195397680665118
0.114522745627883
0.15013479878792
0.155700728476968
0.196240300025026
0.211907811342102
0.200312700027277
0.199195276226703
0.19969879008414
0.0741873043701248
0.202221914638415
0.0719296176129667
0.195622345137608
0.127017112667656
0.148499812633279
0.12321988062251
0.0787748281698412
0.069957479796536
0.151150388674404
0.0781345262798805
0.127063033232171
0.116945825962298
0.151068493609424
0.0745131966959037
0.0720539127784455
0.204422570861515
0.0690752824443989
0.158610402029347
0.152512946481056
0.192991848067241
0.144980545779009
0.157251403850269
0.0784296441036957
0.126604264937009
0.0817672772544957
0.208064828013006
0.156789091777903
0.125963293551202
0.141356295545353
0.0820717589554484
0.205389261111777
0.158580668618802
0.101564552098899
0.199880868486618
0.137395042495718
0.12183346773356
0.156598893575141
0.125547995887062
0.10793131686086
0.205300827765817
0.209613850312714
0.203072443515988
0.0732225858374658
0.122802905833229
0.208425825634505
0.199822041878468
0.116914891512531
0.12730305897699
0.210935494194761
0.146805271950183
0.20601274010105
0.149913184034965
0.0718491309004637
0.071262585882157
0.152450942264475
0.195330493345358
0.178219467913131
0.143990496699019
0.202933858738275
0.0693520126490553
0.193034826773515
0.0749224367781986
0.198522119425916
0.0819979392360755
0.157497420531566
0.14540185114863
0.0711778947475495
0.0760467795388517
0.0747270859657442
0.196418035543375
0.118363987875126
0.150206928435217
0.202615362534699
0.0615748049821273
0.108128276017654
0.0682140963923683
0.144106905824039
0.0739342341074563
0.0782587190783677
0.156614768104295
0.0784435491045521
0.198777911786909
0.151886951464259
0.119616489056063
0.193974653692975
0.205726976827263
0.0691781773962043
0.174237149590362
0.128516428456896
0.199121045589229
0.159584244039922
0.195939448119126
0.154413844656296
0.198595573154434
0.157371211739594
0.124995781869641
0.155041385172944
0.0754069550544927
0.19730311532519
0.130765123508854
0.122568711571061
0.198414864873937
0.203369810437341
0.144721531039589
0.0806532889224181
0.0667764940534892
0.0805660949934216
0.150044352198909
0.0669902089428064
0.120578833994005
0.198600765073007
0.100050820316396
0.126400596434098
0.154543182589133
0.121789667339638
0.127620414413722
0.199948050691494
0.119519433120569
0.0812233603073906
0.0771727379711516
0.120949041360403
0.175003620295114
0.203440284407928
0.0787467651939987
0.144095278243534
0.070264360747879
0.0693630966157634
0.124559742339705
0.152064261742378
0.12607864741779
0.150546574972222
0.146098986010714
0.149187996837288
0.125840015481576
0.153187078215452
0.126350400660417
0.194745285314714
0.154542990241496
0.160670440601255
0.151765239423581
0.199538500549839
0.184287765491038
0.161015936256973
0.150653968390997
0.0748109351902283
0.092209721519227
0.145366912178971
0.2100211714299
0.156545610154343
0.0930821043296288
0.203891951898723
0.123365973639161
0.20037768138461
0.196421211013311
0.14951312045454
0.0701670197308357
0.0668987128570311
0.0669377994056547
0.12952360541209
0.210315613310353
0.209522802531795
0.147609204258512
0.104071220473714
0.153436059781148
0.0734957134016846
0.116256629864297
0.144551777944514
0.117836348939555
0.13013428115531
0.200571983412371
0.127937455777635
0.199339635077359
0.1606253495715
0.147723709867147
0.112031352455814
0.122519268249662
0.167254541724452
0.1464304215464
0.0731489622687359
0.188943679748649
0.147362615198169
0.152460478410524
0.125201336071159
0.153820791789042
0.149361096801749
0.193411893171198
0.157150031589422
0.176765789104752
0.156663579059979
0.147839162671253
0.19607506879038
0.199390144106792
0.0730197112587509
0.0701882114631094
0.0761838952029875
0.171324818555877
0.145366153152077
0.075534281420086
0.140667390732794
0.0726346265931166
0.143212913573916
0.151575774485896
0.195914365127358
0.0662365179943865
0.17824089083732
0.171764916448543
0.17983530119413
0.116327157101178
0.160083251295622
0.196826716570227
0.07365360942142
0.153875204977252
0.201713664865152
0.201658089070588
0.0689115902733083
0.206079125411867
0.102035465943662
0.149724807941997
0.142345386537553
0.0783591293009544
0.102655073177608
0.147330177018962
0.139300727960621
0.200931042246482
0.0714530907458128
0.202873348180543
0.142520221128774
0.0642010844108165
0.105188874840178
0.149956362044462
0.171297754732223
0.0809830671860102
0.204173203696581
0.151888600208518
0.205588343832461
0.132634550463172
0.20494908050174
0.140476813801596
0.148282761336457
0.156961680522718
0.0611580809353832
0.0958374919610001
0.126492189278967
0.148933449380395
0.118766431191475
0.0786074866962207
0.078030533104775
0.200797021247565
0.0819372609307536
0.199117888586356
0.171630299553334
0.199196627776823
0.0727972217098844
0.195970629736997
0.0689437094388206
0.103659165433464
0.117496457600871
0.150740668197435
0.152592538037529
0.142455871041792
0.0773202259787547
0.150300056509121
0.0776614675714495
0.195126358918153
0.0701530040544757
0.0794779858099758
0.0936893993780068
0.146825903156112
0.130294756041043
0.199661828832318
0.0707546063772141
0.0973065201602443
0.124834958563811
0.192709231098777
0.0987823710091551
0.0772724296359393
0.149775684510627
0.156777971722914
0.0669112667904087
0.145739287525056
0.130188702521592
0.146959587599082
0.207132563729168
0.0803563840889047
0.167267789827443
0.126333699027926
0.103166448212658
0.198915821813547
0.144988417507785
0.184163922903553
0.201575235687205
0.195449949714092
0.200789864298662
0.0743858597577425
0.0683200234191557
0.208336154801852
0.147475418713676
0.117638180925835
0.121708411651792
0.149538036782621
0.136141160840498
0.206826241767934
0.144274218805144
0.151261682125455
0.122972024800862
0.145804121845686
0.151371466184384
0.203300457079928
0.202134961864066
0.0833877965504982
0.149966533299072
0.147844541768047
0.150428256918577
0.0733331070152669
0.0761383833189865
0.125324694732137
0.152398074149315
0.151452639823792
0.159872965978801
0.0706954322775802
0.125853299408455
0.206192105500922
0.195667666114777
0.153691029161136
0.0795184270034399
0.131375417649455
0.123431431412851
0.117355987538269
0.202583501965124
0.154900033675076
0.159679948248768
0.201954462638481
0.084547079169488
0.15184905255336
0.0765579905507034
0.0682565022354198
0.121776451909257
0.0646103886459953
0.101296718906431
0.19614487545684
0.143470252806201
0.199037876272754
0.0701462868946907
0.196877084158713
0.103283418599361
0.196427546299948
0.155204786519412
0.119183127372062
0.192907464656492
0.0988858934474762
0.0666252984546973
0.0730995334263947
0.125019659843026
0.120552106550205
0.0943017713852472
0.144864876262538
0.211690866486306
0.206691352958896
0.204054165550172
0.143683816268976
0.196039661089148
0.146510084182961
0.150786840162163
0.147170095904555
0.0760413012945938
0.0782516566561809
0.14235135657917
0.15566325483888
0.151450768926721
0.150569855716098
0.159209232150607
0.153358410417811
0.100497489329683
0.0977031061937818
0.179689045674123
0.124391332578393
0.123708087594599
0.198830032369343
0.0823554917746082
0.175375520045292
0.152280834420597
0.173059071781224
0.126504802487234
0.155341333955869
0.121622124599722
0.195698954019863
0.1317043859478
0.203386578105208
0.123164076360783
0.121775660959422
0.106333841335197
0.100121405039788
0.144346376767538
0.159296347884204
0.0821329022167168
0.154322843272999
0.198593462780171
0.177630161977302
0.175823175996112
0.117610389206626
0.102426614828851
0.0736796792651136
0.128248546105804
0.0771666259220861
0.077496749862214
0.151383483229529
0.110627643707234
0.145163305558597
0.0721504090608567
0.121810877571483
0.183473817324282
0.104675331956204
0.130090598847389
0.118574776729259
0.11447053080857
0.0668832186058543
0.127518750125667
0.0776072422034032
0.147715262106639
0.176642024309814
0.0704591587939736
0.104526175594835
0.168372161072153
0.0831072463586243
0.139886523269863
0.0839228016891108
0.193977265603778
0.0786806011054893
0.0790247486106074
0.148898666968857
0.0993673111082484
0.0848805446794534
0.132870549338124
0.0984217956329451
0.123844260457419
0.199735779720184
0.119857500252052
0.118292536308776
0.166940841176357
0.150650367655556
0.106112691900275
0.105868466575196
0.152348654677599
0.0767629754749804
0.146695189755734
0.0807263730840746
0.19196872756451
0.140667492072987
0.154566466249333
0.193981434888198
0.100159276300584
0.199769962825729
0.178232006298805
0.154294710949009
0.181601983799024
0.122317866604459
0.126477346627217
0.154829608854603
0.0797956752261557
0.131384366279735
0.127512638383328
0.0673185804920404
0.0670870505590492
0.0666249101895695
0.0782310432878182
0.116366096472753
0.0744811908520231
0.130130463775595
0.14555417405496
0.0748523381785965
0.210306087219153
0.204158674969717
0.0782698703821339
0.191911189125645
0.0740624794853335
0.142029118869583
0.146629383095134
0.127704755413814
0.134004337800996
0.115534318737866
0.198418365978871
0.0939006712259701
0.149125181599395
0.0771110795923509
0.144568101212179
0.0617526526843579
0.146645914809928
0.0720333537285309
