0.101376264162013
0.104715872691196
0.0945201308472618
0.102126712632022
0.104427873243531
0.0995340796736765
0.106863017365722
0.102389019608097
0.109335432369261
0.10272549455067
0.104582428919523
0.101922236603695
0.106338584227349
0.101354707966348
0.0959193218889343
0.0979176683091678
0.0991172330072696
0.0960666868772842
0.0987015336963094
0.0151016444428813
0.102668274346658
0.100279437727932
0.103255970877522
0.0975013986986563
0.103188532801883
0.102351814665999
0.0954702263700245
0.100182225860798
0.106952263134338
0.100904059074949
0.101502368846883
0.0994183205199865
0.0989855553866375
0.105448265346735
0.101228822236163
0.0981359014534301
0.108640170693414
0.0985467079445906
0.104219418974042
0.0995408176636504
0.0963957241989127
0.0896314789417656
0.0977751143487093
0.0931177610601708
0.0970440936904469
0.096639968046788
0.0923829412903949
0.0925346721434716
0.103680882291046
0.0322105939171059
0.0970809334146198
0.1044110103958
0.100195453321733
0.103904629127927
0.102693837446004
0.106129691362948
0.0957335479881653
0.106265197941729
0.0948999271155184
0.105703535778059
0.105489206482866
0.0900816468243564
0.102801938631479
0.106020388605886
0.102921969676424
0.0247259837787316
0.101782775191899
0.0936824179165052
0.104031663289094
0.0950249115414529
0.0981163852755834
0.106612627470464
0.110485513527929
0.0950899046485295
0.102161494707863
0.0956632068654644
0.100919772550108
0.099749314744649
0.0953838540050969
0.0966657724049136
0.113155368696256
0.0976900935768764
0.109414231137302
0.019965879391077
0.0921710297035983
0.0983144373776926
0.0977345732870324
0.0977468365214881
0.100968254813725
0.100024383453958
0.10297246528639
0.099621102582435
0.103689849407953
0.0993149676153514
0.105557696989314
0.107464732644716
0.103698599978688
0.107392602367106
0.102013795122673
0.0997968614956521
0.105421229399416
0.108508204443534
0.0957324990944465
0.0966025378605773
0.103886898752077
0.104145460643829
0.0923592131136535
0.100251585010202
0.0918780002973378
0.094697134751448
0.103668018142778
0.114062406321258
0.0991840055029658
0.10487219316878
0.0173728755948463
0.0950649531424977
0.0992922953793821
0.0984547425648737
0.0960265799598295
0.110205291975777
0.0954097828887896
0.1010272302125
0.095746620279311
0.100342686423146
0.104617699394372
0.0200298438654707
0.100558315484535
0.103473566489691
0.0918687190048496
0.0978680312509114
0.104893531992504
0.0947337216616049
0.100159983159108
0.0958958596527226
0.105910766135811
0.0970865545077375
0.105249589195655
0.101742364400519
0.100245300027445
0.100414717941354
0.100790639252097
0.0995103770648663
0.0911805512040059
0.107811041798603
0.102018115973823
0.104938979923091
0.0956352448642544
0.0984755703592727
0.0975940888359983
0.094574985372978
0.105052025369288
0.0945844655961664
0.0987177058733426
0.106177432677773
0.0994624574178185
0.0956475357243397
0.103737696619945
0.0987233222417121
0.100573852851105
0.107942545726939
0.0975729678502674
0.0956373248682462
0.103282806891452
0.102379489373852
0.0937040555910915
0.0991157679869043
0.107830933425038
0.0992906732652018
0.0968615484981687
0.10091699179787
0.0936079779325668
0.112033836114436
0.0975270463766342
0.100507922888234
0.105779412015089
0.0999830868927961
0.0968443082150114
0.100218018567202
0.0966834636126933
0.108996418275899
0.0980437400797872
0.10685709069015
0.0992708398810558
0.0928059165346803
0.0968117693938606
0.103031752525508
0.10512652658058
0.0955357049728414
0.0999010047139986
0.105582774984704
0.099106495236171
0.0986658089224636
0.0975607126651742
0.0974926942680472
0.0985435281055002
0.0982600439844822
0.103547447404851
0.0995055750052557
0.108778715991527
0.0990183021101168
0.0981750301559004
0.106310153101969
0.0964547733929842
0.0951137621519404
0.100124286427322
0.101786894353899
0.10554870494928
0.0995256681235049
0.090006792711059
0.0989702107940507
0.103054153667246
0.0992461991806289
0.100821277251973
0.111019270147628
0.0922969043734049
0.105585862214199
0.0926483626035157
0.100384583273115
0.100952219931771
0.0961703653272661
0.102563869974402
0.102853409702215
0.0953899413831066
0.0921192958617946
0.0980256587729696
0.101820428412662
0.100216701446312
0.096119830867098
0.101959510614577
0.102552028273293
0.0942687603529038
0.0983103559436151
0.10637591681657
0.100695040186545
0.108347162717427
0.101453048031804
0.101241966662672
0.107498377966095
0.109477408238443
0.0958991337805597
0.102519157999036
0.108195260045801
0.103613399034175
0.0994527004396853
0.104903911802877
0.0941437940952651
0.10735283003341
0.0995535760112188
0.100982991020708
0.103262117860663
0.07135115864556
0.074536982442574
0.073877162969758
0.0768406832815417
0.0718289368321889
0.0217865233024981
0.0788646064730896
0.079323255616927
0.0800049434222441
0.0725431180031569
0.071597202938535
0.0774856538375884
0.0243343999638435
0.0255511530639121
0.0694583637491634
0.0763345298523757
0.0223028429519436
0.0137277468221809
0.0784988583916687
0.074686630439768
0.0267298136090942
0.076159829007194
0.0743205242806368
0.0774914689212566
0.0222177528957609
0.0738707848842609
0.0705851112314803
0.0812115713128247
0.022184093616803
0.0771943732490565
0.0720003782839197
0.0251657422200971
0.0118923475025094
0.0664863065691182
0.0157240672545638
0.0795949853907807
0.0755732336701035
0.074320797804179
0.0258271104242756
0.0844440760235318
0.0248164751332287
0.0247485204123988
0.0741453622677861
0.0172813249774437
0.079324508362732
0.0369119131156738
0.0707548476567046
0.0249357355108638
0.0784747980930144
0.0225700078940082
0.0688378715728989
0.0744485008484198
0.0786212792520123
0.0226372151273349
0.0282066986250706
0.0713555675716857
0.0720307875977274
0.07859564473996
0.0231056708565548
0.0212095263113583
0.0237866052539555
0.0728372300426652
0.0704059011367548
0.023591317747725
0.0754370883414671
0.080395856161548
0.0221094648294916
0.0172764131353595
0.0779345421163398
0.0271953568855476
0.0757368625782482
0.0739403728671139
0.0253299174809228
0.0790951345022009
0.0209393927136082
0.0285592377294249
0.0826375330291453
0.0712658670072343
0.0783954548789161
0.0768828372307246
0.0198050572593735
0.074672840967344
0.0789143131577142
0.058563105724671
0.0214506092432024
0.065638845831909
0.0749700057473676
0.0286490924314984
0.0683831903133643
0.0281296939526423
0.0681270402569013
0.0768053317649351
0.0781235295908325
0.0175297195556119
0.0257643114192628
0.0750905005409846
0.0258274237759325
0.0666196664788936
0.0732076399038986
0.0299195010793084
0.0775875947167311
0.0352671893897433
0.0769870688540106
0.0776451852379675
0.0778666930286006
0.0709566484881196
0.0716419498233691
0.066694452550601
0.0776749213650144
0.0244468404711356
0.0281730853202957
0.07360696066008
0.0759624983093268
0.0160028563999534
0.0826760597673076
0.0828710442611069
0.079741410814217
0.0681802777932697
0.0776988177838294
0.0722779031661049
0.0765231504221742
0.075694620211751
0.068452269384215
0.0827417806194182
0.0721380136193287
0.0696502387871397
0.0740575279488665
0.0773972557329223
0.0228116665817295
0.0237623294798829
0.0698012965175248
0.0182138026442125
0.0271520934149433
0.0277063690802811
0.0339815660380603
0.0745881219560875
0.0813861244048694
0.0766239973376472
0.0803957966740235
0.0783946872864271
0.0765938217821863
0.08079024093928
0.0801124902081148
0.0186048309844617
0.0204800595460468
0.0726297972592768
0.0743916035302685
0.0250907231081365
0.0267996248003498
0.0730444372158859
0.0233579275015075
0.0301435795398603
0.0650613001738376
0.0282583558967644
0.0771139787826036
0.031978371425982
0.0828820211753102
0.0180504688506858
0.0802451446534558
0.0214785851766798
0.0305222798234966
0.0188512253631447
0.0215560657262209
0.0242695053763141
0.0774682087186888
0.0217495242433628
0.029336921399804
0.074913930477752
0.0738099883265828
0.0748729341574684
0.0724381172649853
0.0267832191264843
0.0726396793221846
0.0702951047558485
0.0736210725626343
0.0319728812027791
0.0251929183395815
0.0243810418424439
0.075034727348915
0.0283662972612736
0.0250029044908477
0.029448239856377
0.0753398673361156
0.0227040760665207
0.0808925264747786
0.0728350926554947
0.0729211461027509
0.078120681310521
0.0730420851742725
0.0227175059047742
0.0664520093411827
0.0695307293445175
0.0247310040807421
0.0718476936128509
0.034431710602283
0.0731269526111826
0.0767105362189505
0.0722300450818577
0.0206699392866903
0.0650677731414134
0.0731971641971921
0.0785813067497023
0.0229594784011402
0.0752358210752655
0.0732719190056326
0.075538021737332
0.0616047153097928
0.027093657390657
0.0253630331590849
0.0661968215065118
0.0843032166052583
0.0720066227750787
0.0245835705636811
0.0810276159416493
0.079803306760515
0.0300896878926515
0.0266514480593327
0.0213430477558524
0.028934182585226
0.0246619369653705
0.0772736238718589
0.0230973193663346
0.071371763913081
0.072310046999665
0.0731750839796752
0.0825912254566983
0.0245210020477245
0.0700951983884648
0.0768507373389347
0.0760129311928592
0.0695168709213591
0.0814447111506544
0.0249899714431632
0.0249204320837167
0.0743412358298863
0.0726388222588065
0.0171766256983295
0.0829909377999826
0.079435957361505
0.0223858280665102
0.0707464713205534
0.0258213129639625
0.0772758905518414
0.0302685987812258
0.0773110887390047
0.0203121666542441
0.02376262309553
0.0213774892075896
0.0166419506854841
0.0268127532542667
0.198776601624417
0.236420123706603
0.0953878557581911
0.0721664295234799
0.0773301966522464
0.198759880055762
0.0752273937015989
0.163513392732089
0.0704163194985876
0.0799102734694388
0.0766356789806145
0.0754744740289384
0.0760557711965097
0.196018951645238
0.11487835557907
0.221426509203349
0.176528488704786
0.0784453943087512
0.180107535783509
0.172548945041382
0.217053716895207
0.175234195161392
0.200669339947159
0.197703166279328
0.0760050186095631
0.169737804324154
0.221748044823103
0.173566317543958
0.0839497443194422
0.0687477612794618
0.0843828184229422
0.11262396391419
0.179631581125181
0.199573844475645
0.0957408231527783
0.200360757046876
0.217844203318559
0.108585678717511
0.177746265521854
0.108578451423453
0.0737510006405472
0.174064494711078
0.0873628424815543
0.0987596158976114
0.173882759363752
0.218635060286122
0.195735702134069
0.0742739444833424
0.131737200616598
0.0746533619001686
0.0991977813130181
0.102461131120167
0.111638882031386
0.0998684711625058
0.20648970417351
0.0763670902420439
0.116890707076221
0.198866334743577
0.179010181723806
0.167440620875202
0.125764673718732
0.203058192866661
0.0740378544636888
0.16544582348415
0.198624905174761
0.116345480112333
0.232373302757237
0.179567272524154
0.12162022602869
0.074690091289207
0.0734867548324638
0.0848425930136523
0.204971821879314
0.197350665833
0.175005703734268
0.070269811079252
0.0776092739721049
0.123930911207105
0.174770655385214
0.176284252514651
0.196499408308734
0.104809195395249
0.169326089937482
0.120997675830202
0.173054016502953
0.210395517049196
0.214813456881756
0.0729304894601695
0.230078256042783
0.0724117110951211
0.197340732902062
0.123491734977321
0.103880557058862
0.176960775767071
0.1286038984387
0.125692160878487
0.196328487020708
0.219201149483335
0.102693192696236
0.121671640372685
0.209260075518876
0.079887268693405
0.21558637335421
0.172118286949648
0.101189623018793
0.102998083839484
0.177843325962402
0.177078879262501
0.197036639697214
0.0928536989361407
0.171693907342558
0.0744084280910572
0.166481582323925
0.0757179923156436
0.0731473197644524
0.0679945890207461
0.17382529353315
0.196000179816313
0.178245586506769
0.099514714040641
0.10522864831937
0.171426749375323
0.193206328873484
0.176915714041573
0.103281226939815
0.0712800714686305
0.0792547465851738
0.123481771804835
0.1948266192423
0.197381370479947
0.220909623515185
0.0747346644979823
0.126025791075732
0.104764989891629
0.170313094125141
0.10508510002967
0.0831513034651385
0.163067004987165
0.167754533375345
0.104462619544864
0.203155907298844
0.208958532241282
0.171478233191864
0.179681096685754
0.0958916182724783
0.100456037121502
0.194950059389415
0.194216189309759
0.201187472683753
0.226200909811085
0.192192627926543
0.0989039806918394
0.176032265608392
0.0990353978332999
0.135673186696819
0.231194967162876
0.100560363334201
0.196690258375131
0.128363569210726
0.0679038947341131
0.0967802945782264
0.199764066968456
0.178987893052267
0.186867490412515
0.195489180455651
0.232007159480209
0.0703083371726402
0.202146610835997
0.206807184101087
0.183950827935788
0.0985758798020559
0.198265826522525
0.176313255385532
0.107589618663952
0.192195550726153
0.219761049130176
0.0834622854350232
0.0984773208945195
0.23422398582145
0.100857156650602
0.176168640771772
0.200857400875491
0.079353332635846
0.0999161221404229
0.174574571798806
0.192228619142998
0.121377135316899
0.121440517622561
0.179134879726409
0.123985803668867
0.0709464454787476
0.0787541602132476
0.180883711597217
0.0955646918700031
0.0986475433270194
0.221382165503267
0.122156392335107
0.174821971193964
0.226520162415404
0.203441549864301
0.167192417597865
0.097463800041009
0.121059822391971
0.0924164247911821
0.204479903159449
0.0954803038055667
0.123628474893711
0.109060862862598
0.198051567524109
0.0689808524847759
0.201037719536067
0.111705676124572
0.0793362959701374
0.118076845922637
0.230025047550053
0.0747893654113207
0.0977050139725766
0.223644436193275
0.19642123258888
0.138402848032106
0.0959657023512595
0.108834463220445
0.171145635726963
0.0748473928915497
0.0975728511583821
0.168284917316808
0.0759189287715882
0.113717919862129
0.129050561634242
0.179466149423833
0.198688777725808
0.102566659339669
0.196551008296311
0.100986122220732
0.195355201930968
0.20546784914133
0.205975611256033
0.0966576215412905
0.120047522898857
0.070529503026597
0.0992302952721088
0.177915027720501
0.0780908095565821
0.202977452347884
0.175618839376788
0.196723634917772
0.172303606363419
0.181167481470232
0.0721286143973931
0.0736029952168804
0.0733271570217441
0.0797266891510235
0.191142424570577
0.176605901776078
0.0745668922515766
0.0987635721730272
0.0698269707986314
0.0930405508705598
0.100733773169653
0.0977696220498838
0.165964414604146
0.0734559922951551
0.174923492854844
0.232257289001635
0.0974211084805944
0.177408306076858
0.20018590696011
0.19925607093054
0.195131197948569
0.0996937585014937
0.0806250614113137
0.0758737842606531
0.22782239172831
0.225252953062881
0.197727890893909
0.225964247365445
0.0681882325846681
0.0699976654664602
0.223356464105414
0.22404256918853
0.117087652301462
0.226349219102228
0.0964507070564646
0.0814027241040347
0.0756054212230372
0.178325462368868
0.0785608712573699
0.207369372767925
0.0830138509649982
0.205939813606622
0.223522143531447
0.0748591820838642
0.174398698131977
0.174627951064648
0.132685222733835
0.203951871616342
0.0785641854072461
0.0758039753808152
0.193856925728492
0.175593490774511
0.0760886467895839
0.218584044020024
0.201209226407382
0.204666904189481
0.221708875539342
0.0743923254260337
0.225245027396294
0.120972601317669
0.10959802990697
0.230304734085224
0.123217012648115
0.0997689559299942
0.219030077978539
0.10809897670342
0.118907208409205
0.0969521715375063
0.0708620283553837
0.225244959188001
0.168191576817238
0.0791300944217944
0.205906147696569
0.0731251942857551
0.081545996253164
0.104361400518843
0.222004671559385
0.129492931188511
0.172817746194521
0.226600886544236
0.176303077980622
0.0772699811598611
0.191750798412947
0.203194301092295
0.184446882255556
0.1209170580518
0.17346702544317
0.187129780522686
0.22091685675116
0.127609371559138
0.133181425066438
0.10840516185304
0.171278619211655
0.0909322474321828
0.205084012305954
0.10258665117182
0.0738426771788842
0.0759507497206386
0.206214849448293
0.0771725852440495
0.078171967697612
0.228836384714724
0.0949671435497214
0.099936916820915
0.123271951163239
0.181030471222104
0.182095454382904
0.228303940418781
0.175880200356484
0.181360189220364
0.118452212850852
0.222282064754254
0.174923234573366
0.100371007434939
0.0978512304107021
0.0733184350010003
0.225377051820956
0.130602797319933
0.100831516846875
0.102335649601823
0.0812303297554906
0.101325414271744
0.0827269866792861
0.0987026943442063
0.0699211403320105
0.0960713539074966
0.122632041044988
0.125526858993125
0.0984094545089124
0.196612777483443
0.124433663829708
0.0771973127990501
0.175140593960286
0.126748414479778
0.18003017312128
0.133463397215965
0.0850736128811919
0.172932683033669
0.203177422520001
0.0765807649678699
0.198376254085172
0.0807641611801579
0.190657465021682
0.0723718712306438
0.0738191311976637
0.0806573967467782
0.0758583266534602
0.0799396971618575
0.231809887007258
0.202712287496337
0.179064807325079
0.102509464278457
0.205132619516154
0.069133858290271
0.225240735816259
0.199577611322696
0.122088479396966
0.1781291145215
0.127409252866656
0.0759947969383564
0.230608643487851
0.104416369713563
0.205939170299302
0.131668345277006
0.103866154152441
0.202694832375162
0.078283585470642
0.224526046210881
0.106106539700844
0.0971263763180865
0.126567547118332
0.23421212279452
0.192873222930873
0.175125894590367
0.0742399847305877
0.191795045432773
0.197638336745602
0.171914105126734
0.0735665704530747
0.192370682323075
0.196528401035902
0.0781806287197051
0.133442316983467
0.0708028006104972
0.105228054568332
0.177043426615513
0.0793713107021054
0.105552795996875
0.221983051670827
0.199718313533362
0.128472534499881
0.175907544451397
0.201666305105175
0.0723035332750758
0.199885771225158
0.0833020163531789
0.205312885795179
0.0824372171356196
0.220616117179885
0.0745424493144096
0.172392048228544
0.218660737419483
0.130363355820926
0.229195087157668
0.0706114956561641
0.0941198902936172
0.110675273147869
0.111119128929925
0.109848599523279
0.0635596319650277
0.221339736236708
0.119286029551291
0.106778142056697
0.0744513916390851
0.216533431642305
0.0989246436382029
0.130331710633783
0.199323355086185
0.104731777571843
0.185497233599353
0.169391234198848
0.222541428503237
0.119599362768937
0.227265540612352
0.178540372486141
0.170972591346439
0.076982485164377
0.123332727117611
0.199075243475863
0.127977630365537
0.100816351701816
0.165466582632158
0.208048953009787
0.0959563445085027
0.120544958421822
0.181116838150763
0.112405416989625
0.124396563121241
0.237690534266795
0.175076401545301
0.137554850218401
0.109313933898806
0.0754887044688664
0.073691376414788
0.126520225359941
0.0766064309826879
0.173566500400598
0.217042279350148
0.188343635682144
0.175200404129358
0.171925732569611
0.197499551636034
