0.177203064230958
0.148732140249878
0.180331758273075
0.148170070338359
0.146727331831212
0.156396852612047
0.176118475491325
0.176668092758025
0.180944590688601
0.148188759712973
0.148766799448346
0.153584425298683
0.168813287947084
0.176002261734539
0.149080347476823
0.1714741108842
0.14572577844548
0.169210548053135
0.181333278417513
0.146237285587672
0.17972373938024
0.177858881587934
0.148557647737663
0.181477552129699
0.178357043377141
0.175987585280567
0.154504643199792
0.154449593337976
0.173744635888016
0.147047093782523
0.175121346321247
0.146526972412693
0.146834465185575
0.179643214090227
0.177796472434975
0.179426461548333
0.159062286296239
0.148965051809
0.14559308556055
0.148695710773763
0.180571266510087
0.151471924896894
0.166171023529447
0.146485878463103
0.161323781737897
0.150502146435373
0.176272991715835
0.180017254559475
0.173966202146217
0.154628274278261
0.183380879819602
0.148643790455733
0.185870637353248
0.146382538270702
0.169914152492051
0.171786967170018
0.180500183723862
0.151470231943196
0.14615190249155
0.151358791897523
0.175685353585544
0.172130884463196
0.152115211175808
0.172244354745515
0.175682678280972
0.176629361475524
0.1741757744133
0.150641231064907
0.180392122813289
0.151997446242023
0.158350235545817
0.167034138234781
0.17261712612424
0.151493036989659
0.180014067880197
0.151140977688442
0.151886651776871
0.179929303499533
0.170933647375783
0.149333004729364
0.173545735097847
0.179874765194357
0.17145214983984
0.171729690734809
0.141057783308465
0.1811486278574
0.148590956599752
0.148670255542503
0.170222867507405
0.176909167373584
0.156815952490708
0.177735473276475
0.173869347675137
0.174281048523439
0.148021339928637
0.157824275352603
0.173367955976061
0.152112678721459
0.17722567084342
0.165397024904592
0.17283761067105
0.17580499324559
0.14274004789709
0.174011695600583
0.169544833091792
0.155257532295937
0.14605638985565
0.171091440425554
0.158691305841436
0.17338254658992
0.148858123570005
0.14844983150302
0.146110263442754
0.178180791221625
0.151083938182703
0.143377791223274
0.173607603476554
0.179600410158831
0.143239051687682
0.176357747656215
0.172797693987338
0.150401633139704
0.147775092796008
0.165484700489984
0.177723369851973
0.152352272315681
0.169638621471319
0.170886523364774
0.171019737250805
0.158201991047104
0.177013459791469
0.141238776486061
0.167788622663246
0.182057875048026
0.17358571453344
0.176746511647934
0.143951440031072
0.183781582317063
0.162550401159541
0.183474537549494
0.171943100051494
0.160610770424882
0.172240065106065
0.190779251432007
0.180492269205478
0.177156678301145
0.146291091777346
0.143443803908628
0.165463018968916
0.144363679630198
0.151843851149549
0.175268539696118
0.177366954492536
0.156852406160818
0.139628089215548
0.146696565577132
0.150671386345963
0.178321952736445
0.174744007308807
0.174828491222984
0.166782501547341
0.148710955998783
0.154287266605894
0.170804023474597
0.146758748173087
0.17225760817405
0.179449912692229
0.173484830476389
0.172456178515743
0.158617307737024
0.183241976246249
0.14976998605812
0.174652972008018
0.177781308748926
0.150514308608883
0.168763859102292
0.177155763233256
0.171766892071815
0.151720340432933
0.175585806737024
0.141280212150951
0.149147615821132
0.159298777767275
0.170465769287255
0.152340512638855
0.155384890720933
0.151885597575061
0.178213523257366
0.177129134355039
0.145791509413191
0.167417964583204
0.175033877369791
0.152975517014212
0.178832953354678
0.154864905851722
0.168807683758076
0.152397502220871
0.153393761316308
0.15003599751656
0.177807891156151
0.177548030856034
0.153542589969135
0.176023667733591
0.169810559255319
0.17219783837393
0.152209891212588
0.150858666358739
0.175688229859435
0.146170341615844
0.157062827155086
0.177718780893234
0.182191215970304
0.175015263577813
0.146802254709775
0.179267495177201
0.14963800400859
0.143392327091109
0.161557304037708
0.181175906899109
0.144303101260116
0.154043138793329
0.181951593255895
0.159747894429423
0.171974647369716
0.179967245932637
0.180701629944093
0.172852919014812
0.17286344863852
0.173839829285825
0.182796052407502
0.155351162647907
0.151798698366483
0.164309852082815
0.154033097935662
0.17637767475304
0.150145822004763
0.176661439804072
0.176560966099049
0.185936650557442
0.178547356833893
0.184181627138896
0.159530172997501
0.177761564015281
0.177630479814217
0.142907989749663
0.178009480128795
0.154203941977315
0.143545054870424
0.178192626167627
0.177150135074766
0.0915403919417564
0.0960216411712017
0.0976577025278405
0.0989956958995679
0.0989187661498825
0.102888568675215
0.100051491916802
0.0951717100723981
0.103244742227725
0.0877298442416609
0.107259381696639
0.103288826158829
0.0954470338788277
0.0930270118225018
0.0985686246504436
0.0901621858048811
0.102177939635196
0.0928594921110809
0.102544618145437
0.0939228022282228
0.103704636571206
0.0943642493660485
0.0946089452194063
0.090545737765197
0.0934681828332485
0.0999003806066952
0.106043441409553
0.0988638914919562
0.097808050022496
0.107545405121451
0.10907775970019
0.0967374532812935
0.0987209606842696
0.102910889644185
0.0944984775391389
0.100372980632703
0.101046118573691
0.0973665083574648
0.093931396899379
0.0931539351171267
0.105924247580372
0.0968093417833357
0.100620427780345
0.0999549502847432
0.0977295875752743
0.101995831415598
0.109493973743581
0.0951137214949173
0.104219783480647
0.104015919319473
0.104871303273195
0.0996631291633591
0.109708020361503
0.105934719044526
0.100475470114961
0.105251950753559
0.102944032162048
0.0966489968505166
0.101902026848194
0.102970921923337
0.0974009462049871
0.0962402417291596
0.0988462463862821
0.0983282268261208
0.095213080626811
0.0965633983691092
0.103254755750044
0.0954026466791133
0.0940998297165605
0.104765392167231
0.10231956836214
0.0967378772748342
0.107812152415131
0.0980715806542965
0.0996120745328175
0.102290563469767
0.0992068096392997
0.0958135265278074
0.0982419218626678
0.100986824686502
0.0986985423129231
0.0991261813992945
0.0999927876233092
0.0975503058216214
0.0994780352932553
0.105787298645198
0.102136361140685
0.0971237581482859
0.0981173483125004
0.102275269957308
0.094295004905356
0.100710031952612
0.0968493791314277
0.0959044991348158
0.0940116689004547
0.109204546765812
0.104210388751406
0.0958642650090933
0.098058656785424
0.10071519671825
0.100931372145088
0.0897820382570233
0.09707984600826
0.0986434099572142
0.0963188610834602
0.0952090675659896
0.0993472450488788
0.105461719744083
0.104539235343684
0.0967485019378186
0.0945087185930642
0.100988169349243
0.0970571064608612
0.0979469964167557
0.103309428308301
0.0942901442560128
0.100205017721999
0.110224007908374
0.0987281160666979
0.0972454603045625
0.0943651136194758
0.107827492586066
0.0878923966767171
0.107743258651999
0.0972943549108062
0.103607587152321
0.0958657963980391
0.106315083834693
0.104509415070608
0.10099145923041
0.0946218285750372
0.103314749592054
0.0979513530654331
0.105115915226553
0.0924797295347525
0.104793649515644
0.0967709185983874
0.0934719520079284
0.103899792390043
0.106500366359989
0.102111642042494
0.105335596252203
0.0966678155621266
0.109894733774311
0.101299827121936
0.101551508319739
0.0970672799442468
0.0996993045507064
0.093967353859772
0.100918940463023
0.0998206310256913
0.09805086479565
0.0976923003201738
0.111105407158981
0.105095853528897
0.0976365326143867
0.104708317998123
0.0969579712785602
0.104101779573745
0.106550423619761
0.103338001486027
0.0982233099072828
0.109306077378689
0.0941331420944612
0.100897265261457
0.0942308028233647
0.104501587905045
0.106146268898731
0.0983148790194561
0.0901104145116996
0.0959994613247183
0.0960358307282154
0.103140719364273
0.0946299460942505
0.106021543228402
0.105941541105548
0.10251972186748
0.107752553835779
0.102207064703539
0.108972024730968
0.0998036681695439
0.100869381438742
0.10294430723668
0.0924389034985761
0.0956720737298652
0.104157632880171
0.103078608035986
0.0938141082524927
0.105739469803566
0.110284521786452
0.0968298863988371
0.093021346327475
0.101650230289086
0.105371180366797
0.0965801768199261
0.102276414375494
0.103060287968505
0.101677619744548
0.106738402508848
0.106635160203068
0.105008973118949
0.0906532154584225
0.103956944370006
0.110320477374533
0.10543816183857
0.0979487438414003
0.101105174986755
0.0973380323147535
0.0921288230208768
0.104985629096658
0.101783646363905
0.105493477863861
0.0961377323545818
0.104818302275055
0.0866924184933943
0.104707434514401
0.10257851726814
0.0969938129525186
0.100477662403505
0.108366660671001
0.0946755470246029
0.106358047901128
0.0988206939706562
0.0921480463857169
0.109150363137272
0.102955129559148
0.102220125544412
0.101227924754519
0.0939394908774766
0.0972306949272803
0.100780634282694
0.100377752869779
0.100119708848323
0.104358674187443
0.106762315202383
0.0949965254379698
0.105520886240931
0.091020998372742
0.107156849829957
0.0979691623503727
0.101539322435519
0.0926991478295619
0.10031142058645
0.0991258103621429
0.0997782859110597
0.105124235595108
0.0912113586022407
0.0957498361050837
0.0969421716325089
0.0888861518994904
0.1691338152793
0.0245660649184082
0.0135517895072226
0.0526350134464658
-0.0110846960698601
0.113645588535246
0.0241600434454625
0.00479270743874688
0.184250767939033
0.0281420305976415
0.12511315702041
0.149980020100719
0.142609946534288
0.00395901103501226
0.108081858728185
0.029627784594684
0.0449542172340002
0.0328507038003718
0.122517371210291
0.166996078979614
0.175682631136007
0.171188110074238
0.164336742247381
0.0935592424257502
0.00324063541582667
0.127498030717812
0.156192356110421
0.0267510666464913
0.118467461280924
0.150165270983432
0.169497401292891
0.107484147922461
-0.00779893291948729
0.104008128485789
0.119678996214036
0.0283849619173947
0.116199909300968
0.124038069695963
0.175624196559581
-0.000246367587559049
0.0368804835240166
0.039974586446494
0.132437260380603
0.172147381654971
0.000452057179461891
0.124491190203249
0.0484644604328761
0.0432385533714558
0.174258190792375
0.129100780247933
0.093244928540811
0.127784732561577
0.170562890192414
0.0468701993559528
0.0258935771102029
0.0309469100853981
0.101157216715771
0.0292721525221752
0.0384771473472862
0.131083341063577
0.0227934975752807
0.0197465418691757
0.0547031483774612
0.121651016917746
0.0245470918191639
0.0974453149514719
0.0486840082228466
0.127383696514513
0.100402372114847
0.00256380288105548
0.0200230863876774
0.15641803989491
0.143286715248557
0.0988129996872378
-0.00723566188724766
0.106677216946248
0.101784115046901
0.0275645594107145
0.0978553499206152
0.0243022463470052
0.0273906211150517
0.0254643060217703
0.128863023733846
0.149543016236414
-0.000133048894227513
0.045362847704206
0.18310734666448
0.103294647291681
0.128228486884298
0.124072038492922
0.0297203296623773
0.104934522037223
0.0470849875659857
0.100471863339835
0.0552760111558486
0.122727772301443
0.0209275132422953
0.169249140650201
0.0360453683529121
0.0298220669471712
-0.000671645289434348
-0.00420362888018844
0.0955959436322255
0.138934143612342
0.0986769756048883
0.0251906298045244
0.121188597036233
0.000745200029868315
0.0485131315178388
0.169633067662716
0.145444323711151
0.0467904526542928
0.169254183419056
0.177047873008473
0.175108501931708
0.0246898217573067
0.179103211369845
0.0472682269361789
0.0977509585571144
0.0916595592625205
0.00492000929195681
0.122587597659798
0.0246182454845509
0.127619192300822
-0.000750914538295838
0.0518130990579716
0.0556903257636001
0.169882905347012
0.14507655931719
0.0523775337866202
0.18384394587855
0.0942072873687881
0.167667489718493
0.100732742608019
0.121911048596946
0.0387469921020673
0.171923073949618
0.152729596594877
0.0211380036596788
0.0482680495028108
-0.00446966960029231
0.0451480640199402
0.0235093537771203
0.121734812059682
0.133118035930555
0.0973771565247268
0.0992503414592718
0.169540086944996
-0.00762539127582857
0.0272894962258427
0.125990121580553
0.0517985273140391
0.146162949631416
0.0245077492686961
0.1496580654544
0.0525043603143522
-0.00556800511532018
0.0599846812103163
0.176946651777487
0.05594190509466
0.180776415467601
0.118447534186565
0.179340132632889
0.0281233399710955
0.151819551766922
0.121479607609999
0.0245355959334589
0.12411874539948
0.0330195818154462
0.155513304678472
0.0200733519688315
0.131043342018515
0.124944468732434
0.110972794852188
0.0511599408857135
-0.00823019714527645
0.12955858990776
-0.00840603458169601
0.127737993564407
-0.00934246419724477
0.143486040349699
0.101217809619577
0.0265810787287126
0.163771300654723
0.101350238926394
0.183646681443058
0.12397802544012
0.0522238799837207
0.150329026368289
0.052958425631468
0.173450484714521
0.00395850880047684
0.0993109792499099
0.0034776346434487
0.00500824882274959
0.136234442843312
0.166275863044392
0.0995770622245499
0.0473220931212329
0.00290986004802232
0.00737030512999501
0.106530486641592
0.0505325005581466
0.0146543570479733
0.0047962181801542
0.0981558341878211
0.0321213605111224
0.0437050295619655
0.124270854063167
0.0555498107872197
0.128577154411875
0.124146529329606
0.0285567743556333
0.133285780669616
0.148269489305676
0.136293546439804
0.0383043855722396
0.101619495077747
0.0535779858909281
0.124397509075661
0.174451399892228
0.0505656146992231
0.0174794920658825
0.020398192508532
0.140893512198834
0.095071399084594
0.0266272459123698
0.176190191738132
0.17596166406285
0.0176900114954636
0.0252862056971105
0.00910147202905877
0.0470233792661315
0.0308537352200239
-0.00802464682350465
0.0982726267659405
0.12116999370226
0.148963501854151
0.125387512234844
0.123275836183277
0.102173180907319
-0.00322772816918094
0.123101624555478
0.0471722013808382
0.140604481179744
0.0301877154115121
0.0447299546894513
0.178704820755475
0.0454290664826607
0.0491455092756266
0.0592474665384818
0.126294119195404
0.017035935327609
0.0551788128050504
0.0483526063193199
0.122905057664544
0.0254922359621897
-0.00798662386553817
0.026235417253563
0.18137770963678
0.130710938615877
0.14183806450149
0.0305636214984285
0.00470350384912576
0.0326369222979115
0.178128245536417
0.170773940756388
0.0103347806233811
0.135728679159783
0.0280643633484915
0.0453659588187292
0.124779218430694
0.114273919489343
0.00409997919964958
0.0555120759043449
0.125293341729377
0.124514763444656
0.0101913305118276
0.0989587495891022
0.0598017357002215
0.146395642721021
0.150052377154621
-0.0087727021401281
0.152761834794463
0.05082095703279
0.0246481828769518
0.00096920538064922
0.0271314923347273
0.106085024176595
0.0510587412843438
0.0527575924667008
0.119503433715556
0.133997641908285
0.0308433769129714
0.0992962006184927
0.0242189613597881
0.0456410016256619
0.0268776539382509
0.177133237461077
0.153841209534825
0.0237570183192646
0.175847544272863
0.184086173838488
0.150464866140908
0.125567126024106
0.0221198506281931
0.0358372932277281
0.0251169680112628
0.0479586718867635
0.121495336198427
0.130594246490503
0.120560010252602
0.0219677472681359
0.159268978610108
0.0217216463460745
0.0168319350602814
0.0350990416750555
0.0206361339973285
0.154251302430866
0.0607971401332223
0.0529660835046035
0.0268283804416352
0.0294600496573052
0.130431879310476
0.104229891535863
0.00761650731490718
0.0491348759466251
0.0464049856713075
0.0514721916686778
0.155121953004825
0.0290877170710847
0.0266698542932389
0.0876329581389658
0.169166567158951
0.027640396615775
0.175077398518923
-0.00659655307289989
0.180960787061618
0.132160471471229
0.128774745116096
0.139264473034703
0.119550377710769
0.0303391614602226
0.034656869740575
0.121466007586754
0.176158690307536
0.131449723396392
0.00148110846557897
-0.00663800028503869
0.121270892456139
0.125308301945707
0.168325455498007
0.0246430004851174
0.0418047215360041
0.0248104839232274
0.0254556777890518
0.130716758345566
0.0212155119471488
0.131907818073085
-0.0108283279495741
0.0214597001574484
-0.0041500806123857
0.0355964473347225
0.146663022821525
-0.00299513566060273
0.13107620615313
0.0228346540279337
0.0975765527542753
0.120966634460969
0.123782044088004
0.0258558847035571
0.0493791587852637
0.0488686572465914
0.117595855213841
0.102990799209231
-0.00492336532141462
0.125074325856774
-0.00828728861957594
0.174087061882966
0.103992689089267
0.174895500089262
-0.000766647821291384
0.133830730276551
0.0038435007642193
0.0511738734627012
0.102260858107145
0.0463953002135416
0.105037875385144
0.0570354923731038
0.00215713869022826
0.143826291041914
0.000723848463322822
0.176214489511112
0.0453379293817784
0.0923166398179497
0.121796468923493
0.176772834595204
0.125150653475385
0.0253312883557257
0.0475745455625715
0.00544982965347786
0.152034379314093
0.179467348173519
-0.0111829576394241
0.0531201915742484
0.144643641921589
0.0294986987117052
0.094714909272901
0.0149975062199741
0.03090291048968
0.10383616584862
0.0229831401234897
0.00535062146316589
0.176833531263577
0.0284906709428287
0.0254549363069074
0.0197198956688513
0.0267481468806782
0.173625720074799
0.133939491140322
0.153849549976327
0.125157320875757
0.132679481200592
0.0293266400745511
-0.00525384102937001
0.0215785434219065
0.0197270338058618
0.109508272713759
-0.00782807425319219
0.0873300280126089
0.0192730770316759
0.176983619195958
0.175494239116496
0.0498507974208697
0.14941340384931
0.00137617961242782
0.00152602841148377
0.157766839977593
0.0325325854298944
0.0996921118752641
0.16339831039301
0.110113388955529
-0.00835792075076048
0.0272632668041012
0.0257109775865478
0.0541526975975406
0.157210137275931
0.174413582056798
0.149794969204657
0.128671751071208
0.150572207819209
0.0484007672823575
0.0262681440335669
0.124285348228098
0.103749545881638
0.0308916415403419
0.123715741789789
0.129192211242132
0.147232270748802
0.170920013971888
0.0317035609041007
0.0212340702812274
0.0182227356472312
0.0281433077915998
0.17880923178671
-0.00571507835414196
0.149854365303536
0.0546266493864739
0.0942144917697455
0.0295255623787133
0.150985858443302
0.0973120751734244
0.131942261444351
0.00233442298936803
0.0462218675120963
0.0283664736173081
0.0317952949785663
0.0190337145148891
0.0222603966315149
0.127418731101009
0.0258980638673446
0.182168711367047
0.0263672571385461
0.125272409247587
0.0329834356012462
0.025724124129514
0.00245858649039703
0.00255161402510663
0.0422893163884872
0.144076700317986
-0.00424570078049737
0.177660040319362
0.142618876002866
0.150679634406117
0.119472198789577
0.0482530225324564
-0.000235205886710266
0.120109650645826
0.0214548860010423
0.100502039733839
