0.221268387363236
0.233244370847262
0.22588496263183
0.218706738562871
0.227761275327996
0.222954927506048
0.225443170977137
0.223765725344255
0.221669590860744
0.228796352612345
0.223470713355839
0.221234157266643
0.170208026404359
0.22540653886294
0.217321274708129
0.229021098847229
0.223914964684976
0.222945009467477
0.180346638572317
0.225274149090507
0.222556964903889
0.224188728643377
0.21911589373778
0.219979190451502
0.230165375579159
0.223461774530516
0.226569053517685
0.225946222433758
0.220495422353517
0.221534134969856
0.215243072451923
0.235908449097462
0.230214425342361
0.226788424173467
0.222278042043846
0.22662242371672
0.227554336588868
0.225550049945397
0.220122431904872
0.222806156029375
0.222722571316116
0.225566433783934
0.215437556079027
0.225929502888732
0.222876931813654
0.228948168239271
0.232973674725416
0.235575475073211
0.211606530282761
0.224716848412253
0.22528601061903
0.224555170403414
0.22732411206555
0.222516078418274
0.219431794727653
0.215865404080998
0.226417913123137
0.22667589762247
0.221255683488824
0.228890210449803
0.228377976069025
0.169750481734741
0.218320830460211
0.225903573666145
0.232819683986912
0.224031882625178
0.226332370001728
0.222125290560288
0.229439009013535
0.222196972074099
0.221178136584494
0.23186509592201
0.171198243305642
0.163338686774459
0.220726103028399
0.225377246031178
0.226667308307275
0.222381969710536
0.223952720786
0.226487357114729
0.220721359942829
0.2189296197966
0.228987622316481
0.224378158323721
0.216157985489614
0.219871137316925
0.231065948015371
0.221099199542245
0.222925933367722
0.222434002388946
0.226791748575292
0.225702211164739
0.232691885057473
0.230559521656857
0.218469965013867
0.234325327216148
0.224165634121711
0.22294682209434
0.230244281507716
0.227221606557512
0.221409589608012
0.225593542115803
0.224995875673295
0.22170933416459
0.2306277772738
0.210103542893724
0.223572172824682
0.225409091913634
0.224282611614173
0.228111822308752
0.225758682752574
0.22630747982037
0.230609071418099
0.222560272616816
0.22184422408569
0.233101761764699
0.2307285205031
0.228807588584389
0.218580767171406
0.233525737904052
0.218153690062814
0.225020253239438
0.219858247084522
0.217871973483417
0.228518533236676
0.226168643645353
0.222378521453198
0.216315638520438
0.22780353221862
0.215235257602947
0.222164947998581
0.222025728699451
0.219283610725421
0.229102089998996
0.233719456130422
0.228033934849877
0.228318280079117
0.227288109710038
0.219240264978351
0.226049886810767
0.227392240101004
0.220295783594989
0.227847357736745
0.230809099445511
0.226185881993831
0.220656572343759
0.216031540659622
0.221231655555593
0.227285224470461
0.228457395895642
0.225541940557209
0.216898178018955
0.177810088097742
0.220902064971895
0.224633738875727
0.227110481849769
0.225637136442461
0.220963910254128
0.217870365835145
0.22139451119763
0.226165416199862
0.224571412074293
0.224220761422092
0.220717022294855
0.219676342182196
0.234071983237985
0.225984889037295
0.230458410314902
0.223973842682554
0.228898622594607
0.219200752670088
0.225727180764535
0.22119573749817
0.212875318793285
0.225639776929353
0.2249279491157
0.22174167994108
0.235000502378666
0.224373744621979
0.214124884401502
0.220654366856334
0.228485070733852
0.218790783533422
0.230359692786707
0.219941200699406
0.23069925343493
0.229804994036677
0.224578735347805
0.221764168406705
0.21782206942928
0.216418939544913
0.222623694252198
0.222168654301774
0.225689688058099
0.217333312004091
0.169140050663907
0.22316805846033
0.232238427956969
0.223309863684448
0.221256448805913
0.229719624663778
0.217458517753242
0.229711657284832
0.22557781641241
0.21877352267036
0.220285832834288
0.225359758270895
0.227677715951359
0.229606512543252
0.223790055763264
0.228182113220917
0.222611475227078
0.227658037033605
0.230723682034481
0.225148810801084
0.231718946505893
0.225227642294868
0.225286448500335
0.218570004700606
0.222539113364768
0.182155591240598
0.231499757561417
0.224676769465033
0.218261266715382
0.235196233847049
0.22510061630383
0.218385751868477
0.172334193703599
0.231742026905071
0.226632323566934
0.226753376349371
0.225422062253544
0.219877333649856
0.224913809026884
0.227955751732931
0.231919033881266
0.220828341344627
0.227424549801574
0.223750533653826
0.222417591915511
0.22265433004509
0.223391745821237
0.224299342732485
0.223952689353133
0.223420719857793
0.222358111043428
0.224718687958965
0.225306774827647
0.23075487926091
0.224209161936697
0.157088784970577
0.196112682991633
0.147478200086821
0.20396990704513
0.147616314119901
0.149666836683588
0.156187628223018
0.144148654466096
0.202453882134586
0.152485769264756
0.202045406749932
0.200007652875503
0.157144935668314
0.152186418126311
0.19759340175939
0.195942086783183
0.206085889825153
0.207663964120243
0.1888996001401
0.194855911199182
0.195797332903715
0.195666161808065
0.157495823373999
0.15386448501277
0.197488297134458
0.201040781918345
0.141582044878836
0.198776305661619
0.198734081099197
0.199063813369347
0.206695804997172
0.198947938571931
0.148875463920074
0.156258594213917
0.190429992071769
0.193233695628715
0.203719018422129
0.205548205469747
0.142077495179919
0.203214789534114
0.158477325926938
0.203895543864662
0.198716656944739
0.206197376672701
0.149321916295432
0.149495517636785
0.158228845838285
0.14969745326127
0.147715022035398
0.149369330675819
0.201524865681252
0.153534039652792
0.147350390287072
0.15484043036194
0.195008481862697
0.194444801315658
0.200688393749209
0.156333469560086
0.201323696551238
0.143997030405212
0.155615675401617
0.201467286998414
0.152411255260791
0.195603294975216
0.19910728217255
0.144398852997318
0.152563568856648
0.196841951099233
0.146473622912075
0.199922619306833
0.153970709977504
0.146472720181651
0.197348949020693
0.205246386033302
0.201721677493857
0.207743208766864
0.143671763227515
0.141228392091519
0.148150383235302
0.207373833163701
0.152276177375548
0.153480494756143
0.148650449214093
0.19529589951952
0.154446310958103
0.153172142789412
0.159858256648542
0.152948141782049
0.156711556148624
0.143154560883963
0.150444289461574
0.152829927664087
0.149232390840755
0.146090065619885
0.150110712919088
0.148440062225626
0.151673443566943
0.146946148711771
0.153993235524941
0.208106848327758
0.205238281113005
0.196055664563345
0.151899234831801
0.141436769926948
0.158031906851643
0.148637176588133
0.150108232796286
0.204232831038505
0.147656293833981
0.203187936757153
0.149870814965548
0.146188336002129
0.19599967773924
0.144467339240395
0.203453481934011
0.199907632248556
0.197814392007198
0.151331637557442
0.148849676751182
0.154526101544932
0.139921630237835
0.20018678258489
0.150556096311317
0.15384971085778
0.14974488732034
0.149658255724726
0.203224199372256
0.14940438578673
0.199579142791699
0.194774374210179
0.140060611368466
0.149222589345374
0.205218244370211
0.160733893331726
0.194569574441685
0.209388242728859
0.193465696865197
0.206449324337314
0.142912094740158
0.147211000793294
0.143745395953665
0.151060768379103
0.157901037311506
0.147089821697028
0.196070609856415
0.194536322951864
0.150254751949679
0.157129552504234
0.201474922418912
0.140657494626504
0.158517931168559
0.149216134261026
0.149463546000349
0.149775697445216
0.201605322414842
0.14600186482629
0.206746871621674
0.19634502401799
0.144339032480354
0.192332733582277
0.199046564267608
0.19815809689985
0.145111509933754
0.14810660386841
0.208886576964071
0.197241229703202
0.206603783506825
0.148336120287937
0.150857978523686
0.151632123098526
0.200454574969191
0.199853751733586
0.147321072177347
0.152547715286675
0.198946385394597
0.15882890158656
0.152041084332991
0.158386013195443
0.143449162263674
0.19861169148961
0.147351898574381
0.152941489749986
0.18998964772565
0.198808362500798
0.211160210881849
0.159342854870144
0.200964576762064
0.156522002133084
0.150352524218072
0.202197741633779
0.160268267403191
0.202121566136615
0.196843185911179
0.198187937019569
0.148653373699401
0.150244335687802
0.204279920531729
0.19303414810112
0.150823694138449
0.207772634459345
0.145417522484525
0.204148215079779
0.158252661668131
0.150431545497391
0.152910837694867
0.154458372538231
0.146465343180454
0.148954330498002
0.15727196368194
0.156288198264787
0.201486959238766
0.197753759377737
0.1579082695223
0.164420382165078
0.201665014170449
0.197903334979947
0.196955100662792
0.138894620980702
0.150239385197758
0.148656798787567
0.14770181589346
0.209764943187808
0.153291930055359
0.153146763586238
0.153190379191334
0.19600717242607
0.20742283757177
0.193014896079128
0.204700126174393
0.150939806121702
0.197520998190918
0.148657863563628
0.154041258834646
0.198738720372166
0.210265794778465
0.149240273993719
0.200274119908586
0.154276276604192
0.146439049215359
0.207801597456604
0.151720201361748
0.202336018848336
0.151507569119382
0.158130299971371
0.154678756969087
0.147144764634443
0.205301734416484
0.200609532033833
0.159078242156295
0.154892834998523
0.0269025908023559
0.0170686485100017
0.00095989967861508
0.02863205635594
0.00178346400622907
0.0279194150840849
2.75414480334974e-05
-0.000607215982866634
0.00187563660605622
0.00585161902549691
-0.000909824250106098
0.00911705746801243
0.0272673922763029
0.0397859154497037
-0.00170051737589555
0.0260777971672533
0.00159778880081292
0.00529532149140909
0.0265064977560392
0.0275965660012493
0.00210639873885002
-0.0060520982233653
0.0246555587894718
0.00280133901125501
0.0287414769794112
0.0250096220903802
-0.00890219227488919
-0.00399161705723365
-0.00481783736691343
0.0229918991670367
0.0219735349170644
0.0265967807953308
0.0236287581469813
0.022605485573778
0.0308791867527015
-0.00155425805169935
0.0256738183600447
0.0259940761021741
0.0267237926805519
0.00178668408060379
0.0175007729258836
0.0247542597704128
0.018192966190054
0.00457467104473275
0.0240784355346931
-0.00128723554685146
0.0224219366649654
-0.00378122029634686
0.00330002658795996
0.00250122415242624
0.0234186806075561
-0.00263999438197057
0.0256280748952595
0.031223921626181
0.0291946158256822
0.0239549922056343
0.0129482063578673
0.00922828293786863
0.0216000841107324
-0.00771572080245268
-0.00101473860776316
-0.00452147913621407
0.00341285411350483
0.00216555636400121
-0.00440561883419423
0.0061100380115154
0.0287932012150902
8.44651740806021e-05
0.0310224521066968
-0.00347185154295559
-0.00861426638673705
-0.00179452533396587
0.00264211083261591
0.00151439446967564
0.00021297877497196
0.00378786116434095
-0.00371318015603025
0.0278877464180128
0.00781621285160977
-0.0104137085630345
0.0116457456022697
-0.00676507610650822
-0.00142936309644204
0.00346755592689624
0.00324982238380664
-0.00926310668585881
0.0138775579512804
-0.00339209664853277
0.0185254898821022
0.00131041612775126
0.0283060054156752
0.0265883550756385
0.0029222654455953
0.0199160623544558
0.0103516149364275
0.0264734907380054
0.0195896431642441
0.00201271900743324
-0.00027089946647991
0.0278904263616639
0.0217054232866979
0.0289747366352223
-0.00414553050189325
0.0251395558162865
0.0266721807638176
0.004343194847242
-0.00235998475071834
0.0196572183899248
-0.0101417178008632
0.0271861386400238
-0.00729903732463266
0.0268920210758921
-0.0118288444477045
0.0265059211455208
0.0282676970120299
0.00347065869451551
-0.0103507159552959
-0.00031036596219107
0.00337033138674358
0.000400715649300638
0.00487324029439633
0.0225695293788051
0.00409070180077446
0.0224904042973686
-0.0144275254952607
-0.00337111518852164
-0.00342014280672913
0.0252874783642937
0.0288978361292288
0.00519984346097748
0.0233418743347867
-0.00518739297454658
-0.00473640784906838
0.0287497839765044
0.00405273193864337
0.0211042810069805
0.00796677243115088
0.00354889546326741
0.0311541362880673
0.0268744403145689
0.0210120646456992
-0.0104337807044484
-0.00367651602522512
0.0210201612907343
0.0318743641391424
0.0253169487594272
0.0251944627278286
-0.000796801091232703
0.00960627263721431
0.0306698683967921
0.0246881969581108
-0.00317230594212814
-0.00290260501244646
0.0195740644498919
-0.00197693940012023
-0.00927997116642196
0.0107333677710426
0.024036612785931
-0.00250930518105487
0.00493805316508948
0.00663188557898007
0.0252485448152747
0.0206846409693521
0.00141020322701199
0.0112239514356349
0.0203461792819612
0.0216034756938649
0.0255112062142509
0.0206016184379527
-0.00475024933184079
0.0160655491331285
-0.0101778873878157
-0.00284602123403946
0.0108953249658016
0.00300580252840748
0.032189898835501
0.0267825050605151
-0.00381750529794643
0.00162872356632852
-0.00117232412622485
0.0262473217742332
0.0288083133759375
0.0366608508692562
0.0215379385842282
0.0013987368009838
0.00205596843774215
0.00129856384176291
0.00493348978365136
0.00323941360279654
-0.0048948159987747
0.010146454189106
0.0219173558719983
0.0208689751621719
0.0229845951105837
-0.000923433869858375
-0.00347073966910918
0.0251965128937247
-0.0123326126836586
0.0317633272743058
0.0165415249140874
0.0294176700055123
0.0304188746850596
0.0211608465834335
0.0217271574161974
-0.00944789169914084
0.0206573308373863
0.000319590599352672
0.0298441408459151
0.0247127046451409
0.0363503930968955
-0.00610990763895972
0.0257227343218191
0.008337571266265
-0.00521468001920784
0.0232853671577272
0.0190103082909599
0.0284674243897341
0.00690119377067078
0.00612476712011476
0.021449441267522
0.0220303193807269
-0.00513210598385206
0.0263651622110827
0.022317224331018
0.00179778686512702
0.0282254751749676
0.000136225018759514
-0.00314577555143228
-0.00432892737905382
-0.00452060762365921
0.00589921944707669
0.0253095901330632
0.0244563810867722
0.0141616884029978
0.0225979114825071
-0.00105574672981178
0.02101245775069
-0.00237801657716378
0.0278008901028482
0.0303882059810295
-0.000475858552168903
-0.00251765039831361
0.00152183743552886
0.00897828313345279
0.0270934762935109
0.0268874309499815
0.0316051229528632
0.0272280877124046
0.00169811371705225
0.00658067064923004
0.02154631851733
0.0249357662011405
0.0351212140295764
0.0337017543399492
-0.00200892533963214
0.0268870753410834
-0.00343206889557009
0.026519138372464
0.0166092966428843
0.0292012759521241
0.00210062295054407
0.0278500069258552
0.00810039470496591
-0.000782526594365818
0.0222417407928974
-0.00797906180677908
0.00543770252278297
0.000255366212459238
-0.00205892348607685
-0.000480988061309843
0.0207384778348794
0.0202461469735264
0.000688269076163506
-0.00767195519026088
0.0223344135630351
0.000814616122833211
0.0267781340926953
0.0318290838695391
0.0262262514864015
0.0241526082057685
0.0215870058660196
0.0199209578541278
-0.00328021620891324
-0.0088624861747795
0.0316532679060541
0.0286867803528287
0.00371644145738517
0.00110568811013368
0.0048868082406647
-0.00369712945690497
0.0302924440775406
-0.00195760888612557
0.00351812382769918
0.00668975700885895
0.00569659580183488
-0.00361440914781535
0.011432841703388
0.0344759625061161
0.0228995893992895
0.0248442154089107
0.00518945606630811
0.00339896048803925
0.022827240017933
0.0292144507423914
0.0264849866924504
-0.00631182049111334
-0.00216820104096286
-0.00422509045439558
0.0253804790256394
0.0301344012488394
0.0034492892821631
0.0328604922958864
0.00319333381924826
0.0199914535813702
0.0124893676370718
0.022320323130764
0.000873757683941658
2.22883072419739e-05
0.00394087063100927
0.0284687711853301
0.00551755088646366
0.00809860507322187
0.0141349777121088
-0.000995420458230946
-0.00124496475343133
0.0183694003915425
-0.0058772489945936
0.00301923979774334
0.00568047899586416
0.00296965371771135
0.0157767809522421
0.00568072161363264
0.0213145155372922
0.0199395119572841
-0.00164779516056631
0.00601399206767716
-0.00820314768702183
0.0211001815748032
-0.000251855168093599
0.0229940668844542
0.00789371886536179
0.000152875930605493
0.0271879184143116
-0.00472123922321602
-0.00401484185359934
0.0193730978553693
-0.00491531964526676
0.0238722764759633
0.0318831552518678
0.03000261075886
0.00290077584343353
-0.00691084356349944
0.0250398227513573
0.0211140822819488
0.0258601179676542
0.0264602110389817
0.0301089229502804
0.0323384278057811
-0.00477408103517772
-0.000702889989193049
0.00118117691750068
0.0214609579431789
0.0169268944901948
0.030426593029437
-0.00883696708638931
0.0309159261318136
-0.00304296045168561
0.0277013380699591
-0.000652062286487674
0.0257233398331669
0.00577623166845414
0.0303795962231496
0.0304272561014575
0.00176380788653381
0.0230980627973793
0.0328202250794469
0.00124589097492204
0.00192482326388341
0.0263068399493106
-0.00511328861051448
-0.00079725526228833
0.0015074692355225
0.000769426742809796
0.0239883108237214
0.0161302830652191
-0.00258704623769592
0.0002713790173724
-0.000607103804026172
-0.000180151270978116
0.0273414384731503
-0.00541750006109198
0.0137016368819099
0.0237704403565783
0.0063307605033633
-1.24008238715091e-05
-0.00101470570593331
0.00614751050006341
0.00573958139639616
0.00407065275489956
0.00453904601111941
0.0298499764222306
0.0294249972558385
0.0232059456616155
0.01884295909447
0.0250917565294517
0.0214632392859077
0.0201869836376572
0.0297934520699864
0.0313821069688072
0.023957223832138
0.0277353920931048
-0.00454659043765373
0.0245280804497088
0.0201925583832652
-0.00576823346429216
0.0247757578775868
0.0282779391635104
0.00374029292325054
0.0300476524052877
0.00512532202058384
0.0292311643589049
-0.000458085842927268
-0.000338963483833325
0.0270217666497376
-0.00765576619625266
-0.000446769426310481
-0.00343649399748182
-0.00307696007081673
0.0195640450428375
0.00517412484223675
0.0208805669871589
0.02131036627238
-0.00328598206577695
0.00777674545494582
0.00701489561757735
0.00210928456683904
0.02796735608642
0.0283391944382837
-0.00145373469399338
0.02477478425581
0.0244681461096774
0.00271088641229126
0.0207994466079619
-0.00553940071194992
0.0310735518276096
-0.00101177546633474
-0.00724863276528829
0.0292703647262359
0.00352540703464294
0.00363806685579967
0.00304537462509009
0.0305335535835266
-0.00383113893210788
0.0180825792107828
-0.00329147390162881
0.0248396495534443
-0.000255533285809773
0.0263988774548483
0.023190943428562
0.0278074955292894
0.0264449255296866
0.0256781497825978
0.0137421434841759
-0.00588553035455501
0.0205147335105112
0.0215809437025243
0.00521529604688945
0.00668932094591137
0.00291708219966673
0.0296282005277913
0.0163673705100634
-0.00589040800723055
-0.00228200266391183
0.02415318703174
0.0289807180832718
0.0329544703608645
0.0262423054213545
0.0201871053199294
0.0239019653255088
-0.00525089605556254
0.00129278377861798
0.0041706089393027
0.00230944897703064
-0.00357651489450819
-0.00273401154899466
0.028282928918717
0.00348541605021799
0.000329802289635713
0.0387570097526173
-0.00255593540866786
0.0197699927030286
0.0260319083415471
-0.00278609095404959
0.00812811111762025
0.0228865327022024
0.0236045172287089
0.0260334011324886
-0.00292167721696177
0.0233180377453077
-0.0025277132765928
