0.267892695091344
0.281143424290843
0.274594533243649
0.275027826567399
0.268774400665871
0.268953273016787
0.276470137045004
0.270966124900502
0.27303246745947
0.271250285486451
0.280810016798542
0.276938383490691
0.272470779698876
0.271655034670033
0.277582030409993
0.2768389563196
0.268228595786776
0.275234960874214
0.273584010297625
0.277362884849869
0.271081700599838
0.276507012573717
0.268898859340991
0.277207110951747
0.279864649438747
0.279873641882078
0.28018261075962
0.273914875244176
0.271611937959567
0.280611942897875
0.273357048528931
0.269920398114792
0.269991344843477
0.27180363334212
0.279695397754656
0.269399280410492
0.278517926803528
0.276369160903634
0.273869825897474
0.268133898570083
0.274192683755988
0.277872601978209
0.275809359047791
0.269979492555105
0.273555984395528
0.274514675604379
0.280806396402638
0.277352235984734
0.268134496107742
0.271654037830895
0.278979062540962
0.273839386473513
0.277014090584207
0.273500704293527
0.27455040049005
0.274698755039902
0.268338785672638
0.275883280375948
0.283651927686472
0.277252714671505
0.270804456744932
0.273118772894762
0.262896924778573
0.269430654621918
0.280998063290604
0.26453954985426
0.280556950816811
0.273899267363006
0.271670859163721
0.275528104673254
0.282353337562231
0.274271371283472
0.286062180449787
0.27357801746728
0.280079788312726
0.277057119459467
0.273554513039866
0.281067056814855
0.275002754458477
0.268967118936
0.273955978200641
0.270643975083483
0.269661916884993
0.269591114774956
0.279837254333012
0.272843858122063
0.259795648788026
0.270889551825777
0.28047379189209
0.277115736937115
0.271841450786686
0.276726761157615
0.257093797303936
0.269123981840856
0.279915404714169
0.270528816853132
0.276263806489771
0.272889769147642
0.276132616019935
0.269235985321129
0.273148361452587
0.277403830528531
0.28013848546009
0.267421683541733
0.276325527889986
0.273246653484548
0.273989719771739
0.271403563781588
0.280769503464131
0.274176074453906
0.276555578401936
0.267317803627509
0.272144768503977
0.278053024804279
0.279484473684851
0.27177808806716
0.281398784464835
0.270944332561153
0.273650160342192
0.275084602292958
0.277801299463221
0.267882136955911
0.274604817730434
0.273026442990544
0.271359302064731
0.283251628463723
0.275225136705266
0.274201120343359
0.273249588087832
0.273779829494302
0.272505749647505
0.254108153940632
0.279982589858192
0.268106212905996
0.269123204348315
0.277206039724314
0.276604771160565
0.279362875370206
0.27427576269681
0.283265686195538
0.273468774773619
0.27791097819563
0.275759864431167
0.27789233872872
0.272667436713132
0.272476873939004
0.280464722275836
0.279309767565509
0.27439984299964
0.276615397317228
0.270589713122918
0.277492370530276
0.27076518265238
0.276035510904752
0.279287908343418
0.277916239307128
0.277402886269669
0.274600701580017
0.268286463768988
0.277770509511576
0.272271950939876
0.278121444168897
0.275756399260909
0.270483637870981
0.270405232091861
0.242106216015026
0.282201967380047
0.261724287794252
0.270709413318101
0.27859486523407
0.270383754659232
0.281300544706301
0.275100767490069
0.276060051575164
0.267571121360355
0.278750941036705
0.278711234146902
0.267922876245063
0.272613286410826
0.277702641182712
0.253103982513739
0.264339860079302
0.280990867682643
0.278482597980337
0.273636351936332
0.272929851040062
0.278358191443582
0.263342549713283
0.279864447003233
0.272116601596215
0.274593187529989
0.275960695168022
0.281988788899281
0.274249578677307
0.262891346144954
0.276873098138795
0.27183662878698
0.269430192231351
0.275428483584119
0.282949456840284
0.267674176232094
0.278168490034589
0.277837711002825
0.279201546982561
0.279570682723596
0.277912847991854
0.27489634262969
0.282212819040206
0.270923896817731
0.28078772795941
0.273593653513248
0.266472619492022
0.272590298445534
0.275681659743765
0.26798830251618
0.269528901720932
0.275907449866063
0.275872886132888
0.255206757916152
0.277214296502999
0.245887528258034
0.277452744036873
0.278665410400741
0.281058328909668
0.27275633194091
0.275227851728149
0.277308779614397
0.288277042246766
0.279960507466166
0.281384637970166
0.27574646372955
0.276103567907492
0.275023804367826
0.265611379627628
0.269514914239709
0.272452922563941
0.271174700801596
0.276567744163348
0.276664050233494
0.282982253893671
0.244751862992908
0.278193361989069
0.278542527993139
0.257051841977692
0.284096090568102
0.275758373506593
0.276033872259862
0.274920867669308
0.278474929054864
0.280976875238895
0.0526544327402584
0.0554394673390857
0.0524615190602018
0.122867571519949
0.132521687098103
0.126467485353442
0.0323800898666143
0.0244406184812024
0.0615485701531878
0.0324448463179675
0.102213440970946
0.119386970409547
0.128969483398874
0.0502027365653957
0.127831375185641
0.0969105067713762
0.09905798934553
0.0382339714635152
0.0960142646426229
0.0515212684739418
0.101548847263021
0.0487428965964576
0.0426827893485705
0.042521675806286
0.102257351449034
0.125178353389824
0.122160234244475
0.120882100215201
0.129576451152954
0.049776070672397
0.098052617956408
0.125268313753208
0.0511194152043304
0.133467106146584
0.123585279660194
0.0449368192300198
0.0971152233947092
0.129858199876714
0.131036444461858
0.0512909032855922
0.0586387298909897
0.126924651864215
0.0464438603790946
0.042607206381306
0.047751249834973
0.026178619220581
0.0479628724543
0.0475175587321336
0.102558781340079
0.126012340417383
0.0233934412380495
0.12689120966435
0.127519160411317
0.120965232839446
0.133454682625393
0.0409151114151066
0.125239406908575
0.124614344874583
0.104890290111116
0.0408603810815307
0.119614906830695
0.105350625848607
0.109579740899824
0.0466965610099063
0.0485876230095192
0.0471485492692819
0.0952497008370691
0.0420436316827563
0.0584835841025042
0.129601690686551
0.052683000261628
0.0975251722804817
0.0432591935347261
0.124000539780461
0.0955016536910699
0.125451503782525
0.127254309193821
0.0245468996150293
0.0358100213048216
0.0987280553035834
0.110401603359877
0.0239726569005637
0.0527636743326605
0.13162186574844
0.0607632071004432
0.101736418384032
0.12027993344231
0.127570867142386
0.058122420936869
0.0962917982687623
0.124186514987014
0.0487522447835788
0.0968034231779443
0.112403025482852
0.0497821587073286
0.0526286984373271
0.133530780466051
0.0543543323073849
0.104465942030742
0.126382998530737
0.0558921079209946
0.0994242358538322
0.0982530863342393
0.128598782033322
0.104017724468029
0.121475344173236
0.0437606775412515
0.104314550584057
0.13315593271142
0.126633767615583
0.122859362767049
0.12925154225297
0.123760330132113
0.0473103272688114
0.127440793036874
0.120504393656146
0.0403697720927985
0.053088831119164
0.120042669877788
0.126572992794899
0.116921262055484
0.0226563406207435
0.0528796167772531
0.0522066476969765
0.111763093719724
0.124216979956754
0.100776374827913
0.121784311957383
0.0951706595492003
0.0431447806344514
0.134024902277339
0.0259833885961145
0.0959644400638625
0.0138119023259738
0.0224155101574274
0.121310471171053
0.0183827823470905
0.133814987580831
0.129734246071126
0.127430962124885
0.10585091417587
0.0961230775048435
0.123568205620905
0.0577369165326379
0.121515183869475
0.0436982948691527
0.108870838032313
0.136370317982761
0.100716989177006
0.131825229765324
0.0512667486330613
0.130250007127596
0.0573254837207621
0.124969927604415
0.0558754580183789
0.118507873350635
0.0946384362615366
0.12558265432113
0.128636439367736
0.104635139300691
0.0419493261177747
0.0478059446543244
0.119698544857919
0.117489743478863
0.099627770054203
0.0476505192796577
0.0936159976112087
0.131714372857741
0.101523617603661
0.124612148615962
0.12073547443732
0.0533097898583616
0.098594019784782
0.1271034436595
0.0565457274927042
0.13052617960303
0.125726112521057
0.0947850985105865
0.121456537537061
0.0567341563418812
0.120257986100662
0.106467888722447
0.0451348384834159
0.0952729444341949
0.128542188301465
0.120517632096157
0.125965811583069
0.0549220216819522
0.110052263597877
0.125622770250323
0.0239598070259352
0.0975667914916506
0.0496451041875969
0.0967571104545648
0.1291263989282
0.124922788782078
0.0990989343894301
0.0454030474409211
0.0314157602061376
0.0527667241109669
0.121928199723844
0.0514331127732474
0.122157998265442
0.102074669532307
0.132272000502975
0.0987503571548749
0.017874873600708
0.0457972141476425
0.0244702176802403
0.0416165221311539
0.051356914373135
0.130097742095375
0.0182422683050879
0.107490172672131
0.0470127738027416
0.0502364885283277
0.0210763321737386
0.0653305634623863
0.131023940270996
0.0500134250796423
0.0974682810587156
0.101347645386721
0.12628911907075
0.0484308396128178
0.0562313050951993
0.0557770880379947
0.127647529864752
0.121282781027773
0.12925849718646
0.119776488990014
0.123686617433351
0.13158541699053
0.103274327913376
0.127937300366839
0.10058364781815
0.118230962613989
0.0985706688217163
0.126596662486384
0.0526650352896702
0.101588811968056
0.126318845618991
0.133101574405692
0.0959919715793958
0.0246547792081896
0.120960149207007
0.0213706365691761
0.0979968539166033
0.0460713627444425
0.12773434307188
0.122487511064981
-0.00967967845057336
0.0531592509578822
0.0453386826226176
0.0523904760272933
0.00588923926931399
0.0478429984386654
0.0532645204535922
-0.00847772048390947
0.0483927385560817
0.0516657806491798
0.0529322485695332
-0.00173115088613678
0.0526372414433574
0.0521911323406747
0.0456657880001262
-0.00291792981652539
-0.00450818514427055
0.00639974966478985
0.00653999259483628
0.0564759696404643
-4.77197604599536e-05
0.00170924201024046
0.00341376158574597
0.00249864932825522
0.0511903667626312
0.00616486705114674
0.0548034913476576
0.0503246156433629
-0.00729112398367793
0.0515793185165639
0.052441101078085
0.0495522585363429
0.00221066935268453
0.000884276106822197
-0.00229951151570167
-0.00238077855104419
-0.00630638419019869
-0.00974890668864714
0.0521872726209583
0.0524438368703254
-0.00369553512303669
-0.00106894401226611
0.0030042448708317
0.0581960565475458
0.046230445155362
0.0428928875234342
0.00252709940811372
-0.00324166633303442
0.00508685969876745
0.0533996195300351
0.00177247194937215
0.0554806623660991
-0.00333363673492911
0.0464791127962957
0.00143186278084078
0.0506135826788184
0.0448683411854501
0.0539234656164595
0.0493532759238794
-0.00126231120595752
0.0509878297165125
0.00431026984817722
0.0488339444103229
0.0501735357747437
0.0479333764112232
0.0499585777497562
-0.00359737661253814
0.00621744949883199
-0.00201450105194998
0.0486309167428584
0.0555005143880537
0.054999151784976
0.00629119276817681
0.0474049775587679
0.0529324902760347
0.0520030262382049
-0.000673301973664384
0.0453237547702313
0.0441943715194005
0.0496058248719927
-0.00246596804820093
0.0470449498816102
0.0431718652512686
-0.000883235500556479
0.0529718662613507
0.000734813575802391
0.0516632454137051
0.0464091518857115
0.045429603356542
0.040291368941012
-0.0049416462545271
0.0549280776924887
0.00804434812431169
0.0489452412950451
0.0529820031281147
0.0534710397957595
0.0577761439200438
0.0470111645295986
0.00125809271724719
0.0559914774638763
-0.00389575234607986
0.00412479811855686
0.0465399888833565
-0.00447744733790711
0.00244738468139678
0.0589756301665665
0.0501153561993759
0.00496365078467203
0.0473349760439834
0.0547837767673913
0.00672666113123173
0.05115292720387
0.00821622561841707
-0.0011432603332505
0.051994796667007
0.0588888486469367
0.000491704327576307
0.0472114175584165
0.00408222830445048
0.0441968440200088
0.00180870505462293
0.0475135839619693
0.0467455175744522
-0.00358461618957999
0.0511311784409852
0.0493530794866231
0.0562453270297812
0.0540919026412622
0.000732261162503067
0.0516920961939795
0.0024455130605144
0.0426547946086155
-0.00116029137673382
0.0533061048615184
0.0497938011622897
0.0555110041161238
0.0528562046961728
0.00407741347432951
0.0393524122261632
0.0445200886490582
0.0557255157681029
0.0485888989081584
-0.00725209545354827
0.00173410445189739
0.0556580708946064
0.0496600757804289
0.0633150394637973
-0.00155413530819646
-0.00859497064065069
-0.0104502669795965
0.0500581735837972
0.042635818526796
0.000460726166587005
0.0540350527796956
0.0462767143271192
-0.00611726563290633
-0.00554290479731716
0.0459235112782895
0.000677164104948307
0.055918198989258
0.00947841203153927
0.000185073560334708
0.0458578111025586
0.0112524612716813
-0.00145438136723507
-0.00139621731241172
-0.00260807896605478
-0.00464280690967976
0.0505563967137138
-0.00408069179948549
0.00232247943480153
-0.00383591526315822
0.0534393188443429
0.0494815211146469
0.00163926261531522
0.0503442431673634
0.047307748174275
0.000832431842246995
-0.0102613751978029
0.0511596347507345
0.000722458089029877
0.043879440877541
0.00522345795378655
-0.00242241057136514
-0.00177091267036317
-0.00254696720739716
0.0567562376901404
0.0552889601991245
6.90300553106235e-05
0.0426451649363519
0.00612132013253289
0.0501801940278955
0.0430670647492335
0.0496130342352596
-0.00507485145608633
0.00373469741880628
0.0510715655809972
0.00176101810974557
0.000591521326653687
0.000653758948424405
0.0511984462978379
0.0507430202504277
0.0068710435671546
-0.00327542255354286
0.000697561921073618
-0.00182818687210889
0.0439699271153135
0.0532765438919911
0.0555661528809089
0.0549842374462634
0.0440443076815079
0.0503666652202679
0.050088791009623
0.0141201683354731
-0.000223321111568272
-0.0012905368072909
0.00461035026060913
0.0608573129254569
0.00837302465980601
0.0412058661704175
0.00133621869647141
-0.00338330696500055
0.0523778145410268
0.0502071925226734
0.00189672392767463
0.0439799703324256
0.0529419178969313
0.0461668331171586
0.0536580012997315
0.050400884807627
0.052381476485089
0.0452582196993359
0.0502925698234504
0.0508178626999556
0.0542756612556367
0.00218981764860527
0.00972784396571291
0.0500165667699054
0.00295365422364841
0.0506231841929619
0.0473691668971254
0.0467781680393537
-0.00392744485486382
-0.0071482539150071
0.0479663153322104
0.000537126635689845
0.00356312986375351
0.0539640785395301
-0.00422994932824996
-0.00624752844794662
-0.00912676421588551
-0.00736626469403418
0.00533437920662813
0.0531872986186292
0.0535541260190446
0.0516674077655691
0.0573471144544602
0.0473022885642667
-0.0030457766260008
0.00183067678563568
-0.00338632247497148
0.0504969753726926
0.0478876852799928
-0.00614066197918303
0.0533608908960909
-0.0062783304343815
0.00263570519696366
0.0534529899717297
0.0527054425147328
0.0442107747525898
0.00074797008874375
0.0528293219040824
-0.000191255171489244
0.0460745865902311
-0.0034460336677989
0.0453240118851409
-0.000719752481658293
0.0460171979584589
0.0505993667953419
-0.000164108515148418
0.00660684375972594
0.0469883385691733
-0.00485499759067416
0.000604289877011287
0.0440829742355739
0.053739775961481
0.0542455065533814
-0.00247107881965447
0.0536604499280725
0.0513041612938191
0.0469766677775779
0.000318878920754172
-0.000983423372624356
0.0582629864352047
0.0493179835977933
0.0502739955243958
-0.00889872096080634
0.0494331189310362
0.0530132602569057
0.0391354373758757
0.0427042761663353
-0.00222052174173664
-0.00654803255372671
0.00758002458969688
0.00620138528915443
0.0489699848236694
0.0131856756621728
-0.00523696942709058
-0.0002187193400833
0.0517328606539689
0.00576979602231995
-0.000870661990096028
0.0465872743852794
-0.00693510269480112
0.0498217337579557
0.0472088781404455
0.0528227639598924
0.050744878046577
0.0472598380266772
-0.00290399564295396
-0.00461971317442199
0.0521765824435244
0.0020000792016597
0.05922500411525
0.047582382769251
0.0517832001570823
0.055325196127426
0.051680043580264
0.0485011247724193
0.0501447517830985
0.00155248288283696
0.00144302093068918
0.0493314355912875
0.0531136367646196
0.0546139414373785
-0.00209366930179033
0.00576691500923176
-0.000590091555475008
0.0575652167441171
0.00202214826190974
-0.001978874996109
0.00229536681942023
-0.00389511415275867
0.0515579840980569
-0.00428379355445114
0.0510929599492102
0.0575797136052404
0.0529589523589615
0.00633742440282096
0.00201447121780545
0.0531483680586545
0.00290761160201976
-0.00310571797775156
0.0574145266825025
0.0482494225873093
0.0478682852551648
0.0504523375154906
0.0455973355972735
0.0495917939808209
-0.00136730137699222
0.0551158845074362
0.00114948439486924
0.0406236413442964
0.05227197146966
0.0553717622840183
0.0015930408809632
0.0560464933554881
0.00371717379150962
0.0105216311567452
0.00384119382343427
-0.000992482755895123
0.00586959354126589
0.00264797446723864
-0.00447321867831977
0.0512798950114317
0.0011453761674414
0.00081184771995345
0.0502520522338861
-0.00846744398586602
-0.00289179199720538
0.0499184154897769
0.0473396145138489
0.0484654245425592
0.0485274971317367
0.00533175351002342
0.00297846965797345
0.0542662174027803
0.00614810842229005
0.056642787491068
0.0438179333295009
0.0504960901194456
0.0473579386877327
0.0036030581119353
0.052187793986639
0.0145669151533202
0.0116569685836348
0.0523513255403948
0.0507292676881668
-0.00156529127539555
0.00414694352072542
0.0483695613024208
-0.00456696907061741
0.00148671178867824
0.0522216298143796
0.0524001863454155
0.0535835092022913
-0.00431766881224212
0.0059655852055926
0.0463045560022132
0.00771836797991348
0.00617692893269782
-0.00267125399757369
0.00205305907494293
0.00129027173014716
0.00744664008355396
0.0482544035933613
0.0498425958251193
0.0435879606118843
-0.00211093146562003
0.0439580036005178
0.0551418645075733
0.0443447816753693
0.00164830655106724
0.0559169756182074
-0.00160694144375378
0.0570840720799389
0.0100952307891103
0.0434248861276981
0.0542974309787243
0.0529872515151652
0.047173336107032
0.00252039354245457
0.0576050277466551
0.0029504122494175
-0.0058570700257782
0.048385133287128
0.0382887492042182
0.0538244635353961
0.00634364851708059
0.0509107407763092
0.0528279158468862
-0.00742637575153596
0.00312292507013107
-0.00121089186359483
0.000330602627879553
0.0445240962561697
0.0482828787528727
0.0107982993444124
0.00371137454293077
0.0461753037358416
-0.00230356602061285
0.0614420226949686
0.0504937174451636
0.0527688392242956
-0.00454313424538349
-0.00496559093717179
0.0524800358974542
0.00383713091235094
0.052748369001463
-0.0035054472149642
0.0419825618605553
-0.00325514313311819
-0.00973478824871246
0.0491485935354486
0.0461387826245061
0.0562047901975372
-0.00587730138366028
0.000892146939264081
-0.000376141931241207
0.0049797753819673
0.0467586109670089
0.0494648733958603
0.00333352293579909
-0.0104987351977097
0.0516447315430677
-0.0042979938082964
0.0538665467574037
0.00618074048343597
-0.00270784948490208
0.0539526016772577
0.052739804193016
0.0393873457968869
0.000486894398883368
-0.0096055117234306
0.00187567623939993
-0.0102311797074287
0.0517522808800724
1.46056828183589e-05
0.0484530932846616
0.0475524928338411
0.00546747226889968
0.00125521147967551
0.0493046081477229
0.0614255917008028
0.000542969801847021
0.0552709693247738
-0.00634795206275582
-0.00898935407699452
0.00838753624717082
0.053347955511672
