0.270931674551843
0.279292100809308
0.276899146887184
0.272864411960534
0.274711475154555
0.276868093835786
0.277443681951235
0.266648188497781
0.272997577928209
0.26948093494698
0.27086103074702
0.276560081197918
0.280952283263668
0.277836605255915
0.2812024247788
0.269345073390646
0.273408550938002
0.275030015543303
0.275995186437784
0.27627609362307
0.275401351677178
0.280207793188369
0.274603348611106
0.270070565864164
0.275260513450321
0.275864085359858
0.279241577725561
0.285308173778835
0.274621630848276
0.274986551613696
0.279478799123808
0.271172863797272
0.270503957906656
0.279330442846837
0.280399359777754
0.275401069094683
0.275230766440156
0.275952802761288
0.272549442624337
0.269780925192543
0.26540320200751
0.268548893411117
0.265952946682008
0.271864912510969
0.26571578768686
0.273517481165546
0.271831884840195
0.282395316639874
0.276071101574432
0.275418963287096
0.277215782802018
0.275016337114931
0.273728854844452
0.272456200569553
0.273896966655721
0.273534429727421
0.286212151077413
0.267492580544056
0.278013754280692
0.275429265541394
0.290951148070554
0.278234844336301
0.2710370659346
0.271218542167045
0.268495725806373
0.254649551336003
0.276825641967411
0.272488489068364
0.282833236233199
0.278432035042589
0.271463200678132
0.275455675401369
0.27027727492326
0.272518159653286
0.271859298756488
0.266765528992988
0.279434868539555
0.26897714553069
0.276529095514302
0.278574946130287
0.276364964543823
0.270056276689113
0.276268772345783
0.278541108212401
0.274169353086879
0.272723651992359
0.272890480020808
0.282483859524022
0.281457053939511
0.276760590573269
0.272234651774641
0.265370534244734
0.27126659630317
0.270191019344034
0.274957199588984
0.281871421821697
0.279735025587217
0.243963923044836
0.270062002732821
0.272968591460657
0.278134939833306
0.26339887352614
0.271520166334071
0.270091565756386
0.279106716333637
0.273857631702909
0.26861751606171
0.284552234822264
0.268486031808506
0.268920657735557
0.280197799282637
0.27933781255223
0.270855730729504
0.279217427609283
0.285691778005041
0.273533272876753
0.277766542643578
0.270589214469758
0.275230895434137
0.274577690089481
0.281787677944446
0.276610514064074
0.267250700672687
0.263427765369857
0.274395331666871
0.278687604710247
0.264733956331592
0.274871881176291
0.279035617381036
0.270432474735289
0.277703654779215
0.272160057750016
0.28363181289312
0.275007729887419
0.272059992077072
0.273911931650582
0.27094616160222
0.270799602070166
0.27413121090709
0.272232824394056
0.267127986819675
0.268662687379722
0.264277805748209
0.267580084322526
0.277142626335048
0.269701254213545
0.277165238377278
0.265279972184552
0.271584621197263
0.27593296407401
0.282410706533204
0.286106682477091
0.277857350131142
0.275245605443806
0.277247089144719
0.269335590018061
0.281612196883401
0.27914892999598
0.280128258749467
0.274471928114231
0.269994327103485
0.274645820129212
0.278881140288771
0.283046768314849
0.277350949938518
0.269767705797246
0.275586109430053
0.284534182895195
0.276563798159596
0.27465898519679
0.275674374892938
0.274886531860126
0.283496560524831
0.256318388540007
0.273555520230095
0.280230557529805
0.274982021198654
0.278464017591364
0.278538153590342
0.286343390979282
0.278568705427612
0.267547943733574
0.275488129034835
0.274392965832318
0.266357567755848
0.282319905986325
0.278866468638384
0.275705930527698
0.276846155550278
0.270606350087315
0.272827629359881
0.263199699535018
0.274875518938621
0.272193356366001
0.277312023220605
0.270515298482907
0.274126742402872
0.278010643811736
0.277381979376398
0.280257123957675
0.273775994021021
0.27904399236608
0.277481397518681
0.277207858706157
0.275293299863969
0.275811171639859
0.244731837623891
0.284009642336332
0.274793552863438
0.283718381343656
0.270334721736353
0.26729884494899
0.277118785803319
0.273041780484396
0.273638476310912
0.28142387287927
0.266946589919631
0.276572018473144
0.276214973027266
0.278112785910227
0.268964009485461
0.270449773249172
0.270223961975548
0.273765419096427
0.279378744075775
0.276323452925968
0.277849896117053
0.267479092016632
0.275172992754271
0.271983066365526
0.27437620631759
0.277243691015589
0.275187449201748
0.270282824845194
0.273799463026591
0.264940258248278
0.274789439969249
0.269645807346298
0.260862612854917
0.277434475413211
0.277801514924333
0.277634956203212
0.279618361960005
0.253217020741239
0.275960778976118
0.281559810197493
0.271727138501033
0.274627523438377
0.268053231777649
0.273335306132556
0.0777455865673721
0.0826495306025201
0.0703170754966604
0.0745010051024178
0.0777340509596258
0.0765692276702863
-0.000827360376123987
0.0756913648380346
0.075637191411598
-0.000792794638850073
0.0820516872504867
0.0716189233651737
0.000731927221883108
0.0843115642003443
0.0809916210330606
0.0789630764246471
0.0777812945861063
0.0797220790486824
0.0720138052504487
0.0699758544752118
0.0838400778371675
0.0664633485219204
0.0766314996596627
0.0760648333191418
0.0654808448570836
0.0724041028860187
0.00491689825991751
0.0715039412313033
0.0798431459858639
0.0808281890472024
0.075062583429398
0.0827291592745109
0.0790569295737913
0.0863961024444274
0.0721650145171068
0.0774348114795848
0.0726523056652276
-0.007161158197472
0.0759474207730037
0.0824941310830876
0.0865676485115057
0.0767551284929728
0.0844042153068741
0.0673865775080922
0.0787261084766415
0.0776365451898733
0.0812315461695373
0.00503151105656741
0.0881517572658564
0.0769584877291557
0.0743450592041465
0.0803294851913914
0.0763285230374281
0.0035860047152734
0.0776378650195418
0.00040645286398123
0.0786394905992568
0.0677937920791106
0.0803128910594833
0.0709890094989454
0.0809256544395106
0.0770044882875249
0.00289528024354547
0.0743468528277549
0.00502724098574237
0.0765946557853364
0.0646604814007699
0.0710820181387114
0.0741022734051357
0.07700310054066
0.0755028628800982
0.0724851410237645
0.0703102861118055
0.0775896201154033
0.0693628484112239
-0.0013612793389744
0.0748471630352681
0.0747152910623256
0.0717373600443609
0.00284202017568225
0.0785104694128933
0.0785474604725587
0.0776296498544312
0.0716304842856063
0.074056964996406
0.0686097740300835
0.0761246590189782
0.0764762988822305
0.0699048039600564
0.0791834290979838
0.080280249360546
0.0818682585453683
0.069344985001803
0.0711705616363169
-0.00470198921527858
0.0723239869803278
0.0751562044973142
0.0721982276988806
0.0834643612675506
0.00102002255077618
0.0681898122785261
0.0060987427293004
0.0816349218568831
0.0774071009973952
-0.00887773185555456
0.00396433403815758
0.0714010753012764
0.0720815858555741
0.0709955022035853
0.0783230420358027
0.0719779053911037
0.0736784255441489
0.0810717682274689
0.0766712308567014
0.0745623262884952
0.0752889076285972
0.0617093942693134
0.0702580239110605
0.0777378732484215
0.0613235228531794
0.0775537012311732
0.0699263942180497
0.0703846364207805
0.0731964593240364
0.0647734145341319
0.0798865724909807
0.0744467129491471
0.0710912874878178
0.0729429889838707
0.00694628616842003
0.0739101711631326
0.084692301120773
0.0751922980205443
0.0787997175438604
0.0619068036986477
0.0732311353666195
0.0844236064409756
0.0790829510858877
0.0762916495144873
0.076451332817882
7.29677054172758e-05
0.0731815705461511
0.0755985784045568
0.0824309431757064
0.0768105982757636
0.0800026720276262
0.076156188919207
0.0660756216277438
0.00473977907900218
0.0788865477784303
0.068241478780997
0.077859302346709
0.071271101746163
0.00195217496448766
0.0740656041524026
0.070423760493812
0.00061582326565173
0.0672017754790604
0.0748845885105643
0.0768625125793755
0.0838302461735013
0.0764843531615015
0.0704760724092446
0.0744052001843066
0.00426259698773626
0.0664040969564181
0.0743706554263648
0.0779478904431939
0.0782378248625369
0.0807455609595556
0.000785926541020299
0.00293935296113452
0.0781081449852067
0.0802957476481513
0.0716272734766243
0.0868547852713963
0.0773846227713012
0.0790689902813998
0.0696705425560575
0.0747970858815236
0.0823864787967429
0.0769467486193418
0.0761083062497109
0.0702737863158075
0.0741861078847207
0.0687473482584768
0.00488473571864785
0.0674030950511792
0.0736564188224609
0.0774263739859218
0.0751002119716005
0.0796843676864794
0.0722611135127331
0.0752494397190082
0.0737196924644856
-0.00073148089710625
0.0801200692477338
0.0839070231730681
0.0695047781491294
0.069403557709557
0.0787025105509317
0.0124430880965872
0.0816731631140886
0.0836819712571749
0.000841356107770594
0.0737089996408693
0.0745461951778335
0.0840095539595859
0.0753318388455805
0.072545530634088
0.0716785874998374
0.0774263273122237
0.0707969411891753
0.0785693883902339
0.0841254285890037
0.077862774628212
0.0746765777995364
-0.00653763202531984
0.0697388345633657
0.0765190312274467
0.0666605630556298
0.00336038627707298
0.0738785521657356
0.0843599709594007
0.0790169239397859
0.0716177142780247
0.067813263129482
0.0739532943311104
0.0703832062377992
0.0844954400914058
-0.00593939894874083
0.0727927815902915
0.0712755026262705
0.0731032458013506
0.0631395364604378
0.0771784340911454
0.0767570551118669
0.0774199589573676
0.00389340632384698
0.0716498299262746
-0.00565608090416927
0.0724583355384017
0.0693614849335505
0.084238866700665
0.000332433977855224
0.0643739072137936
0.0730921610963403
0.0650972974997428
-0.0110123973685888
0.0812955137720263
0.0010539457522948
0.0015151058084328
0.00143897842023099
0.00329117075505623
0.010002326686496
0.00684624057439472
-0.00616878574837931
0.128216309514299
0.0237644534636997
0.0224435558002055
0.0303487921709372
0.00197981458345819
0.0244434423061197
0.123683484947232
0.0017177394379052
-0.00223752975966043
0.00105657909813107
0.0233242904663245
0.0265523802871343
0.032460033468862
0.13002949335972
0.121234246094372
0.123697829788064
0.00522905326148712
0.0248032027629603
0.0246522948763887
0.00126157893660549
0.128048497590339
0.000491099050166875
0.12252031600585
0.021120948212121
-0.00251366652061853
0.0232368838920674
-0.00101927411877696
0.116351530614793
0.0284153687603792
0.00352017960466464
0.0294529311877537
0.0218327674518809
0.00176940179110385
0.0285142452002617
-0.00130712523395354
-0.00366634771846481
0.0261150664479768
-0.00510549475530035
-0.00623159733085495
0.00614929714782106
0.0287823524352805
0.000515158466201289
0.12155289547681
0.000274544998249225
0.0277055406655176
0.0197621283047291
0.0221266938458722
-0.0029608806672387
-0.000737265859671869
0.0207845120090852
0.127261977089464
0.127136690373088
0.129398520122881
0.0219534832415787
0.12780643598968
-0.00631561914823001
0.0226331332550013
0.0049535609314941
0.124131894577037
0.021153903606187
0.0232243717386992
-0.00252077421215998
0.00598478905324815
0.0213227466525406
0.00775839666382329
0.0156398958271226
-0.00329967041064346
0.0237664096438666
0.127868440698224
0.00266845379893631
-0.00120457921450376
0.00748421803064954
0.0244783557591098
0.0036553547509816
-0.00427687468459845
0.126533080413261
0.00509584187442319
0.131463704384822
-0.00182034358345301
0.0296940213432404
0.125071184262047
-0.000139346527769479
0.00231928833023494
0.121335962249088
0.0322364487760013
0.0201691969252898
0.0084905147265984
0.00710919401554508
0.0158795833883665
0.124679129046694
0.02987498401803
0.0287557573767523
0.131215758638163
0.0341540267326823
0.0183779951269208
0.130629818642958
-0.00352165979951712
0.126657381720039
-0.00596243687498514
0.128063111865263
0.0292930037441778
0.00252231515499484
0.0284429352429182
0.0227279391868942
0.026281688939468
0.125530736891408
0.126861369694415
0.0143927236937127
0.0194169828955055
0.00391682660778938
0.0266920299942988
0.0388895931741256
-0.000524204577249434
0.000309816353867179
0.122919448873485
0.120491856616087
0.12216546175584
0.0193605457306612
0.0329417224542195
-0.00947615296615068
0.00213681518509076
-0.00416053150601967
0.116814934220226
0.0213033665472971
-0.00184433798592004
0.122340998079892
0.0220193664898712
0.00721772348905067
0.00035587126492706
0.0197369887418446
0.11354046025484
0.0248339908273528
0.109660386897832
0.0312193739242173
0.00505644829446567
0.0263346766739764
0.127812809616069
0.0208015729953135
-0.00291726022168006
0.00354636732545898
0.0227680862139587
0.00066914162456476
0.00184865256137503
0.00241004181439027
0.130196933866987
0.112363714674681
0.0231169788974904
0.0244243880030534
-0.00961738409652182
0.00266194052959928
0.015906377533483
0.0404710012758524
-0.00318626702247047
0.028121311818646
-0.00431691394212655
0.123682733826517
0.125454496447511
0.122663937580337
0.00242283471821472
-0.00233709289670872
0.123013516909715
-0.00552850302538234
0.125507639082258
0.00306349638638117
-0.00477291063831935
0.0279105053090645
0.127383612616986
0.0331004944802295
0.12334399771471
0.000693040246136853
0.00524315023137046
0.00742761247765381
0.00256794675994454
0.121941201101862
0.00539694417914696
-0.00258490905163555
-0.00383490340852196
0.124399147447512
0.0275468216159923
0.00118931879512912
0.0204647715013741
0.00692702430852437
-0.00677433188407682
0.0295001097916563
0.0210056601204092
0.0312172971979753
0.0130276817167881
-0.00526752464978833
0.126043386534672
-0.00707491795373727
0.0184676488580093
-0.000324372857316647
-0.00543202528570708
0.0210807375235611
-0.00100836709367391
0.0218330046139929
0.00539731596772012
0.126450541204924
0.00914515214779058
0.118374880307246
0.0105454400363901
0.131431182383874
-0.00247615298214987
0.0348763509232495
0.0329789533258455
0.0309593918126764
0.0234997971526934
0.117394318566044
0.00327947988284642
-0.0147564857497908
-0.0007267792138415
0.0208700833833049
0.13590619591792
0.0360557637800663
0.00207112710594651
0.0231918081002692
0.0285270442266209
0.0240149880609403
0.00254013109091055
0.000323050356540673
0.0107711356229992
0.12833022493966
0.0375570608518312
0.135202845464289
0.00494845069757759
0.0183662138378639
0.0256805499332152
0.0188252034823645
0.134866474474176
0.130462094694923
-0.00873573817167507
0.124305678551168
0.12327156563296
0.0294430473696205
0.126337553623572
0.0222408769439065
0.12353239146456
-0.00152115210830157
0.120066085027755
0.0294866914399514
0.12045223170554
0.00541185844501185
0.0269022964377504
0.0183974357630439
0.122373160224144
0.00661517534880255
0.025449927884411
0.122470861699796
0.0264836310763563
0.0284652450705346
0.0253987177201621
0.0278421588316205
0.00339456566541471
0.0281041730687791
0.00285909246423914
0.0275805815377756
-0.00162002946206759
-0.00198822226468869
0.118701873537921
0.0165877658028962
0.0052808035463381
0.0218629474979772
0.0275465898950989
0.120298554818015
-0.00197178335578567
0.0122724111921253
0.00291973302371828
0.128963473205648
0.0293355279000072
0.0283997710809058
0.0223534022031255
0.017986510002708
0.0271111515621825
0.000152912099944353
0.0272992516795082
0.0206007347344961
0.0237513513734068
0.120477796761858
-0.000787188601509756
0.00501484263856979
-0.00350168022718115
0.0122796409859455
0.0228154469303768
0.121143274462744
0.130802200884968
0.131800955828281
-0.00453587351128691
-0.00506516520095152
0.0183882446899564
0.0076514470138464
0.130496987696515
0.00341980318830841
0.0173709940694476
0.128706980362108
0.129334393731126
0.0142900545324877
-0.0064215151285568
0.0267310881355495
0.0193595561979586
0.0228962283033543
0.0223388777984325
-0.00282546043034215
0.000278250449236491
0.0259657889299545
0.0232462835873614
0.127018440026876
0.126989921483285
0.00224108986183505
-0.00224313303014023
0.123261286726114
0.028927069810252
0.0148695459314813
0.00609280252766627
0.023818512837759
0.0294582227793477
0.123098821747411
0.0307309421996927
-0.00350172646521855
0.0264617623570097
-0.00806912341598848
-0.00730666249193212
-0.000756719813411134
0.118090199041388
0.0318022954252465
0.127563538173613
-0.000231335675103672
0.0254000925878157
0.0208296834264283
-0.000858591437986077
0.0223885242103068
0.0280073921814371
0.135366889152503
0.00235841264345044
0.000973861647003364
0.0225152647777538
0.00315677285617264
0.028245454020946
0.118392611104369
0.0234970376826705
0.125466061053239
0.00425050793204743
0.127220692652369
0.00310663342663458
0.124501384941645
0.129381947721879
0.122707089150392
0.0231628056737239
0.00387905806245377
0.0295652534818559
0.129106662240067
-0.000607495444057414
0.027160649038059
0.127536639901135
0.0348505813636244
0.0209087950766234
0.00315433814241942
0.135004925167337
0.00168741618898932
0.0230861399516134
0.000352394770639557
-0.0075641212050212
0.125725084982276
-0.0016924348399666
0.127482944577457
-0.00137583050811193
0.00862588583868174
-0.00500742585401918
6.62863529553821e-05
0.024619684563629
-0.0131583877297752
0.0265024643682069
-0.00906950966062921
0.00166535127268415
0.00440861255479035
0.0232707688967144
0.0248709467378785
-0.00901019920953752
-0.00441654920313108
-0.000901142840076668
0.0320999204698733
0.005856071062777
0.127229377739178
0.00349369961450123
0.0283846444790633
0.131094942446237
0.124651674191047
0.0103685715190589
0.00653406087664298
0.127316229255532
0.0242449165082599
0.123283581648549
-0.000308453090277183
0.000413020237818068
0.126100424762865
0.0270972345112291
0.13345687527362
0.12196643146147
-0.00577552942090494
0.137112706872654
-0.00295087180509747
0.000914652043949487
-0.0106542786890168
-0.0116625267698962
0.0338472020921334
0.00402124560120995
-0.0065099206419621
0.129731283180897
0.000186519307002529
0.0139245076631803
-0.00388402025690764
-0.00586424100572297
0.0208661479192114
0.120898202972654
-0.0112174980002386
-0.00192495457390995
0.0349410515964853
0.122303057081197
0.0283229986590044
0.0176282109135915
0.0362018308741196
0.0123179629158881
-0.000982458784143549
0.0188183365630111
0.13444036441821
0.128593597961456
0.114188343603621
0.0344421352721057
-0.0033756879694424
0.00139297864874365
0.00172415436489116
0.12264555185347
0.0233021834277054
0.0173018990303423
0.131096704525832
0.119810840865876
-0.00436796564189397
0.0211097966820141
0.0259960100650964
0.0228513389902536
0.0026550065548433
0.0240633645459533
0.12030360943187
0.0216203382017681
0.00665784707243742
0.0262886420617254
-0.00232521826185223
0.0162782492805073
0.123847803378559
0.00367308850089984
0.0240115520898696
0.117976087433115
0.00185018073395436
0.0221541552005031
0.000612366833437878
0.125610472591591
-0.00565829094041972
0.00425316208564075
0.0264673060363488
0.00397049334357242
0.0272021366961804
0.124584055265721
-0.0105718961465213
0.0209916866028196
0.0181529602785238
0.021031982003597
-0.0026553951080819
0.11877211731295
-0.00490625279938063
0.131075374006047
0.0223945888029618
0.00278256714072355
0.0241191591122243
0.0222085027663461
0.0251703803395231
-0.00448868374862901
0.0207663361752556
0.0126038820119595
0.000723339308983268
-0.00252198834690064
0.0328974171006706
0.0205608794508389
0.123083154706063
0.0290199231047419
0.0205134585676496
0.00301078070150396
0.119988784310842
0.119132185180822
-0.00139939566530317
0.0124697432714341
-0.0040698972438249
0.0312245793056825
0.000453080872662689
0.00302219268461762
