0.374987695344274
0.40232095852975
0.390232449483699
0.349216616164343
0.399099915145599
0.395682800160422
0.370339055960741
0.378530808133341
0.397670131285784
0.37723311174089
0.401473677491383
0.404069884140011
0.389486671598352
0.371170435298462
0.354567144054838
0.406947152608402
0.40029636815838
0.400512563945079
0.404694356037603
0.409036430618086
0.399821085653291
0.401304619581577
0.399618536646389
0.370630358703392
0.413429852384159
0.411893539506223
0.393917917126373
0.397977742303505
0.380317087455871
0.371639916052315
0.35031467072778
0.350311920567175
0.407452510353267
0.372350696901398
0.348656938636748
0.407997718140175
0.396563701374878
0.397179646449547
0.373722714787911
0.399382318013625
0.355689831358966
0.375736044121734
0.352655446986417
0.368482404765874
0.348858701154378
0.396409602982676
0.4070409630313
0.40164189827983
0.352760036913324
0.350256456330902
0.406105850919463
0.34913277979826
0.40804248935
0.379027503088969
0.407152742230909
0.397372568428087
0.404427888134574
0.400529526499745
0.347839011184826
0.374824505735697
0.403806248567711
0.399121460519278
0.356765042041142
0.396969333062812
0.394035674814201
0.392035386266679
0.401001632735657
0.403277970720591
0.403117715523369
0.396652549567065
0.352335859167856
0.345067531266146
0.390202554599551
0.401495541981341
0.40065788274512
0.407278623463699
0.367873184681222
0.376323921718445
0.407592623216825
0.402622072309678
0.350139676537533
0.351287361138804
0.37811803026017
0.354470203594947
0.39628175057242
0.372937134859448
0.350246872511781
0.402551306183947
0.403285076007424
0.398141606567008
0.40121254495738
0.359131136336195
0.397392683546992
0.384264399100408
0.39909099099223
0.349342938613556
0.399311900755238
0.405003598286681
0.353097448698301
0.403409472848641
0.347035163078668
0.405586419081225
0.355240614010855
0.345751897271717
0.371502486980404
0.345537258683454
0.401634343504122
0.370683206358223
0.364922617712643
0.395053885188638
0.353842227800382
0.370508102439739
0.382024521974253
0.408337740090863
0.348058000463815
0.350105400870415
0.373949122651184
0.399014493068608
0.398953586292516
0.399323183332975
0.399827186405208
0.393612886630075
0.350390369876114
0.400082532633022
0.352616077627608
0.348347691296713
0.394738210210842
0.38456305073329
0.368626964014508
0.370705067079993
0.355176785945412
0.384091313605915
0.398543585503082
0.39883558628057
0.349069534260776
0.353570818276272
0.402321228624816
0.404388732593893
0.367673506647922
0.3507397231212
0.377513012511403
0.399229775844776
0.40158264207532
0.390004722614575
0.379397806809956
0.40170914461958
0.408133901734694
0.395766689838344
0.397207638660472
0.372253292548551
0.405456728476595
0.347911607934418
0.389976835150088
0.404645629507498
0.347541963848015
0.369385825427429
0.402464657856178
0.401303690267118
0.409470206968842
0.404751622369323
0.393954573601682
0.401276949624147
0.403211904051397
0.39679323018898
0.405332420165093
0.389030637686452
0.397435067588181
0.406439777494003
0.400354995953092
0.394054085332596
0.393514002558733
0.390197478324784
0.374405737319192
0.402638414830414
0.402855865285624
0.401490703686314
0.354252317932565
0.348747112086162
0.36793491537185
0.402580532458515
0.355000709448088
0.378526749556371
0.394850746888686
0.397299966764596
0.402094070293764
0.358764727314024
0.397907189881166
0.348605559949851
0.4055991757849
0.400756963894358
0.371523853116939
0.36157459924817
0.35212054334264
0.401126744437923
0.393553860491695
0.40277484257486
0.348411059817414
0.377924241915627
0.377706430474265
0.397502516901518
0.406445976468338
0.371795811419491
0.404702867597125
0.34747621627022
0.39538542956815
0.394739170036577
0.354538128365497
0.361977544862513
0.352178254207517
0.407601919330879
0.372384142837771
0.341279586096109
0.375229721449535
0.398861529079389
0.409086020303841
0.409046877142891
0.362658496033227
0.396309681328467
0.350487658653276
0.346441983592236
0.3969468883263
0.374799413045951
0.370520343304968
0.374954649328908
0.398056221188048
0.350108180287057
0.352155867553531
0.403430155926908
0.374584957216479
0.408337727560634
0.399081971249188
0.371272013121407
0.344198938481958
0.407957027481076
0.357377845282306
0.400559022028903
0.393368361872642
0.347389263538349
0.399477982921133
0.361118447920013
0.38998138727728
0.355602122536803
0.397585794584454
0.346492487922703
0.357027995891114
0.404005590049327
0.346529324950661
0.342622763720211
0.404814900019955
0.373368188076858
0.0960871313699451
0.0961823409282831
0.0951375369237107
0.0995882463324685
0.0909489186002892
0.0972384929227931
0.098564198439059
0.099522341704238
0.101899078697977
0.107347703963198
0.103081122341873
0.091619984217211
0.106528797469986
0.0958874302864578
0.0985791481774204
0.101154073520069
0.114032427109555
0.102599336475907
0.109682664692113
0.0861591767441565
0.104496171508419
0.098341706852485
0.105102396952162
0.0953303349007432
0.0999591392434025
0.103746924066657
0.105361177146463
0.115567710225394
0.100927571622463
0.0991332123506622
0.102359573165909
0.0967674641534745
0.0938485899893372
0.105631140022888
0.095865532979389
0.105695512370122
0.100163036146316
0.102865077373141
0.101043299154867
0.105364806509259
0.0966696950516426
0.107379071127344
0.103982890642853
0.0996132145243965
0.110391824352439
0.102851375402545
0.0957782554718347
0.101787642628684
0.0922195411351577
0.100951891978119
0.107688191768424
0.096043563738365
0.101821458351154
0.104277145518473
0.101388807790786
0.092157618791699
0.100435426709948
0.0950622926658676
0.10300206763101
0.100381628394399
0.100440303190075
0.0974362785263402
0.092471743157039
0.10229648574143
0.112158815729429
0.0986123803601161
0.101612681743726
0.101513585078202
0.104688373601555
0.105819194605598
0.097119971919834
0.0957250574844357
0.100805542518165
0.0934638779405365
0.101000720957717
0.0971230236719253
0.0980608190910551
0.0967341465377474
0.10919980823425
0.0919155142794285
0.0947127480395525
0.10398588842068
0.101193146398333
0.0913573810888716
0.0963192922350714
0.0988958334257065
0.0953162617979075
0.104035058377478
0.105270962947482
0.102599609572058
0.102782834966264
0.104557810303736
0.0943880391638648
0.0977847665126659
0.103644482154558
0.105405964943521
0.0949218436732359
0.099190510891316
0.091607391650974
0.0928749880973363
0.101147008677319
0.101298093160135
0.109226862736266
0.1053829906471
0.10643015541545
0.107587876256427
0.10380719613433
0.0981636394615865
0.0936459960770436
0.102058570202779
0.0825214278128931
0.0923393709072392
0.100666819638318
0.0997735540163434
0.106580347685351
0.0997603475405742
0.104261719892615
0.0954106897357768
0.101242681744186
0.0988545227631813
0.0892009504783919
0.107440996628505
0.106112916374395
0.101923729375379
0.0971259833141152
0.0888599875831343
0.0948106480553508
0.0939871943391959
0.10484912031739
0.104208072707812
0.0983481718432447
0.106033187554632
0.108654135918399
0.093551738358166
0.0915057179991512
0.0929611663692457
0.0892376248247627
0.110805296991561
0.102135484439727
0.0951576656356742
0.100529019541557
0.104330743159021
0.106215745009242
0.100100718613256
0.0970522964656245
0.0990569151156834
0.105940070740667
0.10140776153652
0.0954818210656147
0.101989364956157
0.0909460323556495
0.0932374982269188
0.0992037029653202
0.103305485526216
0.104093895347452
0.105525269810178
0.0888364792340211
0.103667307084977
0.106182311687566
0.0929751340742531
0.0975560668783677
0.103456927345147
0.099892754401418
0.091957825477006
0.103895943662381
0.101274360583517
0.0964913368620293
0.100685942914852
0.0964425236003715
0.103365565723537
0.0943987655377805
0.0918898546634312
0.108396790471161
0.10070971464007
0.0967530939753894
0.109150901291768
0.105569851410145
0.0944842202002707
0.108431096441783
0.10238609875005
0.0991490345009813
0.0927801691334135
0.0982877674820344
0.101495216796389
0.0980581660779555
0.100393820983239
0.108154165601441
0.0893518974226729
0.0984954456121013
0.0961096215251401
0.104324507247913
0.107387868694556
0.100789668105996
0.0923961726950735
0.102051479020678
0.0999912910572798
0.10401674919532
0.104337254456626
0.10869432719546
0.105645480092181
0.101334742378851
0.101920706112645
0.0995087518845993
0.104340477790017
0.0995667154584851
0.102728914735196
0.100185370500004
0.100752133985112
0.103842088121454
0.100321489359564
0.101980617636952
0.0968734051392565
0.108608892789988
0.0995845059185347
0.0998166747520526
0.0986177994422352
0.104936751667903
0.0937424157516373
0.104238370556447
0.108448129768425
0.0904993020588429
0.0958434527268382
0.0980671664182189
0.0970811181514493
0.105105326160257
0.0947003168258366
0.101959173732255
0.105941226472536
0.101965046472256
0.0923691400471316
0.103505494662273
0.101164948377522
0.103722353549988
0.104885661580345
0.106111240553442
0.101236631935386
0.102531076791907
0.0924708220694488
0.0964569584491218
0.0998413647352174
0.098702393009042
0.0939927023017276
0.103942378094905
0.101578560021709
0.0946753602753939
0.100237860746253
0.101536794035637
0.0951512418421554
0.0996525312189405
0.0989128271173311
-0.00792156865522518
-0.00129291254179377
0.00462138074991356
-0.0047754343061707
0.0110385138529712
0.00851183683622719
0.00413798025091576
0.00164112527397803
0.00357194005249959
-0.00609521836895408
0.00251543931516336
-0.0118362543949019
0.00431373921230272
0.00138001107391964
-0.00503721208298461
0.00438069621069007
0.00363098364319951
-0.00311567667182977
0.00135166630618592
0.00556512583679524
-0.000601051885621487
-0.000593269559850257
0.00654700036970638
-0.00684820371095072
-0.000663735352088278
-0.00414789305853647
-0.000518976067630844
-0.000900683950373343
0.00332091157693064
-0.0109406191472075
-0.00248126317968341
-0.00355464497538818
0.00507220306006689
0.00424132541428499
-0.00662864318569233
-0.0018546245981644
0.00240547262450451
-0.00534763834136661
-0.0027448688827565
-0.00478828049269028
-0.000782967062564033
0.00423373990525563
0.00342833586157534
-0.00541292605001318
0.00336124937983387
-0.000302578770959715
0.00586638624556991
-0.0042705811418047
0.00136324877387204
0.00601214270782717
0.00251456273571078
-0.00459678242039764
-0.00335989069076883
-3.57737766380251e-05
-0.00332076079052388
0.00371242116314773
0.00414680063485262
0.00119279399225994
0.00291268418101075
0.000170081488432615
0.00106186101156317
0.000120940680920311
0.00659723839820052
-0.00201450542890616
0.00531415621999314
0.00938437596589546
9.51206265271619e-06
-0.00434295540779245
0.00635652641948938
0.00102815675556572
0.00301058620460724
0.00115829500700193
0.00770571519032674
-0.00291234218921021
5.13285392563174e-05
0.00392114043657492
-0.00101478368876627
-0.00270219421564517
-0.00305091873224936
0.00149245835582419
-0.00356020784123964
0.00384120455117606
0.00156197342483118
-0.000720471643558809
-0.0048844789138461
0.0038966908533267
0.00445370414831183
6.46129554996681e-05
-0.000448401908592731
0.00147842615695606
0.00599520143131412
-0.000691089738126142
-0.00432775459048629
0.00253500931412219
-0.000181615452228162
0.00905571726861035
-0.00579268558194317
0.0108744509084928
-0.00286936944547739
-0.00145791202706148
0.00520355754240221
-0.00607593000034176
0.00443797379218495
-0.00315938612061788
-0.00234096060570903
0.000511632327253491
0.00396646783997784
-0.00524976636004247
-0.00309068025718234
-0.00196139790661707
-0.00495863538142287
-0.000809974268334989
-0.00640939891928309
-0.00166397431803913
-0.00514647302894936
0.00138081797019363
-0.00704197728969192
-0.00924102187824129
-9.70378193072727e-05
0.000248669140705883
0.00282031502710761
-0.0020576369071319
0.00292481223767004
-0.000662148757698739
-0.00167960964369181
-0.00476543636304004
0.00404798638856359
-0.0043016782667078
-0.0052421365609406
-0.00114211750117903
0.00324628572902643
0.00273671225240578
0.00937520390089455
0.00524339603653553
0.0020182442430029
0.00978273308731353
0.000599949400652693
-0.00289203132775908
-0.00516296138207588
-0.00191001288260579
0.00770237757999565
-0.00530080066849134
-0.0032045358834703
-0.0112299087928784
-0.00555259575903182
0.00243664870147191
-0.00357591856532215
0.00633653963036379
0.0136922075414773
-0.00156319040963257
0.00101288165272776
-0.00945100128081457
-0.00189352236569417
0.00998535419513526
0.000404004786589714
0.0013212538489572
0.00437928959591987
0.00755554004425154
0.0112005829423756
-0.00776965031834495
0.0124066043463833
-0.00423586675984944
0.00416658579805055
-0.00192902699557171
-0.00744102184560862
0.00457725029196551
-0.00536155219526365
-0.00102727742065748
0.00386005715837183
0.00392968710341202
-0.00520786411194122
-0.00217614179010153
-0.0109326457304284
-0.00184948822664759
-0.00571085277381323
0.00734914067550912
0.000386700240947488
-0.00954146757312052
0.00189428736512499
0.000168994122211425
0.00835428062956944
-0.000717622262477752
-0.0076785986327973
-0.00633809432190921
0.00368203452094821
0.00581915861799893
-0.00337517099979442
0.00586546041359236
0.00404548601655621
0.00144116018469182
-0.000708395492384459
-0.00403044648882527
-0.000194657016057753
-0.00818939562123874
0.0017003800428745
0.00120944394205646
0.000774559312762221
-0.0133350642366421
0.00490966154820504
0.00672309078529521
0.00407068389011725
-0.005530927671145
-0.00575971384202822
0.00124653706160122
0.00322977536420675
0.00394923993421468
-0.00127868284146204
0.00206612912440562
-0.000941253097548357
0.00856967038098171
-0.00353755163932645
-0.00475966474816274
0.00266432288245815
-0.00813840897819038
0.00493464334515561
-0.00883409130581177
0.00932975409618776
-0.00607049985335032
-0.00156486657768383
0.000538006448764982
0.00579218378955122
-0.0013419311106087
-0.00543278323878757
0.00512210389564893
-0.000815403259836738
0.0019436537851818
-0.0060178499957312
-0.00678502502102785
-0.00269274847613727
-0.00432957651479785
-0.00561210228474898
-0.00728946852865533
0.00254017438055702
-0.00322827711095717
-0.00605534903242672
-0.00547281083827066
-0.00803418460251119
-0.0067839979019418
-0.00743757326401388
-0.00301033170898831
-0.00436513890123971
-0.000818343747050911
0.00386458435891422
0.00506333364334132
0.00661186072312911
-0.00188461616609272
0.00902175299731845
0.00193102112069385
-0.00376103311479562
4.61404980124914e-05
0.00397840966861794
-0.00630599075612497
0.000543920132106311
-0.00126765792497246
0.00190357505709918
-0.00857125683936943
0.00137196113956634
0.00118326836128471
-0.00129293060183348
0.00887913821336002
0.00519855160655115
0.00191938307038786
0.00496167300944592
0.00534305585706705
-0.00269004196615981
-0.00574418617850111
-0.0033858872189552
-0.00342596646653593
0.0034064851652815
0.00778985636493711
0.00134349220701001
-0.000321192149796699
-0.000837687919710939
0.00130117512822002
-0.00825893793801447
0.00738591253689877
-0.000221588566749521
0.00430109057588747
0.0116690659210071
0.00279065831003956
0.00144139383505637
-0.00166603780847656
-0.00232651387978489
-0.000541436585562021
0.0066094497439621
0.00309924105330323
-0.00595732358437331
-0.00184150513068368
-0.00374175869750448
-0.00391010991877175
-8.85729000530973e-05
-0.00377145186136126
0.00501467498111419
0.00436529815232773
-0.00893565074487953
-0.000371710074852613
0.000999517589314532
-0.000400929850035475
0.000672066048164269
-0.00152394901417893
-0.00139349564860685
-0.00534948483298976
-0.0018965122579787
0.00203427847564128
0.00486677251832879
-0.00670297755968364
0.00383762472180076
0.00411228843505241
-0.00357119085185403
0.00167510579689604
0.00304860735038525
-0.00821806796354417
-0.00992660244270651
-0.00392298275404421
0.0077815333754877
-0.00154105573392302
-0.000406978836842787
-0.00430347872919828
-0.00292764563019663
0.0019367509479634
0.00139694910331267
0.0129158766930299
-0.00576788571219146
0.00652500675276271
-0.00271783651418527
-0.00465081847918357
0.00434455303297145
0.00241805790185245
-0.0117823325933985
-0.00403717282320194
0.00808054398578627
-0.0040888889164075
-0.000679875060313246
-0.0078705691824824
0.00593269548340611
0.0120337339172187
0.00640070120368211
-0.00690297012462585
-0.00346806398035601
0.000593963873541272
0.00116124400640121
0.00275680668648704
-0.00627641657829521
0.00783157350417221
0.00274717152604599
-0.00193189876497136
0.0034113196158117
-0.000791871305029473
0.00250677353384266
-0.002103748824394
0.00171847037757583
0.00525096954316177
0.00310320946743481
-0.000328743847078379
0.00631327786473295
-0.00122569027191513
-0.00681694067575312
0.00186115943818829
0.00149237050791795
0.00417531872118557
-0.00595155947923307
0.00385874110941846
-3.86273944165692e-05
0.00108231183999816
-0.000704590332945706
0.00496116221405377
0.00247981928616412
-0.00833268575120759
-0.00453920714393142
0.00563650704387766
0.000630854765960795
0.00258524528729051
-0.00392924602454443
-0.00352631473433752
-0.00174833432789954
0.00345515398325536
-0.00516250507712535
0.00157929326268508
-0.00560766525654596
-0.0095015411432463
0.00118058191864015
-0.00127045075515243
-0.0027170131311434
0.00400284233958887
0.00715681647360189
-0.0114891444524415
-0.00227060123172788
0.00249607441038651
0.000172773168274142
-0.00202765162025038
0.00266833371933009
-0.000562585440989509
-0.00124155752064681
0.00240842498266966
-0.0108522030655595
-0.0105890960245531
0.00168349565451513
-0.000779040246100672
0.0011676524040363
-0.000631598387435805
-0.00475204070707178
0.00154563503797809
-0.0082077155435358
-0.00316280435248969
0.00688120208874078
0.00206787904324308
0.00891581436749029
-0.0107556951549996
0.00447234774050448
0.00465084607955308
0.00926277067904485
0.0052866143729127
-0.00240461472549675
-0.00240179144992409
0.00534656364844901
0.000128399393367079
0.00833074405902217
-0.00247275273137812
5.36075685847581e-05
0.0065816779948692
-0.00798102373902799
0.000922817446731059
-0.00727565589985953
0.00197347403398437
0.00031934380157929
0.00152433398771538
-0.00413179934119849
0.00277830081184417
0.00198599394970163
-0.00551238644271218
0.00871344540323615
-0.00374498983054244
-0.0047424258044527
-0.000767206330979871
-0.00231501497306073
0.00401039231374432
-0.0079291494001222
0.00624869340390849
0.00291673851343585
0.00214825786027309
-0.00733266170719656
0.00616148535553892
-0.00600041514397476
-0.00560258400356562
-0.00437130486028344
0.000374232287808215
-0.00209683740653696
-0.00109221051225258
-0.00633972096605247
-0.00285731397121718
-0.00500482091035612
0.0031267908863877
-0.00549025464321638
0.00210424243411514
0.00463772751727516
-0.00404324345444466
0.00181370054676269
0.00105505816213622
0.000564272447337369
-0.00967512039368711
-0.000468097118416574
-0.00256163171628045
-0.000378692463285884
-0.00349524270601033
-0.0083883999493708
-0.0123595339404034
0.000488552864495031
0.00154886467033629
0.00258351434677512
0.00346054444253842
-0.00132932580682448
-0.00158201393436807
0.000638746137416548
-0.00758747073730971
0.00498485884189483
0.0029197537882451
0.0045072294034824
0.00714539519996231
-0.000332238500449164
-0.0012469211062949
0.00441475499519718
0.00279242815895727
-0.0126571625657551
2.40800159588946e-05
0.00432028121273665
0.000324634199056495
-0.00168215771897289
0.00312180934234444
0.00124461432832732
0.00212949022390485
0.00156781032436096
0.00111791718539558
-0.00510732247091765
-0.0025965981873803
0.00281897727536437
0.00412699434225082
-0.00189324262118244
0.00583774328626541
-0.00164510949217523
0.00326890589406284
