0.308349565553434
0.299971366753401
0.300453899706788
0.301594734749514
0.302173631823375
0.30731424375796
0.279160661994473
0.299723208420139
0.299528867072674
0.27408591170512
0.296642369118554
0.304807144877396
0.293596562715948
0.304568485898921
0.310655781973175
0.293912314184968
0.280616570708256
0.278468949548904
0.268160512909636
0.299471036218292
0.274322632118097
0.291764216979262
0.298404401171968
0.293639962101774
0.275980493407498
0.292364865007946
0.27239540204777
0.277632580078603
0.298000482032284
0.277986233101606
0.289441720094389
0.293463117564305
0.292975571644101
0.293147620427139
0.303628665174218
0.276465586890882
0.294737192354201
0.30517560369357
0.284463712894423
0.275363782853112
0.305771832944424
0.297934355052135
0.304631178357721
0.306218715613415
0.275026661072961
0.269374651090166
0.275751269218706
0.274447459212971
0.284085117929004
0.304820003322209
0.30472586633376
0.308961065737777
0.278992676950682
0.263565600152235
0.295379084951854
0.295827385453847
0.301539304149104
0.276934918347272
0.270992403793865
0.27609285968522
0.272020490776708
0.302101375211614
0.277458641346657
0.27402090986602
0.29920405543743
0.26511645169092
0.269005663126503
0.304529329307499
0.274808302604775
0.2997393962692
0.294854755293421
0.274675579838586
0.296782449148908
0.275063730657308
0.304061231155787
0.299741235843338
0.300706244159809
0.281242116426979
0.27591005799852
0.297148388017227
0.303454557324738
0.297148003209458
0.272754425530503
0.26878509167706
0.27468604509913
0.305099073678347
0.282635810807311
0.295793097406013
0.300661966200676
0.296016956544109
0.283870692712399
0.27562667322844
0.305628456505824
0.305709493197748
0.302188985607854
0.297580439154609
0.301552874283308
0.299457456296331
0.269326703782414
0.280132148241904
0.297404522508513
0.273686114616875
0.296602677711253
0.275826624650497
0.299611982243591
0.279331438280442
0.284377156250371
0.306131173764157
0.297240697107613
0.272999632138926
0.278783254640253
0.282476361561094
0.299119492088804
0.276576794527412
0.307179786185242
0.273208668900011
0.272132132625356
0.294925917885249
0.298105775413792
0.301268323466858
0.30094211882572
0.30216689555355
0.275200866043237
0.267389940909119
0.262446513661092
0.270424124822522
0.269124258593302
0.277709637956919
0.297511180811966
0.287248373063276
0.280628221541606
0.297056769153019
0.269952153567659
0.274667609770989
0.281110351236137
0.275425206329812
0.275654551848144
0.276452595528837
0.297388983074262
0.276988989604002
0.30028290537953
0.276156803204296
0.283454007706834
0.282336394434364
0.274539819732046
0.298434096825235
0.30298165198215
0.302666408017422
0.305023098400801
0.303250409122025
0.302626620063906
0.303577105794879
0.290202282088579
0.294753161441576
0.278000583603845
0.301324593190066
0.283457010511161
0.273178897277408
0.277058273151164
0.280577446030173
0.274186026365614
0.274700484707433
0.302223647494105
0.299304985046045
0.269700580695344
0.276909316860365
0.306546618283258
0.280054185192675
0.276496799235459
0.276900286085181
0.298361061438269
0.300818624022002
0.302554799712824
0.275999945522456
0.29889319401583
0.268101023923804
0.273252752048442
0.2953257314669
0.296287249155649
0.294854848127293
0.279770904606575
0.302524581703052
0.281604476158101
0.297597687070168
0.30520609412024
0.27746080442511
0.290331476340665
0.277131009914981
0.299528972510592
0.275650419682658
0.299565994579964
0.273619937606013
0.299621233935638
0.281436707566209
0.27625313585512
0.276741435761517
0.277116093598102
0.307607305714534
0.273314316259215
0.275274455217473
0.281452975805825
0.274692551238143
0.297656873129342
0.292656248749335
0.270480161751123
0.272309854735832
0.274071844484711
0.278871468078504
0.297471047665313
0.273080751211629
0.298717947086261
0.282151757460045
0.295437149362226
0.272743119769834
0.269185625439986
0.292755993001318
0.302023457358605
0.29790567700804
0.264714731317487
0.277990786282294
0.299381373455969
0.297559480087226
0.311414791672598
0.296443454312669
0.273333143567295
0.284172293334905
0.297665980624846
0.302017952755444
0.295808102134925
0.275890759903473
0.299854893032437
0.267863903864589
0.268857812779406
0.269909639434718
0.299337446160732
0.274084887594028
0.27255359041144
0.272347304196619
0.292648466206528
0.291690816852194
0.275578990118489
0.273735796519277
0.307705313219709
0.27326129348766
0.271801497048721
0.274808761696076
0.299305853111618
0.268886739258297
0.264267719540367
0.279822594560353
0.0728146903638152
0.0780650192564186
0.0744221561346011
0.099774474690282
0.09699291994736
0.0598901050806946
0.0713594826792867
0.0719586971927338
0.0762955021899393
0.0997024785015199
0.0976685204395797
0.096935151157565
0.0794654545825694
0.0949165787404837
0.0759755127152807
0.064551958577541
0.0778852591580574
0.0779872100973742
0.0647075339285838
0.0990720871419163
0.110700930255733
0.0924478270300323
0.108143887510875
0.096003918064245
0.0927786063624185
0.0676672698750114
0.0806027975331611
0.0823386517051743
0.0774623952847785
0.0915679798431396
0.0761207445610153
0.0808763467397525
0.0722608297961613
0.0780603849564499
0.080284342372449
0.10279382096668
0.0986058697060553
0.103518555046702
0.100465649152503
0.102163489952216
0.0741766383759988
0.0703449533673852
0.0973543673701939
0.0723831205606917
0.112645233010191
0.101139946267739
0.108056535060595
0.0695504085935595
0.074045093024841
0.0738191899908519
0.0766559676271739
0.0771855700777732
0.0747955226398532
0.0978073746392585
0.0704320871786042
0.0910017949329461
0.06454062020886
0.0931332208797411
0.0666896623808204
0.0821635383010414
0.0970901851573092
0.093773375266477
0.0980186193557544
0.0706182859429965
0.103601767210886
0.105273307873646
0.0817657628755452
0.0650684014875996
0.0718230922717092
0.0975243902970729
0.0679554856598511
0.0765250470961672
0.0958608396306301
0.0719235977766129
0.0990422411756142
0.068651029350925
0.074017820630883
0.0957913786718557
0.102077738395081
0.0753965355791113
0.102336625567538
0.112404591274081
0.0917324887148512
0.073847329928069
0.0661962705653084
0.0661708474013467
0.0762449706960238
0.0748491586083793
0.0745647257990502
0.101910830795993
0.078519283578734
0.0721593273352246
0.0954599770459767
0.100643384573133
0.0800340202643365
0.0806821206254095
0.10111909864833
0.0878898698281084
0.10379505968895
0.0739321786068363
0.0772309820450448
0.0733893868085211
0.0760523028912839
0.104738627354286
0.110264963970899
0.0762825916441729
0.103619445612116
0.0965490865027226
0.0739704785118394
0.0954793957744926
0.0742910674317582
0.0750266237970798
0.0781345100432052
0.0679230025202491
0.101029340618156
0.0960220273522445
0.0833155790813898
0.102168303523904
0.105905643944471
0.0831229834418143
0.102106168902228
0.0961871696601
0.104239550617324
0.084679035548939
0.0987269921777448
0.0979649938145831
0.0716555573078113
0.0761302364306355
0.101915568174497
0.0974232119016442
0.094806127219518
0.106494134105739
0.105837803658123
0.104876158427397
0.0957228856945232
0.090713280423346
0.0767935810277103
0.0774429159562885
0.081861933406712
0.0785188980445547
0.0712160977924396
0.0818956842263169
0.104283841392326
0.0692623555986672
0.103384109120624
0.071396601427663
0.0987640397197348
0.0773833022700481
0.0679676554017513
0.0742098353879522
0.0765559496348429
0.0734006393687554
0.0759704245782415
0.0794023059783341
0.071626208134714
0.0954574086744771
0.0699261662269421
0.104804655773623
0.0796190035514202
0.103178693952689
0.0782203677983697
0.103355641470717
0.0680494027492076
0.0757254919587176
0.077808785246024
0.0744602997213956
0.069577447411915
0.0814200821460421
0.0737165381229644
0.0988575312765019
0.0709409537680509
0.0752664975846473
0.064831568529702
0.0805915105849747
0.0999572349357188
0.0730591544041246
0.104890920182245
0.0765856972891388
0.0872590380128002
0.0767699901060685
0.0718471181135043
0.102269155565013
0.0779032212791104
0.0962430425936699
0.094703680673012
0.09949822307538
0.103647444809857
0.0788449008420812
0.103139084829727
0.0991303906008136
0.112056592481616
0.0804508077093709
0.0814769921215692
0.0783352458540882
0.103745622528139
0.100832316653897
0.0726181133535906
0.0801833140902195
0.100947691821913
0.0882210360443468
0.0985140754185335
0.0962678483095383
0.0777259740348123
0.103107081677025
0.0796147629253284
0.0747556702820353
0.0783954694296013
0.079147032192283
0.071875551393339
0.0817837194148292
0.0715828095616055
0.0804088401617052
0.0748324331510956
0.0696036661350058
0.0760809798280984
0.0784014444188114
0.0737117349235829
0.102799304729368
0.0958505649964325
0.0917215177285506
0.0744093431708025
0.0964057185559113
0.0976511760032065
0.0616666563746106
0.0756897867312938
0.105267181870669
0.0963921675990509
0.102809951877826
0.0809972510389808
0.0994584572861386
0.0755841486560725
0.0781659246489972
0.0798048133327028
0.07722785897649
0.0794183409545931
0.0771644751961922
0.0636905868350043
0.0782136455524138
0.0712050172043936
0.0702744920455824
0.0683171169369621
0.0997417277813938
0.0713972643757766
0.0733878876780005
0.0974665750115954
0.0723091223487101
0.0961888638580683
0.101232355579584
0.0777038608566325
0.107944018214505
0.0438529527688899
0.0456715716017103
0.0254691999894222
0.0456818206802187
0.0546392806386985
0.0496030201572989
0.0488002386025498
0.0569471354402011
0.0289074106640364
0.0567882135304351
0.021681364182901
0.0120647996805274
0.0193288842401771
0.046854492757756
0.055081563898878
0.049078944417632
0.0545760841955719
0.0580916979270914
0.0535329732800048
0.0193561232817154
0.0436243007473406
0.0226946846263705
0.0572903535425167
0.04587715787768
0.024551124648967
0.0528170479870463
0.0520068661073951
0.0488524724502641
0.0460972587471274
0.0244118837419135
0.0448146775986175
0.047208522711329
0.0408696937320857
0.0278454268611138
0.0475132479706818
0.0530833327718098
0.0400388295901844
0.0300083262729204
0.0282225254641503
0.0297764431083418
0.0620783499045154
0.0246172747858681
0.0277947329923662
0.0239368745208573
0.0592838924782336
0.0346566537453617
0.0547541008836503
0.0445062770497935
0.0205896601902827
0.0498708713698078
0.0278679983961067
0.0167043184600767
0.0515146330101815
0.0250751590816299
0.0226660605576822
0.0495043390408232
0.0530972090018463
0.0514548532019176
0.0588672996789048
0.0467197944366455
0.0206428567219946
0.0437406502710626
0.0531391353123509
0.0475209156853638
0.050834202854002
0.0411527462320768
0.0454878066414783
0.0516240827199333
0.0244638343876287
0.0497410110624465
0.0479537317892403
0.044481903911445
0.0475496982575903
0.0397088227506447
0.045468971305421
0.053103647569381
0.0559635587019458
0.0505557651429157
0.0495830096586569
0.0502319274346787
0.0438155781167867
0.0646979812700561
0.0453673200535691
0.0411448485866235
0.0489038521674671
0.0488371990803725
0.020983062138945
0.0468854812627145
0.0531761011968788
0.0287082906452981
0.0241309911159722
0.0503270290112089
0.0443064976145123
0.0403990774917539
0.0538243933660123
0.0556022051806317
0.0461005034665784
0.0495869727906608
0.0546387058946875
0.0509413157356793
0.0436677300148549
0.0518111568190287
0.0259704517898216
0.0506126799604594
0.0440985254907025
0.049628693607423
0.0459889528862561
0.017834449374681
0.0458708840118666
0.0487716322059431
0.0569868498765865
0.046727632570325
0.0401043011586846
0.0221733178816402
0.0188579070210829
0.0479369807779952
0.0518450808097498
0.0439956796391175
0.0529240256295501
0.0244005604002452
0.0503730942541831
0.0537505155152363
0.0472542298443738
0.051116196903978
0.0546788983173815
0.0527594235569221
0.050203164492883
0.0284132705057644
0.0497893213154982
0.0565910376364522
0.0522770508695032
0.0457749855250552
0.0513624561691449
0.021380248929953
0.0223654489999406
0.0499047281311927
0.0571448767869427
0.0582127092438783
0.0303316979865119
0.048657099864465
0.0416951002514339
0.0305814888142589
0.0539696211513197
0.0484152917308174
0.0504028903010579
0.0492355909530953
0.0176027241059569
0.0601705965406852
0.055083538780164
0.0296068550012662
0.0515465773531031
0.0467853758332984
0.0492749596720964
0.0257350613154333
0.0238615889889639
0.0279217902679178
0.0579922139005153
0.0539844585462654
0.0501284279038703
0.054031905413716
0.0515813872992787
0.0586836140373038
0.0468097664785455
0.0496999913483482
0.0282111010517458
0.0593047941557563
0.0570253203377117
0.0496128949254146
0.0425544597088016
0.0522836057029638
0.0451970455659205
0.0458778158931416
0.0492132129511016
0.0471532249941197
0.0414202094777636
0.0296064592893438
0.0548316988998289
0.053989994594087
0.0254655918531693
0.056220024044968
0.0237887239385896
0.0600020589178249
0.0506762793141729
0.0508224284054459
0.0264132353550259
0.0502277507134491
0.0292063711770568
0.0604092652564753
0.0237725698677795
0.048105995630205
0.0259760605052637
0.0435596436053809
0.0453383784058581
0.0298251836584634
0.027938506475621
0.0478779668311735
0.0241163631977739
0.0261090766066566
0.0521658413085574
0.0542066061131551
0.0235890832131929
0.0186143977943549
0.0568400635901102
0.0487089865567285
0.0433120069235451
0.0208163449235877
0.0539009176484859
0.0504778760574861
0.0458161261449629
0.0498241027354906
0.0470998199707154
0.0481028365733756
0.0453925739631585
0.0545322618332223
0.0616016162154897
0.0463929373458282
0.0546324845230884
0.0433724717781684
0.0506183359255347
0.0431311980217251
0.0501911500495521
0.0505807294111132
0.0313239754843055
0.0557513831792973
0.0159032445634068
0.0513533077531876
0.054316428271223
0.0277117867546688
0.0510902340003338
0.0424774161376013
0.0573520790247717
0.0613210540914315
0.0514132246200714
0.0523568123612848
0.0598864564788652
0.0517628424868679
0.0203150693816823
0.0472281347170203
0.053368300485508
0.0468984928377238
0.0500146728039752
0.0521182163748491
0.0548363858377631
0.0531213557301936
0.0466988785296032
0.0482259479357698
0.0409059243580624
0.0257319457804328
0.0548592772333002
0.0593665506049034
0.04576691478909
0.0561830038610587
0.0518506042739742
0.050980847733162
0.0482612056952228
0.0451351756122186
0.0252566577261042
0.0452561700409264
0.0509459221175638
0.0431160498282594
0.0461481616031954
0.0544356302056355
0.0541962795641328
0.0458222988620014
0.0455312094567907
0.0463998929715288
0.0548962928737268
0.0206868527289279
0.0517665592045637
0.0581497392872497
0.0472556983385377
0.04665961094946
0.0532500392191364
0.0458887284686237
0.0249252304481941
0.0505912057547213
0.029162739047779
0.050395080505234
0.0522288252008731
0.0549169956128419
0.0575290098227272
0.040527628795474
0.0137705086475135
0.054429329226384
0.0260546833470245
0.0512054775911611
0.0472344930165598
0.0544574065848578
0.0481290900063726
0.0473328775737659
0.0464482279315329
0.0393899429828736
0.0470369313090606
0.0403935337867476
0.0271543162223982
0.0522161807446123
0.0307513711208971
0.0150756565998525
0.0227776495251536
0.0256024769436747
0.0509001122999523
0.0444192940231833
0.0499979810406948
0.0273873017264499
0.0509904328955324
0.039367913870908
0.0178560773352132
0.0460571979195466
0.0253478355180294
0.0557278285880024
0.0494570930019608
0.0448167713549734
0.0204994842381277
0.0512549705110114
0.0515383804000454
0.0169220242869399
0.0270620990997375
0.0225214174523315
0.0540622609662159
0.0483461114902031
0.0541121325721182
0.0507902917009765
0.0581790413169668
0.0483141596904595
0.0387788310605181
0.0487795213472189
0.048947426747596
0.0540384867620161
0.0380959645948883
0.0441487072517233
0.0455159359110181
0.049294783825312
0.0306165811389808
0.0587819864582216
0.0215816284309431
0.0477710914779891
0.0476799019503843
0.0515845450251903
0.0494875525665741
0.0424937301750901
0.048045558328926
0.0561418137425439
0.0536451677650252
0.0522831120596153
0.0508791405671897
0.0483424117469006
0.0607238173460252
0.0379994011186086
0.0535464725183025
0.0255319868516149
0.0492513450116735
0.0461178327337727
0.0254388354220176
0.0594676659474216
0.0443898232079948
0.0213428364938505
0.0478228078302211
0.0447096236405563
0.0542472191743099
0.0522973636903723
0.0472720210924741
0.0482576489281961
0.0559310355952156
0.0510901090773156
0.0538992708472517
0.0506136622684392
0.0235305467908749
0.0481223265032421
0.0439127664900022
0.0498166382275358
0.0426578124720428
0.0506424099610834
0.0528065986651975
0.026057267535858
0.0212566056222084
0.0177928683537843
0.0505019628358814
0.0489011306655583
0.0593085046000242
0.0484212336608836
0.0497176768147402
0.0513349142731595
0.0398775737110169
0.051367420819329
0.0470208069939005
0.0547503389090622
0.0282365292701387
0.0226162469639801
0.0478526450924643
0.0523913120667801
0.0251049285591481
0.0523310057836803
0.0190135872107273
0.0492345213918487
0.0434665271847672
0.0463918312448174
0.025416787153426
0.0539808498924736
0.0225032043862473
0.0498026554732272
0.0506713834974478
0.0512649582419482
0.0447526234357695
0.0516519936217671
0.023232854266764
0.0546882323303921
0.0436562163006411
0.0248986004937483
0.0434476834967682
0.0468033873596445
0.0512071283327984
0.044389006166268
0.0310841792683614
0.0551709321262627
0.0570411036358306
0.0484146296615752
0.0569518406310447
0.0579946219735778
0.046590805999871
0.0538055055375008
0.0300751871177843
0.0501956616329609
0.038084036846453
0.0537521553562777
0.0519392014336684
0.0471082704287377
0.0416732712185228
0.0442381516759809
0.0479459731492026
0.0490683452266294
0.0521171692876746
0.0429937330866247
0.0517005464223279
0.0276176713136263
0.0506436590251569
0.0514835608264049
0.0537675686661504
0.015478536291684
0.0493979322255422
0.0220973758268876
0.0330897073313527
0.0512875673796045
0.0543699422622754
0.0545225187701664
0.0513859057672358
0.0149667268235152
0.0465124032673547
0.0461768739321464
0.046625452118974
0.0510765795596687
0.0453162014372515
0.0523894043771212
0.0184738645763785
0.0443874790394234
0.0541126151981595
0.044279156700182
0.0544569651335387
0.0529569342815544
0.05026511227749
0.0275132601551829
0.0230530605537476
0.0536114530042739
0.0453714640614104
0.0506651721200741
0.0459466395124707
0.0454685843008256
0.0495827754471004
0.0469830481048414
0.0488860247604125
0.0174771223467474
0.0532216925908735
0.0517297116859125
0.0430286036157941
0.0566407215050459
0.0579544068765314
0.0225091115190512
0.0440634204279546
0.0237951676867033
0.0507021477569215
0.0279492821917897
0.0316083385596334
0.056828459565048
0.0542760639645673
0.0532857788638515
0.0491554843547542
0.0529967012083526
0.0584784077005121
0.0548907328932352
0.0429379477317061
0.0504330192348151
0.0444641262794805
0.0513239145988863
0.0428908785401158
0.0488102248644153
0.045545800436986
0.0232848240181656
0.0257393512989982
0.043702324370561
0.055059217927458
0.0266269501050339
