0.116508495336007
0.12800956594741
0.156560605614285
0.12655462201358
0.122139448558918
0.128111825147502
0.148859671442575
0.152516113082951
0.125110030387332
0.151977300914778
0.125797284503418
0.154786129355867
0.149153028677031
0.123368364461724
0.127668683247183
0.120227780483936
0.144366915355352
0.157895033729403
0.125931549401801
0.128938379165839
0.118630178962285
0.150063381124988
0.12477744980056
0.120502461454248
0.129321526854331
0.121318708048805
0.146360888739308
0.153788013803411
0.127734755017207
0.118158889133323
0.159345690220629
0.122713698590407
0.15833488576576
0.125761052290404
0.124654249394752
0.128476531946179
0.121333483467547
0.128846680601968
0.119108077315781
0.147294389828973
0.146920241533755
0.124865915254062
0.154118575162777
0.150827949350212
0.128504508155121
0.120218468694305
0.125327984633505
0.123565059438409
0.147231099705707
0.122421688002711
0.154372493990269
0.127994573306528
0.14447545055688
0.128728948677014
0.15322597345825
0.155729497962092
0.152427276183268
0.138328581523573
0.133027844574065
0.152244230790971
0.150532779234698
0.146163289350463
0.151602360821566
0.121921600736048
0.131278548244075
0.131062696646398
0.122189781874923
0.152151359815537
0.11623518531365
0.125805167883316
0.14561955172115
0.127184264319704
0.148347546793084
0.145361721354081
0.138324272166791
0.147255222667601
0.122557721348765
0.13284508466339
0.129059640621672
0.151259595754183
0.128770152389859
0.12794239554743
0.121760211859825
0.152945949413748
0.129312692216122
0.157818124005566
0.13912005368886
0.146727309267223
0.144699187002839
0.147079072934541
0.152127886850161
0.155385159308111
0.127779798720795
0.128687953545856
0.150133567867484
0.144833244177242
0.140853605818409
0.121929540146746
0.154448841486173
0.124087814068611
0.158281545093633
0.122920309213166
0.147759825458881
0.119663733647543
0.152704057535775
0.123209535726006
0.130780633656236
0.12436920228532
0.158562562476089
0.127810227070799
0.151774166195116
0.11737432614651
0.148501620554207
0.125504140312524
0.125292485050242
0.119183035526917
0.154014657786936
0.129476951554641
0.150655726530676
0.142112101713786
0.123817715565367
0.157003836708494
0.145450334881249
0.118925830812329
0.122571476108687
0.115667645068374
0.122953934153115
0.141318839122187
0.132157667159729
0.123872600626615
0.129447876531689
0.14628902077181
0.146782754168706
0.144005197505464
0.153202854909939
0.127978960004677
0.115483635805934
0.129951077975578
0.124020696448631
0.129453173164115
0.130890978511717
0.132743369078481
0.154275137560906
0.134556624163892
0.121580388460126
0.150257548156268
0.143384971570416
0.142879816865279
0.153800888687747
0.1197669486529
0.142544282975686
0.127283280565907
0.154226460118991
0.150788987624242
0.119698815931796
0.12505965109322
0.127677425094915
0.120290287888976
0.153416311456934
0.130958413862338
0.118225481735018
0.124568103606349
0.122935938155806
0.127115891471911
0.122547987473782
0.124061402484694
0.120805907918618
0.129226412747184
0.115086288210149
0.120839460403785
0.124948385074244
0.149229055166825
0.147595065641428
0.149888180834291
0.121109070074453
0.132796248190393
0.150224366707932
0.126163874722423
0.129729396926216
0.118810960554145
0.132604802084554
0.126650965092149
0.158890358546932
0.132137182850121
0.120627310592417
0.125282054799487
0.150987299206719
0.126089033987361
0.123863095045107
0.156710228721743
0.122144983345302
0.14778252009344
0.142397165320399
0.12450182033204
0.13052065382904
0.114698222276572
0.119802974105975
0.146614221138638
0.152174692141723
0.11583395700732
0.130334022069267
0.150408730956009
0.115302428456984
0.149181773325231
0.136872306542554
0.124844957692295
0.151776540306535
0.14748833978419
0.132565740368379
0.145768233479782
0.154282387223749
0.146256655183467
0.146086905415113
0.12211092034529
0.150963946550716
0.143626363709257
0.125439073153934
0.148478265073526
0.152206927186753
0.15275000304952
0.140126163363036
0.122240804934778
0.123052939672306
0.145573635082497
0.132196895433469
0.123419993802893
0.15460562664964
0.120529705412585
0.12646347008312
0.129361091424499
0.124195524667155
0.154085519471867
0.12087222988857
0.122816327067435
0.14658151688189
0.131767381900746
0.155386900143909
0.154319630119927
0.125755730326923
0.120634229631507
0.149998877072015
0.126407618755935
0.155390868242471
0.124531608524911
0.141378637895323
0.130451964378277
0.123295623793069
0.153837822735029
0.14411854293886
0.149038384101132
0.202380962286485
0.195118488322568
0.203636952430997
0.181449811127871
0.196082474686803
0.202018926291632
0.178873742468614
0.19675452429685
0.200570369074395
0.19440334143425
0.181328851565564
0.172269123519767
0.198294711024082
0.202302259372511
0.192021892049197
0.210376923964624
0.205872036869751
0.173794819526965
0.19966776834045
0.198363738814511
0.179092266104875
0.212156066965417
0.170283426755548
0.206589235143811
0.20654703327882
0.196928578883354
0.198409324979172
0.194252598404263
0.176291576185784
0.204473340170323
0.177918986787104
0.201475043610125
0.194785960278728
0.177261762282324
0.203084406899197
0.195488773427113
0.197908599335105
0.201148610907716
0.19489672801541
0.188786038029164
0.175592206842745
0.199675405758817
0.205213013506102
0.207442836202622
0.175091321286286
0.20186340698871
0.19417548571108
0.197978548797789
0.202182785223789
0.196490222873647
0.190149330437258
0.200959849201166
0.20331382541265
0.194861565766938
0.212075471690134
0.197223312598471
0.167211486281694
0.175592320726467
0.201713750015779
0.175629842809528
0.192736626579709
0.202076072040357
0.196927547854918
0.196445657780008
0.202792406871307
0.201315999159585
0.199266647334891
0.192420926686073
0.174278674407699
0.196790368418775
0.199906382782199
0.195622914215399
0.193077836039426
0.20431191710809
0.206744969625693
0.193386872084808
0.181305705147079
0.208471904530315
0.165390159942391
0.213434097509927
0.204984605744729
0.197390535268486
0.197325739004812
0.173845409232581
0.190209386185452
0.198393242911339
0.200667317980863
0.19554494230048
0.20066567945677
0.201708082179906
0.198558799402735
0.192611500701742
0.167581197318835
0.20059678343427
0.193827841949601
0.200743863787593
0.205178198483036
0.201484303680004
0.200845217601176
0.189930006108932
0.191624812946499
0.17916089519893
0.210515839838005
0.18985871177571
0.204116843709902
0.205230867077249
0.192122239280185
0.199957508014534
0.206290088325731
0.206940080645745
0.197557581882533
0.202248901428191
0.201923737364907
0.202430380628328
0.198948917348804
0.197205965356222
0.198918350479153
0.199487178037686
0.197909460618727
0.170147447803756
0.201718857957245
0.192770137136413
0.202860798697271
0.166643363003662
0.196615807499799
0.204080161680379
0.197798689422073
0.20397810084083
0.206952328967277
0.203025650648692
0.199295792786044
0.210631585160804
0.203240158499121
0.204529525293742
0.208597990255119
0.193513456409633
0.196230000625254
0.204628126002264
0.200600693754718
0.199118878244481
0.198413672569195
0.204232923571939
0.201849469085488
0.202300918472059
0.204819694329746
0.202761431375346
0.201285518015005
0.198426618057841
0.177038713092814
0.182731150012855
0.204335989374686
0.195595973386417
0.198970140518262
0.197287858558046
0.194475229491215
0.19416613993224
0.202041108939516
0.165848155775241
0.183308484755826
0.185723093118273
0.206714557790811
0.205452936563581
0.179434212570086
0.209218934529716
0.209694416917124
0.188521679099761
0.205082005054272
0.177213671940498
0.201549850046971
0.212333139053404
0.195604853444954
0.201849695115068
0.178349131794343
0.209418051227736
0.195083834436295
0.201831372020708
0.19615156036386
0.19971869197875
0.203978075414854
0.193347431020705
0.191672423927276
0.202697058517768
0.169251907405656
0.197279362991548
0.199093850058887
0.200434872190862
0.203269659250223
0.200717691016448
0.19630333283769
0.199944182963999
0.204014568112397
0.205812608259595
0.202603355334253
0.196643526506968
0.190057717586606
0.180325194276196
0.205411370314334
0.198604294917436
0.209780024189239
0.20067294259247
0.197707371555731
0.197909274615469
0.19333743858737
0.202950906841794
0.200527085976074
0.202100536506357
0.203133148780766
0.193872329337948
0.197023722897217
0.201949055270447
0.197577501033915
0.206820755998731
0.20073885166043
0.176248472119368
0.197899701030782
0.176217126014893
0.196640631280287
0.176417962292197
0.202060518609566
0.207472831520712
0.198884105098794
0.198599632526134
0.202606735078975
0.200135223906027
0.203046870268008
0.172489766713998
0.206347980982773
0.204024707721571
0.199183297995097
0.180544843449003
0.203264297101776
0.213061155505812
0.20374870899883
0.198771951388044
0.189863462952293
0.188571923552495
0.202243777315808
0.203231659409054
0.206148594219085
0.202702503283714
0.198089682929642
0.193943685410076
0.194420789381808
0.19295017357994
0.206846953842824
0.196293156188334
0.199363631034148
0.193162426159347
0.199889816170646
0.202046025961328
0.0252386813817057
0.00077536924999734
0.0186408164169717
0.0441285788942304
0.00067501065312094
-0.0076326264696639
0.0288220209304256
0.0330599929427242
0.0233393156073505
-0.0017238614114957
0.0294315201104376
0.0266078077371367
-0.00225815448254365
0.0446713706275985
0.0192915226601601
-0.00156577895073442
0.0207017584318992
0.0239266581581426
-0.00660378881627198
0.0157052976569493
0.0223768238825212
0.0250473556422649
0.0286033507539028
-0.000496655388077206
0.0407120730549704
-0.00329762601774698
0.0578474673129034
0.0498197546186843
0.0512963991396181
-0.00452544650010193
0.0538611931508819
0.0201653202720975
0.0317856143979121
0.0220237603958514
0.0297190330940823
0.0271424468563369
0.0223121286920853
0.0253701547979642
0.0358783948394009
0.0500210162154113
0.0491912442266909
0.0247690681783787
0.0522641441540769
-0.00656262382999973
0.00213283901649527
0.00197132840209111
0.0209666908853489
0.0126905981340941
0.0503567780696636
0.0290134957066712
0.0484623883430904
0.0308920028292172
0.0254217260244011
0.0336468766759678
0.0255553416597719
0.0474114763132667
0.0549529726733163
0.0335352596410608
0.00892777598036495
0.0355880386980292
0.053808183250865
0.0242762064777385
-0.00382332769016289
0.023786250243573
0.000296803720090302
0.0499522409170179
0.0222774105071587
0.00247366737551461
0.04604457089371
0.0517537321641578
0.00450402339483892
0.0241827894571165
0.0229294791349806
0.00360013367168133
0.0353763855764362
0.025024418526154
0.0564216098609643
0.0544897745139513
0.00137304676430908
0.0501741166207778
0.0505670953311853
0.00215574631918155
-0.00012809010131823
0.0265213846286382
0.0058955336731803
0.0224892706591167
0.0214705022184533
0.019541564285882
0.0269543313829039
0.00740163392725467
0.0217278726182698
0.0274535418403853
0.019679901664875
0.0476998173693189
0.0567222972103309
0.00816861713611448
0.0206746624788481
-0.00672074868890102
0.0251337273971658
0.0536695650061023
0.00433541415093222
-0.00182687448964831
0.050383681459589
0.0514029431738143
0.000283691534793007
0.020409723396808
0.0231633491726945
0.0185923109928493
0.0184785384535163
0.0228369470133626
0.0264513388853776
0.0493564355838806
0.0534128726376765
-0.0028137514323998
0.0558320558665161
0.000839151187871071
0.0586645649532539
-0.00613112160493257
0.0013780821387436
0.0484099417499721
0.046194938732656
0.0262976779198621
0.0482988435678441
-0.00400475040879745
0.0270334842759794
0.0476956697806438
0.00266804035447762
0.0259115411817004
0.0270840681646182
0.0472084609413557
0.0453453577796936
-0.000829683290628903
0.0547965275563055
0.0292436424582375
0.000656116767222923
0.00935320847497424
0.0246610245842257
0.0203778702880252
0.0272422596095231
0.0479688244125593
0.0528854013327916
-0.00448653068507711
0.0290884250038195
-0.00590831316520177
0.017667835457772
-0.00463166802605754
0.0398905198881523
-0.00718353154217276
0.00597990166214707
0.052425392108166
0.00736260203407717
0.0266525947457356
0.0252062151449051
0.020440702327703
-0.00342438369097129
0.0245811458290258
0.0283218630116254
-0.00494003288991818
0.0309883906046366
0.0187609674332113
0.0187325100378456
0.0449224925737636
0.0233975802526986
0.0478914644582095
0.0484309059079347
0.0274299016667143
-0.000508648586061948
-0.0053005865624453
0.00180401565059207
0.0562775229688855
0.0230562768121192
-0.00266574285679038
-0.00528131346059707
0.0535168047283324
0.055958970340057
0.0258507408113871
-0.000380562623531146
0.0542701205464829
0.0051508022854944
0.0247802606004179
0.0170818776015309
0.0539496741029093
0.0234793782438823
0.0231498624670319
0.0296672297752035
-0.000662470070102042
0.00600831703593886
0.0488713122773697
0.0564062054438507
0.0225177841730986
0.00442707388604064
0.00364413389661369
0.0201292140909714
0.0453214514383186
0.00293319894829555
0.0264613813450674
0.0234966588013682
0.0285280645926084
0.0489201676176252
-0.00840893657232865
-0.000354137038728848
0.0204522563864706
0.0482450056104251
0.0116031205778976
0.0480780698905308
0.00797739005574668
0.0440402682709675
0.0250688159900714
-0.00251766881541745
0.0505545846407829
0.0219764348548596
0.00178815926952918
0.0190678248775429
0.0563618422921578
0.0476144669813752
0.0528461777378088
0.024776992251799
0.0288128327445913
0.0487130667954287
0.0314410811492648
0.0201870907922504
0.0163381712251028
0.019724837141546
0.0326383416313455
0.0471350142059939
0.00356933893278004
0.0546987018143509
0.0209435745456167
0.00464523389399529
0.0177980171359293
0.0518954532301277
0.0492610738263211
0.0236259257662384
-0.00295031704588292
0.0498341665036094
0.053733328139075
-0.00520132518508296
0.0526321352718165
0.0528669953855209
0.0195177988266848
0.00288233136720292
0.0264211161141979
0.0524292935973574
-0.00591950137132654
0.0018106994260269
0.0225440321635836
0.0497110667956627
0.0296461885904752
0.0323732865495572
0.0454198184850878
0.0218229485812717
0.023672521473567
0.00586147453679419
0.0495513480628201
-0.0133029564137884
0.0242740025225042
0.0406146868491151
0.0525235139680604
0.0243164299027235
0.0471435674727554
0.0448730748863311
0.0226014868050512
0.0430800921435824
0.0305402484955421
0.00339270092446134
0.0286025819761838
0.0232799846505381
0.0315178939242079
0.0290951962489158
0.0490239021560339
0.00561824003391067
-0.00043108734834111
0.0249429025054072
0.0298672501965079
0.0234182052197217
4.96978104040303e-05
0.0236005653286489
0.027640407871338
0.039522020843309
0.00837783139206875
0.00171407470439344
-0.00544040496948953
-0.00060508469601681
0.00883900745034527
0.00292721933937988
0.0114566895016494
0.024545107090844
0.000793508401497904
0.0283502720393741
0.00636849601387258
0.00137772466174105
0.0211402756237913
0.0513863614225381
0.00723796707049869
0.0270456987466391
-0.00105644744573218
0.0484468433636151
0.0485664474362967
-0.0060649047043778
-0.00425276300941915
0.0251986729774943
0.029637022896363
0.0487504031496606
0.0428705206708743
-0.00233280314897705
0.0451644365893231
0.0239469621716925
0.0543806397729601
0.0436048077658291
0.0410567542721028
0.0512334467131259
0.0326769157355976
0.0181436221911022
-0.00209633162052871
0.0165534045030071
0.0530251317746172
0.0214960675394202
0.0275014676429802
-0.0081196982139183
0.0279639700604472
0.0151069803061784
-0.00580872856408029
0.0576699264015123
0.0541948581623142
0.0579666771150629
0.0177394391732349
0.00247426406908553
0.0326113955461747
-0.00534528823373043
0.0488745886386024
0.0447388977105674
0.022356145100812
0.030002831616725
0.0554248143217132
0.0200118239327394
0.0292782519289072
-0.00149572365108798
0.0342875030675995
0.00343761446999157
0.0014696973043238
0.027276323100951
0.0285750466445909
-0.0107323828843616
-0.00351964260828488
0.0213149723640741
0.0515742183951397
0.0329168255028423
0.0531827690479171
0.030784863212422
0.0563477855376011
0.0497858165757583
0.0265441499459107
0.0273469038930343
0.0578453555389578
-0.00186270732236972
-0.00910914447858061
0.0440566707071896
0.00265488944218909
0.0365448176647138
0.0225348264626104
-0.001076694986963
0.0469749062308331
0.0579021578261782
0.0183949224229059
0.0263986219181996
0.0279344463610129
0.026861549334811
0.0435845738484517
0.0270091086451952
0.0272770477478242
0.0196426459875612
0.007518796551635
0.0354245398388793
0.0283450733696537
0.0487944643827854
0.0440074865084084
0.0243826118101132
0.0528871192581449
0.0272609018057213
0.024964944526441
0.0424163819591035
0.0547612528944243
0.0179021107301531
0.0339089933923669
0.0245603308512975
0.0432470079570381
0.052298427784351
0.0536755272947809
0.0498924530681148
0.0190065497039801
0.040893658659246
0.0279582613031946
0.0186748860656205
0.0453798016830452
0.0466857313860336
0.0508443176916826
0.0150796414257797
0.0264827548537151
0.00272115201313128
0.0219457196464925
0.0521079783855192
0.0231570325718419
0.0210768642869152
0.00308717480078209
0.0189181690188102
0.0232456967454747
0.0560373178580062
0.0508766729302153
0.0541172007238515
0.0363727675395993
0.0196074883229638
0.00332424872848468
-0.00364915919662419
0.0594563391530998
0.0298919076114614
0.0244850951878004
0.0144158932591552
0.0204754276416252
0.0458588456972596
0.0429665796618396
0.0141781800352043
0.0230733683764936
0.0508677222911172
0.00344877970730324
0.00040881326203612
0.0280201042541822
0.0328058230312304
0.0144109724532439
0.0190144076607508
-0.000714204692685333
0.0461950947545995
0.0559400403973729
-0.00128881327629977
0.0117465883703786
0.00300662698338053
-0.00207427389703999
0.0206577992636261
0.0250121840501048
0.0229163795916692
0.00227085051263786
0.000373601718050446
0.023553137153385
0.0337802329283047
0.0309706669117655
0.0310512680037285
-0.0111560125253636
-0.00130777458645367
0.0553894019331245
-0.000957822544072122
0.0293397930200696
0.0179314302469735
0.0291009404816887
0.0296257149009359
0.0560484107180829
0.0283033902911857
0.0673216883029271
0.0529332570128168
-0.0100556096134903
0.0194328852669875
0.0185661586831002
0.048167765118983
0.00836284580490378
-0.00437019032290827
0.0268316051499391
0.0523272868756495
-0.000428513105412784
0.0425250709814917
-0.00443562192840699
-0.0107210077390358
0.0451748589227334
0.0245147628768736
0.00509396993941353
0.0506819354620829
0.00180846197919218
0.0222775200113299
0.0518808987834653
-0.00677216481347569
0.0296289000266647
0.0580454590672588
-0.00381760787039454
-0.00382782367135521
-0.00585129364782046
0.0237790343300028
-0.00421443481407864
0.0374531790274912
0.0218124104228091
0.0206218788291388
0.0556098379237016
0.0165298106183508
0.0274378239279791
0.00513531894780999
0.00249775438046641
0.0547906938420807
0.0454330784617274
0.0157731409205355
0.0251785533036156
0.039538290631367
0.0407288938889411
0.0271673611782152
0.0576302095981252
